"","","y"
0.732224320108071,0.175674170069397,-0.99995757124792
0.378111805906519,0.913256093114615,-1
0.518709468888119,0.272902903333306,-0.966027583659924
0.0714825702831149,0.518291410850361,0.808077234695059
0.973090292047709,0.736104732006788,-1
0.0997421698203249,0.0395597157091834,1
0.0224797188094817,0.872842102004524,-0.999895718031994
0.436827152273144,0.010761694288929,0.999799093489642
0.631362745786627,0.00932179321791628,0.340737286981491
0.266350072728337,0.00251607049990562,0.999999999985307
0.819095902888681,0.00924979816436564,-0.993926454986814
0.229978069663853,0.276918009964284,0.993299960065916
0.273390036278362,0.35603744138265,0.472593515264814
0.340692524943445,0.301952784893413,0.316473713520535
0.377597343369975,0.31029770986979,-0.281345545887267
0.44437798817708,0.197987435830675,0.319957960488816
0.989609309746819,0.352864546872076,-1
0.531483400950608,0.160070710793966,-0.327233313865515
0.498190286005269,0.210320349985982,-0.522367613205704
0.631690155615102,0.11502222469376,-0.82566980404395
0.572269573801215,0.00702922062739584,0.861841069637532
0.157358031666372,0.7681298686565,-0.999988786387419
0.167410212742616,0.547486240296504,-0.586920618677343
0.827136356894216,0.453957394070724,-1
0.132083604897368,0.611302506601122,-0.807074094667856
0.123658795974366,0.559026719249329,-0.214261776664825
0.120850526333366,0.541601456798731,0.0570205104347909
0.578481043455642,0.0940407187050404,-0.0791509456696968
0.187216925118115,0.481708379492628,-0.030575712786271
