"","","y"
0.140485584130511,0.332104746671394,0.99901081443978
0.323240252165124,0.763454553531483,-0.999999999998982
0.901644560741261,0.0645742552354932,-0.999999629591184
0.475559842959046,0.533885846845806,-0.999999994014162
0.793444895418361,0.891804857598618,-1
0.0231862918147817,0.636191947882869,0.098438246667768
0.458324332048447,0.0198339500953443,0.998621394867182
0.0586300560144709,0.969982325070718,-0.999999999187276
0.683817797273712,0.00422041026654187,-0.283161344413136
0.358123253046001,0.295274847870848,0.178156884333484
0.162304042703472,0.577250416028582,-0.783893184283233
0.143806938473106,0.0175969348383369,1
0.00834966151439437,0.312241439073068,0.999999995722723
0.220304293293328,0.401543336856941,0.553106532346109
0.0646133320108827,0.508561267661506,0.887399676298971
0.500088460789387,0.106443069410911,0.692521459776607
0.0833678888430455,0.574001210524319,0.125373741163593
0.801308684037802,0.00343973327510175,-0.98088727457649
0.0896194077870998,0.595814524811923,-0.249887528154037
0.191721234218565,0.645506498123996,-0.996202579770872
0.984754472807981,0.496136243128377,-1
0.065391196148309,0.602002561073037,-0.00984495619049697
0.69518360626812,0.0584125783043155,-0.859852731824644
0.626363288110406,0.0563586859939229,-0.214737501156115
0.589501805810855,0.0268043487852697,0.607252973870271
0.994319951677462,0.270510510838941,-1
0.0794594975928181,0.590606098803093,-0.0459978693180656
0.43265452718742,0.993089359133467,-1
0.515971532882897,0.0510271227638418,0.909243811421678
