"","","y"
0.193684410862625,0.921481622988358,-0.999999999999973
0.29473567972891,0.771627961657941,-0.999999999988236
0.687070350768045,0.216453919559717,-0.999941704654941
0.884158954303712,0.0349825323559344,-0.999981696449271
0.523625128204003,0.47431111545302,-0.99999998110561
0.0490903015248477,0.181817326830793,0.999999999999859
0.0121387356193736,0.573006064744169,0.833479796899752
0.449470118285679,0.0108399929593363,0.999538197628086
0.667959774943482,0.00229112626576354,-0.0485025964060546
0.0102911573240999,0.795496398604009,-0.98177229266451
0.00112149464717368,0.684167414808017,-0.248020216812965
0.953892168258317,0.801443415016743,-1
0.553388532419242,0.233868342657358,-0.959291195313392
0.556939475216135,0.0823331539608192,0.357991366478134
0.00251058980860107,0.430834771955503,0.99992492266192
0.102665303331819,0.676267147070043,-0.943247679507162
0.209600340448141,0.527137678159522,-0.765619462315401
0.721529215743455,0.497402816676493,-1
0.108134793133111,0.592136963324578,-0.43152391794209
0.63732320030922,0.100359399928767,-0.771866316208991
0.000570632598563679,0.740254910441122,-0.79179546951405
0.558483744436503,0.000656555961254994,0.931966209590333
0.0386418445327888,0.644480208874076,-0.219952529842356
0.0173006915997787,0.633884562808754,0.207239980580501
0.00140090568477947,0.618419032401547,0.573395425074606
0.270693058130744,0.314274449215891,0.834399833401358
0.424517236278555,0.186327594944195,0.656528312965214
0.511615081304644,0.167509697187457,-0.167441359987605
0.568625918943333,0.116734083692348,-0.248935791520402
