"","","y"
0.223527790792286,0.00169423283077776,0.999999999999932
0.576673362916335,0.460210941592231,-0.999999999667475
0.698548701172695,0.300125987734646,-0.99999998242934
0.0804068946745247,0.795416564261541,-0.99961404894709
0.871665202174336,0.898332108883187,-1
0.0151967342733406,0.373893459137083,0.999997530465198
0.00478018144739326,0.591310513037852,0.768971608993167
0.546366557335154,0.0150910110282712,0.925812877834166
0.888136245912727,0.0157608499381458,-0.999943250366084
0.220620146346084,0.615646006297208,-0.996000468892953
0.711017168140192,0.110325949567021,-0.991333739606306
0.00425935380609589,0.707567372108124,-0.556556681991074
0.270830081178587,0.483250135675508,-0.862047003888573
0.346908143102009,0.166678459844852,0.990619185539651
0.530607800536619,0.160631819535923,-0.323333915368368
0.819450049753252,0.404739648851993,-1
0.0119362262532813,0.12766427543684,1
0.000451976762674457,0.649420718977942,0.224358261726544
0.0752841015187174,0.618792412771001,-0.358183504734941
0.372267497076483,0.0611545679013004,0.999924512408945
0.715173323796024,0.0470592701778126,-0.895155442068208
0.458111295144682,0.984687433657236,-1
0.000235566528438517,0.678632867210294,-0.164045475888614
0.120436972323548,0.491978669194531,0.642777479218213
0.595997175337322,0.0953495933770717,-0.324663437338121
0.00423331242403103,0.784516824831129,-0.961718254149602
0.557657177736365,0.0903574746470886,0.24840367206498
0.39813719573231,0.370046512370864,-0.915075540311606
0.806201154602057,0.176942149452387,-0.99999992160608
