"","","y"
0.338197179790586,0.652097136946395,-0.999999960291511
0.0450102410279214,0.868477244628593,-0.99997194284182
0.556377588957548,0.5686493370682,-0.999999999999993
0.954949774593115,0.277438596915454,-1
0.627153013972566,0.18007151526399,-0.982936936515149
0.712826792507743,0.342053149749214,-0.99999999995548
0.336786811597024,0.566881965612993,-0.999942308444706
0.336316688865837,0.538476908501858,-0.999587619204393
0.764976527024474,0.266521087309553,-0.999999999403627
0.0336081627500243,0.268491003950292,0.999999999386472
0.332359288529476,0.329013142572047,0.0715905313894425
0.44920617718844,0.97185632908484,-1
0.00393092018889728,0.569156449602813,0.887734763547157
0.123299457156132,0.388886865375051,0.991248663495069
0.00244705806084093,0.721839394709361,-0.67184663266307
0.000318898912486911,0.645470028941378,0.276891160102696
0.00187695414694608,0.417156340588002,0.999973599070947
0.263991811517148,0.418792305482985,-0.215548172107941
0.000138297848666392,0.683689396917486,-0.229126342341949
2.28598380576651e-05,0.664578740736494,0.0279564080049535
0.300310828965719,0.0224281259607141,0.999999994673817
0.419941043822587,0.17717092793225,0.762151807281531
0.970207797589078,0.819926088984448,-1
0.680195337255512,0.0149933361438084,-0.371638618693509
0.459817782108209,0.228751861922762,-0.289888132353328
0.239883519067585,0.378897437810027,0.583579777576775
0.0461771290269202,0.0145459564955503,1
0.575763131683555,0.124078593113349,-0.42656471136356
0.48517398587145,0.176667127656121,0.0652676840404292
