"","","y"
0.291408977704123,0.217860202118754,0.992440226918556
0.886478274688125,0.908992423117161,-1
0.0276448692195117,0.185562450438738,0.999999999999986
0.600260344287381,0.652891772706062,-1
0.45530644939281,0.504221408348531,-0.999999330537348
0.958894362619612,0.244896344033629,-1
0.505611483936832,0.0215229397236184,0.982112596650165
0.791332900337653,0.0133209641878624,-0.980804911162918
0.648022085935987,0.00174219519557403,0.22576745913567
0.258120098772148,0.302548020302008,0.927958380013974
0.113849765669296,0.954727743677795,-0.999999999990937
0.133204911220319,0.480946071472847,0.627189224011823
0.53631333975521,0.175828847755908,-0.559734634016346
0.282210486461759,0.429238500041128,-0.552734158793926
0.00707473174444037,0.577281259733835,0.837543867082349
0.0847098028780183,0.670985024961492,-0.869175365247435
0.00173598004819761,0.380601409076081,0.999998601566952
0.720225154383358,0.000753157969171821,-0.643314497366373
0.0749964819475924,0.576404118722725,0.204421647298958
0.055593672190017,0.608223467806017,0.038569125452935
0.0976370653486431,0.576111738385688,-0.0956656588869726
0.212551105873157,0.58377272389857,-0.972218283678824
0.634853526691519,0.0594414003068845,-0.360835384233096
0.0473385410043189,0.479609580094254,0.982264880579298
0.596162365521446,0.027568845075359,0.533777393498363
0.234645642098524,0.0103542695081178,0.999999999999169
0.343888701246493,0.0832458037834969,0.999951966627594
0.0565233340243083,0.00979583599734277,1
0.224511832151409,0.404244197271994,0.480012613043298
