"","","y"
0.931600496592,0.864273919677362,-1
0.12241500406526,0.754527227813378,-0.999640961848916
0.253242441080511,0.349760427093133,0.720040572097283
0.759889871673659,0.483894577994943,-1
0.524441160866991,0.181518568843603,-0.495116328501657
0.0187828722572885,0.497505365762474,0.989289549766424
0.00705989381612744,0.65163546616903,0.107607573676836
0.240527994337527,0.0265639497968368,0.999999999988066
0.0129655433297407,0.207090639226193,0.999999999999965
0.433590014205156,0.010404125932022,0.999842463475427
0.503742515068947,0.980940057374537,-1
0.13148010580102,0.533931006889662,0.0169996050608543
0.919512295236831,0.0247149351963482,-0.999997527191294
0.677016583025552,0.00175595305641851,-0.162774297866131
0.5450159193659,0.0645595492773479,0.667389824156087
0.582157887752814,0.0826113570591232,0.0256876963356492
0.550538322661901,0.109563158393358,0.0887126504076061
0.0869850012274692,0.64669790029069,-0.744588450330615
0.0433349398707457,0.0116827294511515,1
0.00100127185729341,0.42924333823309,0.999939848410542
0.753853351554434,0.197073623416805,-0.999998593330927
0.628849853989717,0.129749379623095,-0.88127494662854
0.731744294444869,0.776369518348947,-1
0.870334221167496,0.457627810956218,-1
0.0376092557669617,0.598612910740731,0.394606686172432
0.0438847169368528,0.632315425733484,-0.128527553375265
0.0211506739467926,0.582584580890745,0.714471131035662
0.00647374489406938,0.768402572873728,-0.933698328622166
0.339403865428343,0.185947648577858,0.983524028483238
