"","","y"
0.235022584535182,0.288150054356083,0.985115386348542
0.781436594715342,0.970208373386413,-1
0.946797498548403,0.514737144298852,-1
0.0963531071785837,0.666122198896483,-0.896034713744892
0.431532049784437,0.0960268106777221,0.981761376949719
0.912505832613979,0.0305381977488287,-0.999997271677532
0.537784044289341,0.299638003110886,-0.996242277107102
0.0165687845856883,0.422427697475963,0.999888313582
0.289719912001035,0.417970085454484,-0.513689530284963
0.0405382573431883,0.0259227254076842,1
0.401446226202986,0.227938289381564,0.473069832062077
0.0056460945882136,0.560911468355992,0.910663447854018
0.130573037922611,0.548334584235653,-0.164564817601117
0.00509996008833986,0.653089026254332,0.11439766860354
0.0356997206183791,0.626707564502269,0.0576241834740083
0.456920773425588,0.207867701056724,0.0254274496136513
0.755339379184362,0.594861173598717,-1
0.465383681305972,0.245147997849724,-0.543373916060783
0.385516606503331,0.297018790895257,-0.212302160917745
0.145620578169778,0.462910789055366,0.676155711003617
0.324024015554239,0.981164869982037,-1
0.188637842697808,0.476405152915168,0.0219826173179487
0.097376542154686,0.24550015907991,0.999999960906353
0.475412289166455,0.201177504948444,-0.133732223402609
0.606483390521624,0.109247504458332,-0.594956475294387
0.016456198782129,0.961101275339757,-0.99999986796012
0.650173757640013,0.0786041709616274,-0.708145956584592
0.441250226978182,0.226984662762671,-0.021232096529034
0.562729732648691,0.0946261620325603,0.125550324853904
