"","","y"
0.478111636498943,0.653953161044046,-0.999999999999997
0.328177230851725,0.015511906798929,0.999999957733543
0.85545790893957,0.935220089927316,-1
0.167073260201141,0.472912452463061,0.349300613986525
0.614824735978618,0.233785681240261,-0.997982797551401
0.0247625245526433,0.165716275769011,0.999999999999999
0.556925785784742,0.0124648794019595,0.901226398475112
0.33239584810191,0.970406627119519,-1
0.370025075677161,0.240736680167417,0.657246014702827
0.174743877618565,0.53634511845053,-0.549073872002858
0.513925199146841,0.162329080269879,-0.129251009471621
0.0178579186327277,0.629505232475,0.256779467053241
0.119891685484145,0.546254267796197,0.00705065388265824
0.136097513058392,0.00906140912839699,1
0.561891906970067,0.136193213637366,-0.406097136789626
0.153902941101284,0.518503946236596,-0.0776029882921252
0.165240026306997,0.509253839050062,-0.105673727261831
0.970619184736216,0.388294276921099,-1
0.927608027944539,0.0200379578161529,-0.999998142841483
0.596783711725903,0.995281335852342,-1
0.00213102215926855,0.397325225947967,0.999994231763583
0.742565723285077,0.00162514186090562,-0.811701497177775
0.994911360634038,0.198817086575566,-1
0.14695596226219,0.512556888831951,0.0966291698750128
0.104164493911812,0.570701539573909,-0.110666697941122
0.140250196282539,0.525771700954915,0.00873035848404169
0.135699281342958,0.528194285861021,0.0375354362071512
0.140968479962562,0.522174291882629,0.0476870481960545
0.159756416256776,0.498241060115025,0.116963515263285
