"","","y"
0.732671146932989,0.249700392689556,-0.999999915706994
0.430694559589028,0.866932653123513,-1
0.253362824115902,0.596524682175368,-0.998125073633305
0.959740840969607,0.719213567581028,-1
0.166376297920942,0.0524335134308785,0.99999999999997
0.0209869561018422,0.354676687112028,0.999999212681949
0.496885014512116,0.0151066953060217,0.991333094192802
0.733338629440122,0.0132403543997789,-0.824950777588063
0.615011136831999,0.00141735248529003,0.606102273244774
0.305541378849653,0.221354963637423,0.982307002200452
0.0225840757845436,0.773371460209695,-0.971772128722085
0.00217855159431929,0.564098864823044,0.911555761962294
0.614855766092368,0.0887414801602892,-0.469165546746732
0.00123813136894314,0.669821699795542,-0.0594308020770438
0.0855931690263882,0.610148415597985,-0.378282535466392
0.674833936596376,0.000732885344253445,-0.120056345257136
0.747217585336315,0.979307311035227,-1
0.634900279840248,0.0302972393299442,0.0198910043532796
0.984653973520486,0.321934389523759,-1
0.119980983081378,0.520449928295127,0.343850448219771
0.226295062015644,0.446109858035973,-0.0775764762047718
0.421502529266096,0.305721738120984,-0.695907414883667
0.511081103290193,0.136523304529098,0.253681317643789
0.00119111035767434,0.723806419778922,-0.677780705158595
0.235547153163158,0.745609598502859,-0.999999905541359
0.816887916631199,0.194958378871031,-0.999999995312222
0.322934230427571,0.096298390791441,0.999973201611349
0.707702182497208,0.611948871131366,-1
0.721694104054563,0.0989800711436997,-0.991040458912572
