"","","y"
0.320977771747857,0.874146989407018,-1
0.134338050941005,0.334596461988986,0.999208144020106
0.664086112705991,0.58082994138822,-1
0.839623192045838,0.608840609481558,-1
0.500184466410428,0.027756572375074,0.981439974789298
0.0227657911344431,0.675247401224657,-0.405251966631127
0.966990382922813,0.144756254966576,-0.999999999999958
0.432869543352475,0.31439432525076,-0.828619010350913
0.196657795142641,0.441412729488134,0.372531212218167
0.180501782119708,0.018117651718203,0.999999999999998
0.753044709584367,0.00862564136708248,-0.893095928243385
0.56203290644909,0.116925512997639,-0.165237898210304
0.69931244540071,0.974149379944429,-1
0.477910319371501,0.0181666218201198,0.99620845864537
0.577046498455432,0.0181829451874254,0.774613868001379
0.431204483733702,0.445545665375705,-0.999636469578635
0.490937589724355,0.149828820022839,0.339731096808894
0.630708038162963,0.0479113665173822,-0.160743573970251
0.719910442511622,0.103197711493866,-0.992066809593807
0.637550462374558,0.0893448636696288,-0.693273167345138
0.813315178339601,0.0855265359425079,-0.999918566341111
0.0101633786627076,0.32472616936399,0.999999982025413
0.495280013175307,0.193716219423746,-0.295271515942179
0.180133786008314,0.66360237337327,-0.997343920261901
0.269332021628219,0.516853589412369,-0.957470743019335
0.516083503116251,0.153490184148075,-0.0393466966495197
0.133185790761799,0.593420834695354,-0.690948758181277
0.610097135662204,0.0847272477282166,-0.367244665222775
0.0366278134481502,0.977469719531584,-0.999999996278005
