"","","y"
0.0130710017401725,0.879450941784307,-0.999873353997995
0.908799351751804,0.17592622609809,-0.999999999998704
0.444677877612412,0.584188834810629,-0.999999999209077
0.650292344158515,0.366092764073983,-0.99999999706009
0.321631473163143,0.686270173452795,-0.999999993001044
0.289701477937068,0.978286055761855,-1
0.959925041484444,0.855401347440155,-1
0.564768132344641,0.805958746004213,-1
0.472200564978023,0.545517257445802,-0.999999997439302
0.993436219661812,0.511218884993433,-1
0.839376464496966,0.724192992812601,-1
0.997668063057313,0.685353548599906,-1
0.0331681672949344,0.252232948393676,0.999999999902186
0.454193425062027,0.0214079587245883,0.998815079691733
0.711679191894488,0.00986670924113393,-0.648317883475838
0.319854052444995,0.273052721521355,0.789337890899348
0.00231195845175534,0.565175232223206,0.907650366258835
0.474779940555179,0.220184481439976,-0.36893531278444
0.546884185837231,0.0838197164685659,0.458342432781969
0.214599161353298,0.508166042399119,-0.658915059667817
0.269071881600652,0.18223120954654,0.999742658657797
0.176170780384845,0.0136820453559132,0.999999999999999
0.179514197656065,0.586537149358373,-0.908322392969306
0.0833597623666625,0.441858074338667,0.983625799126437
0.159157707125342,0.512187088698719,-0.063277962907354
0.570918934264582,0.0383647948114294,0.669854448164878
0.6098274373321,0.0440170735070431,0.172258592169001
0.630808521163723,0.0307495258532021,0.0690869635063045
0.010466947383989,0.0764864994007974,1
