"","","y"
0.663948995061219,0.318222973123193,-0.999999914112935
0.231443933630362,0.932276395848021,-1
0.505068155936897,0.0480403947178274,0.946038454605676
0.169462387636304,0.537702930252999,-0.508096788741623
0.94334514643997,0.615231116348878,-1
0.03372652717866,0.084831744786159,1
0.0132585230404511,0.536394197776601,0.952943632271202
0.972420665118843,0.13983697096707,-0.99999999999996
0.00234925251095556,0.309654608627051,0.999999998243149
0.0122351228335407,0.795024380101558,-0.982964448989336
0.446159846211473,0.301322099364673,-0.82977486334278
0.755350557630097,0.00939386828424488,-0.903974423033196
0.0649853445034319,0.623040502710386,-0.283004626442545
0.205990495452911,0.382893212748241,0.813171852180721
0.641455902876071,0.125219078708422,-0.910340650391152
0.273870909766896,0.407306080788638,-0.19451001962621
0.308673750477093,0.363840464300517,-0.0790492525640505
0.419967250875154,0.237734319461006,0.120925637054657
0.522163769896041,0.136997930962418,0.101347290888883
0.082568751726729,0.565712543579995,0.244967151172447
0.21644126428537,0.442634074596626,0.102507124645084
0.105672161288822,0.57548532551446,-0.194253804516335
0.556229276236336,0.103419134796223,0.0948068382935925
0.859904935540011,0.357763686813047,-1
0.605549329934443,0.0536177992660983,0.101274381473559
0.601078169682283,0.0940853375902475,-0.371335493337966
0.390105927998572,0.00471128065352019,0.99999603938099
0.616027800830933,0.0909740718549225,-0.506347545647756
0.678077449557507,0.977375375609845,-1
