"","","y"
0.528714553033933,0.983181776851416,-1
0.619046516157687,0.659074560599402,-1
0.153986339783296,0.451178705180064,0.703383718068657
0.903579145204276,0.335569986095652,-1
0.2294455638621,0.14010520898737,0.999999539847628
0.628577183893827,0.0237837597541511,0.191821203167611
0.0341350446408614,0.933574252098864,-0.99999967589649
0.492356421304538,0.274321176446974,-0.910349041074867
0.949417572431199,0.0179676872924902,-0.999999666331237
0.450126389686822,0.146070048396165,0.768272000339114
0.0131790304251481,0.507643847379647,0.986678291251219
0.00236570375330047,0.721656595273492,-0.669624275591718
0.0121312297143624,0.259630368513224,0.999999999979408
0.0565103579872482,0.560159715944401,0.603823901894552
0.021851957618985,0.0199867788750297,1
0.523686664961729,0.148058328199097,-0.0686783070611195
0.97161468491191,0.807251271397104,-1
0.485597586960413,0.00189772330837599,0.997639231067324
0.68786411442848,0.0145497234516724,-0.455916531842502
0.613375987761345,0.0621306038016401,-0.119249980569718
0.421796425748507,0.46152481407548,-0.999763775684843
0.381199470305048,0.291983733169941,-0.0880579646687452
0.575850252871862,0.0292706956213891,0.703729914142954
0.160224162496352,0.581113708431124,-0.794920631644065
0.0730334080789668,0.620976673216339,-0.357375993011985
0.0965893095208556,0.587416699197288,-0.231439536014722
0.0753776918623569,0.589517696119343,0.0239804761754325
0.0240183640552322,0.596486719532513,0.566600724011133
0.057476487998852,0.602327029622732,0.0927211291521819
