"","","y"
0.656880426639691,0.122085406072438,-0.943321250884074
0.104748733667657,0.610347850993276,-0.5888564893129
0.21513186339289,0.882812082441524,-0.99999999999975
0.915561955515295,0.422056803945452,-1
0.502132790861651,0.233828353043646,-0.760391646645579
0.0303440762264654,0.133857958041672,1
0.212408533585258,0.326011387359531,0.970476088933147
0.396452431242603,0.163257239052585,0.930494593987181
0.274004462640733,0.575662762159482,-0.998101210180364
0.329515262362547,0.378500834187553,-0.517148132352927
0.4093668281556,0.258528808761261,-0.0166397267776349
0.0159940298530273,0.804896757748672,-0.991136383201811
0.771118192057177,0.965243444319349,-1
0.0503622799157165,0.516367522261207,0.9101112469497
0.341448134460532,0.0127971682057055,0.999999885438046
0.520194104231057,0.00674412871390716,0.982272931320934
0.637457400814411,0.00644147673931725,0.30078636451559
0.0977049632424799,0.325412289220803,0.999964220708001
0.604843977228386,0.0450903371752207,0.223556998813406
0.178925092047236,0.472680557260073,0.201735601925663
0.633060601560829,0.0578724066623252,-0.319523853889898
0.482987646379614,0.992402776338044,-1
0.977650967816485,0.0796575958809243,-0.999999999966298
0.0322334619984031,0.485040746017183,0.988764062706079
0.587498494091285,0.0194253142094817,0.689355176951371
0.240282962665014,0.392397592935719,0.435900723427229
0.47292644211177,0.134609906936713,0.684368153629511
0.757329598423529,0.0693948262308931,-0.993397799405003
0.0328632572557156,0.602101675342354,0.409420374387815
