"","","y"
0.220933872880414,0.529230182012543,-0.843516390201406
0.90181807843037,0.741325713507831,-1
0.172462731320411,0.368357029045001,0.967295539975765
0.689488743804395,0.992933390848339,-1
0.428237414592877,0.155342502566054,0.841468849269815
0.104083488468129,0.0261849765805527,1
0.966502774651162,0.204687632692898,-1
0.0196698302100413,0.502132350762916,0.98604547389886
0.556796730316792,0.0115436304636725,0.904813780491275
0.807520926384881,0.0108115631578285,-0.98994274027835
0.682129455526114,0.00111775968107505,-0.221581994140556
0.692289881590051,0.120382631646676,-0.986780528844548
0.55910800883324,0.0957562548921343,0.158748891400025
0.559878435005389,0.123827129701622,-0.22754082124382
0.392573674187137,0.00136513681308139,0.999996314007431
0.273878006264567,0.350976571207866,0.522032076376814
0.0061876659339085,0.254281706862975,0.999999999994552
0.822104527542032,0.111960609165801,-0.999994318348735
0.937358288308751,0.986712955217808,-1
0.745240197093384,0.000596466141945179,-0.820909092506369
0.137688811470289,0.466573187273487,0.710419499108853
0.420664618620945,0.210048734491847,0.458236203497463
0.266208704451214,0.195736760760089,0.999487685949109
0.671590859547122,0.357252359882118,-0.999999999207087
0.550711304391152,0.230376074691862,-0.947836730815077
0.466537779201658,0.198589103916588,0.0208471436024475
0.525709172866066,0.184264102770024,-0.537622456431559
0.126097504853581,0.499311906682982,0.516171885004715
0.545432970754202,0.179489102387836,-0.677154344165491
