"","","y"
0.818360346974805,0.40002707876265,-1
0.364059175318107,0.629594053281471,-0.999999971293157
0.487055386882275,0.0362234616652131,0.985041075153223
0.610912936972454,0.286735839210451,-0.999911412952285
0.0403600439894944,0.859594217967242,-0.999924742623868
0.0263707715435885,0.319148731782703,0.999999949643797
0.00333654077665415,0.590148763264462,0.785737206284799
0.868277492073359,0.0218125270213932,-0.999850332213089
0.676679196679319,0.00290179943433031,-0.173477264822709
0.33378096127805,0.411826208091542,-0.819645638892129
0.158501207763067,0.0177686096723958,1
0.00218482923830743,0.727573374348569,-0.715695156235036
0.591549173511349,0.108620366769998,-0.430347001027324
0.000276068500748079,0.658840246033385,0.101956852386891
0.585094585690981,0.0492485426231805,0.416684756525359
0.617774318627216,0.0535902362758363,-0.063544666316812
0.598139359276516,0.0704863818896716,-0.0265220601690744
0.122557261531836,0.626194354193106,-0.836388609340979
0.0420566236030795,0.625061121163651,-0.00610778591760053
0.440745263774887,0.0189646235906464,0.999555541436861
0.160902998117825,0.452389764689117,0.634950435769863
0.591594372826282,0.0761184304276167,-0.0141645206872547
0.0955989334754385,0.556244294048895,0.19862044673288
0.626164971235974,0.962981064836495,-1
0.126353064375033,0.544942804310373,-0.0626175253815675
0.477249761710926,0.244928502989068,-0.653839643290822
0.602861497842962,0.664200732293539,-1
0.00212724366139009,0.799119829956675,-0.977622899434833
0.172884313528235,0.249581183182213,0.99996590444919
