"","","y"
0.338197179790586,0.652097136946395,-0.999999960291511
0.0450102410279214,0.868477244628593,-0.99997194284182
0.556377588957548,0.5686493370682,-0.999999999999993
0.954949774593115,0.277438596915454,-1
0.627153013972566,0.18007151526399,-0.982936936515149
0.975566368177533,0.724018767236094,-1
0.712826792507743,0.342053149749214,-0.99999999995548
0.0336081627500243,0.268491003950292,0.999999999386472
0.300310828965719,0.0224281259607141,0.999999994673817
0.296765526891097,0.286522822326402,0.84292475093655
0.00393092018889728,0.569156449602813,0.887734763547157
0.408076456609794,0.163007487850369,0.895216474360052
0.0461771290269202,0.0145459564955503,1
0.472556258669545,0.263861153308662,-0.76347188333985
0.680195337255512,0.0149933361438084,-0.371638618693509
0.212964542290193,0.50259213629187,-0.59328649722548
0.00244705806084093,0.721839394709361,-0.67184663266307
0.538755510151061,0.979624800593234,-1
0.126698706914221,0.101821695468852,0.999999999999896
0.000318898912486911,0.645470028941378,0.276891160102696
0.276495611410085,0.992405102261091,-1
0.33505093748887,0.157319478712495,0.996902628919846
0.835198654602893,0.985182178391466,-1
0.943271412885543,0.0146215966529631,-0.99999922783776
0.494725377648425,0.00145837765742567,0.996186506159135
0.600691242958834,0.0655077430217412,0.00633258723175811
0.545306904513731,0.136195582045366,-0.198782863157807
0.000138297848666392,0.683689396917486,-0.229126342341949
0.00237286495443812,0.801357061449547,-0.979983617782799
