"","","y"
0.665651952568442,0.566046449961141,-1
0.530373505502939,0.802821871638298,-1
0.16420075413771,0.0230274871457368,1
0.820249640755355,0.29478579047136,-0.999999999999972
0.246489542722702,0.621533930441365,-0.999367168816984
0.0205345148430206,0.347690365324187,0.999999591009816
0.551467396446653,0.0158906638808548,0.90807371696017
0.0133512028782861,0.583759786264185,0.762158436502306
0.959801272903569,0.891137170908888,-1
0.830923037946935,0.0155338227176108,-0.997720263347652
0.154905087076595,0.969329082895124,-0.999999999999992
0.69117716031438,0.00157122432992328,-0.341960419558432
0.00841281449774406,0.804341770146595,-0.986832040256459
0.00108820086880151,0.693831514483646,-0.368395790978702
0.487869630579266,0.40115701476112,-0.999839074524128
0.401179260387876,0.146691721929237,0.956203120946103
0.480172095804598,0.187913133523737,-0.0192062634787111
0.00923676344903651,0.148572769225551,1
0.303194468603387,0.298513034004848,0.72970939415114
0.37228247032408,0.061869957651943,0.999920498372113
0.0869763154899299,0.633041743729732,-0.63474815509946
0.118000124351884,0.534088679831761,0.195397092931216
0.310589378434079,0.797894961658262,-0.999999999999935
0.0338052397456725,0.636877681492521,-0.0543402194495358
0.147243035932764,0.393430693053598,0.96749713730154
0.000516248215891901,0.421132706694913,0.999967907823166
0.0100958421693163,0.305798613748217,0.999999997364096
0.0241582818534587,0.00858001281856441,1
0.170577567669117,0.516351101108908,-0.269046603738047
