"","","y"
0.84119491497986,0.835311350505799,-1
0.137404569331557,0.676820743642747,-0.987725515048695
0.353968283999711,0.499539848417044,-0.998479827522748
0.543523701652884,0.198381218966097,-0.798339673964434
0.676007035886869,0.355489044263959,-0.999999999403529
0.0340464135492221,0.177501025207627,0.999999999999989
0.00857254914403893,0.443131384957238,0.99973574999536
0.295717304479158,0.0187941122086862,0.999999997716994
0.00729885592377977,0.596190538211288,0.716349072909711
0.490445350298834,0.0108587665587391,0.994988529307385
0.889402256977992,0.0183173905411349,-0.999957012104584
0.690169259454911,0.0014588078549937,-0.328149021017764
0.439860137839625,0.975606604707427,-1
0.227910667342697,0.231944995277786,0.999551385982253
0.166648467491769,0.539830659005676,-0.500730664508242
0.375134217665098,0.309955354220309,-0.245451186418723
0.319004389669169,0.347146732638379,0.00698066511698214
0.574712770468877,0.0702329311266098,0.287586778103166
0.545007778939732,0.77015260121009,-1
0.0545625905615734,0.978589857145936,-0.999999999501163
0.00309307232426766,0.790830871552228,-0.96919849059527
0.404791741265714,0.17571022846503,0.856330954964997
0.0492654991932013,0.687947384468754,-0.768774898055321
0.507676071129158,0.148108126185912,0.14652124375458
0.602801910525558,0.0900243193159001,-0.342915849633362
0.790538793135419,0.000988809919806429,-0.965906182533373
0.524994366275437,0.541727164630364,-0.999999999988721
0.111306821174103,0.00981475687081564,1
0.986529858597893,0.433967712783505,-1
