"","","y"
0.663948995061219,0.318222973123193,-0.999999914112935
0.231443933630362,0.932276395848021,-1
0.505068155936897,0.0480403947178274,0.946038454605676
0.169462387636304,0.537702930252999,-0.508096788741623
0.94334514643997,0.615231116348878,-1
0.03372652717866,0.084831744786159,1
0.972420665118843,0.13983697096707,-0.99999999999996
0.23608569025062,0.223525023252328,0.999558347911695
0.755350557630097,0.00939386828424488,-0.903974423033196
0.356499024316048,0.35981697554284,-0.600535010722271
0.0132585230404511,0.536394197776601,0.952943632271202
0.254015700734324,0.373681643016056,0.491600152675042
0.0122351228335407,0.795024380101558,-0.982964448989336
0.508505391771388,0.242026781127953,-0.845334807732003
0.589641368446127,0.0998203480433419,-0.301128908593395
0.678077449557507,0.977375375609845,-1
0.00234925251095556,0.309654608627051,0.999999998243149
0.416553079319635,0.17119739969937,0.819511388029232
0.566175156311591,0.551805108091959,-0.999999999999981
0.981071129799874,0.92109042420329,-1
0.0649853445034319,0.623040502710386,-0.283004626442545
0.390105927998572,0.00471128065352019,0.99999603938099
0.724489765937593,0.49508639918801,-1
0.219972715142617,0.104356016230669,0.999999993740293
0.572809618050996,0.000705257446888254,0.886084989092244
0.664296402701558,0.000504956286556656,0.0252530743128068
0.710258335678481,0.000494941228540076,-0.545645141640766
0.504899946512383,0.171014842956888,-0.124712474167333
0.259992370895558,0.423733849603965,-0.227809046547515
