"","","y"
0.196517969388515,0.0786192656960338,0.99999999996957
0.46020762687549,0.72629336360842,-1
0.235234176693484,0.965482016513124,-1
0.732505509862676,0.272424015682191,-0.999999990560875
0.973349062772468,0.472525266092271,-1
0.0215876073040999,0.530532350940181,0.948095154583655
0.0128410891998792,0.804774883180958,-0.989583715082873
0.521631042986152,0.0175521640689112,0.96949464784289
0.46307703537556,0.359112214995548,-0.991692398612997
0.969614071602086,0.0245038715080591,-0.999999972560021
0.00172143482519896,0.667159495865482,-0.02997529811936
0.745916234858933,0.00210280177884851,-0.832596632045253
0.227060870689392,0.322754610543921,0.952635963214117
0.236285368289661,0.526526775030841,-0.897245253023545
0.0865314701396531,0.574739540612168,0.0729581806370279
0.0109052788346307,0.266584035260052,0.99999999996013
0.633164390008067,0.000982748292387986,0.418965794418421
0.629100314285632,0.09698630934783,-0.686732780197788
0.773190999800245,0.97190036413027,-1
0.308807758118204,0.40279786685677,-0.554321526684887
0.114801481911138,0.543932888861063,0.107084134005044
0.0103711624111573,0.0804291956401425,1
0.997148156718728,0.248300595792553,-1
0.000728126201253908,0.73649669866252,-0.7688538553898
0.0114047736546432,0.488091960688572,0.995445579878415
0.0725981368781009,0.14187749886541,0.999999999999983
0.689554105480556,0.000154277503561825,-0.304225598782659
0.388388865135125,0.0329880360004806,0.999968550092153
0.722020733170211,0.490414215127627,-1
