"","","y"
0.865593443578109,0.672702496917918,-1
0.591708998335525,0.917774833412841,-1
0.139085592562333,0.429501077439636,0.903982005266792
0.307937385654077,0.345640006288886,0.175789151031966
0.695383535511792,0.145879214350134,-0.996953372800797
0.048536485003172,0.967363795542624,-0.999999996909001
0.285226717190233,0.0287690145894885,0.999999997836424
0.00938110387827523,0.684218669670031,-0.352379253365937
0.0147303910534254,0.300700352108592,0.999999997487962
0.512745055737526,0.00873241144698113,0.986258181483324
0.656309696419571,0.00773058128985576,0.0355509796856635
0.621479429222963,0.0541140690289903,-0.120413448159352
0.0149978554121829,0.0304662925359596,1
0.480720623538189,0.136162162254953,0.601811254842943
0.893549979031829,0.979523866516538,-1
0.976095156999884,0.272505324529989,-1
0.246725231592044,0.677164860174169,-0.999987300876662
0.131730642677551,0.596961535761279,-0.707479237301305
0.0933991130393863,0.570227094290315,0.0411512308099393
0.920615321041946,0.0140117952909923,-0.999994569750911
0.295656904976914,0.854101163043211,-1
0.202631497965912,0.225036457662322,0.999950067482982
0.622971454914659,0.388073905852313,-0.999999994912979
0.0130364501146279,0.338461771438194,0.999999911355886
0.470543154702308,0.289958691465384,-0.888713182780132
0.487135228280743,0.661004533146441,-1
0.419733721298191,0.257253620003074,-0.139036387484722
0.00289587944407236,0.829395403318342,-0.995057274162181
0.788695026802126,0.0010871188290424,-0.963322778437135
