"","","y"
0.273935049120337,0.94513106700033,-1
0.684761728020385,0.600444113928825,-1
0.182711203908548,0.560043363599107,-0.803384556055591
0.56079770042561,0.228174771601334,-0.962068885299868
0.917100872565061,0.162995618814603,-0.999999999997719
0.060415167885277,0.039410906760022,1
0.0121563185896912,0.32542669733639,0.999999976594282
0.211123062300193,0.197670791899249,0.999987925967113
0.501897563023664,0.0101203262787312,0.991321779039987
0.650918156184378,0.977278759046458,-1
0.318210655544784,0.328629642366563,0.263479484273115
0.73818231728627,0.00865579725466668,-0.826345508685649
0.619987570377315,0.000938806176669894,0.562391800602482
0.720886767003685,0.33053816811492,-0.999999999934039
0.0143045683855014,0.689662371174552,-0.473270681140748
0.0697240302945801,0.525044144036683,0.777594967857888
0.00132304434875963,0.507614763696479,0.992565936186256
0.190215296582637,0.471239050000784,0.0704857498891631
0.147550176928588,0.518775519212191,0.0046169026913081
0.978400951437472,0.633682211788027,-1
0.0144119808752919,0.949217588952083,-0.999999533561397
0.639655862696398,0.0792564583442236,-0.624726255739445
0.981465955381092,0.964464116330222,-1
0.994775091200127,0.392214700299586,-1
0.133328470377239,0.534621008949327,-0.01736861702461
0.156983607138129,0.731612267257996,-0.999834291126556
0.894273543738421,0.00858257080346346,-0.999938834274055
0.00362857432374841,0.176908625879777,1
0.338953001282089,0.0020174856468346,0.999999967470601
