"","","y"
0.71053481339477,0.247778951888904,-0.99999925563271
0.152102662622929,0.636164020141587,-0.96094630694547
0.481056436244398,0.97070969059132,-1
0.3952796978876,0.445165092218667,-0.996813121055505
0.888961845822632,0.0149958849418908,-0.999943498054702
0.273516397013125,0.0325579952541739,0.999999999061034
0.0212809529818027,0.295835547716822,0.999999997008483
0.0147398674997464,0.0371017992751361,1
0.00866918078023657,0.495991554482529,0.994028310168173
0.968500914103352,0.613849080927331,-1
0.451258043694039,0.00260488421085135,0.999695450547614
0.670334162629119,0.000880038457637108,-0.0615150486609425
0.141743277216546,0.412330731472673,0.94396466837351
0.519024184992136,0.231849642772808,-0.847008099734642
0.39594009329762,0.236524243415216,0.438377199506999
0.992873137996299,0.305903240312116,-1
0.229708545909025,0.497886614610976,-0.698859548944397
0.861644672357741,0.979227938575933,-1
0.13016012977073,0.543347396411697,-0.0924213502776362
0.0969773243912984,0.558500990345271,0.150591058419316
0.614945682745116,0.676574621245773,-1
0.764660470081079,0.512734218020669,-1
0.310987689467255,0.364673355702185,-0.1213175564579
0.416034927204148,0.761149443992893,-1
0.546872130438431,0.0784448551470987,0.517150791391859
0.487278802909396,0.182272913778374,-0.0390495620362081
0.467414360399717,0.216882266655466,-0.235205187403287
0.560783756177606,0.000174246133424423,0.927176539030208
0.517725039446654,0.16418913723276,-0.20417867137327
