"","","y"
0.478144780453295,0.631759099056944,-0.999999999999946
0.93008250319399,0.452631088066846,-1
0.0951833774335682,0.133807658962905,0.999999999999889
0.649259976437315,0.242114751087502,-0.999862944342659
0.205663246428594,0.822822959301993,-0.999999999176245
0.405288907037934,0.0187961205025204,0.999961574239419
0.0150423311931081,0.500022915638413,0.989910926697159
0.0110352788810851,0.720072231401068,-0.725868401229713
0.407529378108059,0.335893836369117,-0.807289260805283
0.843058888318861,0.0235713604284684,-0.999309930600635
0.624381864653795,0.00211837404654943,0.504537739913149
0.559643582709681,0.0876764152121905,0.257333191398682
0.734488351654228,0.963772702368442,-1
0.300238829918154,0.489225283688158,-0.962834536514266
0.00130388050370966,0.6098338829826,0.653989970320034
0.000616957969239738,0.665443220322923,0.00821204117249485
0.00551128543133381,0.306060683203992,0.999999998320958
0.0050347331432451,0.19634517750524,0.999999999999997
0.237759831152516,0.377059934420422,0.621070851429005
0.983228542742411,0.765961994856159,-1
0.988657069575642,0.217395656451442,-1
0.0108349262654839,0.956156915527875,-0.999999654351303
0.372282438746843,0.995996480894816,-1
0.955576298607308,0.98648673486123,-1
0.734854490539898,0.00128448672375089,-0.761595535112602
0.639626645967791,0.0303597586608303,-0.0449273104479431
0.00501090552884067,0.100066850288478,1
0.112818164672473,0.272309425529107,0.999998228439272
0.000572594211736184,0.810981197147681,-0.986060397547516
