"","","y"
0.854656989919022,0.898102640360594,-1
0.0636808037292212,0.311834565317258,0.99999922277636
0.652518627746031,0.0403750422410667,-0.34374312088196
0.2775051494129,0.577573954313993,-0.998613588063052
0.510984510788694,0.768435877049342,-1
0.331234860296051,0.30992785395744,0.334851860005749
0.0170592976571061,0.568243485814929,0.832656733153962
0.14303944890819,0.966833968143214,-0.999999999999946
0.00800493732826478,0.790309388449249,-0.974525799065242
0.285032409790313,0.0176104803779162,0.99999999934953
0.0174356606759767,0.0466672540294886,1
0.470391924305437,0.00289927613094915,0.998968131972185
0.975358780883253,0.416974671223842,-1
0.981393870431464,0.0851238616908561,-0.999999999988447
0.142849845216452,0.778239103635485,-0.999984232883707
0.732266551592035,0.00440115689109026,-0.765149677475884
0.504718491805468,0.99324683042519,-1
0.145804764095486,0.641352181254803,-0.959124220392666
0.224140271146057,0.39977879119623,0.531824544469949
0.277626760285003,0.429093533155888,-0.503326201248829
0.12900144429955,0.536458152755321,0.0163432434357786
0.21025615857687,0.455110159035813,0.0176060124112318
0.355372140162199,0.591701121506408,-0.999998051154132
0.601348078914753,0.00036502165110197,0.72966810881914
0.666873437499945,0.000238308927109611,-0.00602656744749008
0.237341063335977,0.42799416112931,0.0180269257566166
0.869883840603167,0.00447625092909732,-0.999575996232071
0.0569563330269523,0.666635018506327,-0.665977803825424
0.0979647438176354,0.845127486742649,-0.999997282564094
