"","","y"
0.681293142074719,0.0899435093160719,-0.924037940834925
0.158191019529477,0.3848307013046,0.96412349369599
0.845640500355512,0.580990367475897,-1
0.279502807371318,0.913535565696657,-1
0.485473223216832,0.767648362182081,-1
0.29930254807228,0.0237387105310336,0.999999994507414
0.0218846913450398,0.694376285503074,-0.600012385024243
0.976346682121512,0.264218660986659,-1
0.441652461607009,0.414140857600917,-0.998670735971125
0.016059361970866,0.299269043713769,0.999999997514524
0.499164133599611,0.00568411099235527,0.993970075513286
0.69618197362175,0.974726296658628,-1
0.0150693749358179,0.963380138871006,-0.999999878437331
0.983626432787163,0.677579751840934,-1
0.540703245760446,0.169922825969782,-0.544342154744389
0.0162855134658651,0.0161503877122401,1
0.983990420320446,0.965534704684618,-1
0.92295452126453,0.0177081085151365,-0.999996678487319
0.221849644697116,0.615618449663252,-0.996251628758075
0.590922061726451,0.587593195752965,-1
0.427219418479912,0.202600798033911,0.468229097322555
0.997998655745434,0.470581993237652,-1
0.342354299872133,0.333857452313143,-0.128682706139413
0.133975118523878,0.564941812156975,-0.415830879346727
0.0573063906132611,0.519529047124606,0.872612775149338
0.355161706401162,0.996905321776482,-1
0.240798321366242,0.444768867760331,-0.251602043466517
0.573720173811592,0.0885168154260695,0.0599238236921
0.787563476079157,0.338377284810779,-0.999999999999994
