"","","y"
0.478144780453295,0.631759099056944,-0.999999999999946
0.93008250319399,0.452631088066846,-1
0.0951833774335682,0.133807658962905,0.999999999999889
0.649259976437315,0.242114751087502,-0.999862944342659
0.205663246428594,0.822822959301993,-0.999999999176245
0.734488351654228,0.963772702368442,-1
0.0150423311931081,0.500022915638413,0.989910926697159
0.405288907037934,0.0187961205025204,0.999961574239419
0.407529378108059,0.335893836369117,-0.807289260805283
0.0110352788810851,0.720072231401068,-0.725868401229713
0.843058888318861,0.0235713604284684,-0.999309930600635
0.172585028911579,0.323241470323479,0.996259479999406
0.983228542742411,0.765961994856159,-1
0.0108349262654839,0.956156915527875,-0.999999654351303
0.624381864653795,0.00211837404654943,0.504537739913149
0.22192404685266,0.485007828339612,-0.505597392842678
0.0826672189756179,0.568367658459698,0.209206429869528
0.48735942052777,0.198934902653046,-0.260935446183486
0.372282438746843,0.995996480894816,-1
0.734854490539898,0.00128448672375089,-0.761595535112602
0.587000420539627,0.147722675929032,-0.75189151893577
0.955576298607308,0.98648673486123,-1
0.355824609182469,0.286023403115214,0.326381121345085
0.988657069575642,0.217395656451442,-1
0.250111228315569,0.364757567259435,0.620619881490609
0.00130388050370966,0.6098338829826,0.653989970320034
0.797151942129898,0.616784060659983,-1
0.293188217758763,0.395219743989388,-0.28784396014485
0.641518899673503,0.496885970268143,-0.999999999999999
