"","","y"
0.473778039496392,0.976092897681519,-1
0.261610501632094,0.69191069197841,-0.999998873138528
0.88614444877021,0.282115162909031,-1
0.792955481121317,0.0283697446808219,-0.991326008407438
0.0818010197021067,0.447578256996349,0.980185616385183
0.31112627697122,0.0237974000838585,0.99999998196495
0.486293742457841,0.3326077516571,-0.990219956425644
0.96799612441333,0.80025636469348,-1
0.01717057606671,0.683470232940166,-0.435763485448915
0.552263648384868,0.00260835723823402,0.942200868779835
0.293073679710389,0.267994469579102,0.926877648092581
0.147296335797827,0.982978156531084,-0.999999999999996
0.610504290654675,0.121195284525385,-0.730252861106752
0.992707028659177,0.530817012380851,-1
0.346992641266775,0.430837637738204,-0.940773611123719
0.0196463648336663,0.140004721652329,1
0.756694526435294,0.98881746311875,-1
0.12019403246697,0.607653060638308,-0.700853890631569
0.572255436129842,0.765839370819123,-1
0.674101586707119,0.0015489050959528,-0.121176311169472
0.612289841915554,0.041784182286524,0.169222286825282
0.135999209582931,0.00819010608680938,1
0.00822334559322682,0.865379009607253,-0.999554942456683
0.947047059782818,0.989453691390611,-1
0.989283125489025,0.241248239341962,-1
0.0150134288312011,0.562951321399916,0.867758544053856
0.989111930330517,0.0444350833649887,-0.999999999522012
0.404901415778761,0.137662384729449,0.964803940385485
0.683752069082287,0.543088044952358,-1
