"","","y"
0.543105511460453,0.551559270825237,-0.999999999999622
0.600385587709025,0.348560418048874,-0.999998335833852
0.238483709469438,0.690419925469905,-0.999991425314507
0.0644294559489936,0.821814281493425,-0.999805724674978
0.857852472364902,0.16389129711315,-0.999999998317854
0.0332407521829009,0.246383428671289,0.999999999949117
0.00488351040659472,0.536481058309672,0.966533951782991
0.00346564831777941,0.68565685846807,-0.29686222950896
0.271609991037597,0.49612087498881,-0.913676100336651
0.970047899191268,0.576587816016483,-1
0.590544911299222,0.969920104875496,-1
0.427077318033076,0.0205137362892219,0.999799063698855
0.978029640524525,0.96403502703914,-1
0.161278200775824,0.0133448582480255,1
0.301104366993467,0.989586719318446,-1
0.243976020417858,0.254339346649774,0.995723561149068
0.670084396073532,0.00922025167011861,-0.169822287552331
0.565849100605211,0.126098135336071,-0.33209532325041
0.371990533054827,0.366340213229152,-0.77608354785608
0.00972594764793626,0.0817709472237084,1
0.991395018577809,0.349185451009115,-1
0.393938551359298,0.248925898404999,0.313740964145307
0.828137515251713,0.00865557743916345,-0.996112402622248
0.701232773983648,0.699355730572405,-1
0.12260518509102,0.990570050040594,-0.999999999999965
0.0822776227312706,0.637519280749215,-0.632757187980697
0.119590374725154,0.556707071349232,-0.129827789391358
0.211725462060203,0.435722430995939,0.255691706041695
0.554336938237273,0.0519440410984706,0.694532567973969
