"","","y"
0.273935049120337,0.94513106700033,-1
0.684761728020385,0.600444113928825,-1
0.182711203908548,0.560043363599107,-0.803384556055591
0.56079770042561,0.228174771601334,-0.962068885299868
0.917100872565061,0.162995618814603,-0.999999999997719
0.060415167885277,0.039410906760022,1
0.0121563185896912,0.32542669733639,0.999999976594282
0.211123062300193,0.197670791899249,0.999987925967113
0.501897563023664,0.0101203262787312,0.991321779039987
0.650918156184378,0.977278759046458,-1
0.318210655544784,0.328629642366563,0.263479484273115
0.978400951437472,0.633682211788027,-1
0.73818231728627,0.00865579725466668,-0.826345508685649
0.0143045683855014,0.689662371174552,-0.473270681140748
0.619987570377315,0.000938806176669894,0.562391800602482
0.981465955381092,0.964464116330222,-1
0.00132304434875963,0.507614763696479,0.992565936186256
0.459449134333244,0.996120491302339,-1
0.0661129388809363,0.585773499490046,0.198053519570839
0.171026059347674,0.404699901100687,0.877245624702054
0.0144119808752919,0.949217588952083,-0.999999533561397
0.994775091200127,0.392214700299586,-1
0.772381946528619,0.847395663101835,-1
0.395227862491239,0.496372373298165,-0.99986505217593
0.424606108583155,0.145321963259771,0.899349548683475
0.424745406153877,0.351058929088687,-0.93599250550378
0.513146241614956,0.697645659509776,-1
0.294821525794565,0.409900638921805,-0.481606150010623
0.639655862696398,0.0792564583442236,-0.624726255739446
