"","","y"
0.634349615359679,0.64629542035982,-1
0.554562389152125,0.219260308332741,-0.931011969999734
0.8906895540189,0.816940142586827,-1
0.312133173411712,0.00174091998487711,0.999999997863694
0.197147418139502,0.463316960819066,0.083827572265256
0.522579697234912,0.0110500614158809,0.976036329195168
0.378776395942841,0.964012855170295,-1
0.0254640295775607,0.175437575755699,0.999999999999997
0.0202120212760201,0.651227153543298,-0.0645518038736306
0.354614326901113,0.228106063045561,0.845731639331785
0.048457617830008,0.98076200043568,-0.999999999238384
0.395370453466765,0.445906148074816,-0.996955698640312
0.315710732835793,0.379109723979814,-0.367197233043066
0.198711945119455,0.692852323177553,-0.999864718046324
0.970663462562691,0.293393521684028,-1
0.832946833371647,0.0152221791549954,-0.997931362464197
0.663052478655862,0.989047649887856,-1
0.636696306586228,0.0818441829678725,-0.621318333324542
0.99306765082908,0.564697336828009,-1
0.138690461511659,0.602465479179972,-0.793814798968873
0.120488935871533,0.00885892478702881,1
0.00228380254267904,0.413105476642155,0.99997994868976
0.990180514796717,0.110555113302039,-0.999999999999825
0.842879292082688,0.990299389623734,-1
0.053728761776786,0.555599369788475,0.669480099421613
0.403945985473992,0.767720199569223,-1
0.719858489024831,0.386316416792196,-0.999999999999913
0.477252137762717,0.152805477598061,0.465582091203155
0.129855547142649,0.540460603262504,-0.0493844436065349
