"","","y"
0.291408977704123,0.217860202118754,0.992440226918556
0.886478274688125,0.908992423117161,-1
0.0276448692195117,0.185562450438738,0.999999999999986
0.600260344287381,0.652891772706062,-1
0.45530644939281,0.504221408348531,-0.999999330537348
0.113849765669296,0.954727743677795,-0.999999999990937
0.958894362619612,0.244896344033629,-1
0.505611483936832,0.0215229397236184,0.982112596650165
0.00707473174444037,0.577281259733835,0.837543867082349
0.503794174649031,0.993186008339748,-1
0.791332900337653,0.0133209641878624,-0.980804911162918
0.192076982268849,0.67874347058672,-0.999468988487771
0.163520230572471,0.49129497747977,0.159399886759093
0.584083611222432,0.179688437420004,-0.900633574780657
0.120890648195253,0.582439902600108,-0.46619406936942
0.0060462248706868,0.781398135077233,-0.959602908561301
0.303411885889801,0.404458862649018,-0.51560822622136
0.648022085935987,0.00174219519557403,0.22576745913567
0.392968158272119,0.267335834062592,0.085986986473547
0.494221084477128,0.156182403735405,0.21744831651494
0.992268631865387,0.584531958733127,-1
0.252780364722132,0.371204680749181,0.531137530615565
0.234645642098524,0.0103542695081178,0.999999999999169
0.000656047830756359,0.679309946081344,-0.178562960984115
0.306510317526601,0.997395687600877,-1
0.714412772709808,0.359158851386565,-0.999999999994994
0.490424284657226,0.201068891739334,-0.326478456281204
0.704820914612854,0.995108921572845,-1
0.0565233340243083,0.00979583599734277,1
