"","","y"
0.732671146932989,0.249700392689556,-0.999999915706994
0.430694559589028,0.866932653123513,-1
0.253362824115902,0.596524682175368,-0.998125073633305
0.959740840969607,0.719213567581028,-1
0.166376297920942,0.0524335134308785,0.99999999999997
0.0342028691852465,0.933598779560782,-0.999999678573795
0.496885014512116,0.0151066953060217,0.991333094192802
0.733338629440122,0.0132403543997789,-0.824950777588063
0.747217585336315,0.979307311035227,-1
0.984653973520486,0.321934389523759,-1
0.494306328520336,0.287110590056982,-0.948510368770196
0.0100289583553094,0.479477192146647,0.997357378164384
0.00882026281381258,0.236892232912577,0.999999999999092
0.0022115913770278,0.707597537586114,-0.535924118772145
0.0885344579494131,0.59453313730271,-0.219243244353197
0.98589963014803,0.0642722764942967,-0.999999999923994
0.985347921315296,0.957010694283987,-1
0.628247243026324,0.624418936920508,-1
0.25216313848335,0.373509168381642,0.513381617889315
0.00875982803673774,0.0773227441818894,1
0.0335916692272501,0.593869289011823,0.494168824970323
0.857547352505473,0.555188964675098,-1
0.615011136831999,0.00141735248529003,0.606102273244774
0.458638798554187,0.502684736384286,-0.999999428160578
0.116908851596024,0.482506499277,0.7462518504795
0.0414459061845637,0.631999987966882,-0.0915923733546435
0.388197767736353,0.9956453045298,-1
0.568220603101254,0.998747630778251,-1
0.385855880317798,0.118216932931294,0.994207629785302
