"","","y"
0.865593443578109,0.672702496917918,-1
0.591708998335525,0.917774833412841,-1
0.139085592562333,0.429501077439636,0.903982005266792
0.307937385654077,0.345640006288886,0.175789151031966
0.695383535511792,0.145879214350134,-0.996953372800797
0.285226717190233,0.0287690145894885,0.999999997836424
0.048536485003172,0.967363795542624,-0.999999996909001
0.00938110387827523,0.684218669670031,-0.352379253365937
0.978048848954495,0.345461613978746,-1
0.512745055737526,0.00873241144698113,0.986258181483324
0.860741729366511,0.0177097012712863,-0.99967449347551
0.324841565279883,0.994256931447773,-1
0.157769420573497,0.70265889285248,-0.998991856422337
0.893549979031829,0.979523866516538,-1
0.505355325634465,0.166750544028667,-0.0735453453393841
0.201597466263302,0.492599992193667,-0.359652527543356
0.0147303910534254,0.300700352108592,0.999999997487962
0.116688054234637,0.535439913101111,0.194882742242127
0.571161305627928,0.107120723275261,-0.156265767588886
0.0149978554121829,0.0304662925359596,1
0.588413275855904,0.645372445539882,-1
0.99193952891605,0.155621031703766,-1
0.687050350455189,0.00132210563591337,-0.287394779316623
0.216206814826571,0.42258035864073,0.363880056612148
0.993579941399316,0.670192913613607,-1
0.75394855344073,0.37890442462292,-0.999999999999997
0.522413754909757,0.297098324980158,-0.990509837531732
0.357008087236428,0.780762756613378,-0.999999999999999
0.994356496021557,0.841283113706789,-1
