# x1,x2,y
7.490802376947250374e-02,9.416145155592090532e-01,-9.999999971015930411e-01
4.312037280884873369e-01,4.311989040672405404e-01,-9.991054502987921637e-01
6.116167224336399588e-01,1.901428612819832387e-01,-9.781291184401702532e-01
3.463987883622809960e-01,7.732352291549871026e-01,-9.999999999999849010e-01
9.202230023486417387e-01,3.197316968394073311e-01,-1.000000000000000000e+00
5.508574890957599335e-01,1.900673995936904559e-01,-7.924041535291469485e-01
1.854962723036260031e-01,0.000000000000000000e+00,9.999999999999997780e-01
1.531077231286935847e-01,3.358611215461655419e-01,9.974355574271049907e-01
4.445908971716855951e-01,4.189731261839798465e-02,9.977697943667589442e-01
2.645058370177814644e-01,4.376322477160177749e-01,-4.528058437637837441e-01
7.920517099466741762e-01,5.993757024908369369e-02,-9.983392965667147179e-01
1.000000000000000000e+00,1.000000000000000000e+00,-1.000000000000000000e+00
1.531910864780874348e-01,4.580260212524042140e-01,6.533003777808830126e-01
4.156069909200905133e-01,2.167475823958438796e-01,4.396323663187124975e-01
1.508514608038110660e-01,6.201258041988636505e-01,-9.233077617067424470e-01
3.705028557820355672e-01,3.036602565066104376e-01,-1.012328537621661750e-01
5.886729771672793987e-01,1.000000000000000000e+00,-1.000000000000000000e+00
1.835516749361856270e-01,5.044251372194837879e-01,-2.823827880703366766e-01
1.000000000000000000e+00,6.351279699821893443e-01,-1.000000000000000000e+00
0.000000000000000000e+00,0.000000000000000000e+00,1.000000000000000000e+00
4.682642647925386870e-01,2.051538877437615593e-01,-9.121920426939267301e-02
4.985784508646815688e-02,5.943116192330735181e-01,2.973829997918375767e-01
6.752088819548344167e-01,6.654716786508544368e-01,-1.000000000000000000e+00
3.379327332091704994e-01,1.000000000000000000e+00,-1.000000000000000000e+00
7.929220220318623502e-01,1.000000000000000000e+00,-1.000000000000000000e+00
2.909469133771738214e-01,3.409512472218076407e-01,4.448369139976244835e-01
5.527880562541030995e-01,5.572780278615839522e-02,6.762847672484477712e-01
4.214182558568779768e-02,6.401365282647861754e-01,-2.089436362553438453e-01
9.779357707219420159e-02,5.818551267287094264e-01,-1.743721954219130676e-01
