# x1,x2,y
4.976822377589659174e-01,8.375442457322503920e-01,-1.000000000000000000e+00
2.413438310678852894e-01,1.741464612354752806e-01,9.999797941974253312e-01
8.593601003152444573e-01,5.223487725805292525e-01,-1.000000000000000000e+00
7.531815712960632236e-01,3.837221815875843101e-01,-9.999999999999985567e-01
4.439863421794790210e-02,7.036835975745887595e-01,-8.329263224803807875e-01
1.288833925743517739e-01,4.383661236688994323e-01,9.084283686649556877e-01
6.039096006450447307e-01,4.994900315967606280e-02,1.720722255188260608e-01
4.517340632672843248e-01,4.094817287899574221e-01,-9.990386773024932943e-01
8.491125576398692032e-02,5.737481119787877226e-01,1.080904694925350906e-01
9.007943908992309678e-01,0.000000000000000000e+00,-9.999291101385110458e-01
3.456003975925904803e-01,8.503516144522190734e-01,-1.000000000000000000e+00
3.687114772246686822e-01,2.819534655115851773e-01,2.140383026705965364e-01
1.000000000000000000e+00,1.000000000000000000e+00,-1.000000000000000000e+00
6.550223508215247126e-01,0.000000000000000000e+00,1.566502535474605384e-01
4.621803715277156832e-01,2.133757385597425948e-01,-1.199129439743136238e-01
5.158754405743543048e-01,1.414069576034434894e-01,1.265330647607016967e-01
1.148330295395846301e-01,5.936277207046595228e-01,-5.218425111984336118e-01
6.433163688120152601e-01,6.897890800942962919e-02,-5.612721318586606500e-01
0.000000000000000000e+00,1.000000000000000000e+00,-9.999999845827420852e-01
0.000000000000000000e+00,0.000000000000000000e+00,1.000000000000000000e+00
6.510401779017467305e-01,1.000000000000000000e+00,-1.000000000000000000e+00
2.303816985564182407e-01,4.488894394636133156e-01,-1.693788371345228416e-01
3.648980277659197302e-01,1.000000000000000000e+00,-1.000000000000000000e+00
1.000000000000000000e+00,7.247998193494923358e-01,-1.000000000000000000e+00
1.000000000000000000e+00,3.375796936906084178e-01,-1.000000000000000000e+00
7.152194301701187973e-01,7.139958995596877855e-01,-1.000000000000000000e+00
1.496630289330684593e-01,5.138650676840815779e-01,4.247787894187693425e-02
4.008038109848798825e-01,2.780468413062779365e-01,-1.638098049300429349e-01
5.966236253301446801e-01,5.710656605003102682e-01,-1.000000000000000000e+00
