# x1,x2,y
9.218218337982618804e-01,3.911313097983535325e-01,-1.000000000000000000e+00
6.202173120617250346e-01,7.856976140815874476e-01,-1.000000000000000000e+00
1.717778534586079653e-01,7.454223099505599692e-02,9.999999999990216715e-01
5.473339196022448672e-01,9.193106872246550321e-01,-1.000000000000000000e+00
3.110257555997193446e-01,5.632410278224961875e-01,-9.995734548120623897e-01
6.189067195855296744e-01,2.230466250954711571e-01,-9.970673776304345148e-01
3.574794052399903332e-01,1.809446638373236327e-01,9.704708295017008268e-01
0.000000000000000000e+00,1.000000000000000000e+00,-9.999999845827420852e-01
1.308598972314496955e-01,3.942691691857704850e-01,9.836930758173154654e-01
1.000000000000000000e+00,1.000000000000000000e+00,-1.000000000000000000e+00
1.000000000000000000e+00,0.000000000000000000e+00,-9.999999845827420852e-01
3.627314815666808356e-01,3.869954613053012138e-01,-8.413361544855946228e-01
2.834716762194363637e-01,1.000000000000000000e+00,-1.000000000000000000e+00
1.940235980909933711e-01,5.066278259382701599e-01,-4.358852021542307664e-01
2.183037626685578325e-01,4.297504645120436839e-01,2.478939373987882888e-01
5.433704549602791367e-01,1.129641226956593220e-01,1.391885892724935569e-01
9.796830167864868655e-02,4.932813362072602792e-01,7.994089356664755286e-01
1.000000000000000000e+00,6.693978488221405954e-01,-1.000000000000000000e+00
9.148697325889612597e-02,6.178827420284094263e-01,-5.313606933007525290e-01
0.000000000000000000e+00,0.000000000000000000e+00,1.000000000000000000e+00
6.009448706229501003e-01,5.576375540397239539e-02,1.341982879885137425e-01
6.705150152126190255e-01,0.000000000000000000e+00,-5.207173707237056082e-02
4.027436768338025774e-01,2.610644364157999053e-01,3.869120928099056833e-02
4.468411005536941372e-01,2.330107815109987990e-01,-1.770563525882301592e-01
6.222961721716467887e-01,6.618395994300461938e-02,-2.887566770312040010e-01
4.986694541321709528e-03,6.179726582000456547e-01,5.417537348258827379e-01
7.039149802775077625e-01,5.359019238334408186e-01,-1.000000000000000000e+00
7.522384805572741584e-01,1.000000000000000000e+00,-1.000000000000000000e+00
2.829550474200439591e-01,3.823930161852748255e-01,1.785312068605549030e-02
