# x1,x2,y
9.478243494227421850e-01,1.038782958610601492e-01,-9.999999999360825731e-01
6.539010491233837596e-01,3.578441472341719609e-01,-9.999999952635613143e-01
5.741124124951647589e-01,6.992384281975723148e-01,-1.000000000000000000e+00
3.536595323075947261e-01,8.389903983283281130e-01,-1.000000000000000000e+00
6.158699052499416737e-02,4.375842783244138223e-01,9.955237527375828677e-01
1.997790476301195273e-01,7.259944792470478525e-01,-9.999890338266261836e-01
3.488756420199956576e-01,1.810994435778443545e-01,9.796446774108420463e-01
1.000000000000000000e+00,1.000000000000000000e+00,-1.000000000000000000e+00
5.441146867092365724e-01,1.732029492054557585e-01,-6.099768883661919050e-01
3.821718414393558971e-01,4.439827281848794938e-01,-9.932023784109377251e-01
4.938575344227856823e-01,5.811795857421927364e-02,9.483901407090875590e-01
0.000000000000000000e+00,1.000000000000000000e+00,-9.999999845827420852e-01
1.871975289324595559e-01,5.112981983043313194e-01,-4.109112838465939221e-01
1.000000000000000000e+00,5.459588225571734288e-01,-1.000000000000000000e+00
6.032117244471867368e-01,1.000000000000000000e+00,-1.000000000000000000e+00
0.000000000000000000e+00,0.000000000000000000e+00,1.000000000000000000e+00
4.633534701237247005e-02,5.909179047154152764e-01,3.823348811035782724e-01
6.336522260752607272e-01,3.269770113338964918e-02,4.288805816918817015e-03
6.536398035925740369e-02,6.415042385385231194e-01,-5.049146688355962143e-01
1.000000000000000000e+00,0.000000000000000000e+00,-9.999999845827420852e-01
3.654844873945572448e-01,2.898132721625422681e-01,1.529914977820037159e-01
1.000000000000000000e+00,7.708242609902170583e-01,-1.000000000000000000e+00
2.442930672355773936e-01,3.726896305216136351e-01,6.008637807645809126e-01
1.000000000000000000e+00,3.214651616782757682e-01,-1.000000000000000000e+00
2.023233477394734137e-01,4.527711053622625048e-01,1.556927109231043271e-01
1.438290987727160186e-01,5.077387111461707514e-01,2.022314617155016592e-01
7.551325473790809761e-01,5.659725289082893074e-01,-1.000000000000000000e+00
1.057272684470362545e-01,5.775278759093755987e-01,-2.216851899241806256e-01
7.670511703070138632e-01,8.314209784155996985e-01,-1.000000000000000000e+00
