# x1,x2,y
7.801429708234024485e-01,6.066842855252689848e-01,-1.000000000000000000e+00
4.029149924970839569e-01,1.480099393030809563e-01,9.504933723934010370e-01
9.913898672550234270e-01,8.274418642712153549e-01,-1.000000000000000000e+00
2.526630030370269342e-01,3.067478786760595710e-01,9.312700811514882382e-01
3.083256847593447703e-02,5.837494016199771263e-01,6.232533720343804706e-01
6.698548416912284420e-01,2.185277699457652545e-01,-9.998318737948818091e-01
5.295371504934073270e-01,9.794009303148353274e-01,-1.000000000000000000e+00
3.437831149364191097e-01,9.005790923631359357e-01,-1.000000000000000000e+00
7.760918096122973453e-02,8.606574605830239477e-01,-9.999959578724069154e-01
3.392937852873893489e-01,5.576539310721243536e-01,-9.999069363099526431e-01
1.390819331147841176e-01,6.011348242498184558e-01,-7.880372074947973315e-01
1.000000000000000000e+00,0.000000000000000000e+00,-9.999999845827420852e-01
0.000000000000000000e+00,0.000000000000000000e+00,1.000000000000000000e+00
5.452147580425095175e-01,6.755523827417364569e-02,6.396281837334858444e-01
6.525929681865538790e-01,2.072136905861842252e-02,-8.982254463827410440e-02
3.513728160671841794e-02,6.828113358379924724e-01,-6.158545409951418081e-01
1.000000000000000000e+00,4.379488504061856968e-01,-1.000000000000000000e+00
4.728558304701790949e-01,2.928998421159526577e-01,-9.073528305948806993e-01
2.655339119339114040e-01,4.403554570251298483e-01,-4.943532244901791550e-01
1.000000000000000000e+00,1.000000000000000000e+00,-1.000000000000000000e+00
5.598635245304682817e-01,7.204237206449405351e-01,-1.000000000000000000e+00
3.565909141228387202e-01,3.061225998039751039e-01,5.348773733851874823e-02
5.923948901601111539e-01,1.245915070508517158e-01,-6.068696026866513549e-01
1.000000000000000000e+00,2.268560206680295399e-01,-1.000000000000000000e+00
0.000000000000000000e+00,1.000000000000000000e+00,-9.999999845827420852e-01
1.726556828086548145e-01,4.577463276547473758e-01,4.617302876232103337e-01
7.756584445987663168e-01,0.000000000000000000e+00,-9.356362491960451555e-01
7.705566607807877721e-01,3.827244961093127507e-01,-9.999999999999998890e-01
7.622715307132950091e-01,1.000000000000000000e+00,-1.000000000000000000e+00
