# x1,x2,y
9.360901609462078943e-01,2.520599381773799830e-01,-1.000000000000000000e+00
2.821881605993081799e-01,7.906504063007424588e-01,-9.999999999945359264e-01
4.970202548754598659e-02,4.370079854323810076e-01,9.977416211377154731e-01
6.039322850860089353e-01,8.973176253101056155e-01,-1.000000000000000000e+00
5.740791376693900050e-01,8.999508421015910142e-02,3.509180740019024469e-02
6.467429725069002711e-01,5.568835591648725325e-01,-1.000000000000000000e+00
9.970727983715368947e-02,6.392621340061221957e-01,-7.801842900728700458e-01
4.827905046112807574e-01,3.219983999413303932e-01,-9.809224477850795321e-01
2.250898805912019962e-01,1.622256914764655111e-01,9.999978706650181071e-01
1.000000000000000000e+00,1.000000000000000000e+00,-1.000000000000000000e+00
2.523973633135723205e-01,4.493774495348271114e-01,-4.486944953895182220e-01
6.578199790659383650e-01,4.387648326227439055e-02,-4.478057724472033208e-01
6.071723150405021474e-02,5.510660154732754945e-01,6.483546109835023330e-01
1.000000000000000000e+00,6.538526676509619495e-01,-1.000000000000000000e+00
0.000000000000000000e+00,1.000000000000000000e+00,-9.999999845827420852e-01
2.513365371285983252e-01,3.047827659724869909e-01,9.393517187134607926e-01
0.000000000000000000e+00,0.000000000000000000e+00,1.000000000000000000e+00
5.684872747999808462e-01,3.836860692438804482e-02,6.899049830133017203e-01
3.952626316711290166e-01,2.484517315821513639e-01,3.031036778383322527e-01
1.933672170208694807e-01,4.468898173746607139e-01,3.459812664154293671e-01
1.000000000000000000e+00,0.000000000000000000e+00,-9.999999845827420852e-01
3.502911165911628544e-01,1.000000000000000000e+00,-1.000000000000000000e+00
4.003058588000245055e-01,2.817790641284947939e-01,-2.064137084148642831e-01
0.000000000000000000e+00,2.214711318834215736e-01,9.999999999999582556e-01
7.893987795892383197e-01,7.700681399873221533e-01,-1.000000000000000000e+00
1.814536265285868200e-01,5.183146048066806788e-01,-4.257151229424338545e-01
4.078309749020478034e-03,6.471099614670152711e-01,2.072005168635202565e-01
4.620399024357693674e-01,2.307031418760743524e-01,-3.418948546915423492e-01
2.505507517553287600e-01,4.113860831961811404e-01,6.397581680056108056e-02
