# x1,x2,y
4.465456655954581633e-01,3.061711383111198059e-01,-8.557976470559223170e-01
1.746858805583632601e-01,1.937081325641863971e-01,9.999995848027689593e-01
6.860937636584981680e-01,8.956783591604805528e-01,-1.000000000000000000e+00
9.045349342705139017e-01,4.022797608554860016e-01,-1.000000000000000000e+00
3.738389080427840239e-01,6.804702720074730093e-01,-9.999999999524818994e-01
2.694573159196118617e-01,7.146787391596651773e-01,-9.999999286088243622e-01
8.874940477573826092e-01,2.533292089887936860e-01,-9.999999999999991118e-01
1.490177007378709617e-01,4.970201560578614286e-01,2.737232253760106815e-01
5.268407544606779069e-02,7.230015693931581833e-01,-9.357027944276286036e-01
3.579921669735393053e-01,5.153385143318092720e-02,9.999872190126437577e-01
6.087764406737958822e-01,7.595938235257861104e-02,-2.408854522153874855e-01
1.541359928202853946e-02,5.797425388406358682e-01,7.750895257999101950e-01
1.915489694548342114e-01,3.566516698179785783e-01,9.556148467614917763e-01
2.429492768908028677e-01,4.562243123583015203e-01,-4.188192071692302676e-01
1.000000000000000000e+00,1.000000000000000000e+00,-1.000000000000000000e+00
1.000000000000000000e+00,0.000000000000000000e+00,-9.999999845827420852e-01
5.030854168822375128e-01,1.338578136284056253e-01,3.860361491099530973e-01
0.000000000000000000e+00,1.000000000000000000e+00,-9.999999845827420852e-01
1.736200000512786168e-01,5.001173531081922752e-01,-9.551172581139233397e-02
5.312355636056228514e-01,1.729607017309293948e-01,-4.758089809254095748e-01
3.935690229865156375e-01,2.488428637773408836e-01,3.193800244692450718e-01
1.000000000000000000e+00,6.647064209584906402e-01,-1.000000000000000000e+00
3.434666508436009513e-01,3.323615325656384401e-01,-1.235540016091818405e-01
3.937369323638187368e-01,1.000000000000000000e+00,-1.000000000000000000e+00
0.000000000000000000e+00,0.000000000000000000e+00,1.000000000000000000e+00
7.112183043790856196e-01,6.533432479677068194e-01,-1.000000000000000000e+00
2.042572348216282752e-01,1.000000000000000000e+00,-1.000000000000000000e+00
1.495408318174333007e-01,5.275243502968433029e-01,-1.400742311545407626e-01
7.779833208478471873e-02,5.923219533939643178e-01,-4.673713878481777773e-02
