# x1,x2,y
9.539508936370871828e-01,5.133769318999344966e-01,-1.000000000000000000e+00
6.019289117118292037e-02,3.783206876555528231e-01,9.998920036667962030e-01
5.366553519949974760e-01,4.941236639236288447e-02,8.286282896077972193e-01
3.852670270118351281e-01,6.420847671973533011e-01,-9.999999990702735930e-01
7.093931760486064109e-01,9.792460201913946172e-01,-1.000000000000000000e+00
1.544090607726835152e-01,9.034326697043281174e-01,-9.999999999683024665e-01
9.166025364546008802e-01,3.281152228294125783e-01,-1.000000000000000000e+00
6.111091079368141665e-01,2.381028022050163395e-01,-9.980509986504446651e-01
1.666532324185763525e-01,5.392086299644337499e-01,-4.940547343847494499e-01
2.268741019031176864e-01,2.557871310465914538e-01,9.982078493579957801e-01
5.238761070415376420e-01,1.563823822968710697e-01,-1.824217323864816276e-01
4.329023039168838349e-01,1.909575688322045772e-01,5.324403496339624731e-01
3.533507165249330506e-01,4.043613371828982950e-01,-8.776758561155278970e-01
8.876030624249288126e-01,0.000000000000000000e+00,-9.998227524169694957e-01
0.000000000000000000e+00,0.000000000000000000e+00,1.000000000000000000e+00
1.780060745337314621e-01,4.341234169811523658e-01,6.453079217780097743e-01
1.000000000000000000e+00,1.000000000000000000e+00,-1.000000000000000000e+00
2.576280722245402055e-01,4.226928198216585164e-01,-1.832444170849654164e-01
4.198199924271595607e-01,1.000000000000000000e+00,-1.000000000000000000e+00
4.064716640979798568e-02,5.297521125661248664e-01,8.976806086305115784e-01
6.925023395666142223e-01,0.000000000000000000e+00,-3.389369264311379304e-01
1.376913926100415964e-01,5.236357031632338233e-01,7.220190280888472145e-02
6.898321108215084152e-01,7.175475538660087693e-01,-1.000000000000000000e+00
6.119605035111548297e-01,7.261019175516511548e-02,-2.387513068526321280e-01
1.000000000000000000e+00,7.467998705753622346e-01,-1.000000000000000000e+00
6.683579528409684389e-01,4.997086305533985362e-01,-1.000000000000000000e+00
2.022917267591499771e-02,6.526311953366191743e-01,-8.371194956980088087e-02
6.470762408231993961e-10,6.567481675552344633e-01,1.336704264889920779e-01
0.000000000000000000e+00,2.223356641038589931e-01,9.999999999999531486e-01
