"method","seed","alpha"
"gpMLE_hybrid","1","0.00980894069870324"
"gpMLE_hybrid","2","0.00801509193250844"
"gpMLE_hybrid","3","0.00963894715243421"
"gpMLE_hybrid","4","0.00809154949812129"
"gpMLE_hybrid","5","0.0108176281846018"
"gpMLE_hybrid","6","0.0096879625499392"
"gpMLE_hybrid","7","0.00933166625571269"
"gpMLE_hybrid","8","0.00799516904367282"
"gpMLE_hybrid","9","0.00784891097543696"
"gpMLE_hybrid","10","0.00994758130536923"
"gpMLE_hybrid","11","0.00762339632482583"
"gpMLE_hybrid","12","0.00957125656250995"
"gpMLE_hybrid","13","0.01228886653983"
"gpMLE_hybrid","14","0.00773695829902264"
"gpMLE_hybrid","15","0.00798288105292727"
"gpMLE_hybrid","16","0.0102947465685359"
"gpMLE_hybrid","17","0.00978723338760333"
"gpMLE_hybrid","18","0.0098589125671729"
"gpMLE_hybrid","19","0.00914079429151579"
"gpMLE_hybrid","20","0.00795887513914069"
"gpMLE_hybrid","21","0.0092682029167558"
"gpMLE_hybrid","22","0.00752207917275864"
"gpMLE_hybrid","23","0.00624027583741904"
"gpMLE_hybrid","24","0.00759433842014662"
"gpMLE_hybrid","25","0.00971228768684491"
"gpMLE_hybrid","26","0.00877624701989316"
"gpMLE_hybrid","27","0.0105575995403539"
"gpMLE_hybrid","28","0.00537375084253592"
"gpMLE_hybrid","29","0.00761252548456404"
"gpMLE_hybrid","30","0.00920861332533618"
"gpMLE_hybrid","31","0.0091150288125568"
"gpMLE_hybrid","32","0.0105298675103167"
"gpMLE_hybrid","33","0.0075805163616848"
"gpMLE_hybrid","34","0.0117087738623503"
"gpMLE_hybrid","35","0.0118554256949144"
"gpMLE_hybrid","36","0.00893332156345556"
"gpMLE_hybrid","37","0.00829046423725361"
"gpMLE_hybrid","38","0.00831168551483333"
"gpMLE_hybrid","39","0.00993002316373408"
"gpMLE_hybrid","40","0.00944405851144566"
"gpMLE_hybrid","41","0.0119358405659496"
"gpMLE_hybrid","42","0.00890169431524299"
"gpMLE_hybrid","43","0.00967874322241839"
"gpMLE_hybrid","44","0.00941181023159474"
"gpMLE_hybrid","45","0.0074908002907584"
"gpMLE_hybrid","46","0.00957251843955643"
"gpMLE_hybrid","47","0.0108884577067053"
"gpMLE_hybrid","48","0.00972431000783953"
"gpMLE_hybrid","49","0.00754844483008254"
"gpMLE_hybrid","50","0.0095264614313635"
"gpMCMC_pareto","1","0.00852003845825277"
"gpMCMC_pareto","7","0.00906979462717549"
"gpMCMC_pareto","2","0.00881406359647996"
"gpMCMC_pareto","4","0.00864837313194697"
"gpMCMC_pareto","3","0.00948473703295905"
"gpMCMC_pareto","5","0.00843261263887512"
"gpMCMC_pareto","6","0.0086120437272468"
"gpMCMC_pareto","8","0.00993302380840136"
"gpMCMC_pareto","13","0.00950044239435044"
"gpMCMC_pareto","15","0.0100730827108762"
"gpMCMC_pareto","16","0.0111833079749685"
"gpMCMC_pareto","11","0.00960373979570436"
"gpMCMC_pareto","18","0.00876056971490113"
"gpMCMC_pareto","9","0.00875263806393721"
"gpMCMC_pareto","10","0.00802334067954309"
"gpMCMC_pareto","14","0.00621420733539362"
"gpMCMC_pareto","17","0.00921614514758214"
"gpMCMC_pareto","19","0.00822222916311979"
"gpMCMC_pareto","25","0.00856121150745473"
"gpMCMC_pareto","24","0.00950662669778898"
"gpMCMC_pareto","37","0.00936388735904048"
"gpMCMC_pareto","20","0.00901204764907579"
"gpMCMC_pareto","22","0.00924205169495532"
"gpMCMC_pareto","12","0.00770324686189974"
"gpMCMC_pareto","30","0.0111016753689014"
"gpMCMC_pareto","26","0.00852856727922934"
"gpMCMC_pareto","48","0.00988029620723345"
"gpMCMC_pareto","28","0.00802039455058498"
"gpMCMC_pareto","33","0.00801462360238721"
"gpMCMC_pareto","23","0.00859170919685125"
"gpMCMC_pareto","29","0.00936988813724122"
"gpMCMC_pareto","35","0.0079505696858466"
"gpMCMC_pareto","21","0.00863768678186451"
"gpMCMC_pareto","31","0.00816216659974084"
"gpMCMC_pareto","44","0.0104075990832815"
"gpMCMC_pareto","40","0.00977823245742106"
"gpMCMC_pareto","43","0.0101377230419367"
"gpMCMC_pareto","27","0.0107252481405268"
"gpMCMC_pareto","39","0.0108227217218367"
"gpMCMC_pareto","41","0.00888617717691698"
"gpMCMC_pareto","47","0.00849652282043883"
"gpMCMC_pareto","32","0.00882043059136527"
"gpMCMC_pareto","42","0.01009801441429"
"gpMCMC_pareto","34","0.00885340397120416"
"gpMCMC_pareto","38","0.00911967120374025"
"gpMCMC_pareto","45","0.00874150758076983"
"gpMCMC_pareto","49","0.00936331261726329"
"gpMCMC_pareto","46","0.00943841237709873"
"gpMCMC_pareto","50","0.00873981340740358"
"dgp_pareto","3","0.00909814136478355"
"dgp_pareto","1","0.00910046080947273"
"dgp_pareto","4","0.00936585939500192"
"dgp_pareto","2","0.00962917523639273"
"dgp_pareto","8","0.00915342540512067"
"dgp_pareto","9","0.00930854313831089"
"dgp_pareto","7","0.0084582420586967"
"dgp_pareto","6","0.00928595285614602"
"dgp_pareto","17","0.00853080042120933"
"dgp_pareto","11","0.00880399878640428"
"dgp_pareto","5","0.0084433226066348"
"dgp_pareto","14","0.00984615681187056"
"dgp_pareto","29","0.00895642240533853"
"dgp_pareto","22","0.0091230281155132"
"dgp_pareto","12","0.00868286266116412"
"dgp_pareto","13","0.0112769245962609"
"dgp_pareto","23","0.00735307114752112"
"dgp_pareto","18","0.00864859770026727"
"dgp_pareto","21","0.0090393674159922"
"dgp_pareto","16","0.010427643285144"
"dgp_pareto","15","0.010515473189699"
"dgp_pareto","30","0.0100036960822049"
"dgp_pareto","26","0.00931826525479746"
"dgp_pareto","34","0.00900278060433201"
"dgp_pareto","49","0.00924617316114921"
"dgp_pareto","47","0.00872594075902943"
"dgp_pareto","27","0.00834588595450136"
"dgp_pareto","10","0.00945656815616234"
"dgp_pareto","31","0.00996860399134275"
"dgp_pareto","35","0.00950470877001584"
"dgp_pareto","28","0.00897442923435674"
"dgp_pareto","24","0.00934226143754143"
"dgp_pareto","38","0.00891192530599745"
"dgp_pareto","19","0.010502382097348"
"dgp_pareto","40","0.00865394572845943"
"dgp_pareto","44","0.0120547223957138"
"dgp_pareto","43","0.00940773801979312"
"dgp_pareto","37","0.0110087031086418"
"dgp_pareto","46","0.00954777347601397"
"dgp_pareto","42","0.00831899234026034"
"dgp_pareto","39","0.0112146188330327"
"dgp_pareto","20","0.00957741594387138"
"dgp_pareto","25","0.00838427439777071"
"dgp_pareto","36","0.0098926449489923"
"dgp_pareto","41","0.00933918858236008"
"dgp_pareto","50","0.00902839282168355"
"dgp_pareto","48","0.00944968712065197"
"dgp_pareto","32","0.00913663320156642"
"dgp_pareto","45","0.00953494801531818"
"dgp_pareto","33","0.00817442004617629"
