"X1","X2","Y"
0.415410747721791,0.527169284769334,0.98941322698961
0.0258795377071947,0.151657759833615,0.297498912613935
0.298302730627824,0.413581724801101,0.764069654970674
0.112033069888595,0.233318101147655,0.334845499560688
0.443520848329179,0.403400663599372,0.990189629022754
0.853008734792005,0.125763012030162,0.93766788677093
0.562734422188252,0.299079181131441,0.726040507775266
0.118327499332372,0.421637234239373,0.496477472177473
0.250429014562629,0.980693449232727,0.825486095743825
0.364115243628621,0.440194556775503,0.945060012492188
0.659597340735607,0.480707908928394,0.854544214785647
0.945700809578877,0.598703073437326,0.982693771190779
0.37092459522374,0.179048046462704,0.309239967172572
0.0439163840296678,0.315720314701553,0.880125954533162
0.140421409557108,0.316867514398415,0.29378592990415
0.542737698623911,0.0780031032296829,0.901064267409845
0.527893524536863,0.994941148794722,0.591355753418424
0.19986741941981,0.926872485240456,0.297977739530206
0.904454992017709,0.436099615983665,0.720306138512812
0.661303952227347,0.447918912818655,0.872615876179376
0.509768174591009,0.578545935096219,0.990443774308893
0.780090469902847,0.451743895492051,0.349582161232769
0.0829906395073049,0.00559819022659212,0.384252727705553
0.829141191310249,0.833432743718382,0.99429251871637
0.131329892970622,0.556667463988531,0.434572792820379
0.462989207050297,0.488811065784655,0.999643369515777
0.818206804464571,0.976801982879639,0.385733392066479
0.970222655134276,0.602185998618137,0.946173701052636
0.260091483393218,0.647873941685073,0.734404671072501
0.127925317400601,0.554440169479698,0.458513152067549
0.755315191386268,0.573290271356236,0.468077703324411
0.178408794243354,0.1278479798357,0.740599707744335
0.612087289167568,0.72108845680533,0.727508126304951
0.76916695808759,0.528659935635049,0.375717295494029
0.911194217348471,0.0998665134645998,0.974674943879762
0.977535278060008,0.896983253956307,0.384734522702046
0.452357495119795,0.627931009294465,0.950412872653196
0.165955336526968,0.680679476351943,0.336263739745736
0.235031357896514,0.0396305557833984,0.518330270503446
0.310179079104215,0.154123670223169,0.317660960852806
0.0562468935502693,0.363531005856115,0.918022577105444
0.436913631244563,0.39804642979335,0.989340477661243
0.578225052241702,0.672333159774076,0.86992682161081
0.536064882731996,0.394776210179087,0.975800232717762
0.528797886787448,0.300349161112215,0.69511693152253
0.704238486433402,0.482221375747118,0.666953777110256
0.0506822686973028,0.128298979234416,0.43444046022339
0.101966157574207,0.274299200686626,0.303317348040746
0.0151922789309174,0.625194922877941,0.87292932457758
0.464827374245971,0.881344627343118,0.544203358364997
0.866243219316937,0.783686578223482,0.528431151580561
0.723932133353315,0.637974772762973,0.78821075059543
0.0471818897780031,0.640700753621291,0.965663062289536
0.523474797025323,0.390363801191561,0.966918317864308
0.701697242419701,0.876284337340854,0.293891079302805
0.312666078722104,0.191191780521534,0.46396401201024
0.0124929103869945,0.533752842260525,0.680229182955171
0.277616466043983,0.730155189133715,0.995207469369822
0.259141840726603,0.788752890828997,0.850373041180205
0.49855387441488,0.0975040663732216,0.749762389166714
0.122618602696341,0.839566056380514,0.830793681685434
0.0355461010024883,0.082976092515979,0.66019216283141
0.697463763856329,0.806087671777699,0.517614584008963
0.857949780804105,0.0942370547065511,0.723269223724978
0.757541519370396,0.0468916246900335,0.491098200851117
0.287462067132816,0.50273183373455,0.622604632890984
0.530468807983212,0.0503488450432196,0.990793452620921
0.726691062747501,0.302023014416453,0.961450687306831
0.765696212651674,0.888002776747104,0.332141351609171
0.330324494646862,0.490783352634404,0.815746247741222
0.109622861955781,0.472477885609958,0.627454859304753
0.772862595485989,0.642468147360254,0.523073053647693
0.511991082610562,0.965889390381519,0.896500939072359
0.521521565814968,0.498161828376818,0.999959249831885
0.136198079861235,0.163036121736281,0.911342830462838
0.378508121067192,0.40126556741586,0.993268590325985
0.552602319082711,0.0211231611026451,0.79677545415195
0.805504249956459,0.859372184220701,0.731986379316321
0.972911815715954,0.601308446948882,0.925987659808528
0.792116347041912,0.561593425966799,0.324942781217294
0.26879715382494,0.228003607410472,0.897868479344955
0.83823912648065,0.983197165040765,0.345298706918264
0.953984058011323,0.686428854304366,0.853171809658647
0.176129285114817,0.0349055015929043,0.314464330895409
0.50236441563908,0.387943167085294,0.960458617580723
0.275810477850493,0.910950102795381,0.342290728494767
0.826735586044844,0.696909164685756,0.400828443152153
0.845270073273685,0.984997006206308,0.331294487260792
0.51671749966871,0.869480813220143,0.4653335763288
0.314287678297609,0.776459583543707,0.660061947798284
0.742100385595579,0.230594342689496,0.949761313744129
0.449026612341404,0.496924587887246,0.998165740075727
0.461644981039688,0.138427224070765,0.4075200048927
0.934036112489179,0.38543226601975,0.891712953104587
0.830086304699071,0.288788165417034,0.429063188909016
0.145229377427604,0.189235018318985,0.807214140250068
0.9641559120249,0.295613969582133,0.876149365895571
0.914980437891558,0.779828601988498,0.295483094017565
0.0677852698313072,0.938121617769823,0.987396040897316
0.252014983128756,0.352664301794488,0.68581843638033
0.679567270730156,0.565714113046415,0.824278450430636
0.0293050662963651,0.834902608155273,0.30868842072916
0.79009603320295,0.175517188061494,0.891610351426558
0.367224801965989,0.711499609461054,0.832935457942979
0.813297369137872,0.659546684804838,0.369381731854076
0.604222550826147,0.713293488108553,0.747300448649865
0.222237555842381,0.94353905417677,0.347476112422883
0.622534571253229,0.235335918064229,0.514404876594592
0.351033290851861,0.837441643701866,0.297836860248775
0.991773487153929,0.493470012209378,0.618502764873217
0.955072795782704,0.874382429679856,0.409280025457721
0.160805596801918,0.99375103521999,0.404301016986233
0.233202043393161,0.684060017424636,0.715281629785448
0.919009049623273,0.800929962506052,0.313789684206303
0.981870236913208,0.921015093303286,0.515064524254315
0.479169897264801,0.137801380011253,0.419050107734436
0.865120186233427,0.261930543527007,0.347466962932358
0.566032323605847,0.0377492742552422,0.955023252859426
0.837385952133685,0.764834861479234,0.639068430420192
0.886443306167144,0.199127682942431,0.477487590725005
0.519653314018622,0.634665275736712,0.923101998111991
0.942317390841898,0.937335764302407,0.989194301271753
0.279254088738468,0.100745616477914,0.311546154185161
0.466782121922355,0.845288897633087,0.339469581448505
0.64780137791764,0.908936754932627,0.556755355013643
0.947764923314564,0.0438199894367717,0.978952520823711
0.293104868112132,0.0553272713096812,0.665709275086679
0.512715916032903,0.0649972168598324,0.983618840126841
0.821771963459905,0.329123041488696,0.359800463160232
0.544236283988692,0.132450184980407,0.438194828168448
0.285693829667754,0.373450542146806,0.801923760722037
0.0787005173144862,0.57619628285151,0.857148227619212
0.949464778508525,0.224711827677675,0.386564418540575
0.892237020179164,0.821153806915041,0.55964304059751
0.635114542660769,0.0891663548238575,0.61448135102955
0.341205319455825,0.656131503342651,0.998949694803425
0.0485638754903339,0.508435950702056,0.982916626445071
0.88049993508542,0.670039790578187,0.329703968980237
0.811846041477751,0.0819188465024345,0.343454605438134
0.116023065077607,0.604461221654434,0.467872743276999
0.159468757940922,0.284147255860269,0.391252431921283
0.663750884507317,0.477909940469079,0.841642397775336
0.104673889973667,0.13053565185098,0.902361808474505
0.392569525193889,0.357712380847894,0.980129581798872
0.456243092703167,0.922815226512495,0.906443256243695
0.541445223603863,0.460260416074656,0.999798692195586
0.00483843358233571,0.650303150010761,0.839892113640749
0.916166123016272,0.736905113684479,0.335119186406855
0.692049448553938,0.998083774940111,0.941593753721304
0.799003497350961,0.562668014016002,0.31138828845383
0.0379869338748977,0.963676910683513,0.992742420985541
0.242764789268374,0.252521461564582,0.991815257577498
0.459128128983546,0.0318055723491125,0.890660871109237
0.851354381582234,0.358854574883357,0.296268159009973
0.183702896011528,0.568960270190611,0.293467589370885
0.690592219196726,0.653364522811491,0.958328672969375
0.735020285157487,0.567637736008968,0.560591476809272
0.407335890891962,0.380062044239137,0.99107379900574
0.849906743963715,0.290323298190255,0.338681953637619
0.592164757165592,0.269667562618386,0.629699867461125
0.8684049303988,0.0530602792841382,0.431783648628906
0.309420784495305,0.0167050977796316,0.995656065360412
0.0334517579069361,0.746167392904405,0.690766680333704
0.750458821314387,0.214902339067776,0.914885053978175
0.962499540858902,0.818600657194387,0.317553971684292
0.0179535965071991,0.192491298222914,0.480196018208321
0.890093617951032,0.751926109741908,0.303626975680165
0.0600300913103856,0.34393414676236,0.830830835057583
0.42855717558274,0.344484059566166,0.912085456652925
0.254972370826639,0.796444878642913,0.824102347532595
0.228783907689154,0.913127265568823,0.293546644579778
0.859578193252906,0.195919346551411,0.719979997984348
0.717228620590176,0.944271088138688,0.61033558538654
0.470752578312065,0.683984975932632,0.766640206874184
0.249727043342777,0.878384341008495,0.32953361941801
0.596300900060218,0.108458003493492,0.542471401230694
0.800053708449006,0.406580727449618,0.325911002812546
0.196312579087447,0.426802370489109,0.30756335892456
0.477159369548317,0.369991863345727,0.934077097876935
0.172820717902388,0.0242541371546686,0.346152765909276
0.343357383779716,0.74100467675738,0.759899432989268
0.625123203296214,0.996851481874939,0.74298316614195
0.795819722855464,0.596592575218063,0.339534192375862
0.906385724490974,0.47430340658268,0.77877121550068
0.66596864018403,0.430264396120328,0.87891323081861
0.565173397963867,0.757092540576588,0.44977706881439
0.984156871399377,0.900774453206453,0.36404859491619
0.0188985737222247,0.767579157955479,0.723582224664194
0.682030505046248,0.331322604486719,0.993420617175472
0.560624672463164,0.244855595423374,0.453327026793587
0.150700782195665,0.467143683513626,0.353696510878015
0.730417072013952,0.59061500240257,0.625814988463305
0.576945850708056,0.282945892522577,0.669322227547901
0.0962280191350728,0.286829449468758,0.337454964320643
0.143653398143593,0.629470526206307,0.309758335725576
0.32067265897058,0.0265820778915659,0.99107229115715
0.706372471679002,0.706310706083197,0.998725065837716
0.937270584912971,0.960552274277434,0.890977595244815
0.4054717708393,0.308901488847099,0.82793823344304
0.372738994515035,0.725145961119793,0.748672443677417
0.120534235681873,0.803934984016698,0.549677924340803
0.355680718992371,0.638252353854012,0.998550166752509
0.803638085647486,0.115759800810367,0.509851647158311
0.239791539029218,0.167435176568571,0.648756520753258
0.0901966309957206,0.866650891471189,0.758558621902376
0.305993617467117,0.544329929131549,0.735101468884643
0.0457038459838368,0.633902408965398,0.980911247725352
0.62978984469641,0.0774905856763944,0.74573743149798
0.0847003077333793,0.184826295125298,0.367323115689695
0.171365343871526,0.517155121514574,0.303035711213276
0.0620473130117171,0.95636197486613,0.928315276319214
0.386354945013765,0.304552176711615,0.852203848956548
0.0313687731437385,0.871247425512411,0.325429189056682
0.424660153571982,0.722509401306976,0.637923232015224
0.670116559048183,0.588890499364119,0.894239550579902
0.933011704371311,0.146130792717449,0.446308219404609
0.11511976375198,0.714943650242873,0.294929827802533
0.0723807132304646,0.00987847863184288,0.491198812695624
0.90325147319911,0.661630593603942,0.467675892808181
0.0863285944298841,0.335692777563352,0.543473901321969
0.347424448080827,0.110899129033089,0.399452633228611
0.4729009775226,0.220764551895205,0.344223366290493
0.410964450009633,0.197481644664891,0.317655177101705
0.245515637947712,0.552151694052387,0.448194585100388
0.377804319377057,0.324313131305855,0.937177219503585
0.614002698529046,0.689908611476887,0.874599759511938
0.0712654519667849,0.780666004828643,0.299181392867531
0.263698666089214,0.520316747926176,0.510281461057671
0.878087951133959,0.655860898535233,0.34218166670313
0.909771731022745,0.479872574468143,0.812945200099493
0.495878865014762,0.422103036206216,0.990688641692794
0.475002825855277,0.254732432787772,0.470490321644909
0.10236638504453,0.424196422437206,0.63598147029244
0.34572499232972,0.484623387774918,0.870055404667946
0.515718723418657,0.676834656841587,0.789612803311235
0.204315485856961,0.886496773740742,0.449169927401757
0.316648956774734,0.763295487419702,0.734295759349902
0.961199835333508,0.397211776166223,0.988079226825998
0.0418311824016273,0.223189422153868,0.439787828175697
0.15470932720229,0.0186767197484151,0.317641150245663
0.638453300521243,0.831834607753903,0.298785752345487
0.303486082615331,0.338412386181764,0.960053913612294
0.834807422260754,0.00695142654282972,0.421502696517432
0.896846991806757,0.279036291722208,0.305999737325694
0.174141571084037,0.774185945528559,0.788331349896184
0.181589469452854,0.884891931995284,0.603543897040872
0.999941451305523,0.734546230053064,0.994601266906536
0.110596061125398,0.377516816739924,0.46909194919414
0.0690407330254093,0.452277227916289,0.955716855792021
0.547110404207837,0.978602368862834,0.79378803391589
0.715233786470722,0.749792564715724,0.935349100793287
0.30643313202681,0.456739272040315,0.735991690649701
0.221033902412746,0.322558903418947,0.608827487902413
0.240763499771245,0.609137130830437,0.511571126566873
0.550472985343076,0.40517028011661,0.989436579241799
0.925280413664412,0.548504223761614,0.920406523573185
0.666295965232886,0.439608211946208,0.865750539764399
0.783829982022289,0.742120599828661,0.884618753609915
0.00681106100603938,0.186221010802314,0.550215920533887
0.777724754977971,0.159179137385916,0.694059914056958
0.581384488897398,0.524610552222934,0.990614796367672
0.822231602343265,0.75997726091044,0.727422011944866
0.153049265691545,0.701855837618932,0.333509097493359
0.333890891228337,0.925536232478451,0.648912494160601
0.329310532545671,0.153625225424767,0.299004961385628
0.420077960147522,0.674091604578774,0.866481274503592
0.938724912749138,0.0578014689865522,0.991511427831701
0.349326642035041,0.280245401791763,0.848786462653252
0.720384525866713,0.816223890459631,0.552107382289442
0.951799563267268,0.644773592499085,0.953403199493812
0.68743667972181,0.0029449644391425,0.936294099825128
0.958095386523753,0.583541401083115,0.9858541678234
0.728633364926092,0.726720611021388,0.99796399344568
0.397891129851807,0.798590437433682,0.337155021753301
0.674969514392782,0.571978724842425,0.850930857156082
0.146731272385921,0.449811492911074,0.361154809786995
0.91323372857552,0.863010729549453,0.694082420623851
0.969690372589976,0.823861960351467,0.329793676531284
0.139063984094653,0.0613848143089563,0.447891878971928
0.883573205450084,0.241169698804617,0.331242095467556
0.39594912025379,0.0441429833285511,0.996271780904183
0.337520844012965,0.204541319847573,0.458277544358583
0.993890174841043,0.975570275763515,0.917058665841612
0.209844548752066,0.745651461225003,0.866034825437909
0.631992798732594,0.787463595543057,0.421836789201969
0.454012558024377,0.463051711747888,0.9996534288604
0.618190851688851,0.621262961935252,0.999421760175963
0.651890265359543,0.794017950158101,0.436753493170562
0.584732162632048,0.852125285516493,0.333302824395798
0.784401695792563,0.738026454451494,0.862138936668229
0.854564313956536,0.691033097004984,0.302359426118354
0.135446931041777,0.617991143675987,0.343559297370661
0.602391972445883,0.27100489599118,0.660323300443202
0.323606303330511,0.144043546534609,0.293717222172646
0.0814777326155454,0.904673823683057,0.962502083969996
0.752322557091713,0.0499652209281921,0.490031741860624
0.582276199010201,0.618344307600521,0.986423696756047
0.983731444852427,0.411383895596955,0.801511551086733
0.929187137942761,0.0142312344866805,0.54782632478625
0.381747000750154,0.313701005665585,0.896939266700616
0.485914933650754,0.249995849919971,0.445728724709074
0.632477782395203,0.611053397887852,0.992423594866032
0.56828432164155,0.201475447487086,0.314553591111619
0.926816364204977,0.310690435667057,0.567202300074823
0.749587099454366,0.848793800905813,0.472406687764078
0.548756569979247,0.172038240561262,0.298315443848962
0.246052224314306,0.546768931983504,0.445792649156463
0.570803146121558,0.865538292501587,0.402660707115644
0.677700355460867,0.952456287249457,0.871091803337296
0.645328291821759,0.433721753405407,0.931454265270537
0.699366741901729,0.94642330501508,0.720296561273943
0.652321359625086,0.814277354728896,0.352944378478747
0.555320325304754,0.297015114578884,0.705592623319852
0.236273327886593,0.236643516114913,0.997720750435194
0.487127744788304,0.379612296425737,0.948976213755399
0.500953775366768,0.182330514643341,0.293414866652106
0.0937310497784056,0.212971685477532,0.321680474897813
0.642529323684517,0.0115047012944706,0.882835208464183
0.709713397811167,0.933755430101417,0.543826447544092
0.591791035277769,0.540283697276376,0.988145711963115
0.301362525412813,0.847792221380863,0.325392544355752
0.0774482140038162,0.665722187384032,0.620879829010034
0.586855365552939,0.085335766447708,0.777513814907598
0.0992830068920739,0.140565812460147,0.783016226562296
0.156170723213349,0.538857898253482,0.332949510463081
0.724252107718028,0.45808094125893,0.584027026166768
0.399753643408883,0.954349280918483,0.996509965946213
0.211693553773221,0.679212114613503,0.556639721005479
0.0581498462012969,0.168363081066404,0.313382537034495
0.621564558897633,0.989545328745619,0.815489005624217
0.718142280837521,0.170340280129574,0.456604138143609
0.957287398011889,0.263825375762768,0.646762285514439
0.710433437228203,0.0722648077099584,0.488190534297926
0.681316621222999,0.442113478426822,0.806412186829078
0.833895230242051,0.219594957865775,0.767002968645753
0.374535374031868,0.16539901311975,0.293203191215269
0.746124914177228,0.293239662164357,0.921471376727365
0.685162486562971,0.142253418040928,0.295122280811121
0.901596762541216,0.102095094523393,0.992603511801377
0.359177456997335,0.0674648326635361,0.809889846836359
0.611632183161564,0.217025053509977,0.403586823225542
0.775688777542673,0.0638713419549167,0.323621498592633
0.451936540604103,0.860420259609353,0.395350615166003
0.400006448073778,0.513325428190175,0.975581899615969
0.433307235695887,0.070245695638936,0.933750249945101
0.975965489862952,0.445252387898974,0.83009884158438
0.168193221838679,0.332105853000656,0.323598738537984
0.369269228689373,0.648308637330309,0.993122879917697
0.446903588320594,0.105893174318131,0.637406582414613
0.0203747465363704,0.772760773974471,0.673754853055668
0.419822845273186,0.792024218739942,0.336483159931164
0.689066874072887,0.902105802358128,0.384261762867116
0.607230418667197,0.663877578380983,0.941484639114619
0.574204969293904,0.785688274764456,0.349822512093204
0.875304535362869,0.208329417394474,0.506665957073704
0.491021528703161,0.732952935701702,0.522954348913063
0.626819762651343,0.429009568948299,0.969036208759301
0.0278988187639043,0.692455284499563,0.968429582203963
0.28162369860895,0.770443656554911,0.849776005950565
0.215274533833843,0.507641569794621,0.32700365405935
0.0943142395238392,0.729036310457625,0.315908958689633
0.761042125136126,0.265345812657382,0.955694229144956
0.505568356584292,0.455120125328656,0.999046720552554
0.843104019942228,0.891505127843469,0.734829434680185
0.195956345938146,0.536789627052844,0.298449164934441
0.0231068360805511,0.211404814143199,0.543377127320699
0.413772518705577,0.0327971668099053,0.94490434040939
0.967937466477044,0.160368059954606,0.29752258528775
0.80975436949078,0.6144786509634,0.320082864932335
0.895159508034121,0.915132263330743,0.931246199618925
0.089757922694087,0.375358993544709,0.640550926241752
0.33860528975632,0.811260102637578,0.381239273572199
0.21655719372537,0.754242476575077,0.93733576444662
0.668880056826863,0.354383243002463,0.985690040479026
0.00254623055504635,0.34068844303349,0.844965222033259
0.840288153323811,0.361245873049367,0.293408189259346
0.76317865840951,0.510008997548837,0.392496164213881
0.806041360695381,0.26790905515058,0.685373029408799
0.599888501175679,0.667602937886026,0.919967021940921
0.481219412315171,0.0754102453705855,0.931530410642741
0.815926125008147,0.592962976797018,0.298292818961443
0.766550673449412,0.389188303418923,0.477648547627402
0.496753025154118,0.542227904759813,0.999174932410383
0.608918980385177,0.00149155408935621,0.67875455187488
0.861008938418701,0.970606040155515,0.299934658210693
0.7702700350862,0.504997030816972,0.367274900327429
0.440807153423782,0.969664174153004,0.894913357332438
0.873654950317461,0.337112085564528,0.319073598627937
0.7883741309084,0.383515977804549,0.389386799731961
0.695474097371567,0.318902841229457,0.991473058368825
0.319686605088413,0.84315930673806,0.312314619685789
0.327872542280704,0.916757219102234,0.542669825167203
0.188383826632053,0.392918560782447,0.310806555599278
0.185127285482828,0.243141498428769,0.763763559822052
0.272084951189347,0.207632021732628,0.759552553357658
0.41715033284761,0.695206308905501,0.786834987253373
0.039175654835999,0.804491260453593,0.347834485935374
0.758538273393176,0.97256636045035,0.68344076653337
0.899078869110439,0.0685448104934767,0.832232326544338
0.888704063754529,0.551351376106963,0.590808412816611
0.556524011923932,0.934181580667384,0.966781195246587
0.482645719997119,0.177258175950963,0.296556382217994
0.230073520741425,0.899270046275575,0.309106662942546
0.656344657241367,0.530813862413634,0.870878221694017
0.0648461560811847,0.239441487750039,0.357421189690848
0.995690141985659,0.500704099351075,0.574470445266417
0.289849811716471,0.824650099196006,0.455296298944186
0.825785890464205,0.0290342351105064,0.329790793074628
0.192883822464384,0.893164640416857,0.463893360532041
0.796924583802931,0.306627809140366,0.55896200100618
0.654744600409642,0.351872404556721,0.998424356985108
0.640102438888513,0.419822406922467,0.956497853576364
0.488527493224014,0.32066454111971,0.778047994132373
0.600588492218405,0.854417582850438,0.32786289020176
0.430112520385068,0.0238258953746408,0.847974620164869
0.282567688511685,0.347725350465626,0.864293830618408
0.201137819075026,0.149289517229423,0.757122683509898
0.38845189776225,0.27711397468159,0.716410788952895
0.534107823634986,0.595926800632384,0.983525618584009
0.427633382684086,0.409817379588261,0.997637027652494
0.133282565775793,0.82822066100128,0.834880415170689
0.736288423102349,0.630590487170499,0.697916163554483
0.59404027891811,0.668599232648499,0.90746037767744
0.403984482943546,0.895129509157501,0.573788505957157
0.297358369173948,0.435208047266118,0.720866841865779
0.190485068876296,0.704685521488078,0.525744990195115
0.506672201445792,0.470402709730901,0.999705967377379
0.931062469746452,0.0129574956581928,0.552024048554166
0.616782202269882,0.931670641198289,0.867270877083709
0.294371706844307,0.518680233845487,0.660669965010015
0.00162273772154003,0.6234803649229,0.720334035280706
0.265564938186202,0.88383492810512,0.297144405920823
0.525260525229387,0.559596403941512,0.997838756521886
0.558115945762955,0.612093691141345,0.978259459645447
0.256540381850675,0.850155300845392,0.437236726993924
0.353657058379147,0.514972372241318,0.89313534100203
0.703946327914018,0.959034232307226,0.829585185098684
0.409050518162083,0.703219892584253,0.766270830040147
0.383947990372777,0.112533983987756,0.469313025601196
0.266434177765157,0.873568197744898,0.313431653599332
0.149653311535716,0.272221988196485,0.381241319394345
0.162644860522356,0.587299685333855,0.300370628228399
0.779437206249684,0.202395584120415,0.969917700790539
0.290682099631522,0.156899884949904,0.362319418433484
0.384060067336075,0.716130124205723,0.763269957562193
0.0521387478276156,0.808922679953277,0.299611875335657
0.649402543555014,0.0419725309400819,0.976590184596992
0.225355911365245,0.76169154181052,0.985567192441681
0.92255920604011,0.415087702963967,0.853785905302751
0.212027889000718,0.990905032366049,0.701921978289265
0.0755918766097166,0.53451184628997,0.923923085403616
0.712954440497328,0.574053043772466,0.68503965319021
0.741230899756774,0.247393986362964,0.990005652027041
0.739720945202745,0.827039613323752,0.573064511404332
0.978251189495437,0.718686844817363,0.937579715559651
0.997910793683026,0.857782849686686,0.349411874117265
0.57342632625252,0.949069424857385,0.996786206056035
0.862506370821968,0.258307174640708,0.367887477578383
0.745505236303434,0.58486042337073,0.534586437060343
0.357506682516541,0.840039665690623,0.293732291322101
0.439573929178063,0.580994623905513,0.997611904099226
0.989120598406997,0.417720860982779,0.728221422381542
0.219368204803672,0.36785307785403,0.454706928429668
0.870661336877849,0.116546446411405,0.972425055507186
0.672606680107769,0.699886450186837,0.972927300074256
0.636056620486081,0.91979781502625,0.698853803390259
0.128994314706419,0.365079999554437,0.345977663332277
0.166231649576221,0.0860816826145165,0.467319295387945
0.125540204008576,0.0902313810400665,0.824043501277425
0.787563385566696,0.75352773496788,0.915935220503564
0.492286103819031,0.469316132914741,0.999967753968936
0.434562978417147,0.0580344251692295,0.989765228598616
0.847341102171224,0.12319395481376,0.888644543035257
0.203152754495852,0.18184951901529,0.95438642918612
0.532318533891812,0.465447233480401,0.999928824466791
0.106301593139302,0.522184176244773,0.661289155873003
0.445058340253308,0.257792564317584,0.508014197609699
0.732346441806294,0.327875833953731,0.861516350826508
0.00806201806012541,0.0930596876302734,0.349866466838511
0.876208765179385,0.371691317239311,0.378238693105297
0.186911208337173,0.495500205950346,0.292373442926519
0.589700395681895,0.227130129136145,0.41230174903585
0.468539201841224,0.34862106798077,0.886188400426907
0.325011972569861,0.81285771431867,0.406012488712911
0.920645475094672,0.135536102174316,0.633906510487107
0.422429583191872,0.906369199107401,0.71577288392894
0.27159577772161,0.940703588286415,0.521599206045151
0.0111853486062028,0.769237125921063,0.799646341470374
0.226433362436015,0.709688239700161,0.790463776354573
0.986669622337911,0.950535545927007,0.753137323506933
0.3613341666013,0.96761310200952,0.993683165976783
0.817054747937247,0.107275653410237,0.527630922600738
0.391732181050815,0.1215882767234,0.424597706998207
0.0546550701879896,0.250188588054385,0.462730780166573
0.538064255108125,0.486829825853463,0.999782903797079
0.335419862130191,0.118775541966781,0.340210481709295
0.885124590724707,0.98786358284764,0.302807347934208
0.206059166424908,0.929359761712141,0.293590942106817
0.94043942370126,0.607389476222917,0.94927858790962
0.363072598494124,0.791422579611652,0.414145318556024
