"X1","X2","Y"
0.591640761018731,0.0482684040269814,0.996439520933212
0.35009244677471,0.399802783211693,0.96108571720409
0.600950884579681,0.975781770094298,0.902874665538869
0.21193391292775,0.901140573559329,0.341479087016629
0.628214416967239,0.164847574641462,0.293425150886557
0.835807712386828,0.805325976354536,0.905520244782005
0.746386776892934,0.361956551450305,0.66369294624644
0.96839617204247,0.751709080619738,0.678395823072842
0.426172906175256,0.256338638277259,0.525744206581705
0.010337296184618,0.271764213739429,0.976689239163722
0.514217029667925,0.546435378097929,0.999021496443221
0.250745330711361,0.0324712712033652,0.683299444178487
0.729854255881626,0.303174918798264,0.949584021081704
0.992840679520275,0.345521193090826,0.875951121249085
0.109150155720767,0.466970058106352,0.62782758903284
0.762669765231665,0.298910923371557,0.81654741641478
0.332486361302901,0.431022500542458,0.872650410170531
0.573387889102101,0.776556885912549,0.379254414374514
0.563834974009544,0.278622738794424,0.625317151993243
0.189218418736011,0.461763921834994,0.293687401695066
0.362290364616085,0.560372310699895,0.94180706850802
0.618998382121325,0.355856900153216,0.988411467441143
0.293503190713003,0.423261404709425,0.722299301463614
0.387138759177644,0.685575219316874,0.887882819676762
0.486058609216474,0.0960482676741667,0.761256360050828
0.0524832189125009,0.638303474406712,0.939940874161053
0.936175633463077,0.960652042364702,0.8812803938711
0.723116027925163,0.6901830436741,0.952620602756489
0.841666168569121,0.188525169275701,0.903920871768065
0.650083736216184,0.68864540627785,0.956693008645408
0.0186089242659509,0.045074391068425,0.853333995180807
0.538369548495859,0.338717890114058,0.860329160646387
0.593141377661843,0.175361733287107,0.292851582843328
0.856187475731131,0.700598096976057,0.308357227103987
0.979738635740243,0.389517242719885,0.886574085760186
0.409613721467089,0.535169972109143,0.987608271046437
0.0745590136949904,0.227414672541432,0.302084824016075
0.877809727602173,0.222397284246515,0.418362526347272
0.603149733358063,0.258958270255942,0.596273920686771
0.585899157243781,0.734785074788611,0.592946327070948
0.726118193498813,0.101614388428628,0.303491945043475
0.442968861693982,0.144549817089923,0.366035796165137
0.92462314468855,0.143812334444374,0.530545313662032
0.25586565015465,0.382478512466885,0.61536842859813
0.731683170599863,0.97816763415467,0.88800969379441
0.105737985446583,0.50725547602959,0.671394041694856
0.695683672926389,0.0666654310603626,0.602640704037391
0.377178341055289,0.237875750907231,0.528746705949493
0.824151302888989,0.231776150316466,0.76382832707063
0.503182160743978,0.0395170632312074,0.936751518157356
0.07816643566126,0.541245656613261,0.900881927644366
0.798944669842254,0.181922205484007,0.962467404642667
0.135269512149505,0.201950026692823,0.633148152024719
0.373488199335057,0.0852679860019125,0.678475858539207
0.048600029037334,0.214546800631564,0.361963120507912
0.430740917089395,0.192224761098158,0.30043869037317
0.854506461830344,0.857408111027442,0.995066977625479
0.497990585390478,0.78097197207436,0.336006962120076
0.627842981549446,0.919830148524605,0.72490451906672
0.00614758285414427,0.363358785795979,0.811378600720465
0.223122581633274,0.00387783600529656,0.832567776753402
0.8334489217191,0.37590916273417,0.293350769097082
0.579722193977796,0.819642592829652,0.293039382161181
0.677315811488777,0.0140240591359325,0.978257272997564
0.119554764997214,0.421597958585247,0.487398033522976
0.557724577276036,0.232186619354412,0.397807288582219
0.741647222207394,0.0364879288836382,0.683366804751217
0.843044306968339,0.0107011319999583,0.359274136920987
0.999287159135099,0.531426704633981,0.546244185928468
0.240976386313792,0.976364270519,0.723159137234468
0.671184811608866,0.291567601750139,0.949597313524372
0.0705562790818512,0.800827763312962,0.29588375098734
0.948466810691636,0.450617610407062,0.995659392148928
0.609009122385178,0.205326220286544,0.356185457839626
0.385378175220918,0.881056369787082,0.429483110223536
0.686757761262823,0.264613169661257,0.898305958446327
0.36914238823019,0.965183501504362,0.994281362386246
0.32904816420516,0.697871925757732,0.973956775546693
0.283103240886237,0.993833444545511,0.995525618938023
0.300439938671887,0.844727911555674,0.336170120142176
0.597568656244781,0.216185240700375,0.379615739073392
0.564712111490313,0.768727111193817,0.40069895735388
0.214800374559592,0.832703355446924,0.807100032240489
0.638757722014096,0.368844500446692,0.998459503780331
0.242376184916124,0.469920775415841,0.419906761363506
0.972870087476913,0.510167720591649,0.83064037746977
0.772844867598265,0.0344321718872525,0.52427254130295
0.0409713977887295,0.612196271239314,0.995851620755922
0.864646854045335,0.902245383888949,0.811762132082202
0.568277767730877,0.892376311915461,0.600500336268253
0.280602288069669,0.791845715811942,0.718026086892163
0.348446045522112,0.373313043289352,0.987154585785252
0.113195280234795,0.112413796286099,0.99516579544438
0.803004699460231,0.3098278565621,0.508147804613691
0.0920452300906181,0.998382386665791,0.324979541224429
0.753394221990369,0.289265574975405,0.904805009037463
0.513770354093052,0.667171119589824,0.826048845882304
0.827830021475442,0.882132790836506,0.699552523391643
0.184071749026887,0.687614236812107,0.426685615011172
0.449680850300472,0.307227477078792,0.747517082186921
0.147661554660182,0.238151437328663,0.508702743751158
0.99533112019673,0.055431579189375,0.592111948990568
0.661128444054164,0.867617369811516,0.307134461309916
0.266343059410807,0.846859591952525,0.418037513145734
0.261905192469712,0.254632470121142,0.995162069798899
0.883164059587289,0.402067966058385,0.474400160768396
0.836462886118796,0.584962826563977,0.299706012931352
0.708041017337702,0.795094362468924,0.638311268341826
0.231811614541803,0.950588136823848,0.422167310819367
0.253459119602572,0.799500398746226,0.812271804189316
0.953760606693104,0.928568263445981,0.878854700385457
0.614112162564415,0.615620411832817,0.999487084444256
0.531748920259532,0.659880321990699,0.860263303524552
0.848325831929687,0.763579091558233,0.547199508440685
0.517526510186493,0.484995371980593,0.999976516590372
0.441826727227773,0.107182292168029,0.619198050167921
0.475489313665777,0.596525982151739,0.98058555204703
0.153557730378117,0.297024801881518,0.336756718459924
0.156552721962333,0.599456655593589,0.303867723425311
0.225079507188872,0.0645832317355089,0.322869164159411
0.621768733416684,0.0805433818739839,0.73903276103095
0.279598197318614,0.31138125436753,0.956775017841196
0.452984837428667,0.806818359640427,0.297084063008519
0.575605891925748,0.494303145141806,0.991626609219137
0.482075030660257,0.813586075675674,0.292643830334592
0.887598033031449,0.0125641028154641,0.308083258720528
0.0831733717056923,0.995739405609667,0.374873777458046
0.955248143066652,0.731408340781461,0.651103344127844
0.792991103712004,0.934960289660376,0.296666254228725
0.117680236887187,0.139211524509825,0.933392386061337
0.180701966154389,0.155477767681703,0.928859116452918
0.00325899423053488,0.183524837038014,0.569902242885751
0.45990032268269,0.808530516864732,0.295166533048333
0.691700641278643,0.699076213213615,0.996502563569484
0.346264524895698,0.171437439949252,0.315313707388892
0.88094845133787,0.728558595663868,0.296403215814823
0.977412470448762,0.617309865124524,0.919708820582429
0.820242110012099,0.62327498755604,0.306362622419376
0.14061092807306,0.512460543730762,0.4056816914767
0.265253608705942,0.68013150895061,0.878175180943279
0.364752148480155,0.53242525983369,0.927308251179033
0.922336033250671,0.793538792467676,0.29793916043318
0.212743422604166,0.618049940939527,0.396388942162281
0.143265958907548,0.543361332538538,0.380304178658906
0.721846032206435,0.754026756481733,0.940627016442025
0.132806896052789,0.944002686113119,0.446257740987977
0.28866667821072,0.841675725793932,0.373305855998509
0.956257784377318,0.0228528619273566,0.903113684606662
0.945759803580586,0.121285481940955,0.511640876702324
0.420497764492873,0.434180006187409,0.998790331748418
0.905553281743545,0.137292094048578,0.76538980975145
0.716487228163518,0.327134401949123,0.928595216502921
0.915427212812006,0.64213057223428,0.636008284112561
0.463519817742053,0.981889979865868,0.746913502798403
0.177324411048088,0.323939781704918,0.36668029875926
0.191635741194244,0.712849230118096,0.569872450893325
0.808055795107502,0.365678709023166,0.346267348492046
0.0949711355301552,0.00977783647319302,0.350700238802459
0.896236561180092,0.185886047899257,0.481773408511563
0.0560126641793177,0.0932259617941454,0.779169350428333
0.984531366801821,0.0745807359232567,0.526811942974633
0.790475635118782,0.878145658698399,0.479385778690107
0.302499587709084,0.95788106178306,0.845819450934796
0.648100943474565,0.646746446601581,0.999149243199844
0.399680117226671,0.968191910183989,0.955906897385403
0.423157874150667,0.0991419661138207,0.664423858282822
0.778505002126563,0.575747683075722,0.374728141956934
0.114045649758074,0.632813796647359,0.423386137665786
0.309290517335758,0.410014194163959,0.820361099870489
0.490556905784644,0.206869128607213,0.310283034719706
0.699932197790593,0.784165705952793,0.673754651566868
0.479882256025448,0.921576189952902,0.910347304850966
0.544761646696366,0.539851360302418,0.999905241723865
0.570911211688537,0.872607457914855,0.444055381449182
0.128912503904663,0.275490231737494,0.306792370056267
0.970878415579908,0.266057691640221,0.80596325359227
0.4008761034864,0.0760006162882783,0.83914460471283
0.0322670839298516,0.350519085390028,0.996196769007048
0.888235254460014,0.927723413988016,0.773139899339303
0.588406561319716,0.235869070784654,0.44897758343761
0.935633217500057,0.163066673592199,0.350182901656072
0.209731778382789,0.823035644952673,0.900970535542449
0.0305691003622487,0.490895877030212,0.864179695477729
0.685613205247559,0.771209753563628,0.693798539456147
0.98956564509403,0.318503542925231,0.968908589930495
0.145448391954415,0.572381330434233,0.351337246883536
0.612177077388391,0.963762890349142,0.98693850812903
0.358807247941382,0.953942932608537,0.970432532658472
0.454266383373644,0.943278369863518,0.995916347335185
0.748172690525185,0.733611547087785,0.985568546820109
0.220260070628487,0.797015273224562,0.972517704774693
0.510534586146474,0.727165431765839,0.551761940493574
0.927415213636588,0.413355131712277,0.89117359460614
0.00535479008918628,0.552592961258721,0.617265073627572
0.13614670790825,0.936374284298159,0.484793839035754
0.675774576567579,0.677691476809327,0.998861489088166
0.416882522755302,0.488905371730681,0.98813344657577
0.103035243693274,0.831285112843849,0.591311829513051
0.381114252711646,0.416170237440616,0.986802199166594
0.754551391231827,0.859307829407975,0.429444251414196
0.149113551051822,0.249579662566073,0.462619322750273
0.0623366860873066,0.723600190937519,0.516574429688421
0.277030430844519,0.147996062499471,0.36086089840431
0.504758496891242,0.159532071533147,0.329669725578702
0.73535790926218,0.739789903131779,0.996959966968222
0.941400518148672,0.821717784504406,0.299326389045436
0.175505875552073,0.640435330582317,0.311216892807801
0.31169007836422,0.694493816066533,0.997568565905142
0.929535375980195,0.132859191491734,0.570360025147725
0.50006590900803,0.301394778712187,0.690010211824069
0.733111234687734,0.718269956802949,0.987163571424748
0.0617319754385389,0.0198395993649028,0.699445852863696
0.166436524238903,0.166594565812498,0.996577746143126
0.477697890605312,0.282603461823892,0.603962636504883
0.997660814174451,0.528959937334061,0.562185201600526
0.540533392242622,0.102732810123824,0.680687943462057
0.586218659558333,0.196958361331373,0.314648646323889
0.139418368438259,0.218463173225056,0.559109986163002
0.906894069981296,0.335713310693391,0.487260520094044
0.382980448204093,0.606473339091521,0.998109450991103
0.248583100335207,0.816543752965517,0.718707986111324
0.884268498491962,0.11800948237814,0.994691572756442
0.873945324342232,0.550356360070407,0.4752410159157
0.96666470815381,0.359958191123791,0.995366405819707
0.163873427313752,0.802390778272878,0.887526417998322
0.131520457288716,0.536783592618071,0.449407806194569
0.234169419411104,0.624396864349954,0.512792127299753
0.658731513869483,0.907756962862797,0.511711905739996
0.111500470640603,0.292117864404339,0.303786772338555
0.0722160955225118,0.59396223776741,0.881604072424986
0.461815458861645,0.455792593274731,0.999773609399347
0.743872208927758,0.631406380520668,0.657111869312727
0.518440475252923,0.743430563590489,0.476236123314747
0.0556374525763094,0.0506882610335015,0.98887351467522
0.154875080910977,0.620495442641899,0.297565971969648
0.488395231191535,0.554146084488835,0.997990815772009
0.340310619908851,0.45756344358623,0.868692754312164
0.32075217346102,0.0605829146211036,0.737018770806864
0.226685635393951,0.191796305225696,0.899390101809967
0.49340377047658,0.514740054359194,0.999953127212904
0.796058979370631,0.342935334569309,0.44022645769882
0.616139936637133,0.97024296111986,0.964656984827359
0.547442305853125,0.141038042286877,0.388584278966783
0.285406404075213,0.408100661426783,0.71205432481551
0.509156781955622,0.419397883734666,0.989602168128505
0.355273795560002,0.0245157440081239,0.976568409057055
0.456245464833453,0.628380722930189,0.947093576877274
0.986701152645983,0.775774390975013,0.734840346347077
0.630774840250611,0.653060152601451,0.989149016129602
0.899961263489909,0.161604463345371,0.618305292175705
0.438754432090558,0.675650655700825,0.833338024605601
0.622345964796375,0.0896466684537008,0.648347683660187
0.121031840501353,0.356367746568751,0.36559655250912
0.43395030412823,0.665718421897851,0.874591021152474
0.920802142721135,0.0909215455893427,0.970879695575609
0.633530068317894,0.396396552726626,0.986710688653242
0.783581942409743,0.15635733726481,0.710291544343387
0.781268245482352,0.526312527871691,0.338247005095528
0.83947455369588,0.782862568560988,0.739179611853386
0.770312062690966,0.516869749015663,0.368588045920741
0.668745506729465,0.505332966374699,0.818608206594353
0.982074506765231,0.586626380668953,0.815548296241107
0.434746321350336,0.465022092606407,0.997408671625154
0.654878711280413,0.985449391297065,0.938650632929523
0.641900363670662,0.829435770524666,0.303849416308926
0.767999105439987,0.0717957090032287,0.314269908079483
0.393924735585228,0.209961643792223,0.368071811440017
0.0465679746624082,0.556487572319806,0.987535488402972
0.958284245267976,0.868281785560306,0.360364196453928
0.160798534573521,0.380469614829868,0.29362043870745
0.0696678386065178,0.440399867760949,0.943945876654351
0.297596101730596,0.177371712191496,0.438914719252361
0.702915441174991,0.604858294639736,0.798919305541033
0.042556686620228,0.277983061738778,0.725060441686669
0.542728274817113,0.87158526271861,0.465441715515813
0.524149223546963,0.436784805766772,0.996962379774779
0.499358219297137,0.475786817363929,0.999908616061367
0.822550609763246,0.406457783998456,0.293592113795478
0.830435589567758,0.839650323775597,0.986911078603318
0.718889312163461,0.0166691591087729,0.967291307354767
0.413675189597532,0.94113919781195,0.975581518558455
0.101567531988956,0.923019689461216,0.898224277452175
0.909835951395333,0.525964762690477,0.810444188860101
0.706240247120615,0.740994366152212,0.939177746774898
0.610598080510739,0.601873529477045,0.998768401019444
0.0261532432045788,0.314787849908229,0.986484579711359
0.95168039083248,0.221225879205856,0.386945453664303
0.274995191529393,0.949402500989847,0.623543895682725
0.964800315282773,0.988250242815819,0.876961646427417
0.123618831379805,0.89124679028336,0.962913716565814
0.0139437335990369,0.111623193228617,0.313464543693399
0.246291303046048,0.660310007477179,0.699098063205006
0.845435711449943,0.715392555023543,0.368079553036955
0.73723619918339,0.579276893912815,0.567628086234055
0.960154469838366,0.773871691993438,0.470177817762359
0.745213530277833,0.17368342931848,0.608502212105835
0.388015520770103,0.0425677740904503,0.99619996441949
0.406054920274299,0.767300709370524,0.443009607873305
0.171454982019961,0.576319967957679,0.29453284642101
0.0345983276139013,0.330252546608914,0.977598388687364
0.343857545320876,0.811938786405604,0.367841299080898
0.217070870479569,0.875267989285756,0.459436471462403
0.306045676195528,0.860757232820615,0.296816072785521
0.0298438872457482,0.564194548282772,0.896113185646212
0.643713095941115,0.71136485676188,0.865119131037745
0.859120998527389,0.67026824077731,0.29339294992748
0.625022727007978,0.213590547080617,0.412494027352922
0.395749377242755,0.272814834109042,0.674631120639567
0.868878880719654,0.843845977522433,0.919210325555618
0.0804157462064177,0.281835966493003,0.401843535129005
0.20387293337984,0.545208419471048,0.310878228478108
0.0876948077320121,0.558554123779293,0.80231017428572
0.201001982131973,0.42680804789206,0.315961954056003
0.192888572907541,0.669484437838662,0.418896355285955
0.374436077754013,0.886341474943794,0.441162066710715
0.665577517158352,0.481965129036922,0.833478544196803
0.324526350010186,0.0862773017780855,0.504788346339645
0.244651322427671,0.85332444911683,0.46964586064734
0.051225160701666,0.00684349035797641,0.66006668759639
0.206212421068922,0.0573579734731466,0.308955468689689
0.127063281264622,0.473965465460904,0.485549151709195
0.903245368593372,0.916336853390094,0.966011025692408
0.561836861551274,0.211074616564903,0.332819508450463
0.0594246957390569,0.636835080825258,0.892924395362239
0.704816105829086,0.224937375648413,0.757545649849667
0.0883062154022045,0.199373673963826,0.33595159856227
0.360745732280891,0.444066466629971,0.934868471466136
0.787985493145883,0.0042861156091094,0.757653506963291
0.450803636014927,0.152954264560249,0.33895331427556
0.159725721446332,0.911875443629455,0.526224579619162
0.472918198695872,0.336857580082957,0.846309792906459
0.344584207823966,0.779711970068514,0.523903658907476
0.52896256722603,0.650471385801677,0.887231034651148
0.523299834480043,0.385971428338438,0.961007493390165
0.0215382065856829,0.634722983144689,0.94499652576582
0.29574028215697,0.269887854196597,0.966907920156461
0.57756175558595,0.898891764231026,0.64451111011967
0.42851043620659,0.747490732755512,0.503262829075623
0.765654038586654,0.99756743667461,0.906032529997138
0.312332159311045,0.760681531364564,0.76911211385732
0.317789533254225,0.590658047979698,0.855569771345316
0.485792960183695,0.939916603308637,0.994453260334658
0.550610208534636,0.673256846986245,0.829569187134155
0.0446523283896968,0.704117919207085,0.791533738013354
0.852213087358512,0.366593211897649,0.300451281550091
0.534930229151621,0.972774182518013,0.84340884488473
0.768952177425381,0.486436388212722,0.372622454671576
0.0390062603335828,0.295255743446294,0.845238551685393
0.0994148988802917,0.316628490028903,0.390263858742843
0.299545849552844,0.3711361266491,0.869702961947576
0.566340978334658,0.884962847113144,0.539737741343764
0.980914913440589,0.933313596057706,0.640137283334445
0.758251363526098,0.470493481380399,0.41708297325077
0.916456651431043,0.958632579083089,0.71790452871568
0.410945578699466,0.0784374869968742,0.837291277712537
0.815441475041676,0.904918827404734,0.428393029907633
0.219372129525058,0.187389783979859,0.910971114920199
0.000458681780844927,0.0015860403762199,0.991835627713085
0.901652899468783,0.134444408309646,0.824135961356641
0.287850744118448,0.0401379597256891,0.800425428351445
0.168475802778266,0.609652251556981,0.292850502365831
0.794406720011029,0.0689122967948206,0.293894223866903
0.314449313904624,0.0941632370068692,0.415398348303304
0.891828825914301,0.509680995114148,0.648456998860887
0.554483950857073,0.0636498187729158,0.977082007643687
0.657641666688491,0.443104302260093,0.889167389518378
0.777088843491394,0.285548544844613,0.791536612123909
0.404658320343588,0.129304753248114,0.400637620032553
0.94258071105415,0.522002529700287,0.996531199705467
0.0971812567729503,0.864673615611158,0.806823179501211
0.663373746917117,0.19429562417604,0.409796411114131
0.724651070846245,0.946378615234047,0.594479291569252
0.582858522918075,0.758895066533703,0.46484131427915
0.85042201989796,0.33368856340507,0.294284880347913
0.652009858696721,0.0462029176619835,0.951160875687224
0.506891718637198,0.716066903282423,0.605557042907718
0.711331653275061,0.682999594875146,0.967393884898837
0.607456382206641,0.74988636074774,0.557719923830327
0.23682049259264,0.736396401511505,0.953645660398542
0.0770256400643848,0.626506735362113,0.760199004634228
0.667934421544429,0.123096532126889,0.321645695719343
0.8938665305553,0.65794303750759,0.414668800376377
0.933187164572999,0.477129070057068,0.975602611578966
0.0152268931805156,0.131713232253212,0.294561212444027
0.549605901972391,0.12666599965468,0.471635658989995
0.467168502673507,0.247981552702375,0.444743531549351
0.784655739592388,0.108882008638233,0.374553222087637
0.468868201358244,0.482538676447701,0.999685506246989
0.204453519050032,0.603395219609141,0.347196954926192
0.446285827113315,0.725001268979628,0.592984239512513
0.331821902520955,0.986888366671745,0.957773602796611
0.807192786542233,0.305375013222452,0.49981252540598
0.990090427000076,0.394249173981603,0.768966135347103
0.672850659898017,0.115445505673997,0.33921062438896
0.895064471284393,0.4469131914475,0.646204988553632
0.647605244041886,0.567274400411174,0.927049237156546
0.713839744865429,0.519747118082829,0.620649620845151
0.962373204647098,0.328056527029723,0.959683868515951
0.80518295390578,0.349291051767766,0.383764997896631
0.757602234086022,0.498801318589598,0.412785676936641
0.228727415790781,0.439482531185728,0.386941502428376
0.938366417437792,0.387639796422329,0.928146265802906
0.697977862159722,0.0269834753344767,0.961302876277808
0.370540428153705,0.834254778363276,0.293893109684015
0.930830478654709,0.569070796834771,0.938165937087422
0.521399293985218,0.61101786951581,0.964756135342481
0.124007794434205,0.520362349761184,0.510505786156362
0.464553027722985,0.479106573842,0.999842987834773
0.396452582221944,0.721771998144221,0.70175884970602
0.0668290097462013,0.325963923823088,0.69435816602059
0.195495282864664,0.150667473134585,0.807138874908007
0.974869872650597,0.954523212957196,0.908191376497526
0.326419543508906,0.433860674489289,0.847594133842217
0.334962711501401,0.786571311129723,0.515826236770904
0.533733884646092,0.503210289251991,0.999655038822425
0.863257815061137,0.286568017810117,0.309243105993819
0.553889228034764,0.863427326347213,0.406816758094583
0.415920367338695,0.744380966487806,0.538993688280158
0.760507914050482,0.703449940984137,0.83905063058846
0.356075721967965,0.756399154351093,0.624054137028598
0.689580518697388,0.245194354993291,0.81200244590823
0.256802124609705,0.24102079286566,0.98221231952686
0.198407892970834,0.594452139750589,0.323160374665024
0.946359611633234,0.4586708538495,0.996622272164639
0.800892220467795,0.752703161487356,0.836617416795073
0.738622668711469,0.500752903222106,0.495319075928196
0.875083836162929,0.0300838259044103,0.332146148064218
0.323081554008182,0.252368286573328,0.800460905649689
0.47022646990465,0.262387996428646,0.508641195878535
0.262410906478763,0.913659375850111,0.325147944118566
0.0378037554775365,0.588117523463909,0.973791318851954
0.812958099135198,0.0737513274564408,0.317924953601424
0.644643906521145,0.0835343956029974,0.6374410094056
0.811275447327644,0.692649778148159,0.468336948696758
0.911732127461117,0.990926784260198,0.378069545161276
0.0169408786217682,0.582476839878131,0.796976597502077
0.273220794947352,0.655515589083079,0.831426428277278
0.268721619443502,0.429106057698838,0.584636126880748
0.0228911882126704,0.897761968621518,0.391675377338711
0.526751535952091,0.178887253365945,0.294673466380064
0.318373173567932,0.149376251174603,0.300742994802091
0.291928769567981,0.789566545053851,0.676453003281306
0.494304928791244,0.104754738275427,0.680936657700561
0.42463950907113,0.39109434460476,0.989968528100149
0.0252315057525411,0.0589405983374454,0.78752308809445
0.789986132623628,0.321777591248509,0.542547392219615
0.817403197236825,0.312778944882564,0.418156467397355
0.860237833886873,0.765678456989583,0.474057894758518
0.878364181876183,0.45266403910378,0.510239674215747
0.634996380249038,0.376095049692784,0.997447618366208
0.480394957339857,0.0217104778112844,0.776235547678474
0.391653736647684,0.827901692723855,0.293390507695571
0.59482894858066,0.242410069650505,0.491049697773057
0.55978284523217,0.877086908902042,0.487429884231584
0.598576609916519,0.353368845341727,0.964895010272228
0.337746696104761,0.116980154594872,0.351192061143324
0.0653903104211204,0.229123965136707,0.328674123992827
0.090557094572112,0.496045435910579,0.81432549316791
0.196203829201404,0.894913214846048,0.434642445324408
0.818915749067906,0.924729166550562,0.338155123482669
0.238550369717181,0.570883717319462,0.437137198273262
0.339736416785978,0.379318464323878,0.968411737312998
0.187670608466491,0.824197952033952,0.982441342685905
0.232605255552102,0.392878965427633,0.466085669958182
0.151281593326479,0.908985536668915,0.615867709240502
0.846173538804986,0.341503508656751,0.294298117507087
0.774554568177555,0.56284646662185,0.377118851430153
0.182173793983646,0.815489762979094,0.996310793612103
0.87162827583123,0.709372791140806,0.294822282336523
0.91209108534269,0.679639218916185,0.477349160047714
0.270815358097665,0.404597432647832,0.643003705881
0.165600308169145,0.260552889502607,0.519879733564941
0.352273693964817,0.251183763730805,0.682097111726494
0.172263873172924,0.346474548777565,0.316870785617811
0.444020289118402,0.581332145078573,0.996717831765901
0.679747829873115,0.493441816323437,0.775260678198828
0.437435936180875,0.849926696710754,0.341470382727332
0.828807798209135,0.644794134788215,0.306824305021164
0.580383721751627,0.851967291492969,0.336279271431886
0.604454083570745,0.549067577353213,0.981504069089969
0.259086657041684,0.203702873811126,0.802962571017344
0.366080591366626,0.930964067242574,0.815628897635864
0.304944685491733,0.649735315371305,0.939199350771856
0.00866052800789475,0.854456401068717,0.330167563262758
0.536529619351029,0.966547450782731,0.90160498303632
0.714635354709346,0.448382831971161,0.643298740887563
0.0850759490937926,0.414517267888878,0.782808510387372
0.919014204786625,0.663201043139212,0.596179211043705
0.683135396390688,0.400374183162116,0.869419697053695
0.402624315360561,0.982846705786418,0.828867661651365
0.750800859742332,0.8374440160417,0.556911380490059
0.636468560401816,0.706457611418795,0.865317400540249
0.418973668561317,0.0291298093521036,0.911761808097594
0.867232348813675,0.125350292823277,0.987970723866269
0.378491415680852,0.888666077041533,0.46597169934001
0.680989683099091,0.462391774773132,0.785819971226049
0.692699053524993,0.915014451980591,0.45536251439716
0.107557102037594,0.052590809090063,0.610158775000404
0.701954445146956,0.169521965157241,0.397635963711112
0.179903542462271,0.425564992915839,0.292764325407797
