"X1","X2","Y"
0.295278643516125,0.353016566119622,0.900737025293512
0.175867655044654,0.737475177231245,0.582347541955062
0.300894288734067,0.291930674611824,0.995179695045627
0.105479868545663,0.812588982045418,0.485829164826485
0.524646896925988,0.443965020999778,0.998282076772991
0.314111966592027,0.748303027594462,0.832721572548724
0.417418164982693,0.318720192953479,0.84449381080167
0.699298398123123,0.33769274117006,0.954618667275621
0.987616315939696,0.592986161089037,0.767567910153544
0.373940061192028,0.948155014888151,0.96409410944348
0.950640860003652,0.127280902988743,0.430887198929163
0.484156684600282,0.289571280240081,0.635911656094028
0.582735091559822,0.214205643426161,0.356808251339676
0.902319590615807,0.188876124306349,0.42374239018374
0.680522794287652,0.915420802786481,0.500793801805034
0.875533759592799,0.334658430296695,0.321182446500733
0.213370762464358,0.604594970989507,0.378626134844745
0.00527831594226882,0.0493915428363252,0.661190698803032
0.257743671956705,0.285975811942946,0.957101285533207
0.628612948173424,0.594876843800768,0.985016064705124
0.635086334883235,0.312774159794208,0.930447743351758
0.773793496413156,0.795641155286692,0.958977500728915
0.125753743659938,0.35108896532841,0.33854803624745
0.51607306851144,0.0488869759126101,0.984890064369844
0.364412990124896,0.480136842966545,0.921295156675718
0.651331387407379,0.418584201983409,0.934694194459801
0.672399291767972,0.653825249794638,0.989877888826379
0.496042201485485,0.751442291929852,0.438115087282826
0.054221720861271,0.21151031175605,0.328600887544151
0.381396675578784,0.196974101081491,0.341579474518873
0.16695776647958,0.522831164042465,0.309942818452379
0.733659317662241,0.248797594567994,0.979929435496189
0.286212861895096,0.838487313775811,0.394593620740213
0.64903528430895,0.962529437538236,0.990834207690866
0.281308084791293,0.0588240086748265,0.572343446940977
0.715340394562343,0.853323881245684,0.338568795642703
0.0947306754447054,0.784018110240344,0.318310161204103
0.181071412398014,0.93829625342926,0.300795778827388
0.309950629644329,0.00289447933970951,0.943074561196034
0.146663372894051,0.899753666694509,0.741628699667583
0.193189494605875,0.487946825396968,0.294550990576506
0.888414795481833,0.326748515130952,0.353729665433428
0.639555428003659,0.22231502398639,0.488658241247316
0.243906466477318,0.861697539354675,0.42197923044536
0.73019178084936,0.457422203892842,0.555070375717476
0.026158596673049,0.687039841988822,0.984221661379217
0.468988330722088,0.0802683693622239,0.891619317608355
0.361371156765381,0.305089965747902,0.914195088147682
0.420173047904856,0.279866657071514,0.658703431445177
0.780904567527818,0.195328234951012,0.94952552744386
0.325117646679515,0.719463938227156,0.923802549313185
0.677911581227323,0.482392449951265,0.785767958524128
0.711500926721608,0.323854106445797,0.952317454814365
0.00935494813928381,0.471435845253058,0.640405592482976
0.26944372075866,0.388461562324781,0.674913134908192
0.842282891115174,0.11867881672387,0.818366878169878
0.548964000245323,0.550166853011353,0.999903894200133
0.296824363115942,0.0961717683586758,0.358949552542696
0.42831059644511,0.201397565520369,0.315963554130428
0.819030939264689,0.570350596873788,0.292888850972087
0.489276866534958,0.588407472050516,0.984730587738869
0.980224512693705,0.725963141029701,0.927282249696344
0.845005618242547,0.341003994043916,0.295133137471557
0.204908931087935,0.100111412568484,0.369217196029975
0.0376239616454113,0.0899526724345051,0.615449200326593
0.438602807380725,0.17119581535575,0.297026555844183
0.301436248532729,0.452270375005668,0.71752634702093
0.594714030693052,0.397008454952389,0.999080338449621
0.292619820755674,0.378077886410058,0.821791260715572
0.363213553634472,0.0160625424836762,0.908688738679887
0.221888738062,0.930239408344263,0.304402351834079
0.844702472442295,0.934004145859741,0.39050083229521
0.522997824451188,0.0528852962644305,0.99443107596058
0.462495106032118,0.372148576907348,0.94460859910799
0.669631446212996,0.299768690908095,0.966856236711577
0.587333784716902,0.0554922862285748,0.986497799427225
0.12794931990793,0.161138617805438,0.867161877565745
0.850029899888672,0.131808504096232,0.954133215002582
0.694980230879039,0.0667824843307026,0.604195625177247
0.767951467799721,0.329823434625752,0.649727375387261
0.613051095720613,0.607251603886718,0.999257432183773
0.36599740848178,0.175691394450609,0.306830869421424
0.0529770259433426,0.925859908625716,0.91246112681442
0.611881256918656,0.749919020803878,0.568336959558519
0.629909849744523,0.916013683972415,0.680920056646016
0.867346612627152,0.638146083425032,0.329429740815916
0.55041143599269,0.688886504877359,0.764858210735341
0.572977746404707,0.00874006698234007,0.686407072963193
0.34788685343368,0.458334628362441,0.89112659333961
0.188591549519682,0.0208821678222157,0.433888212584712
0.571021663086256,0.43275838018721,0.999695356381083
0.412208974555368,0.111838974149665,0.53117656124077
0.251586302091135,0.856604408984538,0.420051992747174
0.0397591609128285,0.356371555363527,0.989530155630185
0.399058265880216,0.316851218381897,0.872057343244819
0.69194473114959,0.894763534576399,0.344067160890961
0.989078649457544,0.566760485674255,0.701545935717873
0.0678383781914599,0.27461355407536,0.462953438083482
0.753287273226306,0.483593407467473,0.432717639094213
0.533672829472227,0.177532642097445,0.29521751533795
0.186324037033133,0.492011267717462,0.292670167281885
0.0243165617119521,0.785995715848869,0.546908141534282
0.215705986328889,0.577630903223064,0.357007007741756
0.618308094003703,0.70493238427001,0.823092922839929
0.42795871084719,0.599682491181884,0.994119339031965
0.248308080152608,0.807316086290171,0.787423466892025
0.313125425273553,0.294204036515905,0.98483798250273
0.00394441955303773,0.380686559418216,0.735676288626165
0.111910847968888,0.946870350762038,0.577262332195483
0.416895818391815,0.268283665336901,0.603907297475212
0.289547521936009,0.376399657735834,0.811964679764132
0.615273454349721,0.354203897491097,0.983331222134681
0.338860376562225,0.611209174840013,0.953507584030653
0.519156604783609,0.00174681943655014,0.550537258204793
0.0594473202682566,0.442937707706122,0.989290447137955
0.278822175503476,0.421700664378703,0.650377106391314
0.77026877034572,0.944630474427016,0.376183890726235
0.370103614060208,0.63363808865333,0.999160902153838
0.590002222859301,0.178937150845537,0.29387906956085
0.421561894090148,0.537535232265014,0.994155902873113
0.600079023854341,0.536040349920513,0.980711534621036
0.542678106454667,0.778033648474608,0.353320052678804
0.499427781351842,0.655181399337249,0.864754795713684
0.607280486647738,0.0409551028900314,0.994245145123787
0.120722202997655,0.58269739315426,0.472372809714536
0.335842260510661,0.741524348436855,0.785069527754987
0.596697738760617,0.247024227844784,0.518114225832016
0.035745931279147,0.0511998740492854,0.944771535242542
0.474045830124058,0.884233108584071,0.574188674058285
0.304468261874747,0.650561354359845,0.939661734288903
0.928999698366271,0.5839480229693,0.907451024395401
0.192903611082118,0.472987260635011,0.294924245575116
0.343931483464083,0.51839593983395,0.865616687337372
0.890055734377587,0.515663354837336,0.630370379692303
0.959871968099149,0.597637417702237,0.988583340350075
0.681230399894994,0.226912824888015,0.662627203569837
0.184280699409079,0.678901287252549,0.403217550987957
0.501623641140061,0.282378302757628,0.597294520502236
0.164831134358421,0.402175562994555,0.295085521282922
0.687039868576452,0.643979061769787,0.949003170761255
0.909270376682049,0.0188196985104587,0.43195651988747
0.507920351870591,0.0172893038364127,0.722797830967551
0.14112432430312,0.700852695301408,0.303966132664125
0.150421785437735,0.62934103727201,0.298986775615197
0.710247258223128,0.206459433166543,0.659805908183555
0.616435851795599,0.502536625706824,0.954217115296011
0.518269263711059,0.445062756139319,0.998071620846622
0.505665734579088,0.513111047043698,1.00009302729534
0.298238014239119,0.846331981054042,0.335154208027518
0.765388955192175,0.813326400262536,0.824733649125157
0.282474251787877,0.89684069824731,0.310015769111264
0.98842638168647,0.139358036981896,0.306597477669533
0.107903007902903,0.802396869732533,0.445909328073782
0.64514420765196,0.505295741122449,0.894525657576704
0.900019438823452,0.855203887423733,0.754825346780438
0.725353973666672,0.062902289534919,0.503900536702116
0.319909675200004,0.0410767037980258,0.916829002609951
0.121937690823572,0.880328510454856,0.994713027784982
0.48607363495091,0.794588471728377,0.308202270941869
0.602176261497894,0.977897769575473,0.8865322436971
0.940637098258361,0.389183825728949,0.945314139474627
0.386921200744109,0.168138014250435,0.292801458802384
0.0205955154208932,0.179659945274703,0.393374506422501
0.632124631874962,0.74397123035253,0.658925656953005
0.432456416492583,0.493284637191566,0.994722621119383
0.284962795927189,0.835879262277856,0.411435729686705
0.98280164740677,0.371496501159621,0.898661303764118
0.848173444974935,0.189627562890062,0.854358694591208
0.140521556616761,0.971951840365771,0.29674880683484
0.996581184137613,0.956293002516963,0.700007684890586
0.174173833241221,0.0122813672211487,0.4269137004999
0.0561332768686116,0.857017671766924,0.390324745094829
0.401527459655656,0.449445364452666,0.986821712840176
0.0468637968755793,0.991657896677265,0.723594639245797
0.922120143520413,0.90047103421879,0.918649506211119
0.376116379805608,0.470123469781363,0.948171391804546
0.608706273741322,0.0140941556803882,0.822052640942784
0.25663338004658,0.757810436622007,0.984728904736894
0.413679061808158,0.511749470274663,0.986213096694476
0.884660948106321,0.453578220100608,0.561709064237128
0.0926127187300008,0.0758357159497682,0.946875135044952
0.916453319160501,0.839528675633948,0.483662655984478
0.224426120430231,0.541502843965776,0.360317621626996
0.684345809148857,0.358843688598135,0.950185714557529
0.734863406637451,0.722978796781972,0.990724838809919
0.0737214636749122,0.844811340977903,0.441924686217601
0.497814950454282,0.905000497473171,0.773459573825751
0.330868320951238,0.858177872264292,0.293379285558448
0.755658212424023,0.185378338864772,0.758295067624526
0.517095922337379,0.618993371337652,0.952225613562688
0.806605424706126,0.824277978589525,0.965902710250211
0.951999595189467,0.746004048656905,0.539736266909665
0.946471603424521,0.281067555916263,0.62427404750914
0.895503804889042,0.173864650311647,0.566774634317703
0.686412650340237,0.413489494089968,0.831555191970617
0.133408308705548,0.0217885583683383,0.296070328183955
0.556267427010229,0.556282988255145,0.999765356079234
0.130415212844266,0.628677711550612,0.349102552288231
0.654306363509037,0.693254612446995,0.953670332934385
0.441823885699501,0.42470559978229,0.99840219218813
0.41818059591949,0.709648856440792,0.716212240674906
0.35441085745045,0.158683840796119,0.293970609439213
0.999741932085948,0.464050892279251,0.544456853933525
0.644963470247341,0.717688946745591,0.840765087768395
0.833139361397596,0.182888719563372,0.969528017655356
0.941580246139085,0.724748464083998,0.546935016499766
0.115315795336384,0.845249284539605,0.812388394799014
0.126954436561093,0.816358537141932,0.693095365254836
0.476579435761552,0.776664218976395,0.350305053088242
0.843037536893506,0.958339149319567,0.297759234164177
0.653939826166257,0.967393506630789,0.995539899862473
0.619927493411582,0.706063730601687,0.822116982523386
0.307885788681684,0.983026788496878,0.995733894352061
0.527046251858352,0.555727934457362,0.998538840992288
0.265865049524233,0.714420154618798,0.978689909082736
0.93308969411999,0.27701572626736,0.480287232218377
0.424171114617493,0.212570528711425,0.345986504295573
0.258429189396789,0.435547918144846,0.522909058302014
0.220724129991373,0.144327587737003,0.583964979424734
0.237240116577595,0.982033343632706,0.763756041251314
0.0768579459416214,0.53979879200994,0.911527421287799
0.0789001891100779,0.0230434129724745,0.565218564524315
0.923843029926531,0.665784487440484,0.633292106388274
0.112417940874817,0.439503372270381,0.569842343942877
0.310289660054026,0.947482934416272,0.775380358450282
0.627951624945039,0.322198773920303,0.942091070087319
0.139876847525127,0.720921996569959,0.328189403159283
0.701372009146027,0.871029176442418,0.29318686343377
0.226527421399252,0.0872482135682367,0.294354383060864
0.792167729455978,0.0509890917160083,0.331779989710098
0.897138370428234,0.728269049728755,0.299757160378851
0.975340500542196,0.0324400519607589,0.979642344645271
0.899235791920684,0.302179991311859,0.350517888370961
0.964903871492948,0.535759913041024,0.914365771121111
0.807391919016372,0.133519033069955,0.684695805166997
0.287655171153136,0.988832360501867,0.993933056800613
0.829155674916692,0.705817105876748,0.416185183706836
0.881402534435038,0.415511661034776,0.484880338702165
0.742130847524619,0.469904215169838,0.487712193051372
0.553363277237862,0.298523616564693,0.71032666788038
0.241779245503014,0.324840908569982,0.730931944148888
0.443803343158681,0.369517012661556,0.9519408346776
0.041807769614039,0.332741740795318,0.945418818641878
0.79859413225716,0.112771659166086,0.459549878973775
0.477944792636204,0.759934943957487,0.40743405145712
0.39608953681821,0.836257373094093,0.294610590945574
0.648008685409324,0.674665944042848,0.98038389105433
0.0584948229778092,0.491655467357719,0.996428999466017
0.0903323165222537,0.973192888018209,0.503684842772883
0.799430280920817,0.355373322028201,0.395435328606307
0.532849257790949,0.823184033957543,0.295760986773693
0.540987386584049,0.0574976850356907,0.995620768072252
0.655573130715871,0.233277021881193,0.601827424026609
0.903136984545738,0.632541733129881,0.552293513069391
0.00124204687052406,0.968615334222093,0.806394977793913
0.747268268952612,0.26521848477493,0.989000583428832
0.906597474930109,0.320832541040843,0.439016620862485
0.229194002890727,0.430857040043687,0.396698637109097
0.50658464021422,0.382305733089568,0.952520507651336
0.345210459694732,0.775974430131959,0.543762985876797
0.997539223507047,0.806096773841418,0.652422588178436
0.865924646794796,0.241402028216748,0.408050396568926
0.967066399688134,0.441388910815353,0.915461452779804
0.569774555744138,0.109073622962693,0.585244032247622
0.577267495278036,0.96961070889933,0.916668149722027
0.173207462687977,0.0833866641449276,0.410286954443742
0.591049011925003,0.920686894202139,0.825618960873524
0.904920149091165,0.554626484766602,0.737673639218239
0.849304925118806,0.398508997499943,0.314014123882437
0.585706613711081,0.236878117855638,0.449505926012022
0.440766696434934,0.943786026741378,0.994687684506562
0.488120049577206,0.814081393336412,0.292696496195469
0.410343097086065,0.623224011001643,0.986513889508291
0.0704850409778301,0.932079190012766,0.992900549160225
0.864366179614095,0.142994408034487,0.988714564418771
0.808544891956029,0.546805595757207,0.295741600283603
0.811523386345711,0.0355165667873807,0.343204748909055
0.756309719801415,0.338331383812241,0.688408185230072
0.132869615385309,0.914102973116096,0.720990457965666
0.840538588231429,0.271107928025769,0.435248594961746
0.182535842930665,0.0725973804905079,0.324598953067074
0.461650877662236,0.251738521672552,0.46474686068216
0.766635510535445,0.593164642931195,0.44485037231915
0.896353797440883,0.534063202212797,0.677938797549899
0.809533878627233,0.831769101325422,0.946714056305661
0.106713575143134,0.221089118437609,0.346772797277861
0.771337407033891,0.364431711049983,0.512011550460627
0.0715979167444166,0.827487597696716,0.349875300406034
0.87768752296688,0.908190725416411,0.86272246348265
0.360151711176615,0.736861174090998,0.724482460077528
0.0669426580530126,0.321156495143659,0.673112627917989
0.972427866048412,0.475490214055637,0.840380499499083
0.920207706649788,0.440571762056323,0.870847645617673
0.511134405368473,0.2396336902373,0.403003869660984
0.144867787585361,0.662608383344719,0.293323351099276
0.560750509903533,0.217125718930503,0.348537766211692
0.478008564395364,0.995041444534669,0.586962321707022
0.717119309233269,0.387293884218438,0.749476359600318
0.47268238607049,0.689719182553003,0.740229381145275
0.568168946124148,0.425153941454831,0.99952027031483
0.210041185933631,0.941211916890927,0.311476628788412
0.452365051100496,0.568104865339585,0.998497391312755
0.358789822962135,0.0676840809790883,0.806427840474149
0.663179048512829,0.598551916558296,0.929808656115669
0.457526014242088,0.108457118550315,0.625824900976522
0.821664850800065,0.180235080733197,0.996202313682166
0.990137487850152,0.427864567610668,0.69805071540453
0.661770239989506,0.926896583154099,0.679270004253408
0.231075461827451,0.347775115239667,0.577115573387075
0.856494060273748,0.0606944231705274,0.417107913978569
0.0886615251309704,0.684112736659125,0.456930901006907
0.0956518644527532,0.276981977052521,0.321612624893038
0.682761940651806,0.15195971468091,0.30564633951363
0.504415587765863,0.145217183552217,0.383302511980531
0.404068842945388,0.850098900938872,0.319728383408651
0.592679769848473,0.0378647648985498,0.977801660581714
0.546485024126247,0.0847497102126945,0.842647958468408
0.537105810733745,0.978386500098743,0.786492430974615
0.0476880857890937,0.523676633405965,0.981928477258318
0.448421645310707,0.697756737031741,0.725887591536607
0.0284379464779049,0.209146964291111,0.479809741540492
0.49225868510874,0.707393509898102,0.648519182970348
0.395702508432791,0.970312569040572,0.948386918926222
0.151894585306058,0.886395584231708,0.819400963516308
0.939145034660352,0.864211952765472,0.46493846663989
0.324116877742344,0.0593368308895733,0.763916959860916
0.978240431014914,0.176361308552558,0.372178776238685
0.823176668436965,0.867750414836919,0.790245518606112
0.199393972811056,0.742180759501876,0.780456394720041
0.984556380465394,0.634329533949727,0.897273262554171
0.211378538800403,0.0539336762835737,0.329518281506524
0.389209665373201,0.686883728855289,0.878836860869536
0.0571113004309591,0.772844927893253,0.358666968183342
0.154199693823932,0.68144829983986,0.308211932419902
0.245312729455065,0.734994135254994,0.974905362508894
0.54921692561591,0.966788131062407,0.909113553380703
0.349806183632463,0.897381569569232,0.457549306457658
0.787868783828802,0.446180412044749,0.331372948712697
0.239934976688586,0.0934264646482188,0.293475075327933
0.272402276650304,0.769265892653493,0.896531344231813
0.81644819717994,0.989775105285924,0.498455168039536
0.705084833639441,0.292559936347185,0.998414711945383
0.285938569417922,0.821267243745737,0.49098336214353
0.064544846336823,0.559139817165444,0.970903894176685
0.603490108095808,0.0304628416234627,0.952036495326025
0.485192010947736,0.847580742035294,0.351917215584248
0.892717354084831,0.739588870124659,0.29363819276206
0.20074749473203,0.679089634170523,0.490044811972587
0.0161558205955662,0.476037796058925,0.716000352160028
0.444574985876214,0.467360038389219,0.999009939134417
0.960023016073974,0.992239459271077,0.789340703102226
0.294452058898751,0.135708538369741,0.299871499428022
0.467869646956213,0.494815670849755,0.999946004458725
0.104095952566015,0.260459215948125,0.293516276496016
0.0152064179305453,0.849220817521913,0.319965814184151
0.342840091448044,0.165201391916256,0.306399342642114
0.769593404843938,0.162439485704526,0.667618085877329
0.494608723940561,0.0636145601663738,0.987869728050631
0.0726396934930235,0.874819368449273,0.656579455456954
0.936809775864705,0.669193209852325,0.751340258472802
0.306852377332049,0.163581114947097,0.351429169178579
0.637700781452702,0.800593087852234,0.377391968715874
0.633605979224201,0.159463349663885,0.292783091570595
0.53857420634455,0.548646192045649,0.999734036740114
0.675880361889023,0.919232589660678,0.550771109266126
0.179797083528945,0.4547951988969,0.293188473209093
0.963950549869332,0.431245223225094,0.947124912894589
0.617424823044101,0.479328187712934,0.955468297393404
0.227137187531451,0.110398818888003,0.34419293455641
0.374787458048668,0.284267112268601,0.791158607436251
0.110155345535139,0.0227436577966437,0.352962758626483
0.581792828429025,0.520591726220446,0.989830755642397
0.911492302746046,0.652478575841989,0.56452412965688
0.745998147213366,0.52492242917791,0.467232721399338
0.885099010935752,0.327279599878239,0.34146275886275
0.255396362579195,0.878851352764992,0.317630637879475
0.463062654796522,0.280060840256978,0.601438243847583
0.00208562712813728,0.474425070151221,0.55727478512194
0.6592270934158,0.851160019405652,0.292881478092743
0.0688581634438597,0.500179658738663,0.969729925008469
0.786142957810545,0.885696113142883,0.409290508944233
0.981647126783384,0.605697978703771,0.858355032881918
0.337234904198674,0.166595005435869,0.314098787992229
0.97659593003965,0.150216189786326,0.299311379799576
0.20865056283935,0.406863822053419,0.349220151095201
0.971614288692363,0.344829646497266,0.995035088368134
0.0516660825093277,0.691007483792258,0.778328953757511
0.866035028840648,0.496884309766348,0.445273142078253
0.898888637518743,0.893322315870551,0.990110287622352
0.190486521011917,0.451061245773919,0.295264469546683
0.377962171722669,0.55188384071528,0.962461700582735
0.863856797856744,0.0793047232825775,0.628194543673467
0.0749610421389807,0.571932110557333,0.894061933750362
0.0315870923355687,0.955338307789527,0.957307507534136
0.138128801431041,0.538905192452716,0.408988551866243
0.706279595320113,0.576599649609532,0.722902060961859
0.252758034098195,0.164927194745978,0.55516602975023
0.367418549275957,0.980343846456846,0.927741061612779
0.470125816813204,0.799669494072907,0.302680265505962
0.0872970107384026,0.842926827765536,0.538094477407529
0.155082430510316,0.508609180497704,0.343128586290827
0.776202349698171,0.656651899542892,0.548496108646975
0.464522045329213,0.290250670036068,0.650989408509404
0.968212110422784,0.374272042383207,0.983937931217055
0.838249441890512,0.95498610353074,0.297703676475509
0.744927458805265,0.625491411987692,0.633341435559175
0.915151584880426,0.335010171586182,0.554210470788951
0.250663343422348,0.615244510296732,0.580118381576317
0.366379053937038,0.940058592849877,0.89648270820266
0.0304789872786496,0.64849283090164,0.994962514478232
0.0834448418698739,0.245782065592241,0.306845513185996
0.238660035131965,0.756579976842506,0.996392660716799
0.498512446352979,0.143015762862051,0.394231772642225
0.270723844317952,0.904644195711473,0.312997074873803
0.708495481638936,0.818094200816005,0.487756099140607
0.293592915356858,0.808889319868991,0.537441655848332
0.069309188721003,0.647171309821308,0.770796555881106
0.929460957790958,0.0266560641170945,0.685870298405193
0.624088336337358,0.637481321506202,0.99629307620077
0.453581124507356,0.167154962811619,0.305213178336158
0.861858058018144,0.172973247786984,0.863434370849319
0.573754554619314,0.933108341633109,0.947324529363375
0.57981076704897,0.979720403891755,0.827748614035736
0.191960456155473,0.00986041809478775,0.556151229256637
0.869844944112236,0.311919556721579,0.293957044017981
0.124711868937127,0.786709921581671,0.47923352350506
0.910426312667783,0.295312407485908,0.388526011551501
0.442842946660006,0.661947906581685,0.876091943443584
0.820027134609641,0.545031038359972,0.293214180711322
0.847516928822733,0.744140133774839,0.456040659533405
0.436339388552587,0.417004576814827,0.997633989628899
0.566336268355139,0.207445779832546,0.326271883908518
0.483158698201645,0.517698203200009,1.00012921792145
0.650259027635911,0.774334965241142,0.538780962508749
0.859401233733166,0.339293978964211,0.296161181356931
0.509388048191089,0.519586163284723,0.999940885502871
0.0819427161517087,0.822795212236466,0.383511990650342
0.58304193954845,0.170855425165035,0.294042104074184
0.0656599194169976,0.468987065356458,0.978003961984322
0.11744882555306,0.352623920953367,0.375566512747949
0.641229832974728,0.350920063203201,0.998030777490785
0.3295147470464,0.526602912819013,0.819529002927828
0.0554980820443016,0.616313281768234,0.959244267418169
0.0363492825136054,0.927148755975068,0.769119464740038
0.764047711479943,0.773885327373398,0.990553151026153
0.230954700690461,0.392308705060976,0.458980045164861
0.551468751148786,0.921563987420173,0.890433420069432
0.598912068785168,0.879083385318285,0.444990129099101
0.371508030123776,0.781911279374966,0.44041146260978
0.259816353696398,0.626262434791541,0.662621480418832
0.0275038024769165,0.558088996845996,0.868233133066586
0.0775293990976643,0.876221478862222,0.718131518322149
0.244101670238655,0.750456351302797,0.995961796729573
0.170017281760927,0.673318025140092,0.336665333019513
0.160775972237112,0.848291578680743,0.986347845814172
0.609970349881798,0.436970529345795,0.982861170747714
0.667394434073707,0.74516808710224,0.776898145266031
0.113960505773313,0.365637931347126,0.420714787522498
0.803220965933753,0.393958898459794,0.328326950384598
0.246591367198387,0.0313406471277121,0.67118881337005
0.398527842120267,0.346989393964643,0.956640280321366
0.308557743188459,0.723063851125073,0.956113074758036
0.273670205328381,0.348069811536698,0.821744148805111
0.908469646546757,0.789565611070488,0.320402728494148
0.142417988426518,0.917904508927138,0.603181353487393
0.254588333701482,0.702624969420722,0.9101425948523
0.5593592551162,0.54404628951475,0.999171716753165
0.775728751170915,0.918817876526155,0.293708670006348
0.177225832431111,0.660206769296434,0.33819535891702
0.679048605826916,0.711000140929827,0.960189486062366
0.90191577178752,0.509599730559159,0.743359063820202
0.228816066426924,0.869670351675013,0.43927704514134
0.768042398864636,0.690090039989911,0.734302549514822
0.812821861607954,0.481883215367096,0.292473641633702
0.493377457470633,0.649739799663657,0.88187062660619
0.315717444402864,0.889124523696955,0.336518423688284
0.953578756855801,0.870716979344143,0.399126029529954
0.646134463887895,0.102011203306727,0.472711487543019
0.796676258395426,0.964446992021753,0.396802639496918
0.449468325792812,0.708850311351474,0.6707257134608
0.727816597252851,0.270263076463481,0.998321750162546
0.219457093671896,0.00449294647038914,0.803732540043938
0.815603640964022,0.692467821475351,0.443557322556562
0.311033866114449,0.657993024022551,0.970117138371276
0.871498759463429,0.862955622261157,0.985830906707197
0.0609181742854416,0.0776153337857686,0.943574467267518
0.21658934230567,0.433937487129122,0.35065600684083
0.525191965787439,0.429450946483528,0.995021523165289
0.810310479889624,0.257610302128596,0.712183077498396
0.460749217179371,0.664022152543999,0.851985444160721
0.777558443583082,0.826483767310856,0.804764651146248
0.316307353432057,0.213811981548322,0.588031872990586
0.391705434802221,0.701139937032713,0.815117287558791
0.390459651704645,0.963155069558183,0.986880236184195
0.419652633008081,0.0824609176504891,0.816842297950199
0.728383416519035,0.0298067557737231,0.827360313519563
0.385727140171919,0.314614542447729,0.891701921536539
0.530983710631728,0.174237707577879,0.298566723446023
0.334122255409369,0.115953469892265,0.348890668240218
0.595268281119876,0.984797544304514,0.803485021005018
0.757176086618099,0.138814883324318,0.429265881238432
0.671733111203881,0.91123400358134,0.497349634611303
0.491066909483867,0.438808070797008,0.996633237689482
0.217054608237231,0.805400155307259,0.9541986678565
0.985109178528655,0.244496961536584,0.838955513513206
0.570757909563137,0.929931458016625,0.930793681029122
0.704718629483599,0.990330882723909,0.994305710118503
0.327270919581642,0.256373772123596,0.806152056561635
0.320090816788608,0.567631404821062,0.825714134827858
0.709398821700131,0.574286456135102,0.703357259212204
0.51218175474531,0.229550539456075,0.367256697389005
0.383117101137992,0.898862444445957,0.557361996732414
0.814807329686359,0.0423339823468123,0.311162157619003
0.196080487881787,0.753287372068036,0.82000725698335
0.0232579251374118,0.779344793997239,0.599489386595535
0.88774694130593,0.624808614983689,0.452487599552446
0.826931113462895,0.186537601183169,0.978255459594128
0.58080820003082,0.694949073011754,0.784158278107562
0.837623179428978,0.146769466072088,0.967236480872582
0.479025730028516,0.974664780558087,0.81574652298961
0.544015613073716,0.993711727508111,0.618490085209067
0.678721814074786,0.381121623550076,0.92245391337829
0.0804755483414046,0.81185706728627,0.337669745855537
0.0343318579792976,0.563460745510412,0.930624847001327
0.8326027989625,0.843736132613849,0.982197087745926
0.54583494900912,0.525332504829625,0.999327781429504
0.698862355149817,0.0336666855695657,0.914352986339716
0.578587585599627,0.61269796587131,0.989019139514477
0.14840969712846,0.235563128088135,0.527975051718597
0.351170325906249,0.758083954238566,0.630627886158148
0.763382452771533,0.404305688068969,0.464473250437161
0.891765412232839,0.504036770842969,0.648734469628044
0.758827126804506,0.394736233476782,0.505562060266036
0.0213554365651216,0.363604739952134,0.947078754292803
0.752680887044873,0.485213461146457,0.434583481585603
0.271575340104057,0.134611077573383,0.326331161927842
0.793733152312459,0.154486175140133,0.763917990377385
0.262811828806298,0.149227432241896,0.409893012635237
0.732604092538357,0.497471757507417,0.52386355276549
0.992295618364355,0.640783893371699,0.840495787913526
0.914650603599846,0.788000121026533,0.30338749105121
0.24952826744807,0.361027776757954,0.642798673833948
0.411848783912836,0.95904583850503,0.985589615892268
0.535031941194553,0.809156426625326,0.294143196062961
0.604654081054963,0.602333334789146,0.999557873595952
0.415374205960426,0.0614699364763219,0.965549310374235
0.77860014572856,0.64579991464084,0.500876696737068
0.359628947172547,0.972019863069523,0.984444178920085
0.934216206094716,0.267065934630809,0.44827683788648
0.690866916730301,0.238667753195623,0.779227232714154
0.206213568571489,0.854042970222654,0.69392362653193
0.0503228807754349,0.852149755527033,0.340706554160063
0.720466336575802,0.960097318555694,0.761491052560578
0.588861161332112,0.907014230733272,0.699649200028538
0.454748598212842,0.732102956582792,0.548010829731003
0.353432163960999,0.887532252285862,0.403531134183835
0.802557958016871,0.215274367878446,0.969864867487019
0.638180117450887,0.761968286308227,0.572626305172341
0.305695112647023,0.156943372229813,0.331959422644346
0.0136333739601541,0.731058166376315,0.952584481120815
0.475412744991947,0.87546496232925,0.504608508810911
0.935806212239899,0.815699473771965,0.300925282292948
0.137519837464672,0.420245959589491,0.378060486631893
0.482425703829853,0.400852657698793,0.977117254647741
0.718292279639514,0.396010567891411,0.721059239524154
0.737682248126948,0.0549782887392212,0.516728593316807
0.0614985669164453,0.610428307960974,0.932339418198245
0.703414080827963,0.120326072696364,0.295403863252562
0.0069993432527408,0.913069260115502,0.372365444903191
0.123692148458678,0.204801775045926,0.51991164085881
0.919668896336807,0.765649534098804,0.299912194183731
0.422989328474272,0.985805879825028,0.756371399369178
0.368092746119481,0.303875033242395,0.893879913252584
0.508343555673957,0.976142734454246,0.79602931284061
0.970763293466298,0.699282535334583,0.944707772148212
0.961691315697506,0.0464885790289845,0.979357065281337
0.762643208856229,0.56108976146346,0.421494755664452
0.87049022490182,0.00798236532579176,0.299671324545654
0.480532435036497,0.0640717551615089,0.985703377247248
0.372946389674209,0.331863685614429,0.962482721512863
0.800682388805551,0.152542823635507,0.795879014349741
0.19420111495303,0.0766348399796989,0.311660376971369
0.657397087316029,0.0282530777351931,0.995372752977988
0.610988613424357,0.488373269804986,0.962677562309983
0.974067071458558,0.33016428243625,0.996001511149593
0.99477104543848,0.21034840426431,0.735709998495614
0.945896861587418,0.383929603486322,0.966483211324132
0.20322082202835,0.770370187358931,0.942470853231482
0.555714444929501,0.0713344589236658,0.936929559001212
0.0852777379595209,0.19386758777732,0.339747780465697
0.0171211276147515,0.252037812229479,0.855992105735366
0.171891082655173,0.0257778805801645,0.336410105080135
0.108800897059729,0.0943670223918743,0.962280871997359
0.153260481214151,0.738526145028882,0.437424456329606
0.0144859162212815,0.0988345206202939,0.358321260391668
0.83032775873295,0.231347786496626,0.719173311499735
0.321127275256673,0.796790582125774,0.503630490611174
0.857600543712964,0.153689649886452,0.98016738616784
0.429522491357056,0.945563690961339,0.994760241587869
0.789125979396747,0.140840551627101,0.619357782415439
0.886941011534072,0.764601868715836,0.333258100853046
0.312032408002997,0.78264796717721,0.629452096934042
0.197816450626589,0.84130261123972,0.851552362857394
0.434079747236799,0.184770129719051,0.293797691090109
0.586062517126091,0.975240444339113,0.881950742057837
0.040725535523612,0.621309890529141,0.99630365565707
0.101139716283651,0.367630354299676,0.516720486198277
0.043498100514058,0.829716161697637,0.294164734092115
0.100638367604697,0.259769428284606,0.294826480046553
0.0964651922832709,0.590563550991006,0.662630349340513
0.521738492336823,0.0389126428484451,0.935825054809635
0.883573851812398,0.872666914038826,0.978695229711311
0.187910395942861,0.636171400138177,0.336438242798746
0.332067136984551,0.573451508443104,0.877566723559671
0.788098652958171,0.31937779475376,0.563499392194723
0.162503989327932,0.766927243415266,0.651540919904447
0.122274888208602,0.199875708192354,0.539395542157143
0.0254380978795234,0.888881903799018,0.363129724959703
0.665992845738772,0.986452758621657,0.955942678175369
0.905508455659728,0.586246003717417,0.690459697685733
0.937751476181904,0.642087226146134,0.854225383497544
0.930092009580927,0.101883725614054,0.836564527669017
0.103851889448706,0.579039232837502,0.616316290607704
0.782250567453681,0.254248001052765,0.908798558101595
0.855089716548799,0.278721545538632,0.345303839765626
0.0630280093788169,0.0911383243184537,0.864071705775861
0.45168807926611,0.69558434251626,0.732097748618146
0.835189005295979,0.685712366320193,0.341448485133791
0.606114537013927,0.830490967329359,0.292668341610059
0.636975618439494,0.262862855966669,0.713479851356354
0.921206599085825,0.0458652910983656,0.810836946011851
0.640778010650072,0.191103195027681,0.352646958346372
0.280161513863364,0.286488559196005,0.996657423471927
0.0296729108279105,0.107324956563534,0.408962328636485
0.77207935655769,0.60345229231962,0.437009991615242
0.77990731319203,0.514634548261762,0.339690663138365
0.713550058629597,0.104054525236832,0.312926951038509
0.8342357225616,0.490323142060079,0.313905115214363
0.943846089078812,0.791043328443309,0.317052336815423
0.352715564442799,0.275121422814438,0.813332080392072
0.0448191547435708,0.866276771066943,0.368324067963177
0.740544087124057,0.587715610924177,0.565806049353353
0.543609296519542,0.377010528270854,0.956278547774199
0.926737054537283,0.92873970602802,0.993320270931437
0.503308996498119,0.395514871598454,0.970028202858021
0.528526662798831,0.29794728872343,0.683328273017272
0.180879501280375,0.136617826712783,0.796885102765115
0.736431014035828,0.336226531944703,0.811057230205991
0.393432119485456,0.797672336478019,0.344159882630968
0.225383483067155,0.301612802200718,0.730059217118101
0.0792196868609171,0.666663869128097,0.600112190061899
0.236946525438456,0.595833933940856,0.466161857268571
0.958028977919836,0.735082076599356,0.6606840560819
0.172407563921763,0.39975688730902,0.292601924886812
0.605407843061723,0.273082262434298,0.678859230910182
0.818520110128447,0.183755873378133,0.996297033175837
0.612472386876354,0.703037141249981,0.816977051044515
0.599365510058356,0.126494005989051,0.410200073875567
0.264417230655905,0.923646795722656,0.371847185957322
0.72272260916885,0.308196063798154,0.957801660917803
0.261925649230368,0.635323734930018,0.70283313108611
0.502566923881415,0.0118888926508371,0.660176239716906
0.0107633315001149,0.147192016174085,0.326875872958652
0.147994991006097,0.202552311184583,0.736753272080026
0.576328461402096,0.752180872311583,0.487104297250473
0.955097914107144,0.949461511726957,0.987009969033549
0.2887088940877,0.521990831743693,0.634392298393947
0.214572098958539,0.987431419789093,0.679102748527717
0.668236883533886,0.3860680784625,0.941573332549137
0.382208694824018,0.385748069044668,0.999379732252682
0.889860545424512,0.408111070741201,0.537308581824767
0.15683540008124,0.639038885418093,0.292768020281491
0.15898022047407,0.552135213453323,0.320504467057245
0.242490254772594,0.119874081849586,0.340199810622778
0.275088789574802,0.287998386213789,0.990572234443107
0.0222978223792743,0.0652851694694255,0.690555806185864
0.426486425025621,0.60923312881845,0.988778705526317
0.267828363319626,0.909308708849829,0.321363145700732
0.384278334717033,0.543862873585196,0.966915576572045
0.0192114333645441,0.712643562290352,0.968729851186532
0.0493452046683524,0.937119259239873,0.958076286733825
0.825101981060114,0.651775534552988,0.320914848694707
0.692869784794049,0.740782141461968,0.895819321995054
0.817100113641704,0.783411510840524,0.899834811121031
0.149612504761899,0.881378219853388,0.875966163718489
0.634054534393828,0.148338208268164,0.29934117109413
0.949614897703985,0.243298524529906,0.465759546188126
0.873682408699766,0.0346440960904583,0.347054072196622
0.283735945476452,0.713822472974891,0.998299361331363
0.998170148658566,0.912921501223231,0.343535174612614
0.490079532567412,0.585433370038634,0.986776442075587
0.379263988208957,0.190380470964126,0.326145749777741
0.880109811948845,0.419239253058564,0.481209612518304
0.458249170720577,0.777667174357222,0.353872669825313
0.20584946351219,0.489487123466562,0.308758379459206
0.795293619194999,0.810696702920133,0.975189728042473
0.407305892902892,0.410240880977828,0.999726886874986
0.109058688220801,0.575228704659268,0.57658380367692
0.969310474057216,0.892422409232473,0.414395122207013
0.836630350410007,0.478835341686616,0.317843874115522
0.852361294385046,0.463583864537068,0.36458752740633
0.68375972584472,0.486135601509362,0.760006585059079
0.98610123175662,0.113027217775118,0.309870596179512
0.000657036059303209,0.25547144053923,0.98365767654946
0.450086794976844,0.272919198083458,0.577988318347613
0.74382706967718,0.0739236658818554,0.360830383456358
0.647771447302774,0.69698036533338,0.929137692596458
0.143142841545632,0.38447465582029,0.322103668624283
0.658451246297918,0.434208958508913,0.896828671497316
0.685659462390467,0.64668883509445,0.957419116993519
0.0848140470189974,0.137428793497384,0.6711436617694
0.942763393358095,0.304872381637106,0.701596180953201
0.397818275664467,0.833564139379887,0.293671084043511
0.966846757109044,0.465322441414464,0.89809622299831
0.157533914339496,0.20393032508716,0.803756034033256
0.44517945425841,0.584458100397838,0.995562187371881
0.735375873910263,0.529144532559905,0.519289173745995
0.979924218370346,0.95298657788639,0.84952799902253
0.277562460327521,0.269436865652679,0.994851336635521
0.328324010439916,0.710169096701779,0.945567350209961
0.539517782369163,0.951822546940297,0.987004671181607
0.388971283657709,0.484292001468828,0.963359284294312
0.952395269979956,0.981255183761939,0.830606966790863
0.202423083668575,0.787519552560057,0.988439931940138
0.593431150122546,0.370479109585984,0.983129382398894
0.500067101662513,0.122106335863937,0.529579133077076
0.471052998767002,0.527789024218218,0.999944956332537
0.0487325651559513,0.837867108316161,0.302839315628555
0.567369706973201,0.596166526065906,0.99403551775582
0.52065027197171,0.754964283840964,0.426613769015615
0.331500467666658,0.237918844695901,0.679961553323357
0.804931155091617,0.218354902056977,0.951059755500933
0.534577432421036,0.516987786268117,0.999730296526195
0.362133563740412,0.261462487965124,0.708405788054704
0.291272949016187,0.801710514873732,0.59584729280453
0.547116277717054,0.627780611828668,0.950381000076243
0.754307563086273,0.106769473032327,0.301226021354565
0.425175160257611,0.23242434588098,0.415727663370774
0.53141793840006,0.935856389001477,0.983432522125725
0.721928869320313,0.34964036319009,0.837818607173123
0.642395836709067,0.675726131203584,0.971144724984189
0.326184972648509,0.820762750398135,0.369491692142298
0.564408583259909,0.219464823449962,0.358345611451588
0.761923100681277,0.456759741844144,0.409779378229723
0.932741690716241,0.0442675109286793,0.89543799798066
0.25337331507192,0.93114623327041,0.378868791676909
0.5970473943369,0.412339893407188,0.998748936567137
0.97355167461792,0.873499869085615,0.315153614521657
0.879682319886982,0.0991011066432111,0.928672684871354
0.355075612602523,0.0692842038064264,0.778606617983714
0.666886928667314,0.30610584660992,0.975208610603709
0.523315998986363,0.450730593621265,0.998857746612605
0.858869955521543,0.0276158415884711,0.295949785723665
0.841071941260481,0.99776375321555,0.424707295991461
0.874886570218718,0.263988299033837,0.313866726770597
0.303129531895742,0.228086692899931,0.740335531288607
0.118328159536002,0.510382475785911,0.558775440571244
0.0383651413079351,0.407628034435911,0.97952130933347
0.333592790553346,0.865663028923329,0.300261437810266
0.446345703607891,0.416945609792601,0.995620961857459
0.868122540339595,0.668909324318869,0.302031323300397
0.466230132604251,0.283886153847212,0.617871176462473
0.0077002731396351,0.698510489395121,0.984560847272019
0.274017455341993,0.733581751560792,0.995319646021292
0.23380667667021,0.300761352359783,0.787357314957314
0.813906428342452,0.128856093508424,0.691648316183683
0.392588491418166,0.994934237087378,0.716961543932338
0.561432741071796,0.234312907290645,0.409343030270424
0.828273137569195,0.672405528059695,0.340502584965579
0.234811698292382,0.473962468149373,0.388936380921415
0.738227915666066,0.999969300040742,0.992541256048184
0.102833616643213,0.368223828401417,0.505087154947371
0.565973945495905,0.883527817818569,0.528665045727606
0.223157218826469,0.677850775729632,0.624148278289373
0.563912180104759,0.562211688959738,0.999849201115982
0.623440614822321,0.141269834059523,0.320163621675567
0.554375210192986,0.160271009125514,0.316691489350099
0.165404797687661,0.0476874709404074,0.297367739677432
0.741288942119339,0.343024443465052,0.759415233357749
0.801478680162458,0.630069723670371,0.361839107008445
0.403104988334933,0.227534546783892,0.424750170084561
0.862906967259711,0.401599516230635,0.359896260698697
0.993612579007866,0.840105755551951,0.398764001769349
0.652656287881779,0.512550121768843,0.874626943060417
0.495789701940026,0.549007175582927,0.998620800886986
0.697625844747294,0.715019801378017,0.985605537448109
0.336338422228349,0.249020729609532,0.728365198926899
0.447188488846878,0.613702210835647,0.973917077483671
0.557372346895048,0.542116569952341,0.999182912933847
0.323287259896751,0.129499082005816,0.300352654677914
0.356965258192737,0.250911883503897,0.664568951829711
0.481499423779082,0.242640313960379,0.41649140582135
0.402753796797944,0.403534079841804,0.999816777848555
0.378553981659934,0.942888940545032,0.942105074963467
0.114517143828562,0.798136041040998,0.469280684017146
0.469979362634011,0.499508311011596,0.999745921234144
0.348793111687992,0.790927056581713,0.450377359459312
0.185977886027191,0.246825678444002,0.748008689719092
0.465012971502496,0.768718929598108,0.379896372672077
0.723224493814865,0.379935998742469,0.737954853135779
0.783566114617977,0.366436792252818,0.443588029562605
0.260126376355998,0.0702005686718039,0.393002702088916
0.0627362766906153,0.197935332257999,0.294058947483928
0.232426123139914,0.081777621276211,0.296633404261468
0.198570090304129,0.205889774389798,0.992451587207171
0.759326889186399,0.578777181752259,0.456877659180198
0.0333273358365987,0.223902956447797,0.516645468467265
0.0977938540170435,0.581006210683845,0.66935851719205
0.664401984502096,0.936673095994862,0.768530903698278
0.674325911733788,0.360310863548191,0.969539802148341
0.487125082072103,0.310742549034534,0.735338919234365
0.749001949193189,0.466830660185311,0.458203144863638
0.163953207907034,0.939493877294939,0.331386919518645
0.719625381289981,0.803654012230923,0.636056379499378
0.6930980319269,0.00058198088943027,0.934725598816266
0.167536241183057,0.730886057666503,0.492391080789427
0.513201091900235,0.1250541782605,0.505250438025833
0.917929475782206,0.503667930592783,0.886460668140077
0.266546376854181,0.132375522252172,0.329103984136126
0.784043025908992,0.729226852701046,0.821084814987192
0.805496146872174,0.557906525580678,0.300323725859144
0.760258571417304,0.501851963036694,0.402638112870883
0.739927097495878,0.721574713556329,0.980255025725027
0.860537511343369,0.716317896350287,0.319419733780422
0.43166073992895,0.902925395486876,0.698625927765286
0.662569788908586,0.676688043345232,0.993178585271108
0.27613119163597,0.859757688496495,0.334690866601083
0.575144433731213,0.428270827760687,0.999746934714177
0.977997761028353,0.200887496264884,0.491318880068268
0.716011264685774,0.0569250337306876,0.604483828589848
0.89300916269538,0.540336620739428,0.641408789852071
0.751575906199636,0.924059819042915,0.332816149947793
0.207142625264823,0.560423171417788,0.322794495006194
0.643494768200442,0.293929444452748,0.886276689450277
0.931192611967213,0.895050312278327,0.799744178596498
0.872208368963562,0.313577898671152,0.296646769811953
0.380842196243582,0.328314357374329,0.941977130078589
0.178573703689268,0.258758833983215,0.622684817395405
0.344925165318884,0.572648663047701,0.914711323348925
0.128001664181473,0.198911224737531,0.59273480521498
0.0991948185844813,0.727273857654771,0.306802394795499
0.473605930710444,0.0887011289943475,0.823452779043125
0.400718595563201,0.591690015731845,0.999262450419316
0.851302800195757,0.0921359626743943,0.647500741860614
0.878353101491695,0.747121380275581,0.323601670292905
0.36921562404721,0.414445055944845,0.975629878477892
0.437305677044671,0.391815184812527,0.984591204490407
0.161203702483559,0.622558550118702,0.293087512933135
0.235942282339791,0.426719091501087,0.428775413919014
0.622071178442333,0.266087570890086,0.685661056146295
0.620876605524681,0.961029529095395,0.995711307583464
0.797470377555583,0.0155135042355396,0.565819833124182
0.729937858283287,0.901496248566546,0.305403708499934
0.876579982033931,0.663151809809264,0.326916626270072
0.131034964857157,0.608946456565522,0.373142498280567
0.750754697195953,0.767672548162285,0.978433503729722
0.0185005368776619,0.437938443450723,0.78073079483173
0.406228637701133,0.41168237189576,0.999443513754504
0.32223996839975,0.507068799447734,0.783389249514376
0.515396949169459,0.124877562634647,0.505997418747118
0.626513799931388,0.357845877095126,0.994815718697485
0.405775983220199,0.130862485895632,0.394078661199518
0.631091753729386,0.658584238430485,0.983340922765575
0.956981229631463,0.36245462015667,0.985645664469663
0.455595018060878,0.422285827868152,0.99558728038093
0.00891649574879557,0.868770466242218,0.2998370847161
0.136599006162025,0.828264874242945,0.860256908836346
0.134385497711832,0.965849488594336,0.319707883655176
0.79457160069677,0.922100615566596,0.298873860341304
0.0118660449446179,0.0906407054865267,0.383227836938713
0.536515322092222,0.0681927300116513,0.965578191735563
0.541648502044613,0.253355706386035,0.474584095553194
0.846662039971212,0.670082254992565,0.298493525541643
0.263132464566501,0.910668258976191,0.317406555073209
0.15975625788141,0.793524254146032,0.803862982937892
0.145844561622245,0.333330206275452,0.292993052951104
0.247563759736484,0.950244665351231,0.491388035010506
0.995753897259943,0.224581133124419,0.837388143831344
0.791009793194942,0.614927678597393,0.376934250277939
0.82727355752117,0.863863048854051,0.850306844795171
0.212833357301541,0.455268075466854,0.329387740527218
0.714424408637686,0.296636244668392,0.993269209149111
0.0129506728949491,0.220223374576308,0.712652989857152
0.948945580595639,0.87754102321039,0.475668910558989
0.394479620666942,0.373029733752133,0.99330345337522
0.589866709375754,0.0399730165386573,0.983538583989046
0.574554578877054,0.0190436172636691,0.805959169582351
0.408047124296427,0.240495880669681,0.476528272976374
0.894294090871699,0.192545420791954,0.457973877563312
0.552509776497027,0.817241815567017,0.292729632699369
0.430551315999823,0.495326769262552,0.993975898239748
0.439635239840252,0.390186672565062,0.981894061421985
0.695229699628195,0.0973516188838985,0.37200395002433
0.529356592212338,0.89179748148541,0.639148022569181
0.317050377348205,0.315009344063001,0.998917099745094
0.660048552776221,0.0058270570798777,0.880031738279349
0.24049422809016,0.9062103145984,0.293399845559884
0.195345354928402,0.553261365386657,0.300456697673738
0.29766963003017,0.680189964717254,0.980774702870067
0.65640414335439,0.409575113286031,0.934673750173682
0.882704072833294,0.461696287464816,0.552619476416204
0.27939388950658,0.682642234411789,0.941155951991591
0.299425765589345,0.531457894140622,0.692534343807172
0.726548078630352,0.47783926840499,0.558672097556168
0.688284798048902,0.00310154569311999,0.939771565347166
0.510096363305813,0.860646565933479,0.412746062136866
0.168395666540833,0.0109315638616681,0.407928855495166
0.0326304739273619,0.0745943003613502,0.711468467250396
0.0455653838652652,0.216059925910085,0.384289465161269
0.0984103026515804,0.0858246465928387,0.968395488327795
0.913153137333458,0.460483461303869,0.830609207454921
0.621666903962614,0.780564673362765,0.432304768280915
0.409737967916299,0.23021761687356,0.426500034104311
0.938411027097143,0.187468361234758,0.295520962225607
0.676312786355382,0.726604710939108,0.900771892975668
0.119415780801792,0.194890330974944,0.548253262090668
0.558870856779628,0.11723045405047,0.531962428292649
0.169100146365352,0.157127618396888,0.979884477865435
0.614267011819407,0.0363284163693897,0.988656069399496
0.0934813486072235,0.564382967892336,0.739393749210383
0.748011585235363,0.61946658942569,0.598757831496091
0.947875786054414,0.644854606600478,0.928696637975449
0.962525136740645,0.423544916568324,0.962312743297106
0.785480063249823,0.79254295445024,0.993134617874592
0.116154285577592,0.116830990853719,0.995134671375038
0.689890215973835,0.606215017910814,0.857483065595106
0.912985228933161,0.181496731918538,0.39338922533097
0.696428687716136,0.617518284401623,0.857567731981873
0.954615093517816,0.288865164937917,0.75019558824646
0.0759562743250281,0.718843098484911,0.428481170554862
0.423018144777743,0.345292142451275,0.920896151995084
0.387642049469752,0.0245244581694715,0.925628685685013
0.670588073144434,0.0437059358453844,0.924358064582894
0.781193932588911,0.600515219534049,0.393819115798167
0.0914570651545655,0.825388354566414,0.457308839126901
0.907588461740175,0.08669059123029,0.98908737900162
0.854371755304048,0.762611766159069,0.498536208615789
0.435140670730732,0.359084431401687,0.939481308562503
0.839802786669927,0.589501647230005,0.302612156080274
0.456780849080766,0.155996711282525,0.331719761330344
0.135301997646224,0.462813859035261,0.42580489382271
0.702722110977164,0.620959558940027,0.839808362107245
0.630314377337461,0.448811822169693,0.948739574636578
0.625340530656744,0.569215741396649,0.969675092127921
0.673180648187408,0.659332884014817,0.993663168450912
0.0828609852553345,0.0959340348714031,0.966037433846779
0.790976319037378,0.121794819771778,0.48159742209668
0.176454473530175,0.225308931939304,0.808338954544364
0.0864244702917058,0.325237032132689,0.506137738866792
0.222309850361431,0.34275723183644,0.541725144666378
0.746344031049171,0.317080772910733,0.831217437337035
0.924421406822978,0.755190543641802,0.326707075582298
0.822776044062804,0.671789996801643,0.357812446728809
0.339951004375471,0.832011621156475,0.314233027118727
0.925826229644707,0.307033824505052,0.542983013501935
0.218952998935012,0.0784292699031066,0.293807242198969
0.77447898206464,0.264980426461203,0.901655235785642
0.414699186412385,0.528915689103771,0.989374278185164
0.290803171764594,0.903561406572582,0.344471081602621
0.302274195827311,0.998669928123243,0.952423587306324
0.129411827263655,0.208031159491045,0.544745531961305
0.18337797655887,0.12328534750035,0.662569131055808
0.601424183861818,0.683941784206545,0.870178601710747
0.152499091302045,0.834825667885365,0.977679857155043
0.965893571591703,0.169155163250165,0.304312764241118
0.824349239999661,0.103658143995795,0.546918114621148
0.00423013354185969,0.532673500271747,0.58533977282229
0.268479884101311,0.953146003267495,0.628220666766096
0.927597245577024,0.882873782268958,0.726209930063226
0.357847224541008,0.340849121584324,0.992635797528444
0.0425912194172852,0.00688901499263011,0.752439406415946
0.459258632153505,0.760771930144401,0.412850129945768
0.3418103200607,0.601519217755646,0.946032645533737
0.983383165177889,0.309491730193142,0.995336630776566
0.72403328977176,0.375834761455655,0.745474742854039
0.707780064855935,0.763606625398388,0.840758608360131
0.201330403341679,0.580146614306839,0.320234173922791
0.831543093008921,0.444421430013841,0.30145455303083
0.700904832849978,0.105172826553928,0.328352637772923
0.991193849090254,0.506510785424151,0.62507742095222
0.918450324633624,0.996241481812671,0.380222642500242
0.853427509747678,0.0137490946510807,0.315032016334543
0.375082249748986,0.447373360361438,0.958712782414375
0.514747024232755,0.498084672795143,1.00004508678049
0.562302447034977,0.533404477829346,0.997932488928922
0.318513679635245,0.459040083511034,0.786885632412539
0.944284841273213,0.819935537023004,0.294932246592402
0.209816755860113,0.565015304523753,0.331440821269051
0.731499746025307,0.631172032844042,0.726612619364742
0.433071647605626,0.641197615300072,0.941080166821173
0.957833501701476,0.957684031621553,0.993394709655544
0.526819339061622,0.667987866428448,0.829004970211508
0.189997573891655,0.804299443920143,0.99382257790887
0.340946120349923,0.771378644444281,0.585958400566441
0.346261496691266,0.547181284590624,0.89108904175338
0.0538181701798458,0.654436954716453,0.891277010200332
0.350887929564575,0.890232535681222,0.413540226066796
0.584855789044872,0.114434304855531,0.515735748648092
0.0892433183132671,0.405629194890615,0.723855684214642
0.712091321614105,0.530542665272951,0.63552550172175
