"X1","X2","Y"
0.725138631260488,0.940901179817971,0.53878831107489
0.856113717944827,0.591065194069874,0.34131593213145
0.19588565939106,0.669098182551563,0.432597940416503
0.107575494555756,0.795676814867184,0.411598605317692
0.4121498798416,0.71815799788991,0.685048304301268
0.323419691005722,0.00444337116135284,0.917292140006104
0.475379177950788,0.631951409307309,0.930776319206423
0.346166716593318,0.0313496315833181,0.996110097289512
0.181274061012547,0.423741920779925,0.293296397698367
0.445741647217888,0.294470323797315,0.691846132903017
0.263812435741071,0.561885745374486,0.54637087186832
0.524460520693567,0.684962404605001,0.75946821794727
0.82416870299913,0.496066800264176,0.298012309673172
0.746656640991103,0.0327107944916934,0.695919493540424
0.888944202699699,0.761747656239662,0.321121144130133
0.200009548810776,0.0215077490033582,0.490732601381271
0.722907352406066,0.864025478163734,0.320730238351142
0.662997452205047,0.678125449042767,0.992346763235048
0.826840052104555,0.276498913593125,0.495950081169216
0.350446451412514,0.317353177167941,0.968865640009514
0.790402481151279,0.681709859950002,0.553082133050544
0.542689592350274,0.835079060540069,0.310375806049695
0.534031822008546,0.163072196893394,0.316333323175505
0.62802085409686,0.891336495929398,0.470101603766096
0.356667070038151,0.179550553779583,0.322821809703054
0.489315863625146,0.607727325886954,0.966872245600724
0.636889083630405,0.713361357728951,0.836514296359018
0.518196291338187,0.905377253224608,0.773170171442597
0.997007492905948,0.0149633383825421,0.958340294395447
0.908226665101945,0.634798353482969,0.591052278683718
0.834384058919735,0.782696727612522,0.778179567950957
0.980587574774865,0.644320965362713,0.949311502627772
0.640707360038534,0.418519195120316,0.956722495946532
0.422581571886782,0.121318606324028,0.476136892967038
0.311087214825209,0.170408509030938,0.368068313342956
0.213157191916835,0.632053288965486,0.42480130972994
0.556222936958075,0.310120771952439,0.767896586001599
0.792468340373598,0.579933188703842,0.334995922197678
0.116460801028181,0.448049509353004,0.546463279166564
0.121904825519305,0.48689402777655,0.529376024983819
0.780519366399385,0.132128405178431,0.498366330431168
0.915395435851999,0.562968792141415,0.824686049962359
0.0592521569617093,0.38493732408341,0.939201660645852
0.694315615463071,0.828831378179137,0.384323670325533
0.778651290032081,0.653122165802401,0.52281125569763
0.43819982685335,0.66578812837461,0.869333843154251
0.610080096828286,0.197222344970331,0.333282409144014
0.282126457421575,0.831560152204242,0.444602392397314
0.621774433667306,0.391521764725447,0.997138247082748
0.177574697372504,0.288325427821372,0.474165191404259
0.838815482565668,0.129124251907226,0.87545135033916
0.0813121068114415,0.172349725343287,0.401586943681763
0.111028723638039,0.242484497161582,0.313594574418409
0.549025483050849,0.0378607794386335,0.942740181499769
0.937991734512616,0.792055468448903,0.3018132089214
0.728645983375143,0.501289652934764,0.543062390959382
0.419808988249395,0.73294375812728,0.591879560976501
0.979628419339191,0.39481718129199,0.876746131520886
0.742322120863479,0.58547840536572,0.552228020498258
0.253691336863209,0.46841221532505,0.46937052945884
0.686055763943586,0.181010425069369,0.407080456915407
0.0707414920013398,0.473974776897579,0.956819737344945
0.948823694230057,0.334233325501438,0.879265255966149
0.974309772629291,0.331122898043599,0.995982238463436
0.371722834098619,0.942059326875024,0.923670887565288
0.130592882559169,0.58846304336004,0.403029756002712
0.183722007669043,0.126358718239702,0.687433479602867
0.828225731394719,0.0931325201443396,0.486757089676367
0.0621596326404251,0.833090989573859,0.329200557594114
0.162862819520757,0.0706680632922798,0.383003468812886
0.703012450406793,0.0453123411913402,0.790039122858048
0.364814064917155,0.25778713400336,0.678605244330011
0.897454183691647,0.566898609424476,0.649037015582152
0.992794333862141,0.0788260991140269,0.420760093674224
0.529730873252731,0.223647937303409,0.353245003658234
0.10241461155843,0.549710292944219,0.673975690864892
0.215189045022707,0.555963420850691,0.340526696643944
0.801900426852517,0.376098397117108,0.351628905865721
0.850226287924219,0.280854150508065,0.358320974872138
0.368167572388425,0.303943101380486,0.894067798900622
0.211781977275852,0.662001091544051,0.496389512785137
0.632395851154346,0.471703033148311,0.931528668817371
0.465674557922874,0.304185698690359,0.717272696550368
0.98306273007812,0.458833719810005,0.738196453277745
0.957738707474433,0.230894134044647,0.473261683595237
0.399861403210554,0.358345055744518,0.974243342357545
0.209993335246574,0.161000771829858,0.790379194106399
0.022547437984962,0.264778758684639,0.865670040715817
0.531928282479756,0.99875489001628,0.552150420950895
0.501230815811083,0.841920736904256,0.333811192802827
0.348779153735843,0.308090413705446,0.950908368017917
0.911940533770248,0.437355998847634,0.793211519623195
0.759544932482298,0.27428872984089,0.932515790403049
0.451728183598258,0.935404116431717,0.976127934345907
0.795230759393424,0.235080420225393,0.927507928758291
0.175545758181252,0.777379311501514,0.818343807088763
0.260051700430922,0.0281913469401188,0.783811546489775
0.614724907075986,0.140370960047934,0.330925207926092
0.203557275725063,0.420315482198726,0.324921113188379
0.184327309359331,0.945730470999144,0.293902036214133
0.472249133942649,0.907497647279408,0.787933836997673
0.8483494071858,0.239436224996112,0.530304248157547
0.704078989336733,0.637778849249706,0.878505780754165
0.597185359321535,0.676765988987871,0.887108047216897
0.227773218517657,0.34261423301883,0.574749754037282
0.511420058006886,0.65854209652869,0.855515805783081
0.545368132161442,0.151838316546287,0.344558591261759
0.437519829601515,0.75640201436542,0.449889644466583
0.224056605532765,0.923571646158118,0.296720596847217
0.0915658463747241,0.889640289215371,0.94001555773851
0.905917433341034,0.838000695948489,0.56155718537595
0.0952670324328355,0.99696153836092,0.320621738742417
0.378576958678663,0.414275641242508,0.985846250203903
0.76609550067177,0.550240535919555,0.398575693897568
0.256499808538239,0.824897693821695,0.609366897081664
0.397214299118146,0.543557676556986,0.980961171234497
0.247582800847478,0.601284143955912,0.530619673629625
0.101040355033707,0.216352412207518,0.337852055990007
0.568545698737726,0.14795135110151,0.345032534046354
0.268424189728219,0.332898339891806,0.847756286707511
0.655570042356383,0.245387128088623,0.67602089932041
0.88569222325366,0.191421959621832,0.52946162296702
0.679545926193241,0.404913838650566,0.873552791690658
0.607453189319931,0.293377954148222,0.788003906629939
0.234042765941005,0.837870120730717,0.642260255233503
0.578608007376548,0.064995509645436,0.952994398327516
0.887248092855793,0.327233992197085,0.349656094783097
0.617793317689095,0.629320247165859,0.997622218769474
0.844281204159372,0.569457646407653,0.32085270586753
0.805499451176729,0.823175490472466,0.966149363664276
0.803305399734992,0.937789476663806,0.294155600338448
0.65897623292217,0.0388244556570426,0.976178591615585
0.320927784955129,0.973565287184902,0.991581041895693
0.245307282758877,0.867354641074315,0.386313066811672
0.810172483101487,0.978814414743334,0.437876598402436
0.584483105546795,0.993635292637628,0.680098940600796
0.462046532168519,0.71525076267682,0.625684866989053
0.00165369162848219,0.236156733343843,0.9203884930179
0.913477667821571,0.209453970345668,0.30914195672283
0.389875067241024,0.056755270330701,0.961011414326183
0.306221664897632,0.595853810006753,0.819258791485049
0.33770925746439,0.771607047092635,0.59621328656514
0.376328731197398,0.571449140714481,0.973653635365032
0.820640966123901,0.460801410386339,0.293729601172378
0.774582454958465,0.0247486069886945,0.613234626897938
0.498062360288575,0.369124674751889,0.928358701015987
0.787259591199458,0.583536139218602,0.352977911247968
0.316140579719096,0.818328188260552,0.404099806392911
0.305017938185949,0.206868614978157,0.59082718228998
0.17850677987095,0.962729095256887,0.312176005526746
0.932511321278755,0.86911885750154,0.558226221149882
0.894237146949395,0.553989184619393,0.637479650812644
0.481317490989808,0.69490464690933,0.711753654377145
0.681275571398437,0.701268329324201,0.983980206666631
0.682338990024757,0.241603557732422,0.760102663833156
0.332305740391836,0.383872775867116,0.946518810521678
0.646629863759968,0.363683038522489,0.997034783025006
0.588303911325987,0.787584978731349,0.35640732085463
0.630428817179054,0.513565867454745,0.930622047148148
0.42904803907685,0.599926936824806,0.993416636640819
0.484882803593762,0.688646020407788,0.738757153415163
0.807753678184003,0.0224183213948272,0.440740172468423
0.726054918012116,0.262643293338362,0.991303530966894
0.587699843381532,0.54686174914334,0.991909110570095
0.969910987532698,0.347647697109729,0.995775677799916
0.964871109922882,0.618776367549319,0.988196613547429
0.731472246148623,0.205881075414829,0.766690454541306
0.160990688939113,0.0840473743285984,0.484217619216255
0.2548024639613,0.110516049673781,0.298423864191455
0.504615790249314,0.933968484968878,0.98069204046229
0.673228215096984,0.46256550059095,0.816778088221909
0.613845744992141,0.21545069762785,0.400706295968188
0.515364446897525,0.762483782899566,0.395991448133624
0.863938832482789,0.860321939360816,0.994023252102825
0.1137465828727,0.247444773133844,0.312224545099473
0.430212109140586,0.499425163813401,0.993919056093227
0.771631414900534,0.910061584205832,0.295263249687862
0.0413118409584276,0.558554839721415,0.968536638512222
0.512186512966175,0.698552267350722,0.692392943572985
0.294868228355888,0.324202032291796,0.96761713448776
0.0328170908512548,0.296197192806751,0.904197945856557
0.218441804233473,0.612764430746902,0.411293010297778
0.141917880116962,0.734281662246678,0.365769352833457
0.380003047592007,0.268231890146621,0.691649783884347
0.124232265432831,0.0265745160360821,0.321324854954652
0.561406893108506,0.951347910623997,0.993346499136574
0.229501686536241,0.314328698033001,0.698706376031719
0.299350509498268,0.593574350524694,0.783854747629486
0.994394786721561,0.686050318954513,0.950931616170279
0.0198677466274239,0.74023455081787,0.867424972061579
0.901506143835839,0.100648588953074,0.994333057820408
0.0526009445954114,0.396655465187039,0.984565682481746
0.831718034079298,0.879495373246726,0.753320422473777
0.421854126543738,0.960614663000684,0.972932683984716
0.0935687362947501,0.168381861801259,0.512406118924339
0.782199788494967,0.856567797586322,0.595277441808674
0.149666560271289,0.445667231519241,0.347635016266509
0.645089495770633,0.0462205270789564,0.96351009606949
0.54797917181626,0.478572388181929,0.999284358920943
0.944690664121881,0.187189076398034,0.294412401793656
0.959885289370082,0.624736902795732,0.996202404419647
0.701292515023146,0.18202503362624,0.461100524046123
0.345366693278775,0.728135617180262,0.821461292357844
0.507898637297098,0.174100589746609,0.299995411269758
0.138650290594436,0.130161972069182,0.986058458219493
0.717112946660724,0.81441292920243,0.548916841700897
0.880332163452171,0.10325745357899,0.955110492816258
0.240244901705533,0.493720929500647,0.404744092989291
0.0421061436370946,0.991051125681493,0.780602685263781
0.4590860136142,0.97193496213574,0.856325196292674
0.0841880035107024,0.859238897497766,0.636710757700198
0.243795213705394,0.0409512522458099,0.553491708751373
0.591194560146891,0.696620790997986,0.797212435130084
0.0152253278624266,0.124733348037116,0.296253471928381
0.286674204351846,0.427529343942646,0.680503193866059
0.533845201594289,0.573528009102214,0.995266531633636
0.740044857501984,0.185634825777262,0.66856961628447
0.302160396680236,0.39351644156035,0.825576968815467
0.167712589888368,0.876239405186847,0.786310980363658
0.867026565281674,0.99567396030901,0.313356619390839
0.840710817945655,0.357610755424015,0.293510290668545
0.237946985055693,0.565420887122862,0.428222183840879
0.127094533906318,0.339031880765688,0.319153477436233
0.0873968005892821,0.654223449767102,0.568687596576643
0.87531976104388,0.344603414228652,0.333278275571377
0.860436789836269,0.089058233212214,0.694344132479433
0.706467084348202,0.106284875854384,0.316682689153549
0.0744877322218381,0.826755800207611,0.360845895869584
0.334548878063913,0.109107269932516,0.381016038471181
0.676502336316742,0.371235073734541,0.946737602660423
0.0244758044132031,0.98076662244834,0.98645004880363
0.522721046581399,0.731361163728871,0.535189357811205
0.493227182989009,0.336124097484164,0.836415021318074
0.172168553021736,0.0496744112079032,0.29489293603635
0.408361744564492,0.848129723067861,0.317574665482942
0.71364945589751,0.043310119912494,0.759808051825812
0.625861948624253,0.709014298288152,0.824922787267206
0.249375037995633,0.271197532804683,0.970745652605606
0.391525232779793,0.482573822089471,0.966911351089052
0.0166596041014418,0.557447319410741,0.753622794166618
0.837884995847009,0.321758855944499,0.322024803653267
0.562279123279266,0.683006980326027,0.805522040957296
0.990299404411111,0.446899126631208,0.667822578730885
0.668183701422997,0.464953831582796,0.833779560170216
0.285569721992128,0.0591283813598566,0.589879133639279
0.216764370835852,0.751028905585408,0.925954888550935
0.312244821183849,0.912970808872953,0.456943926455546
0.197996523843613,0.722705046519171,0.663827005763633
0.452800195433199,0.229712838456035,0.381244254651042
0.57470340853557,0.515597782694269,0.992536489429762
0.157582172764465,0.647549340664875,0.293752706727405
0.477955683166161,0.510953457737342,0.9999206816467
0.748878595555201,0.123096638973802,0.331525030273869
0.471654948017094,0.409576721964404,0.986215619851677
0.0115554439858533,0.502161982107908,0.656121416754466
0.352298054575454,0.350102485406678,0.999050744944198
0.168947192743421,0.158835306715686,0.984741796528813
0.38393927783519,0.744209097031038,0.610798411461071
0.667897885760292,0.611578631150536,0.938586999502447
0.0556552977222018,0.507355409226846,0.996493699073343
0.119313368187752,0.0915222440864891,0.882585942913911
0.78476831964124,0.164152682523243,0.780180910622254
0.61853592776088,0.138792318205349,0.33173109466913
0.920555236149114,0.0349717885949649,0.688790930820364
0.385942664068658,0.540899287221953,0.967424389936109
0.264267541383859,0.574372782097664,0.567445262127627
0.73346282069711,0.778120010061655,0.875947901305279
0.231020996788051,0.104765447706915,0.317247921082436
0.762559153696056,0.248049978741445,0.990476091154266
0.296516641873866,0.300388455803972,0.998154373212273
0.486812865112908,0.657758295840584,0.858497031760087
0.00701861568866298,0.212944235621952,0.732372415736086
0.417910740093794,0.661015551002231,0.910984931759639
0.0720755291795358,0.805927374669816,0.302364639102805
0.0880711908377707,0.666165176660754,0.522007825634534
0.688450260499958,0.843015867571346,0.322974680362161
0.962309117117431,0.0979919501170516,0.544364555198098
0.447226141423453,0.820768085270654,0.293010649622449
0.769282785628922,0.908607793199364,0.295092091290068
0.468319681838155,0.743365722725634,0.483003406958856
0.552025671588257,0.863043660043273,0.406316644997568
0.555483542464208,0.416809664729051,0.995980589969411
0.27657209852431,0.491306468247902,0.569403648817628
0.442926136398222,0.956024656513706,0.979067964820901
0.605446034265682,0.226597207555082,0.434650789601837
0.478007421777584,0.919157020550687,0.891734771226067
0.0399915452655405,0.705966001994908,0.830232986579494
0.539580504915211,0.375135093805846,0.950883853352014
0.71577158177644,0.153330098327715,0.364074796464049
0.414326327447314,0.0167608351386152,0.80113702071889
0.147563886587042,0.312859555918723,0.302511658212057
0.873417484824546,0.225529404133558,0.431024891014523
0.129900476981886,0.323232161166146,0.299626874351919
0.696336343556177,0.518567535221577,0.704911856824686
0.691990113386884,0.98531448379159,0.99430740647463
0.87025328916451,0.896731757573783,0.897731586724624
0.0787196229011752,0.0523019589255564,0.87183561413217
0.144062954102177,0.143962372918148,0.996060610857969
0.0459150194213726,0.92453502210835,0.841500568337984
0.699160510629416,0.0515686555528082,0.742354520791317
0.051581266219262,0.965750175319612,0.932550895683776
0.392926794243511,0.484442180127837,0.968197621054527
0.566297328084242,0.402820333271287,0.993250359890355
0.581515779565554,0.900526493172627,0.652481100796222
0.63539943659585,0.251117768504191,0.640632958824998
0.270176791939884,0.544113931343891,0.558235723454473
0.154713002759963,0.439991910760291,0.328687127553065
0.595290051415563,0.894640357295983,0.571043960492164
0.818089945178013,0.0774193759257905,0.344359429434963
0.966038030387368,0.736817939625122,0.738535276013774
0.123262321688235,0.112501620373223,0.978389582278796
0.222530639550183,0.348374982652254,0.524978618195325
0.609682802186348,0.189152420295868,0.314099629653068
0.00294603984989226,0.286802486280911,0.988231971378554
0.292759189667646,0.398814611011185,0.769954177739119
0.603342164357193,0.774390712993685,0.426637199164071
0.521700098669156,0.155957233902067,0.3382954380529
0.940554539056961,0.622485065803397,0.924543503513675
0.685714908581693,0.800723874423187,0.505082295950692
0.328773682618979,0.285554250893649,0.931091424816532
0.159732422496192,0.0698826266792603,0.392610960108078
0.708232716666069,0.726711506721098,0.982164051461133
0.165969070150983,0.149595214804169,0.965097756813383
0.761387820368167,0.451836353282444,0.415653996124712
0.764698849235661,0.882005888119806,0.351681958271372
0.319096405583899,0.802399466163013,0.478171556978846
0.0679376115426421,0.252663616615348,0.38167743308462
0.37485217532469,0.798036887782626,0.366383644942204
0.250370732659008,0.080730798155535,0.320607594209021
0.878698200999759,0.65102800856391,0.352137242174123
0.40632573486492,0.119685360424221,0.462179086474966
0.931063049649354,0.0984144765469246,0.856451839682095
0.558136607265566,0.329533523177262,0.848396303055859
0.757958077056799,0.917437806103844,0.304027178487312
0.137842180483509,0.930711990728509,0.520861892440327
0.0346729834647849,0.596013919854537,0.966396323674635
0.73710586755909,0.508424845806789,0.502978033525673
0.432363024678547,0.528672069285531,0.996226797643628
0.66078386680223,0.747317938718479,0.738984149754548
0.626046183886472,0.1364687538906,0.33119039375329
0.0573012222689576,0.355212951045483,0.889401056339856
0.0989125145394355,0.434904899414163,0.686179464108511
0.288254216958769,0.115541917340364,0.295885976943918
0.833400317224674,0.0743747783750296,0.38738852894578
0.047349824801553,0.903877784057986,0.660974375235433
0.809175346552394,0.872512899695896,0.645029435470168
0.199797153266612,0.780896164129488,0.966135373784057
0.221057607180439,0.884819534753915,0.385367112345224
0.490622281532269,0.720947218707763,0.581897174682206
0.309428290878423,0.602639984104782,0.847018101522041
0.38779845643416,0.386376595026813,0.999611940524123
0.207928224761039,0.433984836606309,0.327218439684036
0.960028257845901,0.983349238692783,0.880181464545245
0.970063581545372,0.0664020824762993,0.76400032820687
0.151909279884771,0.372678030511364,0.29816334415661
0.754048239568714,0.755979906552937,0.997624829051581
0.193337104127277,0.00615942277479917,0.606169710127653
0.363151020205114,0.811347048806492,0.339413647531182
0.35981452790089,0.378379506235942,0.993476372573459
0.648496203807648,0.116049525844865,0.380488781745352
0.652752979653422,0.914393073536921,0.589933894728879
0.189103882790077,0.443512073683087,0.295173424600361
0.570891466505826,0.51728656521393,0.994270704703549
0.929784353908617,0.807015152256005,0.300617639703249
0.738416305703577,0.38182439634623,0.649488607929267
0.899233640811406,0.452130489152856,0.691748078057061
0.290670631669462,0.949980840802193,0.709834642740543
0.882897822397761,0.639062509121839,0.393182446773755
0.315312238648068,0.706545503166504,0.980456803894041
0.0316755634462461,0.724996268027928,0.824820214926367
0.527853131235577,0.538560547508299,0.999787034172405
0.405892800851259,0.456198440945242,0.987673404872079
0.858288854881655,0.202189780782443,0.686201132869943
0.435242938672192,0.525340666550677,0.996719425360521
0.0488992099994794,0.0952467921152711,0.685675529376392
0.508677907937672,0.367164227147587,0.924925445359477
0.266286338406149,0.48149962110538,0.522034142767843
0.143585277855862,0.874419574765954,0.952863557847975
0.927127400374506,0.748888128092978,0.351851126814915
0.902857326203492,0.195263914945535,0.391198122677249
0.0962732486049645,0.0108530199439265,0.350491521960043
0.326938826652709,0.711327146798372,0.945533616967604
0.411222466737963,0.536433362131938,0.988769632818468
0.536034149268176,0.989999164676294,0.653432234313926
0.132582828291226,0.2835024808296,0.305057061894571
0.823098050686065,0.135103533028159,0.813081042682882
0.55026798656024,0.365296686437912,0.939961158507766
0.847178187407553,0.258677783065476,0.445996797806666
0.84204532900406,0.773100345474202,0.654095779176518
0.942169719345402,0.759104123848025,0.401368357459906
0.735721664230805,0.642916635485832,0.741041808845277
0.622664242424537,0.527880852461327,0.949493923619755
0.360572442266624,0.766100438999012,0.552526716176987
0.540707639342174,0.753295438225381,0.444294535101096
0.114595824205317,0.467084555230569,0.57983522361056
0.483443004135508,0.49431559553137,0.999891697237533
0.274511908187531,0.847435495414306,0.387743666710247
0.280923992179334,0.198593025889248,0.649130320183868
0.338008661091328,0.522272604878992,0.847815902781281
0.892482316928916,0.974616947677452,0.379760430149148
0.989622710551601,0.952302753906697,0.738285018630563
0.869426825586706,0.475911616100464,0.462024457984942
0.187705889118835,0.534109197592828,0.292835579914876
0.109250892338809,0.581646213193424,0.564018643622751
0.720268776753917,0.267688423111569,0.990694344609671
0.502440657852683,0.785241279989015,0.3257587638643
0.813367297589313,0.790905705368146,0.951459873231131
0.796745446989313,0.938729532019701,0.298277047948767
0.745443270778283,0.273452324162237,0.978249067311046
0.46612708990043,0.797443536518142,0.30624904152238
0.0617726830150932,0.290627376776189,0.588137680732969
0.950672043854836,0.530603697855491,0.988390089600348
0.4275724478052,0.306409240104724,0.775451279932988
0.577088782688603,0.764189116287976,0.432800115461204
0.711398419021629,0.892387370966375,0.307791285422092
0.516629367158748,0.156346859305631,0.337962884272515
0.718903547468595,0.929908806447405,0.471496103885053
0.953184001018759,0.176549973371439,0.294761706253063
0.639972778102849,0.489211492015049,0.908666947853789
0.95490375414351,0.167525142581202,0.29434522603777
0.864786479024217,0.976054078713525,0.296821119702878
0.0278728281762451,0.0636211580554955,0.769295257411666
0.0367833994040266,0.703452635578811,0.871286482076648
0.815878389723133,0.00806262482237071,0.523181594829573
0.403726139202248,0.609494864384178,0.997882912848224
0.135665786101483,0.441185024334118,0.407632137052599
0.0281490235533565,0.00234235591022298,0.850461242033796
0.693537524125539,0.401839015681762,0.825460065117727
0.777194007394835,0.532425463221502,0.351471396061402
0.665693814196624,0.768500615769532,0.628497622309821
0.0763675851640292,0.232957794450689,0.305001925165906
0.976575660975184,0.617140930031426,0.926088652966188
0.373282020448241,0.854744957413524,0.308502949198832
0.233889405350201,0.254087008129805,0.971197019235362
0.852404232284054,0.576835996429436,0.340669655638057
0.300344074716326,0.817504044417292,0.45781659901823
0.601355706774164,0.61416927191196,0.997621961358479
0.925874710389879,0.0615540200839751,0.96470034621616
0.39550854355609,0.299232429916039,0.807647568715271
0.324356256342027,0.673873628203291,0.998994867971874
0.938828904054593,0.0138262483100407,0.636953538790405
0.919731293416116,0.279906102917623,0.39662351408462
0.98604072292801,0.739430727940518,0.922098785276693
0.17001319599757,0.88738879966503,0.668352752692189
0.238345376888756,0.410372338623274,0.462552819388664
0.449161516871769,0.19364034148911,0.297988851491775
0.0215093950177543,0.521242691042367,0.774666643589104
0.564408241873141,0.851943892753683,0.347289716003956
0.798726358147804,0.693534290402196,0.548095323533493
0.81764518140303,0.0545360575406812,0.29395717320949
0.279679408808239,0.318676930938847,0.938426588388283
0.773453341246583,0.60428852284234,0.4324131447116
0.457605404931586,0.211755011634901,0.325941151679349
0.330933060945012,0.36065136503242,0.978204480891887
0.657688689718489,0.586623909092974,0.926266096555669
0.343993717952631,0.0724560310756788,0.707471897869147
0.152967778409831,0.389943163582589,0.304897556593613
0.495654722700361,0.430118435783312,0.9937676040694
0.917501409683377,0.455026968220714,0.863296742262364
0.946128586157691,0.674890222671442,0.822539721984106
0.670480516162235,0.812598595433868,0.396071771026492
0.651318161465693,0.649668029525317,0.999190500634675
0.573301409403328,0.0188485377714969,0.801655827026513
0.876821369097102,0.808337908023503,0.601704787074224
0.891318207857665,0.62658584618289,0.473316108100252
0.44084255385818,0.690318573919125,0.769902487833774
0.999555277095176,0.967360641111154,0.784358993287456
0.583292254921514,0.853038724677637,0.33752294602214
0.593010778470896,0.968341480442323,0.945916210875259
0.190476579318754,0.000335922400932759,0.652453888502189
0.104119419785216,0.946025548932143,0.655546006659949
0.259912385435775,0.50471963916719,0.488699827520852
0.367243482175283,0.671378509929869,0.964756657236214
0.0126150110345334,0.927647171731573,0.517808817308605
0.906890071230941,0.64056223532185,0.561554385827486
0.752980753189418,0.959545597891789,0.576357534494136
0.675369984780438,0.353201899163425,0.977768394564396
0.454729947668035,0.476364315780811,0.999347749094866
0.0684972716509365,0.620561318772379,0.856742774261262
0.855697216020897,0.34067834557686,0.294252088771185
0.788760197616182,0.899780768238939,0.348802670344536
0.49605185326701,0.987799065397121,0.663767360854363
0.401463078494649,0.407861855710857,0.999172413068743
0.341110925907735,0.219568908956833,0.531034857595182
0.00554706839518622,0.260473510500509,0.97388782604533
0.272429000737146,0.0877055985033512,0.340379111221588
0.0837060574539937,0.413780923833605,0.794289874280083
0.204256670711096,0.92093113862304,0.301972685361598
0.750348626258783,0.881376231370028,0.32090200056581
0.973399521647021,0.0833750590877607,0.561075546811549
0.06532539709704,0.844834665238857,0.387174942364224
0.354690546234138,0.200804221852217,0.397810401172953
0.461150501566473,0.717705949611962,0.614197426205071
0.642749305106234,0.425760468164459,0.94517388765789
0.984288010932039,0.145702575176489,0.307739467627356
0.0099726778450422,0.788762950582895,0.686598462092314
0.934643714678939,0.428323452649172,0.95769922659427
0.424857865301426,0.221989843672141,0.375825747133527
0.599099335010629,0.870219022103585,0.392848589775442
0.9223680798891,0.954690921386704,0.816191818835013
