"X1","X2","Y"
0.00365541265765205,0.613570864657871,0.716466997798737
0.45217919442011,0.62350874697417,0.957868377171173
0.623319816170726,0.839945852963254,0.293303304060339
0.549649063782301,0.751776507809758,0.457979035171678
0.0943547873948701,0.329956407195423,0.459911839241281
0.00745958238793537,0.447557509416249,0.641226970919094
0.184449217402842,0.807671455542091,0.990657158942667
0.0552054385137744,0.0456265863715671,0.974996360116351
0.416924068324268,0.357558072715532,0.955029742722982
0.928115533528849,0.934878818589728,0.985596106061044
0.253620816371869,0.987443384133279,0.90519103279615
0.937586813253351,0.493147921144962,0.990909446026795
0.82293982216157,0.975706337104086,0.360643652764131
0.962786991850939,0.58276593371341,0.966754385180664
0.335362134413794,0.799079645681661,0.44552909047931
0.993308415772393,0.991344438089523,0.991453343339054
0.913829155905638,0.345803692843765,0.579849523466583
0.161299675575923,0.89179621966742,0.696409960965433
0.60029120752681,0.973551038291305,0.919734914443623
0.133374234544113,0.370258936942555,0.337154768622445
0.0780542064155452,0.595613060879055,0.827877779173552
0.754567567780614,0.976611549574416,0.752803440199594
0.561997520605102,0.358071243196726,0.934489361001649
0.568174537374172,0.884799189918209,0.535906102656297
0.0495604649083689,0.227817154640798,0.404592410962572
0.0099597092717886,0.477864004535601,0.643591895062709
0.35731300211139,0.83679784597503,0.295723952860967
0.25198665927304,0.878221378655639,0.32553437331137
0.66444186752243,0.0154212108133361,0.963430237896867
0.51486610988481,0.0641596536878496,0.98613852707337
0.634960584095679,0.632663254973479,0.999317606871966
0.526693938004784,0.145575148281176,0.377257581261919
0.0128212767681107,0.207827608830295,0.630672409913882
0.974939843974076,0.588384037193842,0.888471156683582
0.4992926103645,0.15772814794397,0.335001610394284
0.223092995190527,0.56757567629125,0.373064030939945
0.6566802436742,0.574781808929052,0.913033469953917
0.981649572482333,0.240289193936158,0.778133641196641
0.344431632809807,0.680533348059747,0.981252492488847
0.83735579586681,0.200504712343216,0.862636750679226
0.0744703358123079,0.832881244881544,0.385596441862514
0.809696892072447,0.486038332294207,0.293291537038324
0.36264085645834,0.361416763861664,0.999336368727064
0.789205913666636,0.34832931135688,0.460483322207677
0.586957404113375,0.745259204828646,0.539514726534664
0.530785441496875,0.509380389532074,0.999798620494444
0.674746521667112,0.864111585709266,0.29488374010523
0.727406802914105,0.0825027786009014,0.363412600524737
0.525852672643494,0.430980424063746,0.995488296990256
0.711914509059861,0.385186441236641,0.781379675483687
0.0185352110066451,0.733470977752935,0.908821493699881
0.0567403779830784,0.109492265681271,0.635130252828365
0.38977931882441,0.630678990924265,0.993250890179815
0.934011937440839,0.457738042681012,0.973064087420475
0.12021431798581,0.80166496895859,0.53268794812242
0.697141482525039,0.607530786784831,0.830811633492074
0.478364321409725,0.338269550482277,0.848315374657875
0.533994642517995,0.859347819653805,0.398130157538523
0.819936932254583,0.928866161688231,0.325942423046307
0.65027996939281,0.700343892374076,0.924272870034361
0.268279005728662,0.598732335756533,0.636753634018601
0.599445290429518,0.640765484670177,0.974852367085295
0.312547483358532,0.86948225053912,0.294120844770165
0.219342960222624,0.0526785730100237,0.356709440578423
0.906616079174913,0.791937202519737,0.331580313091552
0.898815559870098,0.570640931697562,0.655704167552332
0.833577096925117,0.31803475774359,0.340021496688285
0.365899873730261,0.0572550319992006,0.916363110457805
0.902961318330374,0.956626371214166,0.610163599221743
0.952361101053655,0.786087495138869,0.365064255672021
0.872820272698533,0.866178317003418,0.989551537549833
0.658502464412246,0.12631344709266,0.324289522603259
0.730402962517925,0.614603106161114,0.68394785696691
0.42817353604408,0.808252730188891,0.300616935244316
0.0377492535607889,0.301961420816369,0.883539888439431
0.662772571552545,0.330779392893892,0.997834438775728
0.617899709616322,0.134113395915832,0.348725390596263
0.704508914323524,0.11483942506928,0.301326152726624
0.116125896730926,0.883381184983067,0.995379984256047
0.69811109035369,0.711401074619032,0.991252970387934
0.246598457896616,0.161827099859249,0.565949105406305
0.124295584385749,0.605719017248135,0.412979642095508
0.0201240950776264,0.105419879527297,0.359497684902327
0.50735867797723,0.211116811556276,0.318087251008068
0.415327704786323,0.124640998689923,0.44329272066667
0.534784379744437,0.0509742197622545,0.992575391591461
0.333232761706226,0.289749492286704,0.933277879458062
0.131474372650031,0.62856177550368,0.345369339697995
0.896948317172006,0.709080138848163,0.321773244211901
0.315701383051462,0.668653463986702,0.991486909228522
0.463881213441957,0.489326034838334,0.999610315006509
0.339944046791643,0.654886095025577,0.998518015461384
0.517024206094444,0.320733028344344,0.78001679377407
0.173821682587732,0.285955691996962,0.461149092902474
0.137559279513545,0.521511359991971,0.420005993433404
0.194853150001727,0.79315087527968,0.984177916329819
0.879796698274557,0.414465441403445,0.471772910456996
0.722441761960741,0.418694879785646,0.649559754960698
0.353354842868634,0.310006135260221,0.946619715098021
0.838538246184122,0.942947579598986,0.325996671777696
0.241258884264622,0.440954483937006,0.43611490763596
0.848413468902931,0.0951828590678051,0.652857513556819
0.827273463273887,0.875481264759786,0.754616668943993
0.930361595627386,0.266544159538578,0.418897671249313
0.406025574794505,0.411459919842426,0.999352935184764
0.0671791378515773,0.81494707182562,0.305350702583646
0.997666532610543,0.193573143629823,0.651471529190272
0.0414637968149036,0.0350913479258306,0.984487948048495
0.383052737655118,0.739031763060484,0.642428897980818
0.147694206681568,0.274014170998242,0.367471063617649
0.208762167398352,0.0968217737516388,0.342418223388373
0.791407630485482,0.208068446658552,0.997086441241418
0.264981972425245,0.67048541944474,0.842684856869671
0.0830935178883374,0.723558108541183,0.371010117509949
0.778454358551651,0.877265725104138,0.425640785125413
0.643183955609798,0.467336563135963,0.908918025348195
0.865666805736721,0.0195284774317406,0.294268325436833
0.159393999679014,0.51088712190045,0.329598646282451
0.814282158871647,0.239386328799184,0.790259797311824
0.63207162804855,0.0717226573964581,0.795300700773455
0.109823423126247,0.248171419363003,0.303709737233735
0.289724592891056,0.205505507121328,0.653416113775988
0.198720083438326,0.761074879524764,0.877711878993567
0.830929179637227,0.661824533844367,0.318619788356426
0.17823669827031,0.258809850327671,0.619842480395617
0.732909869211726,0.388941289057489,0.660530515441794
0.166854030144867,0.229558633847628,0.708341198067595
0.191407702388708,0.666367932464462,0.404086574932881
0.239897628843319,0.403096299032215,0.482558034084054
0.304909031330142,0.0808627330521122,0.478109913108685
0.799481699217577,0.90105212002201,0.379403813430078
0.0805898938467726,0.69121895480901,0.494508965405202
0.459643792246934,0.643478271824308,0.913173298817424
0.0779132871227339,0.32555122800963,0.58267798150955
0.326429562997539,0.542952694452368,0.820429316170952
0.484335375633556,0.0544466199912131,0.996057561932664
0.87408174090134,0.959682632738259,0.378617042602763
0.211974010701291,0.0792322662421502,0.295500510857865
0.917907304082532,0.116433518877719,0.825634080793348
0.152348947791383,0.860140610926319,0.976510292830375
0.272329164405819,0.372666478649247,0.735458812143771
0.329060943781864,0.295201144456863,0.958568930668212
0.34148609558586,0.82953441308951,0.317896244269249
0.396820020185318,0.683693852340337,0.874584787264568
0.503890312749427,0.550788561827969,0.998033590598613
0.0736011459943838,0.0217187190479599,0.60102578991373
0.00153954636491835,0.381933681980241,0.703852350190389
0.631520787918009,0.375527961217333,0.998749470189469
0.374433875323739,0.253190287149977,0.622740101480792
0.645225197121035,0.827656202306505,0.309424679201514
0.37179673538357,0.0426788472230546,0.99284098187176
0.242141861435026,0.00606291228625923,0.910092761067897
0.0156879892572761,0.665955181053374,0.967466100428636
0.538969277642202,0.748066084652673,0.466204443255328
0.867076706709806,0.472671493261121,0.445548457387725
0.372134409670718,0.970088975624647,0.978871088795764
0.958956248026807,0.188208080703858,0.321227107395385
0.323609541942831,0.0281814391324297,0.989815790082133
0.595787302048411,0.416690798664466,0.99853119651097
0.871685110678896,0.118246553075034,0.981037577119624
0.828002807474695,0.433388280432206,0.295582359089363
0.403736745064147,0.803545235067606,0.319966466002637
0.461270559106953,0.752547589230817,0.446197211226758
0.537565457390156,0.870296157905832,0.460609075791642
0.231361816552933,0.638607017915696,0.535876182046363
0.742419908966403,0.120770642621908,0.313220596738459
0.752624113860074,0.856907149360981,0.435536620718832
0.2988751496654,0.378433539515827,0.848286248119868
0.615162569380365,0.951275185008999,0.987559086884477
0.853706389276311,0.0746766137550585,0.506623923748724
0.764661965066101,0.881563773118891,0.353456795062825
0.583024507744703,0.53990868687164,0.992629743140922
0.10757246790966,0.102353388999123,0.99085130200294
0.861607172162738,0.512664964293595,0.417786739306521
0.0639770082877949,0.810993391793687,0.296494727028192
0.0893008243460208,0.0323942456683144,0.567245707723656
0.400380600290373,0.702052227336913,0.79089021862785
0.0347129258960485,0.500064155326225,0.900301231494053
0.295457347268704,0.355578669217415,0.894654230126926
0.154571520209312,0.568438687161542,0.324406749439571
0.893938208842184,0.926219179092906,0.836738772491216
0.464385643424932,0.502870300638024,0.999525801076996
0.744165716366842,0.674198361626826,0.80870375036471
0.0469736546734348,0.596848338486161,0.99643407928954
0.774394607175607,0.0845938672255725,0.29364750771781
0.846837933214847,0.704873983234633,0.339243309709158
0.358327537678182,0.261760403141379,0.722947297271664
0.824210006040055,0.251918685913552,0.640719199701767
0.381461921704002,0.0720916217742488,0.829382031889724
0.544908175065182,0.498231431968044,0.998745103378908
0.0447380538010038,0.273587330016773,0.678136216731778
0.157238188895863,0.334341627681162,0.300548944907434
0.181171501050238,0.460101736231241,0.293317707131017
0.611709978800733,0.292893516070209,0.796272473745226
0.593087333717849,0.586703483668156,0.999514013466431
0.927106995253824,0.707772323869169,0.493694653852873
0.602926764535252,0.949045045966282,0.989460925420904
0.719950171129312,0.00167695214739069,0.992010737866421
0.573794565855525,0.931330292251427,0.936238369720113
0.552808774680831,0.873119396139402,0.467161968611762
0.810972127152607,0.516036769113038,0.292709587848491
0.636376425904687,0.405714990031905,0.975921835954895
0.740785296791699,0.60395194845181,0.599659362993659
0.0598295028260909,0.903791433284059,0.790219572251268
0.0526017886688933,0.00214077577460557,0.592331603361911
0.367082448405214,0.524494463862851,0.928731430354387
0.669424791089259,0.720931252320297,0.902314448676904
0.939778352315538,0.507923703318927,0.994635084959835
0.990580101341009,0.562409199119546,0.677447914645668
0.207868242592085,0.939266036857851,0.303927329782769
0.20586196288513,0.363106031651143,0.402335788995158
0.954840261184145,0.774347483854275,0.426133552533255
0.0653959166207351,0.283309989590663,0.520467418225035
0.113643452247139,0.679167705525644,0.335534758896079
0.170908704448957,0.915556181388442,0.429029659014615
0.49731706616329,0.129540434438735,0.474700729795736
0.806494103843812,0.037639258778654,0.34887764592498
0.143941367978696,0.100537437580526,0.766924570250163
0.104748101896141,0.397127340902109,0.559744249193025
0.144987990911584,0.983503219562583,0.30480979700439
0.877284645907581,0.427897965878248,0.473641263383344
0.22529613968404,0.455641680603381,0.36442796796685
0.748350199653301,0.910326819876209,0.302080608711249
0.94161904193135,0.965045217883307,0.887931398071669
0.759549660580698,0.849818320532795,0.514472755409898
0.0224971371735446,0.305051541476045,0.985637306248501
0.110063607874326,0.847038251092192,0.780394755937873
0.455000182738993,0.0495124261993915,0.991302432156082
0.520353808713146,0.969379015987739,0.868108007858646
0.944040223863442,0.35193077438185,0.891253039464252
0.739411385488696,0.593171867474914,0.582835730160101
0.234568864620756,0.579986351577565,0.431065089406598
0.626671937020961,0.0595823875623755,0.915067700728726
0.285450812912546,0.823788116721902,0.477367274857841
0.249470627724659,0.38398917606147,0.575300385751141
0.412765234837309,0.392403634592891,0.995743562022377
0.576681593723129,0.953224129102659,0.994036873350736
0.660547808628064,0.712881572486833,0.907485595388236
0.721496739925817,0.175434303617105,0.501837881114027
0.725039941416122,0.797939575582277,0.70519375373218
0.457317622531205,0.413869033633266,0.991797325195249
0.540949636267033,0.553578689291608,0.999660457596608
0.320507555030752,0.824766188154928,0.366315195164366
0.187303013314959,0.11104373003915,0.529715228179436
0.970079553154763,0.854788808040786,0.29541922071253
0.039109535405878,0.0040566618074663,0.756846357707204
0.543589237986132,0.387749973910395,0.970920803408949
0.0320482519757934,0.163878347053193,0.30122929278959
0.270665265715681,0.845407947359607,0.410446092172052
0.0512912299758755,0.821903828023467,0.29389923331437
0.619113784602378,0.980229158766568,0.900413700298407
0.676648904220201,0.137467605257407,0.293667401818687
0.472937765202485,0.778051761553157,0.347410711962604
0.761719020453282,0.464708272651304,0.405956405603878
0.901690608230885,0.933855243690312,0.832328703634931
0.984203012655489,0.199622981763445,0.544306142710994
0.554554249057546,0.479364463940263,0.998318122537865
0.0856682777293026,0.132541042237543,0.721520490497831
0.163700285567436,0.406702620583586,0.297378598743066
0.135240152692422,0.772775129743852,0.478965713312675
0.982158119337168,0.0168054379085079,0.992498649763914
0.641470587682445,0.782278936112765,0.469413898948468
0.100650936992373,0.0390572638781741,0.534939090508678
0.821238485170063,0.0990989651810378,0.489809879324632
0.0605544483559206,0.482208997610956,0.993634575765673
0.165548811350949,0.656719681137707,0.306642261968475
0.435491047269665,0.164322995889932,0.305085129777507
0.695446735488251,0.337592522366904,0.964226875290164
0.905171972209122,0.919072125920095,0.961837466142187
0.0059844552250579,0.264746496744454,0.980799741165475
0.763392188759055,0.946170249162708,0.411042408513384
0.672044698231388,0.998827914737631,0.873863369958104
0.883805488962214,0.244144701698795,0.324422870731649
0.511981602849904,0.742969441670924,0.476610542600799
0.655900783639401,0.177219868056942,0.33225549604522
0.925390043078456,0.862291052395478,0.570391120451154
0.483420995167457,0.843684196299873,0.338189284794266
0.854259523002431,0.920407463508658,0.553740322473701
0.237770255095791,0.547956459499896,0.412065145687797
0.606557188370265,0.317449581886176,0.885490848346266
0.891639180554543,0.966198084566277,0.432561512291707
0.267688449126668,0.299273267328274,0.95222512034512
0.290682094085962,0.297794671504293,0.99650724629132
0.0971694708121941,0.169536652981769,0.534309644613911
0.772928048501257,0.312844722855836,0.689574786113628
0.558105942722876,0.916752908237744,0.843007749204152
0.150161688778549,0.53792157538794,0.353835888394107
0.922388530102558,0.401050685290247,0.824694383313014
0.476234713247977,0.225444293998182,0.356754097202952
0.652356908069458,0.585303956315387,0.937237253118334
0.880960903175641,0.185021175188012,0.613114213476777
0.283361887216568,0.896804606559221,0.3109188023838
0.30178641318623,0.428631079624407,0.752494300258401
0.216094749279786,0.332015946270898,0.541855691696115
0.467268492181785,0.893139607790392,0.648882775841996
0.471060383345,0.391274389173836,0.969549663945499
0.3186400544676,0.6208107829988,0.91815965230215
0.571307443124242,0.78581071784813,0.347139583503145
0.79254296673974,0.851653162632603,0.705438699384617
0.0302767131878063,0.0683956690453924,0.74783130298771
0.395005615850911,0.523984552426729,0.972650234538434
0.915875905251596,0.458910813965835,0.853016744353376
0.126404909660108,0.688690627679229,0.297078492843107
0.197641471243463,0.979589362052269,0.487267894072543
0.426978857995477,0.853787145710085,0.347992552336677
0.293625270009041,0.555179343373049,0.68886110110861
0.88690887198085,0.0862488129762933,0.886639043170078
0.578165030904114,0.276177599724848,0.636302012174619
0.404774824660737,0.286078227214515,0.722803285592034
0.118818388392683,0.197262298415415,0.528359509431432
0.103425908482634,0.673164421183523,0.393218692330823
0.750877288409974,0.687878334593959,0.826583942732753
0.89461467337748,0.490186425759923,0.674142669215901
0.581590568726882,0.71612059720885,0.682833493644285
0.556001049214974,0.436443534174003,0.999755247351978
0.490234705867711,0.291603883726522,0.644041813850535
0.933130558192264,0.0411099588759243,0.871576832425201
0.523479653211776,0.281974009086844,0.601678553760256
0.138917663008906,0.913448917355854,0.675460060051824
0.469341435523704,0.0472723409226164,0.981835980235266
0.747879666028079,0.961532013679855,0.6258474932375
0.693481830237899,0.123575268570334,0.297382320526789
0.324156272393651,0.757208306631539,0.739979453644343
0.529434778137598,0.142422415704932,0.391188514207449
0.685775398857426,0.369111789590679,0.925703067611581
0.25954864088865,0.962732533379458,0.681599601869116
0.757780435509048,0.835094651083462,0.614379084589674
0.0933581626773812,0.203878411239013,0.342942371630757
0.351485895355698,0.559308891737368,0.916535279410975
0.95183255009586,0.740046576024499,0.569294758827045
0.591663862262387,0.576071305206046,0.997975868996244
0.0707031476679258,0.236483263400383,0.326014225894905
0.310692968980409,0.0676802003248595,0.620520704784105
0.88520312797185,0.888851343513932,0.993319116055082
0.888114896246232,0.519385207961779,0.611565348077675
0.59707760912599,0.420251850740984,0.997371002194092
0.686626983143855,0.230565673222765,0.709877799749543
0.174637315210886,0.153967733627651,0.948939411002582
0.584214669589419,0.150555860113353,0.325990754250145
0.0863383375569247,0.580975663193036,0.779424397029445
0.316648521939758,0.895835269318428,0.366204561474611
0.77700598964747,0.435217286629602,0.370137198647527
0.608661971942987,0.899746436832007,0.585676543801494
0.228806209492497,0.182161488841288,0.827690250416493
0.449101828685962,0.366737922154833,0.942978886634242
0.735932046077214,0.469836241983809,0.516928878603366
0.308365583220497,0.49434910898516,0.723183484965157
0.281528683515731,0.0906437561549246,0.348397468059975
0.202171411599964,0.480889871244319,0.30385464052409
0.0429110068143345,0.65858505450841,0.956813684787817
0.262055261954665,0.530964432743378,0.508104331808915
0.56788936228957,0.53302562509058,0.99662505565841
0.140173754762858,0.222417848993558,0.541287302363146
0.419809038289823,0.262804975098465,0.569515029484581
0.425852310450282,0.0265411805054173,0.879919877500563
0.287730186400004,0.746192716099322,0.939081054849292
0.9884689656673,0.535989800608251,0.671148034786247
0.213478739033453,0.718313533436973,0.749124167817714
0.349963416037615,0.83048279529158,0.308158307370899
0.376695613464806,0.398152993694413,0.993761035650506
0.680056505426764,0.677658968459349,0.998725508565843
0.256494129091967,0.191814470580313,0.734209029370855
0.221059483383317,0.215375739038922,0.994862697738061
0.565188326844946,0.170417118664831,0.297295317456414
0.274411260709632,0.269509727760684,0.997141934661056
0.683696650095284,0.696243155546021,0.993103883512098
0.690522497287486,0.6247615223662,0.897028128027741
0.80222519164253,0.0611778546539135,0.29480962602786
0.908934581080917,0.364735663696192,0.596159265156997
0.78661733876355,0.725339636086952,0.784646979888234
0.648006484389771,0.173256634052843,0.313277289964781
0.509114535914734,0.755984335886315,0.419978444330179
0.421222903911956,0.56417361025326,0.998605552315385
0.409435516854748,0.768919909375254,0.430556565748577
0.44636636763718,0.341406922131777,0.882773534235257
0.767162264320068,0.766075177961029,0.99783109283946
0.391288786397316,0.737864611697383,0.62724664367465
0.967648291991092,0.887692641014233,0.398932516518386
0.0288251607506536,0.693643696221057,0.96125371481727
0.574393631996587,0.425142959845718,0.999796260324402
0.964378945154604,0.923531006428879,0.725419276407512
0.215703015925363,0.474990914504044,0.330245404418678
0.801893928488716,0.218481848409399,0.962124738637088
0.728133902444039,0.685396183623467,0.923107428879391
0.604056551274843,0.452770851890556,0.980912863883114
0.845496568453033,0.138251217946876,0.963257291121995
0.129187853121199,0.645601056004874,0.331526534328901
0.99476624902105,0.770457774600014,0.85524570691363
0.122446123014204,0.71549054682022,0.293686447828062
0.714899759164546,0.727351090788841,0.990845248263055
0.613607802865095,0.221582145740744,0.426741398252956
0.546580127174035,0.0107687977221794,0.672583339075637
0.399910575407092,0.0258162822341546,0.914233323552304
0.493668535601813,0.904382659830153,0.767095981865849
0.30352768038772,0.0926512508126907,0.393670115950677
0.183580105946399,0.541541499097366,0.292524537444229
0.192948276682757,0.326859064159449,0.429289427738013
0.306291431910358,0.81964546416793,0.426299741481934
0.450156158281025,0.00957885922119021,0.662426593587736
0.840404604043346,0.408613899461459,0.302902003905184
0.816914528922178,0.113001394012477,0.574649463559517
0.346725674810819,0.988457852782216,0.911823931498738
0.277206868811045,0.107944355561864,0.297208404939503
0.978466965309344,0.90706290328037,0.438567790333329
0.843626399930567,0.841211967125535,0.995645697809975
0.200263984206133,0.376489662175998,0.358184339413013
0.518014305825811,0.79440842089802,0.308854615299
0.956783326858655,0.72973654056387,0.67667176698354
0.621517818767112,0.235655605412554,0.513420280425978
0.441595793202985,0.734233911328018,0.551702437641689
0.355024747109972,0.505194777546916,0.894987777434526
0.7828185414318,0.527041116836481,0.334571937072662
0.768431280212942,0.646256334161852,0.560334272745828
0.986310813601594,0.6991498228251,0.995396598389098
0.330678350823931,0.159638798716944,0.307062220221318
0.18921506180102,0.439281012713443,0.295773504721489
0.813634787034709,0.422897996304091,0.296703207531153
0.712990963824559,0.780286320831161,0.763530699879584
0.0696914302860387,0.616080552297179,0.857118541224906
0.177852888997644,0.556314298363403,0.293466886809882
0.168291523248423,0.618486232648604,0.293181245271761
0.115009052171372,0.343298352291342,0.369732835751312
0.475832887241617,0.195276303312276,0.296560166695784
0.671298875854351,0.941540609155782,0.790943594710313
0.227306434438564,0.256089479639195,0.943568122013991
0.834575057317503,0.764764708511997,0.660876800995377
0.369006768051535,0.549322263224982,0.94628298423555
0.869615108874626,0.270475087715313,0.316832563637059
0.343999784127343,0.608854292390402,0.960526263711358
0.678583674428984,0.444394580887631,0.814498397500462
0.689365858921316,0.652943618214224,0.960405626638413
0.563567243066151,0.695934061136562,0.750732974222154
0.96106620075088,0.528488811023068,0.938332952291406
0.920926339470316,0.077509802646935,0.993941042568114
0.0983132648095489,0.346465752927121,0.479662381805914
0.706392087463755,0.0621743941935711,0.597936270887856
0.797048616828397,0.303479549848009,0.571720859456154
0.438586748001631,0.777941446494311,0.364713796425573
0.639036952993367,0.471015539221,0.916912170517845
0.027066276434809,0.497768171940465,0.829020279348564
0.770657589816488,0.984997802783269,0.748326725442805
0.85088583847601,0.243648441336583,0.490844078811464
0.4949673022395,0.309285740883555,0.727126973931887
0.700662806724198,0.788447162814904,0.648331357215719
0.254863401091658,0.031333918035496,0.720178363032474
0.666730248284992,0.462587399850599,0.840790732220043
0.795254825782497,0.443242823501118,0.316262312570583
0.0903173134005629,0.817271212535445,0.407239490560496
0.296071337558329,0.186016413339879,0.494537327894667
0.942262281929608,0.601925725575071,0.965856164657877
0.437454433045816,0.141613710522186,0.374996739979539
0.709862480810378,0.485472752678208,0.638097373140336
0.379697739986237,0.130301546938717,0.360863084380673
0.947405704038683,0.167033016676549,0.303126630384701
0.717555111811962,0.323502749624662,0.934904508649421
0.972069743862376,0.731559090411756,0.830531108399356
0.0162875475850888,0.0136275780368596,0.990764922442822
0.910150396640878,0.232967282301281,0.293706364619973
0.361411893000361,0.448113293718547,0.932849982612565
0.488236915889662,0.544556143714581,0.999121346415698
0.703304877032991,0.635359442693181,0.875222777206651
0.433195762675256,0.759132208187133,0.442580705016415
0.512062141454313,0.560686638941057,0.996725039148719
0.504733576438855,0.181207098345738,0.293880591376716
0.0240737815261818,0.649500046368223,0.980856627768449
0.385911707513966,0.924814899022225,0.812078977733596
0.410882578328252,0.663584055890795,0.914186612218268
0.948287630356383,0.955943174665328,0.981210190690278
0.442841096287128,0.148133737693075,0.351675771589095
0.500063945646863,0.247864816390909,0.434947654849265
0.392772415996063,0.31442773251608,0.876025920501855
0.856469494094141,0.306651764311362,0.301338631190951
0.97670600462053,0.909746300106402,0.472438306714551
0.858056264143437,0.179395647316705,0.848839996396621
0.919095133387484,0.937374702427071,0.934681311217733
0.423315930649173,0.945209663039073,0.992587383577021
0.233503549398389,0.805229336041957,0.882201514133346
0.148149750866462,0.812397956673987,0.840500566493463
0.629579137225635,0.762672087626997,0.543704108892969
0.99905751615297,0.626677372701,0.72172662000617
0.445338183869608,0.994089864419773,0.626138440868144
0.804660936885513,0.27944479771005,0.63372193270412
0.26043522210978,0.146723383964505,0.405226944031452
0.0119870637413114,0.573278418304864,0.724721539613274
0.625895435144193,0.217394650873262,0.431535148212672
0.784268895837944,0.591879128059838,0.371251692671422
0.550023591262754,0.213397908736952,0.332747178725021
0.968346153970808,0.637700532659888,0.992006252432818
0.486891546701081,0.395984070820268,0.971215861438861
0.588522977809887,0.996171173695009,0.658924637097083
0.337222223189659,0.255783426687121,0.764492791660836
0.737921595513355,0.611658950683195,0.634378586720132
0.245655902191531,0.154844645646866,0.520211620609448
0.480175319974311,0.352833811149467,0.89248817649924
0.279563271662686,0.992729304999579,0.994237499058174
0.430744519309606,0.0220174215529114,0.828740347017863
0.387000791213941,0.451200818979181,0.972762088107215
0.862516963411123,0.515017301926389,0.42244823621927
0.781781929896679,0.0897797011402436,0.30344437135117
0.646506366986316,0.651554367827252,0.998736764534582
