"X1","X2","Y"
0.842645667386241,0.154089366496541,0.9949921669103
0.101463375949766,0.604984846260399,0.583750635885472
0.060471264988184,0.0802520690131932,0.924437254869321
0.434559548714198,0.629843615921214,0.960271481114091
0.727171265192796,0.418701647124719,0.624399347717474
0.337786865031347,0.91255008945521,0.54088046680134
0.510442545427475,0.122602491748519,0.524510162999764
0.923774894315284,0.760341735956259,0.315067456269829
0.102252485455479,0.188290572966915,0.45713187569936
0.743858486197423,0.694105424805544,0.886667152196362
0.668132987504359,0.793580353810918,0.485790841043798
0.687112745855935,0.662514890640974,0.98046579913401
0.532119613441639,0.0915239232648164,0.793963532116356
0.265970476095565,0.330464959675446,0.844252720220701
0.955232147284318,0.253655482627451,0.569525731821432
0.221343338770326,0.886724524254911,0.374688987885249
0.16593096627295,0.251715733605437,0.567899255826177
0.925475035439245,0.347447164978832,0.69913700668519
0.738990218673367,0.198018170685973,0.753250251805878
0.807582618223969,0.654154875386972,0.381131005935822
0.241119290007744,0.0533942136019468,0.432691682533044
0.517586146004964,0.21351234450005,0.32409905210348
0.145316986136138,0.457027668394148,0.371213861588435
0.513113402985968,0.0518003773326054,0.991958765605293
0.936917455810588,0.335996467433404,0.7725735293845
0.671517278829124,0.514732019265648,0.810326874672733
0.325702001043595,0.18742569329869,0.405604221650487
0.619039184168912,0.646084723677486,0.986542800646776
0.631920621349942,0.944905057710595,0.935749397258928
0.759041640883312,0.0423739108135924,0.524537042705674
0.522038799450267,0.410384740703274,0.985436140729876
0.506710919504985,0.762576550347265,0.394206454589896
0.71790956027573,0.541189152454026,0.61549130189693
0.611749983626883,0.769447539309971,0.465314234934758
0.430916682244744,0.895272959385999,0.625521835601032
0.734606071991846,0.387915856588166,0.653961320721932
0.859872410191223,0.382312263742555,0.328444346160514
0.376744517041836,0.575650197478011,0.977192821270529
0.139789006256964,0.570029838570394,0.377024105889105
0.659485162449535,0.834129422735423,0.309688992604922
0.82707338464912,0.650997436583042,0.315595193806066
0.556949103903025,0.790536288621835,0.326257968439584
0.946403129622806,0.0615469066277146,0.981306399912785
0.0399161451626569,0.193154468216002,0.337630738573512
0.852333502538037,0.876163534072693,0.922984315936666
0.379428850180935,0.174291147226933,0.297773870244921
0.316652262655552,0.203946189922281,0.524463704943929
0.502272256391589,0.642627069131471,0.900933781329205
0.594209621028975,0.660230578248855,0.930776079434224
0.333968969303649,0.0232337421867996,0.993084822935488
0.373266294916626,0.892516754554585,0.48175988081915
0.769408748082817,0.368400341904256,0.51194800287095
0.621662140532397,0.338479098354932,0.967373791908958
0.869844909812789,0.919989438953344,0.686469251437599
0.194867951519787,0.984924127340317,0.521431678562362
0.657569445417263,0.685698970259167,0.975527615929333
0.646531146613881,0.138369252865668,0.307323181608503
0.343955510958564,0.652631207823753,0.998869767810623
0.761861460972577,0.766920605874155,0.99597061230185
0.725130858350545,0.0935116130658425,0.32453833066242
0.38154212675849,0.940773553222418,0.933424513700056
0.672444588393904,0.712195190804079,0.941405860764382
0.235856108355802,0.720674027543049,0.893111540052032
0.790175705640111,0.794226853337605,0.995799097893891
0.0842232788996771,0.31848089582473,0.500248443579973
0.197849713252392,0.883708577958401,0.505254835231445
0.369992833451368,0.461146539281122,0.941561856322162
0.873835503686219,0.161943561053835,0.848172953979524
0.219729505369905,0.826747421721928,0.819587118661015
0.732785848654341,0.162605220570229,0.469732812692863
0.0137507765134797,0.645839617639314,0.91128601951793
0.851528681118507,0.973908578243107,0.295177923493069
0.399051469384227,0.0676247689230368,0.905439424336161
0.058944425218273,0.211819790045731,0.314396335788281
0.907767833890393,0.921570863122121,0.962007455425811
0.354256546707358,0.786579458209686,0.458369247335835
0.627713052417152,0.706672178672161,0.84060499774086
0.941040786834434,0.550362589121796,0.992029846376298
0.217580789912492,0.729127814043779,0.830641669786449
0.497820366843138,0.609846911240369,0.963414747526149
0.0525818608184345,0.586875828793272,0.993325452717979
0.0794737398107536,0.669886364816222,0.585732858823504
0.0467453115764074,0.422039240532089,0.994465933084281
0.721602528247982,0.686016113371123,0.946938298478034
0.441013596400619,0.584207599174231,0.996513425401472
0.804744785560295,0.963595800061245,0.360636431217544
0.786375728460029,0.813414714572951,0.933020200275081
0.596740344612394,0.702704382104799,0.781112123598087
0.0869916049065068,0.362632521800231,0.627972353840597
0.643848243619781,0.956814616481308,0.978817341544104
0.0624506026864983,0.952315022958908,0.951334002291763
0.387380242186133,0.424816165389959,0.987117500668163
0.816385415150318,0.989627684433479,0.497404648599633
0.00691118016978726,0.275612704312894,0.99207477551219
0.31515810762858,0.999941280295607,0.905785163968384
0.708099873246159,0.578495916975662,0.71744895289194
0.639568127537146,0.543140945667401,0.924181934552524
0.394878453781828,0.929097756375559,0.87093291201642
0.280118049836252,0.29885849156091,0.982828092842634
0.0262847611601464,0.770186401799787,0.624220992755954
0.300264819642529,0.158730662748218,0.347845944327169
0.696909064691048,0.743074228215963,0.900097944187729
0.148370989516843,0.358898551360238,0.296334979019136
0.146513054526877,0.479236915851478,0.374819634328522
0.00176148883812129,0.612635493457317,0.69161321649669
0.277658657749183,0.431922795714811,0.626927697134935
0.661085933182854,0.489641445348971,0.846874132351023
0.883887212454807,0.901666726522148,0.947194847597116
0.41759125302732,0.37045626733033,0.974550296860323
0.792365239327773,0.990406450610608,0.666352700860759
0.190702909433749,0.591771224782802,0.306440834117933
0.612223611467518,0.80786320798099,0.322472070465814
0.393396147383843,0.851540008288343,0.315814099552857
0.169411953502335,0.711560679134913,0.427360862784909
0.723103510561399,0.206845445872284,0.728441107953177
0.200803035121411,0.215549637009855,0.978649413317107
0.391662882507779,0.258250799357891,0.604840228047042
0.260203516739886,0.525928078676108,0.496345234136283
0.414572585241869,0.195239469194319,0.311077539221867
0.439222940669395,0.00712332018464804,0.648322025522789
0.56858889262937,0.53347884075623,0.996560859366235
0.593553660771344,0.785219671478029,0.370031700211422
0.991094365558121,0.625721426844597,0.810170301446013
0.651072185405064,0.196654148348607,0.392201699530548
0.889808463219088,0.236008176032454,0.322847424056663
0.789275176652241,0.855746316651814,0.648556243363383
0.474425514765549,0.852235956258141,0.368017596426554
0.898066937559284,0.607565528783947,0.573253477197816
0.477729767294601,0.50139903084049,1.00002785298719
0.136145472866017,0.227766827945132,0.482631197972089
0.0348388651558198,0.823851159560028,0.314732941225928
0.413564650045708,0.0561474106726237,0.984984091364964
0.796319277611095,0.619988475841936,0.365048602623259
0.559797203769442,0.132045129589271,0.427357955740188
0.0231698126527481,0.231684308622032,0.670580806488861
0.4184787010625,0.438509242954198,0.997662217545352
0.249960871539544,0.801096139154863,0.820684490356248
0.730415526657365,0.0754927230696194,0.392360622465791
0.554978901645169,0.90852372846473,0.771520768602766
0.243609766807407,0.287368049087934,0.898161118806781
0.50464391423203,0.256175662591588,0.471468415250394
0.752049773788545,0.390146043768618,0.551785411013706
0.58012876508804,0.498312307247892,0.989511114234353
0.344389579234645,0.427067046997603,0.913571326623001
0.700629759187344,0.446758703477215,0.714471667928746
0.655560301173478,0.917360752732493,0.607851736933446
0.470234350254294,0.459671845454723,0.999903755699838
0.127290199347772,0.825852883779444,0.768051824175927
0.644345159016084,0.24904657589132,0.657992964266631
0.766545085512102,0.281669524370227,0.870861401047237
0.929811063302681,0.452246594039723,0.949324679267853
0.397917255180422,0.130940197587945,0.383016345855082
0.10933166751219,0.471874354030006,0.629744546356641
0.140294253686443,0.938466067025438,0.441480153747716
0.957866460964084,0.2459333411837,0.553543253739727
0.561098348675296,0.306476443147752,0.758111846571808
0.514718764018267,0.465383011095691,0.999901060457481
0.944270187733695,0.757810512685683,0.420434195335489
0.310277473598253,0.744707772704307,0.865997931808697
0.0743269409202039,0.222519022500608,0.297894571088751
0.282376096943393,0.521609589541331,0.602801147791932
0.981951391501352,0.366908403651789,0.916458183882498
0.209914885465521,0.00540320163918659,0.730737620077235
0.1523366090497,0.247014050418045,0.495875337275245
0.299752743495163,0.112179295671638,0.310256730449244
0.318552211557049,0.905987236962188,0.428324806172249
0.547500799971167,0.408504481106065,0.990318229860005
0.328546644898132,0.102849606215023,0.400878334345622
0.082095722949598,0.819170032066759,0.369504451356329
0.845788584141526,0.898377330891322,0.692369830671714
0.286125735284761,0.448015740058385,0.647472055514289
0.483278601338621,0.181068297391292,0.29400144920143
0.254510038352571,0.72525043687271,0.975416765887201
0.143979315593373,0.559260640242603,0.366929226462811
0.294988056018483,0.0484012168608606,0.74802355607732
0.268438448696397,0.472175127473194,0.537059640912454
0.582472657833248,0.0123952234564349,0.746047425410378
0.993070697386749,0.384873287983239,0.758868970424666
0.996637948960531,0.200081290335394,0.685978969457422
0.174083574005403,0.204135268994607,0.913046864413369
0.866107142697554,0.316369685070124,0.29335128373668
0.785190509515814,0.340885353056248,0.504410511703005
0.493121802779846,0.262057299880311,0.498837652671655
0.25855306182662,0.623693460811395,0.647884045899459
0.432552229275461,0.024274129667785,0.849045552556896
0.815323761759326,0.0283150423900224,0.3665597740655
0.462637277877424,0.764305615756661,0.397263240164963
0.178770335392095,0.483178695386741,0.295235935110706
0.0486813559397124,0.562916828404181,0.993928219587007
0.0948070215284824,0.502339821292087,0.77519376898234
0.353115160649177,0.986116855270229,0.914940932635385
0.160403208048083,0.821640834317077,0.961571005974455
0.913678512349259,0.547923302328214,0.827225940760824
0.498651535601355,0.849186463472899,0.35915243922371
0.0551143519361503,0.343980234130751,0.87567945543479
0.579036741209216,0.808918007936794,0.301978476766568
0.526446295918897,0.380152042516042,0.9535346802642
0.302660921630915,0.505846646215767,0.69649839774873
0.437537700452842,0.620200703724287,0.971840252009404
0.829473799576051,0.0260148258549161,0.331621815336424
0.691784559811465,0.172205551537685,0.382412775921307
0.225183381373528,0.510682713931426,0.353421849857398
0.408753188476432,0.967780462151393,0.947218530247999
0.18586630882835,0.414824148059823,0.298020189176961
0.0430554675692692,0.600172252692282,0.995015571674394
0.349817807189189,0.739551636313088,0.744643448766894
0.133144601662178,0.277777276172768,0.312937777094904
0.666923459984828,0.992885129807051,0.911775607226028
0.306395029135514,0.698753947143443,0.997641059302288
0.649212433600333,0.329088052682579,0.986982654281205
0.77202388344286,0.303989232977852,0.735670831373872
0.705761530324817,0.00949698760546744,0.994588531914033
0.183632991428487,0.481568040566985,0.292867877667311
0.279469160264358,0.0368597790813074,0.793590010153367
0.445198147986084,0.182071435103193,0.292622755516454
0.167419496149756,0.780765861232765,0.779361603128781
0.15765827085264,0.491235029116273,0.334807888459828
0.0284749268721789,0.656448917735368,0.995389138504804
0.383941469780635,0.576434664919507,0.984857132384829
0.591837079828139,0.970614261345472,0.928720708073153
0.835090278425254,0.80271679194225,0.895915913223076
0.193292317192536,0.523804427570198,0.294961276295082
0.203856944373809,0.799609618501738,0.99616861021783
0.604214150584303,0.0451148585299961,0.996422076746804
0.130482270377688,0.157766025395133,0.906192548735392
0.199614207754377,0.325175404279958,0.469406617620753
0.938925677099731,0.311694678483997,0.69254986105909
0.623793547194917,0.534258567291778,0.95018748205384
0.942007225959562,0.932257351577748,0.975839034599672
0.288365072165616,0.741968779693823,0.951614986034031
0.0375218222187832,0.719735316334758,0.790586893572486
0.699963811316527,0.868041919268668,0.293738259098074
0.635739532317501,0.630898960431106,0.998972853514312
0.825293995565735,0.127378543154336,0.76441701891394
0.215732654922642,0.978820607244968,0.590591760901584
0.135477081002202,0.723348740013782,0.320023499462609
0.188719718686305,0.084490528121125,0.352582634632308
0.904083328430075,0.841807323549408,0.607052637453371
0.961941402939614,0.0772303590476513,0.744472331378235
0.0167401731242426,0.105235081013758,0.343171708654596
0.765165351415519,0.496119461628143,0.384552579038062
0.479917167393491,0.549433302413672,0.99871914043702
0.455671763601713,0.0148372201910242,0.717258426195486
0.29742462788336,0.980654429541901,0.985587069497387
0.762716009511612,0.348384246784262,0.612335622638495
0.446657109301072,0.278583702670876,0.610791345002365
0.926698952164035,0.752974621917121,0.339664966089758
0.603933045787271,0.915047569164075,0.743402730682615
0.975602066100109,0.637161723728292,0.965963834423712
0.933259036042262,0.111688057305291,0.718005837393812
0.0513267441648059,0.08903977671545,0.770411930979083
0.970663522121497,0.149232634285465,0.294107180451453
0.55116290254565,0.475190587291028,0.998783257497892
0.878116745284293,0.805480839740951,0.571308981695936
0.586985783072189,0.323996720484924,0.871599923482601
0.0970824717408977,0.670081640800461,0.440628788643134
0.388403840386309,0.736721127476078,0.640793284153912
0.598232246516272,0.47711665063072,0.978754043949488
0.744470176104922,0.374625440305099,0.635547259304038
0.0690024041957222,0.754747918164823,0.353844451069936
0.494733307670336,0.544004138256423,0.999086308549972
0.689267642897088,0.0348218001248315,0.935446701554203
0.422708977424074,0.399221502461471,0.995227619476193
0.896987497515511,0.641424296897836,0.478161080243471
0.467990792373661,0.942992973459885,0.996623795395746
0.273498642347753,0.10768262892263,0.295422634992196
0.573110983714461,0.117185114725027,0.513167563048417
0.5383056315016,0.948036791495979,0.994642633191135
0.952773624080233,0.603680825655814,0.995429053162908
0.338394927531015,0.273437830587849,0.852826303597768
0.775743472633418,0.168446649175137,0.754918257226057
0.984812768182717,0.434675999438856,0.748287800196669
0.47256354178302,0.845985035712831,0.343461687276161
0.359288016576786,0.870057467854582,0.335090789182209
0.886568144132849,0.269628836564254,0.293842309716503
0.0193571679601446,0.436371141245589,0.792317577476316
0.020058095281478,0.135711719642393,0.294376327157131
0.857161464761943,0.758390922447666,0.459309287704159
0.484935460017063,0.924715728325769,0.933325807155945
0.89413112774631,0.407865258668549,0.572980709013438
0.186990820190404,0.996427675670479,0.590592731872757
0.998250305016525,0.529474741124548,0.55604547482856
0.253092663820367,0.682959184410982,0.828651022993011
0.855271637242753,0.00254020549729466,0.356549839417465
0.239415575119667,0.513084766361397,0.402621281119202
0.802604404594284,0.964682777194772,0.374579592270005
0.675804728263058,0.635733536721207,0.960313521427347
0.363659485706128,0.361214519123547,0.99922524814772
0.158922968377825,0.561108222810552,0.316943820659433
0.0053065279442817,0.225728751230054,0.832945360704155
0.575875763118733,0.648013321632985,0.935771672575588
0.227288157181814,0.836774061040953,0.694338658983663
0.812259479857516,0.143293345545884,0.802514965038184
0.836844490647316,0.666296231147833,0.310687348717571
0.702791433645878,0.114530880969483,0.303104734020442
0.210696447923779,0.615388648110908,0.383987097035328
0.405013893842231,0.538174567129463,0.985517021505667
0.714770905166399,0.74997106587328,0.932897283776183
0.633756305316463,0.167245987699833,0.296052909824028
0.983984987703152,0.859727112352848,0.299413183235687
0.98852932016179,0.592643121953588,0.756208567442758
0.770022945283447,0.373911258986685,0.49458986810548
0.117262327501085,0.0318974762395956,0.370906644621946
0.800830790356267,0.775200567941647,0.943876608494301
0.124974836986046,0.926276015010197,0.669175382016324
0.692486376510002,0.776282350228168,0.691804099671965
0.0716671658549458,0.878010541054886,0.674983482730854
0.285983440669253,0.830087246657349,0.438736973510829
0.525860088504385,0.0979662492941134,0.73769195643767
0.518640364550985,0.462110681643244,0.99972173984326
0.918555562560912,0.896524890862405,0.917257655219277
0.65232338676462,0.531264648053795,0.883464442753102
0.747127676013857,0.676805634705815,0.802672498403998
0.402089957715943,0.839549302978907,0.299287042300745
0.830877338836435,0.296001523910556,0.401847475912773
0.820572588009294,0.772616397048812,0.817117488867826
0.356059230982326,0.846730936918873,0.293020461844711
0.330724960392341,0.903435667853337,0.446737033725584
0.729239061632194,0.751668798873667,0.969124422281521
0.880186403371394,0.290967454667669,0.293940382223199
0.640145052236039,0.679685120889451,0.959399221136767
0.751748823921196,0.395061993137933,0.542105769018089
0.565774692408275,0.494402662748937,0.995285228608562
0.0411260063895024,0.314985060704406,0.901046208711462
0.270077998000197,0.581452496684622,0.610257937461434
0.0772052710358985,0.717140532433521,0.425958544576175
0.293128755753394,0.219298802444246,0.730644796133207
0.566128895654343,0.292847961578518,0.701002971372732
0.426851331593003,0.567432872406673,0.999567513900052
0.531970988785382,0.267409522661939,0.534499536021957
0.163268683149479,0.396907028380781,0.295259010489415
0.861946847881656,0.364274702118244,0.317147949236219
0.460574906190857,0.977154224639758,0.801964594935065
0.629396663557272,0.958303443956655,0.994030411795634
0.901673372020945,0.184780681162607,0.448885196118007
0.448696933855303,0.234004178299569,0.399802678255054
0.10574831192987,0.270484890009277,0.295583795893108
0.948415478901006,0.242503485314082,0.452483464714413
0.615324586033355,0.379795585717075,0.999229415969085
0.535338530414272,0.864627679368481,0.426346051855433
0.719953319735825,0.357661169908941,0.821827086419054
0.891674602639861,0.95198918250436,0.557464583347987
0.757687673826702,0.0694940023659728,0.343850023028458
0.256053187124431,0.260092693633866,0.997122015669354
0.847374407307245,0.0185205732323229,0.313875019820931
0.748643716941122,0.020389668348711,0.819151257893595
0.00287187811452895,0.487912966525648,0.560273456542358
0.501011517102364,0.86093668288039,0.414986097040515
0.822019615447614,0.000300300444010645,0.563433852635741
0.736748135306407,0.797285098936874,0.773437197350271
0.972260757210664,0.241922508195508,0.6829879018208
0.588805453481153,0.0559388732970692,0.984173408089773
0.119577637384646,0.594218421284575,0.46213719941028
0.456461628905498,0.0738838529572822,0.929407255990476
0.833449096813798,0.30122232604539,0.375908919572207
0.290676478497684,0.704807181234006,0.997693643780925
0.177968489502091,0.555983421340585,0.293047735279831
0.222643045762554,0.59929364411952,0.407387503840171
0.50817625951767,0.0478719317270443,0.980607954460315
0.585511025195476,0.782364403040148,0.370983655382888
0.903623102874961,0.164296975565143,0.564766164419545
0.934695373907685,0.178155968475156,0.3128882275372
0.637605731255375,0.810544131461997,0.34305192561193
0.375870578241535,0.0118158116517588,0.836656850291419
0.778331409792416,0.191684988019988,0.922488163491656
0.521895906340331,0.124529285655357,0.505760566587265
0.486632982851006,0.405030874584336,0.980070344838669
0.150272725693416,0.095962574143894,0.670997892310712
0.250998086761218,0.295669668761082,0.900697999824514
0.780123314721044,0.832111106412951,0.778920120976915
0.326468838926405,0.171176610841416,0.34052137413999
0.963665601078421,0.582672858357895,0.962147160345771
0.0249313828060403,0.376691512747202,0.947052860054508
0.885309373859316,0.332015461365692,0.3503507640347
0.930666490602773,0.217050874196459,0.299669855222152
0.608976330617908,0.692422946225852,0.853683188686138
0.799279559440445,0.433963813707698,0.312253978326656
0.120709993210621,0.681176466583274,0.312376508759429
0.576476872926112,0.94687529106671,0.99514847689303
0.967416553562041,0.516708740043454,0.884456034439051
0.625451449675951,0.344563481859397,0.981571460232246
0.309910031606909,0.0989933103034273,0.375947102850627
0.367559181342833,0.843462365507614,0.293381441883416
0.977053084939718,0.708874971703626,0.957478821857079
0.548162534783129,0.220980421139859,0.352786452884575
0.113404445485212,0.45070560628688,0.574783391385714
0.712509116396774,0.0712733866660856,0.487785522145431
0.351441236306448,0.392635774633847,0.971566842377304
0.951964152169414,0.55683509765286,0.991168640956256
0.090375383858569,0.429271516635083,0.758985064858621
0.838994231879245,0.974426838739309,0.310723110998114
0.685078977417666,0.0170503910435364,0.99406346984652
0.81828397763893,0.659347684146836,0.351170073523169
0.528443578519858,0.617474349444266,0.957944516798583
0.711304712531157,0.146444359674118,0.330209249203913
0.0646192181073129,0.961135123769287,0.870519094943049
0.0992585707525723,0.572670658165123,0.670614955310769
0.111586094106082,0.254770579815842,0.299882761010078
0.231237768049352,0.208312997092959,0.956656529578906
0.908879486666061,0.701495094309095,0.388518968550604
0.679181700767018,0.890237313039601,0.350126856056229
0.275725377242081,0.596231572520453,0.671280326858331
0.411002298189327,0.228118569022976,0.415622309364362
0.228894531586673,0.288379505607765,0.814608669705323
0.42494587224815,0.888854164416436,0.559053600723391
0.207240307444241,0.857071641472168,0.661201028276053
0.459461572955828,0.320241693964228,0.793745875310308
0.87104083900433,0.305392758526839,0.293269839236921
0.910344604086131,0.151074411627371,0.604794976380779
0.0145664464551955,0.0326255283425562,0.921745866753887
0.601970358346123,0.389100933249108,0.998698037552185
0.811160132778343,0.867820598817896,0.700663400244
0.0457906988491304,0.627356866984162,0.986493588232571
0.371713612420484,0.351602102556732,0.991575989454088
0.677697768274229,0.906328506751917,0.441648063449309
0.321997377331834,0.336894458938856,0.992537353082184
0.958787722405978,0.108331664083991,0.493914846227688
0.0737025407920592,0.731697753555141,0.399201210188139
0.841444747671019,0.78969757332094,0.76926617936465
0.544473244706169,0.690635772533715,0.750850091908762
0.683481122834142,0.674071154376958,0.995925805377168
0.0316735877557658,0.284897962071002,0.870107072721267
0.313047260671854,0.355105969164521,0.95086935599155
0.451014127122238,0.665970962825231,0.854003508464214
0.17128466483159,0.589883344437461,0.293009066113212
0.79425665989751,0.633643319569062,0.395564389467083
0.400882557988167,0.638867455643602,0.976948095274729
0.129206543939654,0.0795316490973346,0.690219213148824
0.776857896000613,0.611451727914624,0.429726570759403
0.68143667712668,0.144038529587444,0.295133821446529
0.154664614276495,0.46834523804253,0.340079145017467
0.874302741646301,0.930618550407235,0.61959781444672
0.0671919376612641,0.0396856351285242,0.855860657523561
0.232640270262957,0.568059607893694,0.40911934215677
0.663860500542447,0.264676251696888,0.8172874401518
0.706008307297714,0.442277807192411,0.694082613119578
0.469670343161095,0.0588352655954659,0.995067567013754
0.969586510360707,0.493932466093451,0.862171267683151
0.740031339311972,0.232229551719036,0.949177643215174
0.607111667898484,0.403388508582488,0.998522099073227
0.541277925754432,0.129987067625392,0.456167139875376
0.247036320661195,0.734845223535318,0.978472770063982
0.123328701356426,0.696244165000506,0.296239819256135
0.536222193321213,0.969104729272425,0.879130433101039
0.865755522712134,0.922192053039558,0.62953510724571
0.465017501134891,0.873518636109773,0.484594595432304
0.480109046969563,0.153771876002196,0.346121358319009
0.347355574230198,0.536276908958331,0.885570069118651
0.21303865539236,0.778598158620298,0.991810179627803
0.616522690620739,0.119332222709432,0.423535281121621
0.304258849944454,0.733678576742765,0.933775389850831
0.994784784409218,0.726335119565483,0.993372498009367
0.978210012910422,0.282121519793756,0.939791415045118
0.453907877067104,0.56509205648303,0.998719760250451
0.863047295621596,0.0409282210441306,0.337319410370412
0.543434349288698,0.137411020117346,0.40984358675654
0.694891848933883,0.982860705644824,0.995380887575786
0.263480165157467,0.421781541477889,0.569625283199638
0.78228189125983,0.689227488480043,0.63721451121772
0.106939663452562,0.527208019606303,0.652181756958411
0.442676370986737,0.552716114566196,0.99975070955826
0.920582594463602,0.444565513849724,0.878588611964011
0.0112081437315792,0.327640988690779,0.95486806538018
0.00840079528046772,0.884313001131173,0.296509922185619
0.0883277925802395,0.401958208082709,0.724421325131434
0.36039946648106,0.177597103158478,0.314632765200176
0.323203614740632,0.352339791693259,0.976696724604723
0.236950853455812,0.312803221557755,0.752576964583861
0.877940675476566,0.863569398642052,0.967379686285503
0.365742485231254,0.413510319835972,0.971718229061635
0.491874468185939,0.881397480946034,0.557121644613759
0.489228659714572,0.44135989496531,0.996996246512019
0.0564812664859928,0.467629096082877,0.996726135001202
0.266239477374125,0.672508067085873,0.856017644128772
0.848245565028861,0.817046405833215,0.8945299305813
0.340113997455221,0.936055441337172,0.779565596032361
0.562040911464021,0.100288641696796,0.677656818556655
0.173181319510099,0.714738485870883,0.460170049767342
0.407250757886097,0.140587562517729,0.351772308329875
0.892807079757564,0.954282003363129,0.544723226305002
0.0936208420936018,0.74780509538902,0.296867351912086
0.384114357288927,0.0625942565998994,0.915009315795939
0.334577417099383,0.0836379979299381,0.563495062936964
0.0328030575821176,0.935720401578583,0.81509581698422
0.180519472929649,0.0865406830520369,0.395011153254414
0.429043927749619,0.911485950441565,0.776277449853839
0.914155453810003,0.81445337190479,0.370436089035908
0.24522070025932,0.874500230312813,0.354617886896195
0.420349106513895,0.308171262612566,0.795810676275341
0.204718668322079,0.0641870431737043,0.296169724776457
0.664664433517028,0.507545195358805,0.83391390495979
0.0814043774609454,0.120490014263894,0.784978050524816
0.55347651018342,0.82835255092429,0.298094115021159
0.91799538546009,0.239490989599377,0.302275292892691
0.115269546919968,0.519730044494849,0.581702861416428
0.571487748379353,0.995682514729444,0.63238451581298
0.986092995322775,0.484573785929941,0.685991242965057
0.754737269884907,0.41763364028791,0.48388374128443
0.808864500212483,0.508375751476269,0.29364003821141
0.964131866064854,0.455732577921823,0.9257476619236
