"X1","X2","Y"
0.0535599950188771,0.759786064885557,0.427810412261553
0.547295648392756,0.0558893766393885,0.996440636035302
0.940516822007485,0.256961965914816,0.454295274853735
0.265566012524068,0.668348787103314,0.83802517747643
0.0939562297961675,0.819923620468471,0.444472121766994
0.373079847306944,0.463379995450377,0.945885535393442
0.528894116948359,0.930109007048886,0.960022094501105
0.396671482552774,0.270869083665311,0.661910804895147
0.674972830468323,0.885217094814871,0.337998352955704
0.249528387147002,0.864932939040009,0.383974954014591
0.0319310343428515,0.110618786660489,0.405199786092926
0.599490954712965,0.207753706318326,0.353124235278956
0.351536029246636,0.926495532046538,0.724115588791146
0.202084633940831,0.843815396614373,0.805654119511529
0.564797572449315,0.642494868703652,0.935933281082852
0.464551772542763,0.413178847671952,0.98995743190639
0.928030733659398,0.507671417000238,0.953930265209115
0.737725728382357,0.0785425482410938,0.355257520603779
0.76651535110781,0.211937478743494,0.962026968472874
0.784262147026602,0.403469265669119,0.376675357363147
0.41907494148938,0.742287341239862,0.544246116069913
0.586751531048212,0.330303301850799,0.892180515841833
0.904667872008868,0.303461618931033,0.37894664091761
0.014715363685973,0.158857915198896,0.345525576832568
0.700892325064633,0.265516753615811,0.945789812933114
0.714203974909615,0.120829415833578,0.293248711089613
0.664065850211773,0.397487889498007,0.933570245568017
0.884769362492952,0.733885894552805,0.295985620029698
0.951510501510929,0.320113600559998,0.854917010082504
0.471930945380591,0.824606729054358,0.297451381583111
0.288016726619098,0.0665960930241272,0.530475389304651
0.57549113487592,0.448827730533667,0.997290543887537
0.646559820403345,0.511910166745074,0.891735083387104
0.168218206451274,0.996787727901246,0.470043733969655
0.159629983932246,0.540414063085336,0.322630065160638
0.724288526985329,0.0454771132068709,0.681510151386316
0.0234735054033808,0.794734718564432,0.503078270577176
0.687648720485158,0.106758661617059,0.346050809337638
0.518311007686425,0.907224007917102,0.790143898500015
0.740975795711856,0.389142463412136,0.615316122022905
0.316328313793056,0.550236576322932,0.787359269572416
0.871255332692526,0.916890891962685,0.729640590442504
0.301376545072999,0.243497436381876,0.840375767721565
0.830230963211507,0.172175345208962,0.99580590753089
0.696664960745256,0.70095595885301,0.997933501663496
0.819561056203674,0.607374395737424,0.299416790931058
0.650567960690241,0.134297613436356,0.312283238799533
0.553605445902795,0.420002736761235,0.996642567531449
0.360446922355331,0.779103192719631,0.480790184000571
0.271246666291263,0.969148006332107,0.814668272276956
0.770022222178522,0.480536055914126,0.370264045938785
0.609567886479199,0.377562091823202,0.9973326159977
0.231095702496823,0.235662112035789,0.996177431867692
0.803767328159884,0.94189301740611,0.296442398119164
0.344721317247022,0.710279957388993,0.902456963267365
0.212011272907257,0.0849445076589473,0.30280336270157
0.505974919304717,0.530894054637756,0.999774606121001
0.13005010147579,0.974878493077122,0.305027967214666
0.615017162156291,0.0190673886914738,0.885221233303248
0.0699051099503413,0.00132772513432428,0.434757310149933
0.855254897298291,0.875954365232028,0.9398739635278
0.178663342446089,0.627922168984078,0.307392257339011
0.143357557968702,0.220349065186456,0.578291657556892
0.407435798544902,0.0352454575709999,0.966124425931485
0.437236357151996,0.804538802362513,0.302826409541608
0.961623096517287,0.727352128026541,0.742027398750497
0.256117016393691,0.477599002916832,0.475687808348295
0.635117563982494,0.561038454778027,0.947593554595808
0.297880557556637,0.583949602844659,0.75722899412928
0.440962408538908,0.499517056418117,0.996810657030025
0.799972004243173,0.0996997755183838,0.385412656039468
0.103647960228845,0.431109022221062,0.63553892115937
0.228429113251623,0.57251953630941,0.397089944218228
0.199975581385661,0.180750354237389,0.961691397541284
0.497960787995253,0.0234621206019074,0.790846697466621
0.0099802000564523,0.655453214494046,0.904209823818186
0.846369048696943,0.145634140816983,0.988288365841083
0.48182479001116,0.857516885702498,0.394697896550184
0.387926384459715,0.989655528226867,0.789353974226783
0.0731100301700644,0.635557002737187,0.771286642690167
0.622977269336116,0.670346944485791,0.951478482033313
0.337372494363226,0.780593382425141,0.54309219224297
0.970190603302326,0.280719476253726,0.869442094954371
0.994230779814534,0.614087747044396,0.742586681316054
0.18576306825038,0.318521642819978,0.417188575820311
0.0809934057621285,0.364585523824208,0.693103844932456
0.115830417489633,0.340078319222666,0.359812634319925
0.123822119103279,0.59989279586589,0.425245006640401
0.321482718840707,0.454008075096644,0.803994048613628
0.45793625299586,0.956931354687549,0.968277420484331
0.988417207128368,0.680226453584619,0.972103553090401
0.936681509956252,0.195263442830183,0.293577709450466
0.756790581566747,0.695099996256176,0.824371474155437
0.91135959964944,0.169365486861207,0.467487882066415
0.827293756774161,0.353380246476736,0.311156309597977
0.865064982443582,0.765023372976575,0.439745079881475
0.0476923122210428,0.296486799670383,0.76266049837894
0.428936565478798,0.833333226831164,0.299767071571244
0.532318926218431,0.527175916316919,0.999821904612059
0.894715752138291,0.890840673781931,0.992743462035968
