"X1","X2","Y"
0.178849140753737,0.991719765054062,0.488045771897725
0.0160741319598164,0.0522680076919496,0.755021178727125
0.152493587792385,0.626687174458289,0.297844831278918
0.91030003410019,0.744682204105658,0.305520213056531
0.213842770229792,0.689540260844864,0.613121450252712
0.560157831369434,0.46031202046317,0.998976312131688
0.766595563440351,0.0662773887531366,0.335271018261544
0.268156485801796,0.00132310223951936,0.994496760519153
0.495525561507558,0.880499116278021,0.550337035722689
0.632882171944948,0.59381452467246,0.979754077099333
0.667104720917065,0.0949027927338611,0.46491996864039
0.868411614683922,0.558655192272272,0.431336560017671
0.526569453593809,0.516341033873381,0.999999281927167
0.891840394227533,0.669735351451673,0.37636062188656
0.66660311682173,0.255135879987618,0.77544075235737
0.787911020976258,0.894371167172445,0.370277331271603
0.820517712836619,0.144861140007153,0.869511623404952
0.725161323519424,0.673207664932823,0.896956142764883
0.243549300068058,0.162489846304525,0.587973803843899
0.886962086049141,0.76234751170571,0.328156565124927
0.46714617848536,0.206931492375908,0.313424747135337
0.744246214550687,0.654849827800877,0.734735656309915
0.0585102877402678,0.0818626527066808,0.898845302417855
0.28674110354553,0.745720470438246,0.943932252832461
0.090587842768291,0.604928768291837,0.685796496388933
0.297813003493939,0.596542369943578,0.783237523395335
0.3968298472194,0.97577447942039,0.906754140819266
0.347640816099476,0.946273484764155,0.897963004123909
0.202672708610073,0.50964306057198,0.303686942730674
0.619996627431363,0.461940207329812,0.957914978237371
0.125394812833052,0.779513626831118,0.446949743439417
0.615847991742194,0.215527439773083,0.40409735052988
0.924002748602536,0.185058694025036,0.329939483295503
0.278309743032558,0.747107500787824,0.96284188892211
0.831813508760883,0.828607488025678,0.995616023859731
0.686349272070685,0.518479242014,0.75033431305254
0.12486250493722,0.54745130914473,0.486440683819915
0.206991143552586,0.702569052650128,0.626259210007552
0.746536993785994,0.846540458288975,0.472684465888442
0.617794061103836,0.592344231207855,0.992365065411155
0.70076316054794,0.337134274608223,0.951893485555644
0.252434536226094,0.136667530202307,0.382323800125206
0.242787598912138,0.899704275596421,0.295745080614011
0.842051965835504,0.428519404954743,0.314738701620587
0.755761293837335,0.8259991932665,0.672766556128602
0.141900395431789,0.109605651267339,0.861016329385202
0.852578524904558,0.570265982544748,0.345632718614058
0.168984563825885,0.944138211471261,0.306676540594246
0.733435058256844,0.522028365269303,0.524698910993806
0.325203514753142,0.342284337365301,0.990986131500542
0.923339303847868,0.101436658176593,0.896638813069426
0.552936921494082,0.0368157542243134,0.938765406936762
0.20414734833804,0.130584794673836,0.579029563952391
0.157590159729356,0.014114844039781,0.344148033197111
0.629225042056059,0.495752856569132,0.931823238358761
0.0659212648249231,0.176967264413368,0.316834612237466
0.679885779095581,0.0132788627897389,0.978936279063222
0.588714556997409,0.801068598272977,0.320306802202432
0.76191273760586,0.853694932883373,0.499742695792689
0.138420677630231,0.35082452126313,0.305302703825287
0.745783834174741,0.71242303737998,0.941041531516206
0.289963390739402,0.549175812351983,0.663352967248801
0.892364392114105,0.729883266428253,0.294406654512551
0.0646471417967696,0.645056590752909,0.823173878565011
0.53535957156634,0.284603341288632,0.622770890325965
0.460715122611029,0.706251379468478,0.671581962490925
0.844958413682878,0.0939436302876566,0.61331516825775
0.281118040285772,0.227656317213317,0.841210006494256
0.469562219880288,0.444538875657832,0.998698613331065
0.690451373574091,0.679332270500949,0.994653726262656
0.264330071508652,0.171903699348681,0.544507616050125
0.116576688337373,0.34455965698557,0.364696090371207
0.917186867099255,0.346691026394023,0.614717699217882
0.0519573456929065,0.0988987199801486,0.68324853985373
0.207333701638272,0.211964103542268,0.995416188044007
0.598245717699174,0.371917557285866,0.987993006519731
0.608744588693837,0.499850623356411,0.96492235732023
0.964225238553481,0.685486075235065,0.939429728689092
0.575262733790558,0.804518484807108,0.307010980928847
0.140795971266925,0.634159490551334,0.312001971110431
0.905587368774926,0.919971166752279,0.959905129115586
0.961513074803865,0.913545042213751,0.658328729691473
0.788863785717171,0.769937512697186,0.969525101596633
0.39137645132863,0.728938968230505,0.676244903312535
0.489434609743999,0.242473191822181,0.413857543504468
0.908232857265044,0.125146048033377,0.840681953403272
0.74757608383242,0.95250173174357,0.536461517532509
0.324110052134376,0.0515736187850125,0.840887355855673
0.734481482709758,0.230012763228733,0.920615510806352
0.967767290720949,0.72294129250315,0.829109996047178
0.65132148358156,0.305951666316018,0.94547236524752
0.436997872812441,0.980388414417859,0.793924681473758
0.989258687119465,0.30072701644036,0.9927860786333
0.965104136544978,0.0312726529478095,0.990255294999086
0.538063662254717,0.41120918758912,0.98941995693527
0.256792247048346,0.480453584355302,0.4777433789244
0.406308486198774,0.22007294100523,0.389507859256733
0.938513663435821,0.567306738848332,0.978340356094174
0.735028703429736,0.137810888730688,0.351307571700078
0.18846211000788,0.943728752822848,0.294058502840867
0.266927081848262,0.631294592025457,0.718242377638583
0.0115482287816703,0.0765039219693281,0.473440674313088
0.504428952165414,0.120440192027949,0.542701677032639
0.394166097174166,0.257628984901123,0.594960737788185
0.60256303157215,0.90425492967898,0.641910066651837
0.189612370008836,0.139109059613198,0.754575579826306
0.44293419548613,0.905862874552607,0.743492898727408
0.998833493038546,0.332874266745523,0.857312311033865
0.1718958294529,0.912688944421243,0.443248419795409
0.445311592264101,0.863444125850219,0.406157429768981
0.0266877168097999,0.759032903230749,0.689148558654525
0.409051078972174,0.251605444866233,0.530864152188674
0.635211182223167,0.372273698598379,0.998523629595506
0.858797077139141,0.70795538652176,0.311752309146837
0.577637489059474,0.787014086922165,0.348589600171326
0.849353010046296,0.116491541902069,0.852492068615128
0.0490605484228581,0.517393686989089,0.985144248638258
0.694293004541891,0.307646809471771,0.998676549978219
0.360539637308102,0.483699605108937,0.9113648626276
0.837348662232049,0.0223706060783006,0.324425196706672
0.13906337031303,0.526566009822069,0.409945411394507
0.949089460261632,0.467297601161292,0.992206164870514
0.750726045721443,0.104608792372048,0.296017359062137
0.329867613695562,0.090565912920516,0.488251290590344
0.167831441667397,0.348508292212617,0.306329638715954
0.373340638206108,0.0586378539495636,0.921885354294221
0.806148654110264,0.906518207926769,0.37719125891679
0.848648013857659,0.18054437164194,0.905771384754458
0.236163455484668,0.0126998843101319,0.81529677575353
0.34047924592928,0.168760842073476,0.315405616092208
0.127577071788255,0.998674031923525,0.310612466023427
0.825996233776677,0.0413210827950388,0.298099379018534
0.843036298071733,0.778630708173383,0.682031675093645
0.640775723606814,0.114493838788476,0.404111116956302
0.676191394080874,0.583324908507289,0.864528133726085
0.652517565220594,0.82987391157425,0.311327447681529
0.21125940456707,0.720849100410705,0.747118621852427
0.240334268339211,0.099108408017084,0.296110895320397
0.665569719800726,0.159949152954388,0.304312042825702
0.978747324226424,0.393549192920094,0.88724573982401
0.0677955938286614,0.910750913385768,0.916217757208479
0.309814485850744,0.0246173373686615,0.985172323235059
0.126953793750145,0.623662524063373,0.370835763585395
0.0508148540519178,0.953072789859027,0.990470191180705
0.942117710166844,0.0359789611240849,0.900387725957545
0.164141906643752,0.0102071072887629,0.392505214371384
0.762879432304762,0.38026434964384,0.516924832742358
0.101722263199743,0.819243348615011,0.497670063312768
0.0145915362504311,0.298751048451755,0.994957002948449
0.226717413012637,0.743490087747574,0.93980153754973
0.399704400361748,0.833379166211002,0.293633310445691
0.626661673490424,0.967359367304947,0.986976036436461
0.702485602458473,0.663688344057417,0.948972320348755
0.130692842110759,0.978502487881342,0.297960771473384
0.568285112955142,0.156944393522805,0.318554214292124
0.0525073209269904,0.0497290253078099,0.992199341622463
0.356127659496618,0.532004661964718,0.906898143011739
0.701677075681277,0.439651615413837,0.71884300294499
0.480685053126886,0.374498926004395,0.941702055998919
0.378320737894159,0.670744920219295,0.948524841002184
0.305840314375237,0.52807377585303,0.720548910303619
0.296361600277014,0.931360612503951,0.548232729227317
0.625751679670764,0.81175476035499,0.325758708742544
0.851835774702486,0.00729385757097043,0.344834918776793
0.627214601115789,0.173148331215605,0.299259081717907
0.24554137336323,0.569068869023817,0.466606349377074
0.567684259332484,0.736836921089096,0.551105396472117
0.389258405849338,0.599294592440594,0.99812877958794
0.326974272328196,0.145094773633871,0.29335318607386
0.814188373182667,0.292636054839939,0.507501688392055
0.291058731106808,0.408067068990087,0.740511375283849
0.68457141449512,0.229216987890424,0.692012205402828
0.418044246818637,0.544436380262021,0.994229560508281
0.990381969883107,0.658413134679897,0.90917856315905
0.821173263622914,0.644745671863901,0.322558380862633
0.708114075686084,0.208983270599041,0.666785357031391
0.642869246624643,0.487901163179195,0.901459599836533
0.603231281840475,0.150329403076321,0.314131727138094
0.527641072528204,0.8302110900837,0.304844376134613
0.174639679056825,0.443765584329609,0.295123156757544
0.501662838807795,0.302949507802259,0.697604151532418
0.696194559774594,0.546217332733329,0.726942151858186
0.600331116898917,0.700951731812442,0.797256481297035
0.995473544511711,0.716429053148488,0.994038114293898
0.0477951683932915,0.510186593983322,0.980424631315888
0.823581468223827,0.217879344445188,0.852422042852987
0.947443460473325,0.576684517191956,0.995746438542909
0.221351985146757,0.536331671483582,0.348758824034741
0.407633304340998,0.496531848854152,0.981478699891803
0.774006870343117,0.687133303296985,0.682442754106419
0.323456277908059,0.399273707975633,0.894435424953334
0.033206164752366,0.719460263706977,0.836042861010265
0.384678321388084,0.71876307602087,0.748082072870796
0.515570618186146,0.508713520361111,0.999991776582894
0.828036861485103,0.454471660045674,0.298834579947977
0.901251164960442,0.29483617042983,0.343728068475013
0.446965378129156,0.315373787826393,0.786631206327577
0.414405007336289,0.882227465578588,0.489158610483791
0.870508530536201,0.158335965079954,0.896029563603092
0.770177420246881,0.427442068269709,0.402472217183354
0.51177529496816,0.976503007847816,0.792854221585816
0.440607663584175,0.792688086110167,0.322515205706096
0.475298024065327,0.188727394885849,0.292884475588278
0.940927131902892,0.297874582819408,0.6496501487904
0.514414259256097,0.363964330472285,0.918562937341466
0.476008493526606,0.831498691021465,0.307013185119159
0.604616345857037,0.149924466478871,0.313790254394774
0.222132371017011,0.637223072871333,0.481451388766324
0.550115952817723,0.262959380988497,0.528173351342409
0.962789208788658,0.635109350035433,0.996148250826849
0.895604658979923,0.140258670972893,0.830836017213225
0.00124221156025305,0.878490834592842,0.300668993050359
0.0309680667258799,0.794981105701299,0.437248376543019
0.915984947494697,0.950441670915112,0.799588872600405
0.386580741311424,0.448383440413745,0.973703666948124
0.217795013816329,0.0790578380124643,0.293572566725805
0.341287111187587,0.577808170065749,0.911425037166296
0.162530640562065,0.282428990262561,0.411653284944013
0.0238141156844795,0.785772864965722,0.553518648819338
0.525217506314628,0.99094186250749,0.634926591838661
0.383581398857757,0.0711509337308817,0.843354166412002
0.0959098892204929,0.437536339197075,0.718889380331226
0.112393169819377,0.0679748660726473,0.724287092609012
0.0664128268980421,0.65121111699054,0.785813731643274
0.517962924430147,0.286309816520894,0.620582060192622
0.811953910546843,0.141976776398486,0.789474151898375
0.764162514766213,0.19159706164198,0.850692015250214
0.227716350311646,0.525558173307683,0.364493036697816
0.0200868661578279,0.771399387524929,0.685698935917339
0.980896553994855,0.421471401452553,0.813170633083738
0.549600526072085,0.541053796741413,0.999880029440302
0.532209092191886,0.812283166130772,0.293029891048906
0.641385798663134,0.551886376403738,0.926862034491244
0.365564009049675,0.641762488135137,0.998188663354933
0.5560026223436,0.879488769056275,0.50980943515257
0.421748489927268,0.945563404098153,0.992767687039414
0.426793685169425,0.142819348157151,0.360912462717243
0.587673045677366,0.473805031478638,0.987381732165373
0.516808385104872,0.070866598557448,0.958354507965885
0.970972373791505,0.969038768194616,0.992034572139872
0.793780193098355,0.111784915360622,0.428705508845209
0.290530577476136,0.245397357627749,0.894296348679472
0.470569762214087,0.0183994243894704,0.744898415622213
0.57238143082941,0.0335857226103544,0.934379204017914
0.0741182527567726,0.928381719641387,0.993103278770597
0.314230096223066,0.786940938573564,0.591941264323952
0.369540271690115,0.84954580825218,0.298602228433382
0.768034119581571,0.681864540818147,0.697970933889098
0.235924009081908,0.10034592606104,0.301331315506923
0.0925981284515001,0.281013458060101,0.339409187145692
0.546598899452947,0.0323544591108803,0.899872756778756
0.397518869401654,0.0084361692215316,0.744013546334334
0.0890567382341251,0.537056029758649,0.812720809158078
0.158329186755233,0.690202955390094,0.329233368376417
0.644870134359691,0.503774675049121,0.895166743223252
0.427279641125118,0.864419905111194,0.394854078893212
0.0988392246107105,0.540521012362791,0.717730117904384
0.196827874144539,0.368851049273042,0.357766659491743
0.488781073534163,0.0847482574777678,0.863682120266925
0.225872711108532,0.442572136346018,0.37459531312351
0.285567468169378,0.638011237955187,0.834844785798795
0.0450505023261067,0.484871610347414,0.9697061817229
0.0175922915707342,0.971559861997142,0.966417897812503
0.994044359864667,0.501903766237898,0.592763233757089
0.933528670181986,0.00630295371473767,0.506485564276121
0.186750657462981,0.224281883151969,0.882595984820323
0.3594389981227,0.607295518361498,0.982458684215521
0.0823770632676315,0.688673457122641,0.489633692510563
0.677348442174727,0.382031101183267,0.924498717596906
0.474929966938915,0.295833382298006,0.670916694196124
0.812319447716,0.737388572611148,0.668821606035969
0.114999219242018,0.852589468545746,0.863751917499254
0.909899362699129,0.789760129969334,0.316723400745384
0.337434575906489,0.843053336638724,0.298331883820327
0.779878049111925,0.877204392882995,0.432231535318186
0.349221084740479,0.784342836829135,0.483700668477744
0.941477345424239,0.650440344890114,0.862724288098017
0.0184199650373776,0.338405739014037,0.973907342490907
0.0850773544416297,0.212254323187051,0.302589957000825
0.492543128430378,0.798570320576662,0.302161422829137
0.382042272545397,0.926628458156949,0.819080484000463
0.860287132231053,0.860437619431177,0.995756235819655
0.400455499655334,0.974372177504934,0.911991446313022
0.0555016580848023,0.0538408760153688,0.993137276974254
0.67586029044562,0.672304907804355,0.998520026958188
0.913675502304919,0.705678900394123,0.404563088936009
0.881311747779604,0.157650120536098,0.818952203521644
0.302187048600055,0.621999750908231,0.862854547390628
0.159645226416178,0.666219583629165,0.304511555033131
0.0418620152655058,0.254332874103216,0.602781183183981
0.343874333437299,0.859922986216377,0.29865362479752
0.00677022958849557,0.410510263409466,0.695085443297075
0.689012487587985,0.902115182794631,0.384633253853512
0.233247071018675,0.378093156985939,0.501508936868104
0.145185997423483,0.97265226997342,0.294332271054371
0.83041618131171,0.362775877850829,0.299931913590181
0.524672182718525,0.854421343944035,0.378038235830101
0.899908618956571,0.422759217750048,0.654669564541146
0.969521107373992,0.0591868136005942,0.839445838343186
0.976577661709394,0.836159963316983,0.323930513652862
0.536190008712234,0.761739416314522,0.406460282681723
0.975879279386718,0.131176875945879,0.301109530745987
0.698320460714633,0.433649563029641,0.743977869933727
0.087843613562407,0.178481942839455,0.412377616661097
0.930942673275713,0.15234518166678,0.425324441611391
0.38122323091235,0.574404368557269,0.98121921926518
0.839997600543546,0.774499620254384,0.679807553128565
0.5825823923219,0.840607898121932,0.306856260776225
0.184791042417521,0.063333790487377,0.299295351059547
0.687158705850597,0.680223294378025,0.997314906811582
0.594859627837548,0.170144236612832,0.292668666048156
0.726668754794402,0.917581618611468,0.365665141098925
0.783336566573009,0.479711178523023,0.331732466929103
0.210375124497805,0.809829172292957,0.960462393849257
0.132282958039548,0.981086153833196,0.294595791788673
0.183949403405888,0.545512068877229,0.292661077767131
0.0695759465091396,0.413248557820218,0.913804949582872
0.513754480274627,0.776885934920516,0.347811974382027
0.991334077169187,0.459716474663001,0.641947684364583
0.146587591265095,0.865552795301657,0.97682374013579
0.715548962619156,0.0454356432044879,0.727429412191613
0.123655086555285,0.468126254537841,0.507306257848801
0.00423050272790715,0.751330132240895,0.949035455160604
0.832262278884882,0.451560527232708,0.304014424540823
0.553023039768683,0.477947025903966,0.998620785241059
0.461171128599439,0.554724554756191,0.999190162691577
0.457678917668527,0.767209909619298,0.389163366935331
0.50243925319612,0.352933019603137,0.888969388997746
0.683488525828347,0.310592829402536,0.997728440703295
0.377583521987544,0.53374808508181,0.952265476000693
0.862364115339238,0.640183815051336,0.314047029160463
0.958294803500408,0.10312651760038,0.539939842820954
0.914678403438535,0.0468509814608842,0.75926738806721
0.121102172065061,0.802945539297536,0.548011320596596
0.298771857929882,0.841000263218768,0.351935802700399
0.448843916432234,0.322801946881227,0.814748580252359
0.209339929649374,0.000806012370623648,0.779847169367701
0.59088966488163,0.881701356404228,0.476271600559582
0.540729165303754,0.0477930034566671,0.9861586796478
0.441540513335029,0.0575766166774556,0.992658110658901
0.493096638362389,0.40108312871214,0.97597398660261
0.639192128446186,0.8219256645157,0.315187080155236
0.780686277607456,0.625990276306169,0.44073182180268
0.982754075884353,0.463662328692386,0.737029006568354
0.946748226051452,0.349088601908647,0.905638105599293
0.0351860575918108,0.0771706433449872,0.713705154218176
0.487330074838828,0.324359770916635,0.793407409626198
0.634467004521284,0.996401906146202,0.776321711872627
0.0448770135859959,0.579211794764735,0.991664625972498
0.0538785942560062,0.334339491562452,0.855586783077727
0.749068618606543,0.815364554080646,0.713424323127366
0.529550401736982,0.923399931620574,0.919376755772229
0.653890174012166,0.735869981276337,0.778537955997915
0.332190031771781,0.266258526949678,0.839386882103446
0.113206623833161,0.328191534293117,0.34977213058564
0.362053330503171,0.32168108338723,0.958699898322343
0.472134838723112,0.726187106443569,0.563462215176935
0.336157772100763,0.760902435478987,0.668638119938915
0.90093097837735,0.249969032227993,0.29340947068272
0.564218462574529,0.161277978704777,0.310771058770598
0.0577055514417589,0.695179528771434,0.696352373288129
0.704070112783229,0.445387715826975,0.699566198647198
0.244504357361235,0.387228812504327,0.539988549275067
0.201978428093949,0.989495197988115,0.616949500184459
0.810641068326309,0.791401613506721,0.963787606749772
0.102182829613332,0.250680911484407,0.293710556292783
0.21498849321669,0.696736994949868,0.653094047117421
0.826545130206505,0.184639747742796,0.983524443166379
0.275873674592702,0.883645580717362,0.293309284272504
0.333595775679452,0.073332740895683,0.658779531541636
0.52109295851877,0.330074830331607,0.818750363822563
0.432641784704756,0.731176352272741,0.579818492236381
0.344970094107324,0.827595016203588,0.318805987181615
0.758185918687377,0.992789505921537,0.898862192772159
0.165089095294708,0.226446303911973,0.714404531827862
0.520393910008948,0.210994920726866,0.319117203390791
0.30867665382917,0.586879292844562,0.81177544257144
0.205748359205201,0.628865256410325,0.387003891094277
0.331029018563917,0.187946945746895,0.394857979949481
0.430477664786391,0.465588100268738,0.996520286685816
0.0998894443656318,0.520061892089667,0.722572864116455
0.541619008199079,0.405119570417795,0.986531355333465
0.301845879923087,0.121495630464284,0.297178761896684
0.50572930974164,0.0758906381761189,0.930856818429102
0.807973958877381,0.587217472821474,0.306537387614862
0.621772323138081,0.758646870448021,0.545189468977277
0.464119441408198,0.568867182678543,0.996648049324448
0.898562729765428,0.339271296219667,0.437447870395038
0.238842187206028,0.559094251470407,0.425989727655037
0.620388469394762,0.807597301340196,0.330925793501968
0.939458022620995,0.55715351634426,0.986267458619396
0.507624891486019,0.936976029993268,0.989478158689908
0.431881338404724,0.642242673262488,0.939883075408398
0.800500967474421,0.6829657257332,0.496411798982314
0.403871312949341,0.409480292426655,0.999605901905438
0.643505002799444,0.885886995486449,0.400740431688654
0.0349836589004844,0.110922059431439,0.425462283792667
0.128717452117708,0.597020642004907,0.401657993621779
0.181292045237264,0.611411698746728,0.3022084523509
0.348317031414248,0.713938828626415,0.877598703847137
0.983625670038164,0.543490642503602,0.73384420397237
0.0868369205445051,0.867342884745449,0.732185130631483
0.187635876096087,0.90118929289584,0.436996338580392
0.716295108987484,0.512057869687211,0.605566831126968
0.772856983392034,0.285228408413474,0.818997967600081
0.508693175602239,0.847764113273006,0.353433183726152
0.566338700237684,0.756380144427065,0.45438054698136
0.554102332026465,0.937522612821776,0.981343446076346
0.319561848365236,0.618016108584823,0.915598349548126
0.537461407456081,0.715199197570328,0.625579867214226
0.671958630292444,0.447711499923142,0.835964596546994
0.0389647606660146,0.398238639813615,0.987839592596167
0.453633878597291,0.749781269350089,0.464230032574259
0.293404547867132,0.377288813177263,0.827415855267197
0.0212173085515387,0.494783891846193,0.766460659078996
0.580744043041719,0.148946014613612,0.333001836690902
0.481670830784598,0.808811295302585,0.293790489056162
0.402522869608365,0.921480384459486,0.819636254063394
0.62376197994058,0.57362536882027,0.97484172308669
0.955281750812195,0.908728567213286,0.678847676956246
0.795365114610177,0.464050013980363,0.309979569536861
0.855291066900128,0.364018042979063,0.303566881544317
0.579520482274471,0.924355169526767,0.877663968067903
0.335041513850912,0.60580994460592,0.936623326599416
0.92990221259254,0.172249723461922,0.344414650089367
0.754289027095307,0.721243779256241,0.937835305342197
0.740210598698351,0.31860288727493,0.856860021056542
0.376538592811441,0.26319235528796,0.673427912976061
0.834316172928549,0.711674529119395,0.408547250767875
0.890098858302459,0.118687753645238,0.983581195240688
0.847865360192489,0.261875393833267,0.429457738946433
0.197063860307215,0.521289170789765,0.29801932207765
0.792719885391649,0.633674946201732,0.401954772196345
0.103686013943981,0.434039280403638,0.639976399185504
0.593578855552943,0.624138510994846,0.988297513763487
0.477660590842599,0.842962858971907,0.33489731408406
0.606317263519391,0.531550655689556,0.97324943954597
0.466664685262134,0.128343055153033,0.472522137725929
0.713278206394985,0.504294622783782,0.619014263817413
0.984708766088123,0.287833050577668,0.98541306466256
0.775971257476602,0.265994121961994,0.889839955948364
0.55123581576068,0.903497166737681,0.728393579860975
0.012903747221455,0.701751142214518,0.995676456383413
0.506707897982793,0.133482865300728,0.447952883232741
0.483488116929773,0.356678776425309,0.901675696640208
0.220288817210123,0.243837738053175,0.958094139684683
0.856096277423436,0.0874000662628096,0.641733417230253
0.889485526202247,0.58847578900028,0.540627855088781
0.682664765108144,0.961872937946348,0.931048473900188
0.928418393847533,0.795030001081992,0.294199878817869
0.518285824089311,0.69243070218456,0.722903118297609
0.922987036730861,0.985761369533837,0.49437756661634
0.413536124259233,0.270514028019505,0.622287402478107
0.380745263094082,0.872892268388532,0.376937574176561
0.656366222705459,0.207045890241396,0.454031111000271
0.824269763482502,0.876396978293546,0.723721409132973
0.153168790643103,0.741790167590603,0.450073846744676
0.646207277272362,0.386363892439287,0.981311867396429
0.363571639872622,0.123936108896276,0.364433869338617
0.366623964051716,0.84479044343601,0.293783764932952
0.503923030715436,0.609613163833041,0.96385910208964
0.658528335091891,0.839849789924221,0.299899587456373
0.497155165340751,0.234387169483351,0.382782923771672
0.361781349776313,0.683933149654884,0.945526190631073
0.691256392196519,0.323948980191024,0.991072425956028
0.0101523742503487,0.412159112689551,0.731360690115779
0.657094272125745,0.826932924483204,0.322723263872586
0.896760052326834,0.82208803582564,0.528105207281084
0.10662241316773,0.0216371925699059,0.362302210739764
0.172817094704835,0.732065983114066,0.533225891501142
0.419722536648857,0.466839204610325,0.992672150661095
0.931687221329426,0.497881425806787,0.972095549362824
0.959478324963478,0.561676606139634,0.966465539972433
0.000630419906461611,0.490463744828245,0.53590426386996
0.429378496071324,0.797960569688585,0.316659150361628
0.778156298734713,0.603816798364744,0.411016573983979
0.56578159530391,0.746747609319398,0.49893083648397
0.0970879984234925,0.0261705677821301,0.447298948598786
0.198506652931916,0.112655904147308,0.474311486975113
0.907264962243149,0.0654046219196171,0.871651864767515
0.873318152029999,0.279674628345529,0.29932307969144
0.0769649997821543,0.10867982409359,0.843495144624374
0.622105308626546,0.429866314094048,0.974519218324321
0.927859625327401,0.677738986151759,0.625404736094057
0.574623497010209,0.489721973038744,0.992430930783777
0.773688027528115,0.402730324438773,0.420062460342438
0.836986848413944,0.196750154826324,0.887165851008291
0.155000056791352,0.660166293844348,0.295736207905307
0.313633976748446,0.357898231005762,0.946954013785002
0.674383113032673,0.43269424556056,0.846339208165923
0.194660837635398,0.963646267777775,0.359019335201457
0.496115028762957,0.455469457804924,0.99895391960608
0.450184146186337,0.00339395080273971,0.591799588648263
0.798555520189227,0.965450902180281,0.395324198997715
0.412160466323141,0.253546379461885,0.535049061169682
0.707353421977721,0.752872129282914,0.894213771904347
0.408438412822084,0.296688286249759,0.766970313688862
0.215312839506427,0.435278886681655,0.345973657183575
0.999190529707819,0.832156601271592,0.489898760723024
0.271853421350941,0.555074341161409,0.578576904661661
0.0422644896390848,0.748488867162727,0.582958447843798
0.919286357184406,0.0154416798693128,0.475955678493025
0.0710101594049484,0.19968441250734,0.29589134807316
0.569990697200643,0.320413214166649,0.830592395205876
0.751233913839562,0.353113005697494,0.665008289011671
0.827171504870523,0.289938705732347,0.440784912421938
0.60147438532114,0.617014167920919,0.99664354325086
0.728953637823928,0.890760423345491,0.293767025055271
0.576056443993701,0.893769461562624,0.600331141250494
0.979781005141325,0.632700527053094,0.932134460447528
0.315939141362207,0.0377253784486093,0.929757925843808
0.790799752704101,0.17567067788681,0.896299329063359
0.953138827729737,0.511006678849692,0.97697317343879
0.0469348537803162,0.934150835471926,0.925798424153258
0.952106654405361,0.962577384654665,0.970545861142085
0.398798193664988,0.00224813840095885,0.668687774561843
0.482345104546286,0.0256318114507012,0.817531897905299
0.721384110651212,0.18647266951832,0.575507611008423
0.261718275179621,0.106154342522146,0.293367641970673
0.208190020329319,0.535395042145858,0.316394914354965
0.769631357769482,0.75516971805552,0.983213867928858
0.0191972904973663,0.291382415374275,0.976729564520163
0.883764973487007,0.884843322227942,0.995059098900173
0.705937711318256,0.424057006567484,0.723641992922347
0.720613175441744,0.304774183229776,0.970622463080977
0.763322307785973,0.505565447488567,0.391262366925531
0.247466047145426,0.256014929343248,0.9934812208281
0.748073672233382,0.420825982567389,0.511998250962443
0.838797345059691,0.252056524055777,0.531930175007424
0.614350778262597,0.259315543052508,0.626248346215101
0.0285607829391956,0.189453072418924,0.383967136752097
0.283544854508946,0.04229051004746,0.756555420942148
0.99700093079824,0.37076462767832,0.753445087480856
0.288727302953601,0.456238827786176,0.651222758157571
0.776953244152479,0.0542062829514034,0.360484098722017
0.494590293972055,0.951932822000934,0.981058154385352
0.370052079663146,0.653923342573224,0.987603342823483
0.148762928595766,0.181675836661598,0.882768396689647
0.12218173921993,0.982769423133461,0.301678454652469
0.742968640990322,0.341074171065586,0.756979965591597
0.454831109778956,0.41790563893877,0.994491362468874
0.876866705410881,0.888407469782047,0.975718650098593
0.425358641345752,0.418308437623084,0.999486879350184
0.0130803520518821,0.754186530045467,0.863799364442675
0.257671583694639,0.62784037683229,0.654959841409945
0.353653262493899,0.862097134461161,0.308432329844988
0.137868042805465,0.582347531790147,0.37382323471825
0.950819501073798,0.870959201597143,0.419143672018133
0.660821969842305,0.462110892671393,0.861615296049605
0.765046595503809,0.49375492690946,0.385145750453364
0.115926136100199,0.515712311917683,0.577575619795354
0.250536502780393,0.308103495150572,0.850657917586918
0.971934209904633,0.124063083296642,0.326940250537489
0.829892348060617,0.636937806515489,0.300280829303868
0.45253531967639,0.235440653655911,0.402488967941192
0.491746799361426,0.164860191095155,0.315736236240315
0.219472624347545,0.977063641611487,0.595491543565453
0.817266634421656,0.329353993958794,0.376810450177416
0.434099053208949,0.861978632613551,0.389083610102804
0.300282977009192,0.659565346808173,0.9475428491482
0.32769172850321,0.388339828096796,0.927260772916969
0.435708046376007,0.708025829760125,0.693709342589931
0.456433542790823,0.154884798095096,0.335334373224005
0.395519173581153,0.856923616781132,0.331986049960279
0.216999657726614,0.195049708903767,0.955822773066274
0.904733452135697,0.916512444574619,0.971316824073285
0.596403309085406,0.425916001809994,0.996060182846039
0.878393251287518,0.361836670041317,0.372116689683767
0.262620976832462,0.519258585745702,0.504809311700887
0.223136050928151,0.622654268265469,0.451995809239451
0.956854790979298,0.135244563877117,0.353308848336247
0.570249262094032,0.874796312381281,0.459073361874176
0.662763895525597,0.347437220518012,0.996673419756825
0.64909868644923,0.805751271800138,0.378376579043679
0.330804181599291,0.375611416168977,0.956300397663421
0.801676031433279,0.619368872138904,0.346698529674916
0.364008553773863,0.312162387589691,0.930483148943808
0.819227824341739,0.45356452956167,0.29294439165849
0.699405330355279,0.407155152855674,0.787929684962506
0.992730733654927,0.661801552780671,0.898571420291834
0.0938594785444438,0.391401158323046,0.645071302014406
0.263316994397203,0.169666920335963,0.534135398991131
0.277069926209748,0.615975898525445,0.727919440300812
0.845302322150674,0.389797668230487,0.302063286155912
0.816630461241351,0.0891387086790055,0.397169967274641
0.304379670998314,0.691459155936493,0.998114351617565
0.581786108634668,0.0193074845911469,0.821030870383085
0.0842101781098172,0.723302766392706,0.366151963571898
0.539272269652691,0.676682841508184,0.804740446126613
0.722907179437578,0.225287681027781,0.846517145814176
0.951355353340507,0.866260240709176,0.390537293238355
0.367453211301006,0.0826456663068384,0.685725864781043
0.563347608313197,0.925901681887684,0.910848039724672
0.77747681819764,0.803779312086757,0.939902966491184
0.160867881598882,0.165616525112651,0.993756468931222
0.918261146603385,0.564916576734045,0.847427028898963
0.912821254036622,0.994234741187189,0.363708403805894
0.534935097585898,0.0433975186201278,0.966903379325387
0.714744744498981,0.209940691627329,0.706659207828872
0.306797787587158,0.056579858611105,0.717386846211531
0.385837066615932,0.201047948669177,0.348756005566614
0.859456890425878,0.704364834865322,0.306602820859597
0.232116779124597,0.900218689222354,0.304408128631083
0.0965037262451369,0.710692895669024,0.341172601175236
0.885259779384593,0.202092935952591,0.469727932840508
0.723191657301504,0.775134069548454,0.845337366772314
0.279317811583634,0.0884894468379207,0.352456856158257
0.498498577506049,0.343201918131672,0.860027739315969
0.342450609502383,0.423737219572067,0.912654038593739
0.254546083773021,0.527198086419841,0.470643514682329
0.605548787753098,0.247987117443001,0.541914820036604
0.094952468120493,0.694087920192396,0.387142695704813
0.79751916348096,0.648294755483046,0.411835184952474
0.0270487662376836,0.0393451956314966,0.960556251348201
0.411731761323521,0.11334862409858,0.518236812660155
0.558628798099933,0.768216351598501,0.396964310882666
0.993657077208627,0.311479096326977,0.961226177478982
0.616018427663017,0.204589439930394,0.362661062393611
0.561164137633052,0.529306529367808,0.997708604040445
0.075624549837783,0.197119354987051,0.304858188531414
0.0223605631636456,0.960783586508129,0.932249826050969
0.267258146581007,0.530201085591456,0.532574324721464
0.648796960375039,0.585455283305375,0.945450814283237
0.592014650603291,0.194898581008427,0.314027340135079
0.20051389136631,0.00412138760904782,0.680132158308113
0.610154412215343,0.491285414708545,0.963300040104369
0.771905324036255,0.335482349451166,0.602864251788527
0.169082041655434,0.620990127111552,0.294043609379932
0.864922401919961,0.566237772987457,0.403836319934053
0.31076665055356,0.326262551234337,0.990938502378279
0.663230889094062,0.0448355222931132,0.935535045470993
0.591232996246777,0.190780530032469,0.306355357150086
0.0312749827073421,0.639842278522672,0.992397271255524
0.231120822340948,0.0343331209558528,0.547701508330818
0.320108907206683,0.871450129717588,0.299545734974834
0.809502119263634,0.970777598289307,0.383988363405706
0.630944212519797,0.268016726240516,0.72300872423641
0.91632242247765,0.714049461073708,0.395049666269698
0.192116646217648,0.048643114236882,0.307357731240135
0.996695452063112,0.146450653129024,0.359047925670715
0.866990628287895,0.167181053579319,0.864257180363017
0.857881454541814,0.182546345251845,0.828992400370117
0.880239279824542,0.274719110576203,0.295443540833622
0.948685145234922,0.0725426574905869,0.911321177806738
0.424834975380218,0.77018406119803,0.405407307441101
0.287115386493737,0.276755749941804,0.9934371426646
0.730818878365448,0.33629636981152,0.839243105499859
0.0801943442849442,0.922938537159702,0.992645554314047
0.879352564951638,0.524637522247387,0.534906064929274
0.0096469568121247,0.232468676453922,0.826354911150747
0.52398777621449,0.223180635778699,0.350044362701523
0.0638203555855434,0.889103348274482,0.695268269919821
0.423114984330023,0.275750589563511,0.631732844077299
0.485498609183123,0.438601415389217,0.99675828810322
0.00314142542495392,0.766030558269704,0.898090566802483
0.107894398010802,0.915971913734451,0.906372976634651
0.131390537921572,0.613077987606404,0.366102896536122
0.89422924438538,0.345973652049433,0.426586992281788
0.729452401676448,0.614180926652858,0.6879517565874
0.265893949679798,0.360547259739367,0.738558991436249
0.136658748327056,0.0502946514778305,0.38590730042188
0.841704631518107,0.134924905678257,0.929833682266752
0.693987111172872,0.406865853710799,0.812943723428867
0.522073134839302,0.94020008896431,0.994468342350184
0.727626211872324,0.590301634970354,0.64034082652549
0.756206998759648,0.678971562682185,0.759070748888114
0.16162471104064,0.764630591986002,0.63021135931795
0.193447521186667,0.383082288946956,0.330232197342682
0.963646844381234,0.155744214674924,0.294717726334579
0.543733015535632,0.160454109162558,0.319604061346124
0.203097087068018,0.523243872825056,0.305486800379836
0.0241474468770903,0.502786692468449,0.79846994704612
0.530944030120736,0.238577908968553,0.405258709723055
0.0700261361862067,0.649251770452363,0.756307588640364
0.585373008666327,0.354998122423654,0.952942234184853
0.272726431607036,0.0801663090996444,0.375676185872131
0.710333674113499,0.799342445368879,0.619962539918409
0.0737323642936535,0.911489381896565,0.956731172180659
0.871610647577792,0.643237530115759,0.337055893457036
0.966182754639769,0.730096799508203,0.776768480071672
0.595275110963266,0.646873384010978,0.960706633438987
0.833081550905714,0.600916574062547,0.293598828439519
0.0812428182852454,0.848874287666753,0.52818984535263
0.548220490961103,0.675559440444689,0.818186259865199
0.887901477919193,0.14374656187091,0.867227638972241
0.759346418588655,0.264067105013179,0.96452422697793
0.345416041377932,0.458898134720977,0.883537365596355
0.0782364484888967,0.486385750395479,0.913672186688495
0.784236843346618,0.81612077684165,0.909269163010206
0.248728926276788,0.303574720216915,0.859155520216412
0.151441875841003,0.733148617820814,0.407376149134017
0.303799270431511,0.887061719418969,0.313292270982079
0.350131129829912,0.562768669889309,0.916835156708643
0.612435238568811,0.647999543238198,0.977781455634565
0.249095712120412,0.671292452279478,0.758980653240673
0.274497161476174,0.231398623111425,0.89069668561133
0.988878264853498,0.835574612818891,0.387791874548383
0.578208703056676,0.783146053094417,0.36119851641316
0.295176151955035,0.578724785394734,0.733913587458558
0.937442795985145,0.132497500623111,0.501759934921238
0.739971748269163,0.0863946782581042,0.320733261372021
0.822595517921727,0.727171699646628,0.540894418117179
0.449848658047384,0.278439598830882,0.606288952130442
0.420111575604184,0.198929027906619,0.315264312064153
0.680282087408239,0.119672447644407,0.315854198807601
0.753853692610515,0.850878798583057,0.478732546506519
0.224233303199057,0.271380914309528,0.866990988424985
0.737298095764127,0.0601006862148643,0.47426533862084
0.703243197489064,0.765318555551115,0.810671132289427
0.61193540461082,0.0111822997860145,0.798383459001427
0.120953212476568,0.0835066806366667,0.800843564925815
0.392935570463771,0.426340973920422,0.990563336635047
0.861485147817992,0.594054893883178,0.35876986124443
0.562160768359201,0.0556947239092551,0.994816418156158
0.218130258292193,0.283996286097681,0.768355176791111
0.0917686770670116,0.956534008718096,0.660625490996062
0.799596880045719,0.69771527317143,0.560321147761951
0.322309239868308,0.595263423382072,0.88036305840037
0.110332602801034,0.548878087178571,0.602168360776978
0.00519569457997568,0.436284205345903,0.630427774777106
0.154697990667773,0.725556917623151,0.398293300441091
0.55599003165355,0.107764882773394,0.616865822456363
0.104451434968971,0.395132549985778,0.557795842751263
0.628817575628636,0.602259075134294,0.98982623883443
0.447414273752598,0.563997491839342,0.999492723091332
0.292026755609317,0.280704581485828,0.992819729066591
0.150802739672363,0.979900243807817,0.30619603026999
0.533462222867413,0.269130835266784,0.544123543001181
0.78138066769531,0.0303083485427778,0.515187012264346
0.176920405226527,0.955152393810917,0.296460737238613
0.307314610822825,0.58068986397679,0.79415588174571
0.0567770027711522,0.781142769566737,0.336996525328486
0.835867774190614,0.260795013481751,0.508706371965148
0.794522257836768,0.31664801390958,0.534007528515526
0.212011326877167,0.820028835033532,0.906478001005551
0.957497571292799,0.351975238303421,0.97632927312432
0.0888297260338441,0.12953366379207,0.778008560658297
0.557165137420408,0.419286905026762,0.997114906359135
0.241291824818589,0.293974817445269,0.859935487514931
0.163682100273902,0.780651115204906,0.749660731116733
0.803445026340196,0.538700311148306,0.299290970431397
0.199762160467682,0.664440822996199,0.439089663807288
0.893270232708426,0.221325968533056,0.346055644213763
0.512082669864641,0.485701654689154,0.999972593728831
0.0393206316556316,0.469863015782554,0.941856387865084
0.921496269757859,0.457070984798251,0.897160381641972
0.316051545441151,0.314981222567847,0.998920392254305
0.510745593317319,0.327875034430996,0.806834906106608
0.968959614799125,0.606152686113492,0.958879216550661
0.284408480038401,0.241288438750198,0.898676632432225
0.105693711120635,0.99503206790518,0.303143325596828
0.607314421517542,0.396467904904392,0.999512183231703
0.81322722079861,0.475028472413076,0.29252865094147
0.311027925687376,0.993242025412386,0.964196424797721
0.545127986683045,0.65611622236087,0.882275781860281
0.782248922219267,0.684111065793084,0.615570715342255
0.463895797896432,0.818622074973071,0.293057036120873
0.486005566947628,0.27220975260972,0.549238689080541
0.428047796993284,0.896554100426147,0.632271256981767
0.888579966879915,0.966153266858775,0.413963240301585
0.709115017734701,0.0974636412730906,0.340579402864692
0.195935963272117,0.699914573243353,0.540652752920911
0.738846018186072,0.742874226290965,0.997163230865843
0.757751558600226,0.488690190156223,0.413074817896232
0.312202242892468,0.193650724297855,0.479475951861596
0.804444027786842,0.868948897115653,0.642087532533752
0.00830574409198016,0.240504699386889,0.882782707353085
0.981486769261071,0.273100506076589,0.933403895233233
0.874500171775697,0.909611659237184,0.825799405112116
0.875772580206627,0.00971735614771023,0.294558001389043
0.338646233896259,0.630207701657433,0.978540694163658
0.118626812789589,0.94700447748811,0.520760201659527
0.416547704727855,0.552388069237815,0.995363647644802
0.352162693411577,0.560408894299529,0.919334450671862
0.190109977603657,0.309599493301706,0.468324822076907
0.180976106266724,0.228127082051244,0.823601984749149
0.624061965400819,0.584575396551052,0.982437529519237
0.987134390485473,0.935101471489528,0.589104295880404
0.144165389047703,0.897890400646254,0.779488226821758
0.932731433692155,0.575937278667465,0.942706271080931
0.906451406677952,0.892658566317754,0.964759360848876
0.270505063474178,0.851272336514201,0.382105462396905
0.294598660212709,0.958679361911723,0.819563656265088
0.90360297317314,0.740016238427022,0.299155550027781
0.459366203868296,0.823959543528268,0.295680473579486
0.571517100853147,0.930354513441445,0.932659075890307
0.269103438935243,0.65268473835988,0.800768680872031
0.655559480143245,0.800616490110755,0.414382115905405
0.669459037532564,0.478822230461519,0.820573562693703
0.659606612486998,0.1666020229368,0.311088633497011
0.650504911984317,0.277438058105065,0.83515887490367
0.229549800554756,0.105853394113015,0.323276971322868
0.258281680485234,0.61615643240069,0.625203251740649
0.00285012333421037,0.834015165460063,0.459767377799782
0.468981322018895,0.927794303888688,0.94699518201283
0.944580595509615,0.97300256074965,0.840042111544772
0.637649546398548,0.763345147551503,0.563017769767559
0.0720232576089911,0.446824559667381,0.93436719993499
0.484563432247145,0.00570586777222343,0.592444983075632
0.586574939893792,0.782778937132563,0.370502673522622
0.455962431397056,0.757575580144068,0.428241379906803
0.393803387196036,0.452132478230167,0.979465519642358
0.109588705916889,0.949272948865779,0.573323415087326
0.850170302416198,0.102625816160114,0.737785009842715
0.177210736676818,0.379310611605411,0.301313942119806
0.499030467541888,0.476657601296436,0.999942497715097
0.410454996718327,0.394801469224272,0.997267160545189
0.465962388258195,0.416608711301815,0.991383238084018
0.444986110416939,0.984402245992795,0.738312458063944
0.0835746339501347,0.163168192655081,0.467031350487363
0.0299083899501711,0.858539436131017,0.297981715445167
0.490238831726136,0.319832596507156,0.77412451775905
0.479200077943504,0.717805745029356,0.601319313028507
0.589472872457467,0.0698413743176498,0.907531652715909
0.334279634855222,0.177286601886153,0.34718784216112
0.712188658949686,0.790222277107416,0.692389496814174
0.471046845955076,0.20047351281275,0.302678831429245
0.584185906284954,0.248119522475637,0.501069681174488
0.422746044859523,0.0205598866064101,0.826317287406869
0.253199165457627,0.514493703714339,0.45995319853628
0.321239448137814,0.500676864237525,0.778839588219417
0.354017941728234,0.290285451360047,0.878430975723882
0.135299665080151,0.449644211076899,0.416612627610319
0.920578544876073,0.591684869475197,0.823396652542863
0.544187161435373,0.474484390863217,0.999645188783617
0.877817377028521,0.96819206143287,0.349290516129429
0.609279778887751,0.404146404499421,0.997970382616006
0.935992837897502,0.0644968338799663,0.993857066519065
0.934583280054852,0.610649646594189,0.904072958604517
0.0627320663793944,0.65727072867821,0.800895904714722
0.767019158039708,0.0741288173175417,0.309980093201002
0.108833631478949,0.813263482345035,0.515775756920612
0.86325085174432,0.355347835454158,0.312225327971975
0.872837311777053,0.845331980832387,0.903050913097526
0.786771134666866,0.814687515411759,0.928584935136129
0.670754922140157,0.686375399552751,0.991147483163617
0.346720510465093,0.693660621541087,0.950603312199976
0.986036456061294,0.806368385900278,0.524855978249041
0.791545508692041,0.299347479317104,0.627375564098681
0.509611697474495,0.739627620295854,0.491422291483051
0.645118974952726,0.369326986712636,0.995263195891408
0.358021003464004,0.366111308698542,0.998207906303316
0.960504424883984,0.390815782417078,0.992726680690817
0.18517516250629,0.60165757859312,0.302930462975088
0.68151622062875,0.403379960944643,0.869501614004158
0.133421803699806,0.942265920194564,0.455682401335609
0.882044910959434,0.612917945968918,0.438762007176439
0.973904951454606,0.608983371131821,0.931284104154473
0.374014319435693,0.987787520512007,0.845470770132618
0.500306580760516,0.796090934180887,0.305382329944213
0.390966293267207,0.213731291296193,0.386211468461976
0.142658182082931,0.0408299965288024,0.320418533570996
0.697960771471029,0.333170010038419,0.966796560085241
0.433794305301737,0.539344230110757,0.997954645908521
0.638203494578134,0.629750138074393,0.99807526706365
0.911547739166301,0.824641561817145,0.432244181278549
0.35539065482188,0.817988864390878,0.330533793737208
0.542765182847157,0.147950484696543,0.360281163185573
0.100558961578878,0.667499575831927,0.424871942010285
0.401210643005092,0.340356065095169,0.938694227581023
0.559568446259946,0.907149456833024,0.752468986831884
0.179784862032859,0.954108901888132,0.297611034141869
0.0592156198807061,0.556087789610727,0.989980771476714
0.897480188950896,0.126521057644626,0.913306237360883
0.796034067230066,0.48226710411394,0.306265514936459
0.47380697030155,0.450797532521421,0.999117499086302
0.719816268111812,0.77339095206419,0.839705729519879
0.6363789379769,0.506212746345205,0.916585543220335
0.0798107064061332,0.400281439741608,0.80257114670085
0.789172988686711,0.703658499812009,0.657757796871723
0.943110860138899,0.236446705465438,0.390933401029225
0.1119868248438,0.30123950371379,0.312530409378404
0.0439499813385773,0.793642008125782,0.358842746516438
0.805577664383687,0.219100895678625,0.945848618738114
0.251940152270254,0.933474687803071,0.387246828626419
0.53109030080121,0.151300014195498,0.352123545344886
0.865411810287507,0.205512235947885,0.603056010247785
0.415442933329381,0.724373470206512,0.64566479907077
0.741352956412826,0.441391878385097,0.516538986183084
0.375401665946236,0.392791498390259,0.995279857845134
0.597646752654342,0.49812947738613,0.976998096605053
0.404098348657135,0.948999492374714,0.992828324574513
0.743892519038636,0.0292305419887416,0.750370721430352
0.985268924446544,0.471882690930972,0.70196035855278
0.695727582645835,0.218798026578268,0.674086163393679
0.170510050746612,0.481274160566041,0.304382130304785
0.925808314235881,0.0954224449209869,0.919825866990439
0.736198497154051,0.0383938273601234,0.693414583002579
0.818993533399422,0.267676885341527,0.592065507312285
0.673413145271596,0.875238521313528,0.311280936305479
0.731095148741733,0.192031557570212,0.665860140027681
0.068882900884375,0.492355402034707,0.969310601773374
0.117044742965139,0.239310880120844,0.337840893949524
0.443384733458981,0.359196739645209,0.932257226388779
0.405658984216396,0.216492328641471,0.376881896673523
0.0408409646986984,0.0969623093693517,0.584779956818915
0.451410401892383,0.117838982764166,0.538721021706069
0.902183198078303,0.0920680145963561,0.989341549637292
0.936363602742553,0.65589449235145,0.796940492488522
0.613940833804663,0.513929028193233,0.959083689983821
0.618694066569908,0.0859994324557483,0.694003338424493
0.528728483527899,0.127236816920573,0.482940251789876
0.388995089301374,0.0617962180313189,0.929538399880236
0.869274920367403,0.553409776520682,0.441368748056311
0.437412903718883,0.373799159843475,0.963376847225146
0.439214712177869,0.138859106268268,0.389432175557638
0.280947236030595,0.581379851880949,0.667252318278863
0.147992586835288,0.0689606138125528,0.449820986542374
0.84059975569346,0.857756925248541,0.960340314550355
0.462397707463475,0.325417198056122,0.811640849140759
0.43810847194423,0.598047418700997,0.991270462165865
0.230721777544124,0.0273740410082974,0.617918360421208
0.387811646065908,0.932398041444598,0.88363692062085
0.647075018785661,0.54239927600394,0.905343668728986
0.149912298873998,0.0286300507131964,0.294433101671156
0.0773580323271453,0.397352642975049,0.819050587551065
0.706741453673458,0.957095576214604,0.797459790943389
0.276823272731388,0.507966776891612,0.570504350622863
0.846280272779986,0.381253780198051,0.299691812460155
0.977308886296349,0.988320758294547,0.964665129140863
0.234635397299426,0.891160197659629,0.321600610114945
0.25958969689603,0.772524190306198,0.931641099790287
0.175165650299983,0.91884727505222,0.387933010237571
0.478535632554907,0.0237967696669511,0.799757265629954
0.228920012235641,0.415878325812286,0.412405447478922
0.0150734274140559,0.0621238601983059,0.64128679610881
0.71195690012048,0.674132580142468,0.946410055058122
0.661267136590322,0.174860691027949,0.332701394831286
0.371797095149988,0.959489451578818,0.995658867315016
0.66423272691993,0.698472694605589,0.960641085171684
0.867844137463486,0.183171764181228,0.742453672607822
0.458085609753383,0.999781837850111,0.54919104597075
0.802430130408145,0.895767751440639,0.422642854656487
0.299050746092806,0.929510727090994,0.543018015424615
0.00785354390740395,0.986543194559636,0.984882040992354
0.37932353413431,0.430783399358857,0.975669438211592
0.0605062860278413,0.662127235578839,0.805115870129165
0.672145143579692,0.0174632287637796,0.984067727976101
0.0325162748820148,0.313087501242757,0.955941409290038
0.357162902405718,0.384836650557118,0.986475841675619
0.808645814288873,0.983935452550184,0.490806920564873
0.724154633355793,0.838424190623919,0.429460281806931
0.339572972239461,0.7502506485146,0.720400016079799
0.785292105384637,0.886608283171896,0.400516806809936
0.0369173831546213,0.738109564598417,0.698797657477869
0.328281287304591,0.203654406572459,0.481837683093263
0.119972210263833,0.306163743159268,0.301819207394688
0.182000526684336,0.47279313264857,0.293134022049793
0.760288158908486,0.244880143095972,0.995995002355052
0.752007054523565,0.115929925142787,0.316806789933652
0.273834237159695,0.358331668238388,0.788374166268968
0.654466529875994,0.288401949264808,0.895005171400734
0.239204350152286,0.571783642337192,0.441090687950266
0.884752760758158,0.665712116327602,0.351965735792037
0.0378664404961746,0.920708577263867,0.721899327405287
0.134063167848159,0.964791700452566,0.324057136120887
0.926508922912646,0.565576077684294,0.91281117636311
0.2376993507843,0.122967600776814,0.365778666113883
0.85487861021678,0.470065090502379,0.37819547327496
0.351337652608985,0.179616340286564,0.329165717592943
0.318318940612487,0.734534422053723,0.884494068866368
0.815136518672574,0.331721032302128,0.380166297203072
0.0484638214721344,0.0782891616891138,0.840754332116786
0.583428116529249,0.93964313663519,0.971818832406694
0.954257875909563,0.855007107860642,0.331177828452515
0.853629879047628,0.550025594999082,0.362964556928117
0.246403322560946,0.153507300566183,0.507243952847763
0.173990340174874,0.78800212956313,0.870553635457254
0.71725410963851,0.914276509921532,0.374666682362209
0.19119679367682,0.233264977203915,0.862050829881302
0.688548923735507,0.810811000064714,0.456669915503417
0.129806566710351,0.997014860404655,0.310543220381479
0.974178503297735,0.376014269676525,0.953626935620644
0.0543593177648727,0.317977815642254,0.789335157944123
0.255221112164669,0.414660205334658,0.539111514434912
0.573370758000528,0.214404219459277,0.349529813882318
0.519895793775329,0.36736961729452,0.927780598469007
0.317234850321664,0.668145481665386,0.992226629364977
0.0253836464677006,0.365626928813988,0.966747897063014
0.547603980829474,0.222847275713459,0.358325534356954
0.972113454297185,0.534941173908999,0.850141341430749
0.945336830539862,0.589544908463955,0.98740004568329
0.166557638190687,0.0164084460330196,0.364531444509513
0.631759957882343,0.873113582955906,0.358798216995134
0.143629105283646,0.898911993391346,0.774574590128108
0.732623790641315,0.440193683035672,0.561888107069056
0.372112667615525,0.869246020801598,0.349017709564257
0.417640880488558,0.837499381084694,0.301900876345729
0.368449535407126,0.753737102281535,0.600380259959871
0.26096886517317,0.709942434595199,0.956277091772858
0.678730251479428,0.777528974873479,0.623215881373685
0.718654320233734,0.941575728430878,0.576390042333873
0.668029795306968,0.431494506243151,0.870376546341273
0.692230643394869,0.23799225902441,0.781086697253162
0.68560889904853,0.938850668095751,0.703721885916149
0.599539562519873,0.25833411681396,0.584664413732318
0.156851261171512,0.572857211308088,0.316598583379733
0.282396642341977,0.385320741205011,0.752479124740361
0.633260316974018,0.246967674981803,0.609746211380015
0.0610214592290577,0.0918738170687575,0.840012780519949
