"X1","X2","Y"
0.356653330804314,0.820015198613517,0.32397597857807
0.0330187401808798,0.120974058208521,0.360241454787662
0.305257548600435,0.533583970987238,0.721765162251892
0.426510205040686,0.264336184104439,0.566142496534975
0.536487744172104,0.335523247831967,0.848122583343879
0.990307674006559,0.737430167501792,0.957668214628283
0.486271075837314,0.052110144441016,0.992630854197278
0.934105636387132,0.782999160118401,0.305615930476492
0.117968190773856,0.333873257096391,0.340810463316323
0.572472858475056,0.575199197284412,0.999902641942572
0.181630957946647,0.64093152467208,0.325155081085736
0.594250114227645,0.451851275462657,0.988850465106201
0.792298015088774,0.773020295408089,0.967822772508201
0.694949833281804,0.489829543184489,0.708697547068988
0.405831713689957,0.239765399687923,0.476947190595946
0.251466841673478,0.230193187153433,0.967628016599825
0.556486855725758,0.848473706829362,0.340048378487987
0.249271679173689,0.662306539583951,0.724586123521147
0.412096726536285,0.373006877894048,0.981795775390621
0.505779579244554,0.493240210209042,1.00017623815348
0.485705873766448,0.234279490922112,0.383743083688397
0.283056144757662,0.401220678324811,0.7154929347421
0.337267025899142,0.684611849892884,0.984423354856782
0.650647709269077,0.510659406661987,0.879951810490003
0.40928295658296,0.704323085291777,0.760475651206725
0.31533345150575,0.46618593297014,0.767214396914286
0.13000103098806,0.846543430116028,0.927631071029932
0.277063437825069,0.105441931955051,0.300374930408201
0.579223121448886,0.258660304770805,0.546339803011536
0.12825512024574,0.358576584919821,0.340251051076984
0.921423384211026,0.177813830620609,0.363532277868927
0.563854270856362,0.522588947025128,0.99677952274028
0.93964241170045,0.490954446125776,0.994129067463365
0.52801394742541,0.784436893351376,0.330669661183019
0.233825374933425,0.0716228774921037,0.318091199062604
0.102463480386417,0.688432308275718,0.36297922111821
0.41529962620372,0.380722631965298,0.987148590170485
0.281646452524699,0.834746489739511,0.428932994519047
0.782215201289859,0.196674116384238,0.959367907748508
0.979917534117121,0.21642100963043,0.60696079802414
0.649361164862756,0.928045586483553,0.736753275994169
0.873213566252496,0.151430468512233,0.919688598645822
0.512503199673258,0.811811182934325,0.292794938918442
0.813415235990658,0.922887973740231,0.329573838146385
0.377232294471469,0.577196464691777,0.978788946674753
0.532254781452473,0.817999312675558,0.293156117303356
0.0238030278687365,0.494138024810236,0.795058489879777
0.788025757814292,0.469779487045947,0.323163515046653
0.379800963859074,0.93550955184456,0.891400268360318
0.884157600455917,0.302286316039972,0.30542994185792
0.342484914007131,0.97809346614778,0.982105140663455
0.891589634223375,0.930647123326082,0.77442063892468
0.0522511794776656,0.077571298725903,0.880713741366224
0.819023829233367,0.877454222013243,0.674154377172204
0.0989586312724277,0.470085661801044,0.725405646784425
0.720771280191839,0.00846866016974673,0.99245139448076
0.278950412396342,0.205241094388999,0.706666331096728
0.658283842015546,0.997894681245089,0.837228807070819
0.334242649076041,0.271801809207071,0.859219327285096
0.746844184409827,0.717420461103786,0.952129898267617
0.472217737719417,0.154745802650694,0.340986347446001
0.681906227681786,0.698915475293528,0.988378720633582
0.255119092253037,0.38818298981525,0.596035800896062
0.423730860763695,0.675813550453167,0.854518465852797
0.480867952683009,0.899480491367634,0.716910562289211
0.134104532294907,0.500580609724391,0.44459385975664
0.619413618255872,0.612882149433251,0.999152934169563
0.253334275522735,0.697166890120599,0.884712360789718
0.100082218231633,0.650204862799961,0.475871496164526
0.329816421564203,0.686219405133277,0.990672526514255
0.202408938818611,0.280442179574631,0.678729575371054
0.0284545677388087,0.353383111215662,0.990993834914911
0.452032880628482,0.304343903470319,0.731374637120764
0.799283125511836,0.331715875536203,0.455295963087475
0.260812274888158,0.956407060519326,0.620669819763922
0.104361456917133,0.885754462659825,0.980111920746628
0.712584809765685,0.525925576209556,0.630158271655415
0.961141652650666,0.253351071291137,0.628919490957432
0.756321227741893,0.404551819305401,0.498638779568322
0.610389001361094,0.136286320739891,0.349500204628933
0.593351371926721,0.402703231805935,0.999586565736425
0.490039479320403,0.251605011743028,0.451959934263612
0.779130255389959,0.703215154532809,0.723439781904455
0.65356953505706,0.255283885566983,0.727294802268112
0.582274052593391,0.13519430158427,0.386552974788305
0.836590528111905,0.628141750507057,0.292911100403397
0.348822500986978,0.368336761095095,0.991628334297254
0.0958577148439363,0.98101007933449,0.40120805214841
0.442108261428308,0.643624575249851,0.927014338726132
0.814583403743338,0.417906816491391,0.296815400150021
0.646260508860927,0.285068113373593,0.857075150526617
0.067294145884458,0.207864424065687,0.295609973822331
0.768719988974743,0.0540702340048738,0.389201168525902
0.893020337845199,0.0027372696949169,0.297766610752389
0.828402829203289,0.393051328682341,0.292927076025171
0.881269401815254,0.200443847512361,0.508270537040823
0.951793327664491,0.991516759423539,0.710923518355811
0.953257276430726,0.64714798604371,0.957356515001394
0.444969316534698,0.895253188200761,0.645410278030931
0.00341963684186339,0.54900082542887,0.591261874549406
0.0616255653621629,0.0312246419996954,0.824291444060906
0.773230255950242,0.657887978977989,0.570648992462678
0.435248631679919,0.803754973229952,0.304430198341726
0.682042944121174,0.740909491125029,0.855786765857004
0.324360033904202,0.541220701771323,0.810749830713079
0.0467315674684942,0.022162620044779,0.872128123261112
0.76653637460852,0.881705032020807,0.358504916166914
0.191951066820882,0.028068975482136,0.397722901036628
0.225800278940238,0.208370624195319,0.973206209232432
0.133776776159648,0.101753252841067,0.857796510168884
0.454201593355741,0.925487516053021,0.923859625344158
0.0419627581294626,0.791305722134188,0.377960564123955
0.730510436173063,0.831206012748182,0.498899466772973
0.842730979348067,0.0501390982568264,0.314518022174216
0.853543263768312,0.0343500225865282,0.298850282934556
0.580186057695653,0.623398838774767,0.980075557824283
0.941304483638611,0.529936691252049,0.995145897784858
0.148924405250698,0.961130171569064,0.303008054477096
0.629742640937213,0.0999882123786956,0.533403741500631
0.739358957246877,0.0657975119501352,0.422983282404826
0.471519361848012,0.2834955545431,0.612030772998682
0.184178157040384,0.112887140608858,0.565922908508891
0.795891764633823,0.174471849845722,0.915484263966366
0.179997098981403,0.0332358350595459,0.32894644447552
0.317626147811301,0.940702281214763,0.737130438031027
0.854715766699053,0.586233972996939,0.340734334166919
0.19704355808394,0.144987745180726,0.750397299269674
0.392555609630886,0.536028006407898,0.973442533343882
0.977040057508275,0.0922179770562798,0.455154241059863
0.451991144499276,0.289044712541159,0.657401603189869
0.571469437919557,0.988845705115702,0.711863154756728
0.0904081081533804,0.866830097337253,0.762312839815723
0.035385780969169,0.354877991938964,0.995445982766708
0.372693145847879,0.625789048285224,0.999525959284127
0.719279610321857,0.819464356249664,0.525004220793217
0.1649081467879,0.5594226786457,0.305733901431059
0.949503833681811,0.883520130823366,0.514772944383792
0.229294459383935,0.72131062093284,0.861561942805334
0.675300697075203,0.351570931603201,0.980081821098496
0.699417374034878,0.826954638647847,0.407281738877512
0.0374603353235871,0.762486325890292,0.553143350013792
0.170426198394503,0.37944510921929,0.294773540272721
0.984136010343675,0.660792500906624,0.959280334418496
0.764441357670818,0.0488735180576332,0.442383249063036
0.801895932758693,0.799003581075463,0.996236657443578
0.111633827912156,0.93903006413579,0.659079593611605
0.604348121232353,0.953484395951964,0.996028117579806
0.318387956741732,0.0725168713685125,0.605607415033945
0.0829903822611086,0.950402999646496,0.809400187759617
0.686308644925244,0.397666687581688,0.863207182778803
0.0121919366153888,0.861745424635243,0.303597702416332
0.46636396144703,0.679391890403349,0.789259048158982
0.291036089218687,0.164189890394919,0.393025247760918
0.175888561729342,0.374244862069376,0.302074512399091
0.763116467967164,0.18953733626334,0.831197732982202
0.368643154644407,0.453247728206683,0.943788699594171
0.421187080943026,0.567874486910645,0.999054638783197
0.265493444351479,0.0263881834801286,0.831410209224841
0.367471302209888,0.983947829009499,0.898476293033385
0.138825994572137,0.431616181077436,0.382870804230147
0.293001162042841,0.664694249356166,0.938414438715004
0.246652343963273,0.106925825511105,0.300482547859455
0.0086758761308156,0.0058272591913119,0.990404039791378
0.923264858035371,0.36749353313027,0.74486194995069
0.914694184461143,0.725132065780461,0.356052461099451
0.754722992712166,0.917913902155589,0.309121342263399
0.242227558369748,0.829707663451787,0.656065612351084
0.596680177838542,0.181262702244334,0.296679844169503
0.897300968638621,0.0800802147816867,0.913195681058258
0.418535377065651,0.278757832701318,0.655921898834154
0.883720395843498,0.56108521453524,0.536769999436114
0.986093169781845,0.96523371749837,0.89986212631804
0.0701496721277945,0.893326590373646,0.797339741217315
0.974154741312377,0.269175721518695,0.854668845542632
0.0882549616536126,0.498671277508605,0.834762446511573
0.106118755749427,0.0594801687318832,0.694444515878028
0.664639599172864,0.307002158189658,0.973261990097945
0.227359755356796,0.801649862616789,0.929852427346279
0.724883197025396,0.128970232477412,0.307486336244171
0.945895748366602,0.40979877913557,0.988630165918048
0.673328467300627,0.621157321781386,0.941350623518715
0.114574873307254,0.652405569379684,0.380049898459411
0.488818222480826,0.0439589506210759,0.96376521739286
0.403680262492038,0.517951118286233,0.979594046304934
0.20450307386741,0.0416753049385734,0.364800311136251
0.429056765280664,0.0821644631861709,0.834998054718392
0.550236486885231,0.0118152008913457,0.688870480055124
0.666328750719316,0.615184989750851,0.948139598678302
0.865938505578321,0.242811037658714,0.402745854048311
0.688564683911856,0.797592564699706,0.534973579520465
0.33030815790128,0.241840548417065,0.708812557816929
0.616515911929775,0.879349538751878,0.415606549124418
0.411874953879043,0.0159951935186982,0.797585897927852
0.66291416456271,0.600706513837446,0.933722322897259
0.861134624409489,0.287195375785232,0.312717442308215
0.199686669723131,0.967191736095119,0.399344600675709
0.603760869558901,0.432286781059578,0.990223241414203
0.929597787669394,0.545455122262239,0.949675236628813
0.47749668582296,0.0178331582196988,0.734194851899576
0.862807494329754,0.132381385440938,0.992538259276967
0.807741243844386,0.10866342904279,0.481010647925571
0.06896682524262,0.0756914758984931,0.985900925541688
0.257639314850792,0.342742561064195,0.75437241742581
0.36333497874951,0.161187878213357,0.29344906038852
0.696348957242444,0.246764254319947,0.848701282439803
0.172560063980985,0.910199114681687,0.456913614500396
0.374927767768502,0.59060169726843,0.985642280775311
0.639949703769758,0.711853611068334,0.851952460192666
0.0776009881794453,0.159087124350015,0.447017960802161
0.907092138948385,0.859482760444749,0.723591960945924
0.58704137488408,0.508446198192425,0.985626691146052
0.0425755779347382,0.481234100686386,0.957686782937033
0.963031278329901,0.669152568844147,0.968503398283052
0.805433893775567,0.780392440752592,0.944648129239242
0.670084947890602,0.694959709353279,0.978181599252823
0.75387277205009,0.585986682336777,0.494200006434243
0.394971921100747,0.186580909757409,0.30662416969024
0.20685141234193,0.212992302766535,0.994100673983061
0.955452978794463,0.426435124738608,0.988554019144954
0.933311772060581,0.968326746277046,0.779800523406563
0.025979056881275,0.55176051283488,0.84640247345325
0.966503549456596,0.102363945928868,0.471217111245269
0.440140072213952,0.0127058381685056,0.711716919133913
0.827583885332104,0.712801573061384,0.448366691971701
0.760418770143297,0.779634144871961,0.970908453078761
0.307740180625115,0.364619492118713,0.915582864509694
0.727588674734347,0.857187109396327,0.351918470900275
0.732386927120853,0.036973965593148,0.730083570137513
0.995063218192663,0.845490193734877,0.383330805035873
0.723387161084916,0.312606072405353,0.944986431261896
0.0200040659322403,0.648066917616408,0.95961244681951
0.213102028797846,0.292671101170126,0.691000240638779
0.344817430791445,0.00674011198850349,0.874066835804593
0.8389384496524,0.316250618918333,0.326968268354982
0.000612928887829185,0.383488323790953,0.688332898906761
0.85990643269103,0.315766445229761,0.293851136764761
0.195891651914455,0.792460380906705,0.985055417061271
0.397638614556752,0.86349724102905,0.357839015735661
0.153595769090578,0.918633848587517,0.512004732552364
0.311566036334261,0.556594813438132,0.774896779517142
0.626201564417686,0.131778233819641,0.34724992385966
0.38973228517361,0.814246644162107,0.308304559039598
0.992507231892087,0.747487619606312,0.940024672168948
0.901389234669507,0.244361033685505,0.294068935276042
0.82551198354084,0.854963258460164,0.900803694309848
0.816944397069048,0.149259709480219,0.877541964008901
0.431793617599178,0.547102143124677,0.998386051924931
0.542812111847103,0.672106793586165,0.82563093922947
0.0843764497926459,0.348939597774297,0.607642501604781
0.1437609945531,0.596164514136501,0.337386339411849
0.631632850441616,0.414508367781062,0.974391676599091
0.0933558567855507,0.998496087344829,0.320829173030508
0.796870362223592,0.83903691732185,0.834375523818207
0.965740481928922,0.139837585790548,0.308102354036298
0.522386075741146,0.502066902019549,1.00004142011761
0.416369571600575,0.655014497103635,0.928778473737906
0.0387922079102136,0.203809314737562,0.378530402916691
0.495632523159962,0.457106880985666,0.999216700638065
0.0560258303857408,0.152244031035807,0.350683501255331
0.566075902056415,0.959158446371555,0.971144820137515
0.576741665091831,0.580847520973533,0.999711116392319
0.98809275728371,0.907353301712312,0.372838813768979
0.7413028692808,0.904445524513256,0.299378572133181
0.29625036931457,0.443234159986023,0.703736181936402
0.244330995961558,0.53925180765288,0.43300905319109
0.909255483429879,0.766861973593943,0.293991609432078
0.850324264276773,0.410643261320889,0.324887167450772
0.0279644830198959,0.441026272077113,0.873424551842856
0.51437562416587,0.526487883014604,0.999883805957075
0.707486616524868,0.497707699850667,0.647554730359149
0.274501309072133,0.676447294587269,0.905681774820839
0.23183014007099,0.22877924977662,0.997307058276083
0.500351672740653,0.994601501915604,0.586478382251444
0.904364176670089,0.552076553585473,0.735594480729888
0.983451147092041,0.484124503560364,0.716639863866168
0.439923885838594,0.752450688817538,0.465113279629919
0.869535178930499,0.901813963330816,0.853532874297748
0.600636078816373,0.320996095127892,0.886037534982535
0.655729195185006,0.530761521010194,0.872608273080874
0.870025779400021,0.942758283009287,0.474694285078339
0.913535716052167,0.658942518915981,0.560672279764757
0.791394404172897,0.63545739137521,0.411325418176316
0.433219263954554,0.809906181020662,0.297633357632188
0.52526482956484,0.192202799367253,0.294487652535619
0.446755862831604,0.756341981714126,0.44106635923342
0.660086376096122,0.913896745348815,0.560168804934716
0.729992717729416,0.140816692249384,0.350236243046796
0.186587226502132,0.325554718847852,0.402170323055653
0.526371204791125,0.298421101280022,0.684316130954725
0.555412330505438,0.602679796586745,0.985737658063347
0.609467775424477,0.639820170611609,0.985110996355243
0.169100239200518,0.398283952753525,0.292906131304158
0.73554558070749,0.985256707168184,0.930293604114177
0.32073439233005,0.690747477379627,0.994240770532131
0.612890333977994,0.633964941525366,0.992530129554515
0.771337141930591,0.163636697431561,0.688414609368421
0.464080111449119,0.0780224719722755,0.905752620802272
0.193438397365622,0.445449006567244,0.298680999833706
0.558057629460003,0.90277225740673,0.712593306217735
0.997829240783583,0.126343760799151,0.306132775309238
0.685377807887737,0.555690878662746,0.786644053865764
0.509455792032182,0.836945287006907,0.320046937484618
0.188053658600431,0.824821418135893,0.979822790284265
0.0554941014777869,0.0685131036578678,0.961844500097741
0.82369501014566,0.428918959928677,0.293092807896163
0.151644723854493,0.718772314410657,0.364771906157677
0.0456936376132071,0.771322795796208,0.435835271582441
0.535327503770124,0.447195277532563,0.999349179283762
0.401573153212201,0.211003623933066,0.362600798665961
0.338798764800653,0.595185125544667,0.929546203509439
0.621264563093428,0.116553207613993,0.431691726594688
0.0631586097325198,0.986301961314864,0.615484917315429
0.462851876520552,0.232666847066954,0.385935045805248
0.64000141217187,0.123094711874612,0.362432603583625
0.384734482687432,0.297710412963293,0.827188186272834
0.849524062372744,0.184210561627522,0.878963227747121
0.575006227783859,0.220849480573554,0.37170964134297
0.160171300050337,0.542408904145006,0.320897860910804
0.0191237475723028,0.728407897322904,0.923445072979409
0.12650411361875,0.327269568493124,0.308422439780279
0.846646361097693,0.182450714917388,0.907343037463229
0.97076382590225,0.61936848897906,0.966061117257613
0.00635791008919477,0.260134270388167,0.969211723361007
0.215375402403064,0.83339497434441,0.797995010543209
0.263239545055199,0.993359318530187,0.974778628862561
0.530529171701055,0.732438543788157,0.534245217820703
0.273565498950426,0.715066108068917,0.992088209635301
0.322044315840583,0.761806421175133,0.720395647994787
0.387499523866922,0.897645787272137,0.557811922615576
0.406351850488223,0.461133676343597,0.986490756737052
0.0489695018581115,0.759189865819178,0.465577747809935
0.141872968964744,0.0463196038776077,0.343623038662423
0.54548689942807,0.789899580081459,0.323284603410468
0.146554581262637,0.459719763691537,0.367167293750267
0.163956775959581,0.682027225559112,0.332556234251586
0.690329164546914,0.387395898293238,0.870182124441332
0.156544742227066,0.0440354006914422,0.301864163106101
0.497855624394026,0.455380909684114,0.999081309575638
0.303204903732054,0.512962988871615,0.70079855832136
0.607347027706914,0.926140823747031,0.840361762694306
0.700589497286826,0.0864830826697871,0.419038957890163
0.498763941030018,0.0609252151753753,0.993617095670859
0.549500073162373,0.17016461824812,0.300466999623424
0.591654571467545,0.420380062752403,0.998746627893632
0.898515459569637,0.742001875350717,0.293931038417634
0.840491439175326,0.933198743265122,0.376064534370784
0.448903161365539,0.191658229751978,0.296320355253931
0.241238335105591,0.666703883062582,0.693138452349498
0.78471814881498,0.0974482545740902,0.328120480926644
0.437860848457552,0.775511115327943,0.373375419120724
0.18236453492986,0.518880566693377,0.29309733680446
0.6440769707039,0.569742397662718,0.937687986653625
0.221225802337751,0.224550972608384,0.996809702022822
0.010137486429885,0.976237559456844,0.950091730166127
0.309140909879468,0.157984633802902,0.32922206782962
0.209229857111815,0.874836180377286,0.50481776234814
0.894123315611389,0.478774372952059,0.665376893413648
0.585280752984807,0.6447988222274,0.952986864121568
0.300368965839501,0.361622338015121,0.897294031369909
0.35238575384533,0.506384200862143,0.887803962727188
0.614285322632175,0.474824182498269,0.961338840419262
0.1121888200338,0.407199479802512,0.518874049738156
0.4257581451484,0.22345419501001,0.380176225331453
0.176697874919977,0.723415242681745,0.518757275258127
0.482176704677753,0.124131378519814,0.510685600154326
0.327372443258762,0.598725878152531,0.903189609190646
0.398932084910572,0.111393741197418,0.509268034474
0.0799138684757054,0.256693080039229,0.336136365059963
0.632342694722116,0.0665197676173411,0.843682765837718
0.569886761383619,0.563671673886012,0.999704941495913
0.211560772302095,0.670911684007384,0.524860620987274
0.623511587596498,0.588311884887517,0.985580191524827
0.926001439997461,0.914047620758414,0.969497766314284
0.972947690699249,0.11407279499108,0.358507094805764
0.856996724607423,0.60681031866651,0.330079487155087
0.39188173195906,0.786615975070745,0.383533237850134
0.62498836495867,0.0259803191460669,0.956214055204942
0.0170929890163243,0.843029250027612,0.329325187110538
0.676796645459253,0.0215879108742811,0.995263775211785
0.236755104172509,0.936232806906104,0.354737439050168
0.83270094716223,0.214580182237551,0.808439492012671
0.704042219482362,0.627583451535087,0.851547067970093
0.381349361684173,0.0914282514061779,0.641573268833442
0.361320565193892,0.564637506478466,0.943897630706508
0.289246782509144,0.77617574862903,0.779356599278691
0.541300195847172,0.418445712343324,0.993707717673107
0.589848315034062,0.477740327623673,0.985194110933363
0.918587306282949,0.515231264732778,0.889587742610609
0.538603972793091,0.609985413070768,0.971641319659199
0.45828289342951,0.962067286358215,0.938503526375775
0.517485962807666,0.749468848502729,0.449079199674395
0.00558665114967152,0.751411080342252,0.939445996317655
0.936527120745741,0.248428469274659,0.393622588413393
0.144481888533104,0.974242547538131,0.294259478314549
0.969930324453861,0.864522996167187,0.30643402957275
0.911625015797559,0.812713116258383,0.37652363483967
0.786402538057882,0.807747371988837,0.957558723244949
0.218413923454471,0.142900855311658,0.587094264951711
0.355704642469063,0.310944905607495,0.944257309487783
0.998537502567284,0.33936666994961,0.838260855521757
0.821565885643009,0.318113254699856,0.38466569228404
0.930648408980574,0.301214856387116,0.56299397039928
0.888168293196242,0.88918380962126,0.995077372583092
0.167664900759701,0.274759785344824,0.468970816012328
0.0588160847350955,0.17259568979498,0.307342756248036
0.981936694387347,0.700336079015862,0.991212333175115
0.958447562415153,0.179647653435357,0.304109595431746
0.669650839089416,0.424681339244358,0.874458560093647
0.943391645435244,0.169715459360741,0.307129588601193
0.84550057841558,0.840308374787681,0.993033800985069
0.5074781359029,0.0886663622227497,0.830815274152087
0.642929062446114,0.755563598232809,0.625870959447649
0.70971103496477,0.218085122430697,0.736603697279657
0.27092888434045,0.87072635969799,0.313472942809667
0.124072941411752,0.868284819530323,0.987357074176601
0.216362714534625,0.53440625937935,0.33452234714108
0.692995496176649,0.726318628047127,0.950414012222725
0.71757431039447,0.745402755201794,0.957116510328064
0.370576777092181,0.573979126983788,0.967876264069
0.267880255011376,0.340920941553544,0.816623077529334
0.748587857373525,0.972648625934031,0.744106262170419
0.780853901614435,0.582524732904043,0.373080515574617
0.284916327328887,0.0196503937477246,0.960668442193316
0.866079156004824,0.290794007846154,0.300222578715692
0.711380558440927,0.920482028339058,0.430188834271599
0.201422561369371,0.363557470378932,0.383072935097976
0.802521955871489,0.764113678002264,0.88594199281046
0.358575532059651,0.947921384992544,0.936276200413803
0.119147086289246,0.00182569075701758,0.29729580294991
0.947609075010754,0.394555774387438,0.983746035502563
0.158541703770868,0.277132600584533,0.408939789668991
0.223096120417584,0.82223181885574,0.830936232727553
0.0864969012546353,0.0846079767700285,0.993986196399301
0.503213286436163,0.118782494150568,0.556290164358535
0.83151694084052,0.795979069887195,0.880498716054679
0.751101797722746,0.593273463850375,0.521290923957791
0.808909432222601,0.439968474059831,0.297227276563504
0.341167640609201,0.273791015628725,0.845200285967953
0.136911466813181,0.578526215951424,0.382186515237935
0.234410183351021,0.886452311708592,0.337315445552355
0.886016062262002,0.61065419050958,0.470390130545039
0.81038896163227,0.0627223590104841,0.295015817394722
0.0810306226043031,0.730767097287811,0.361879017145789
0.903882742180489,0.483394212914631,0.759733309114107
0.777089182671159,0.195307068640366,0.934431289246623
0.875004325543996,0.487847844513133,0.505793206896196
0.879555558266118,0.971005596723873,0.342676274260803
0.560029388599563,0.391868595719803,0.983195374590863
0.295506640253123,0.851552951690275,0.324498658155957
0.925973779194988,0.472084494608454,0.937086959539179
0.877228803709615,0.636789716809522,0.369128673637952
0.460563200719189,0.346879660859704,0.886722870939652
0.774219061417039,0.4622237078459,0.362817745485566
0.298256190740503,0.805728404300287,0.537753817436502
0.154817236860748,0.873520997039974,0.897636405722427
0.552291520425119,0.227368456362747,0.37604146255656
0.468228348246776,0.236174842781853,0.396225214663186
0.519931533254217,0.0573209377415478,0.996635785136275
0.351151032439433,0.738594003895298,0.745506067189014
0.957849203229882,0.680172673298977,0.908298532770059
0.457902267715894,0.29481661437219,0.6797667670011
0.0313010674659163,0.412683449011296,0.936268128075298
0.742819809187204,0.693214036967605,0.887984552987535
0.916540971135721,0.955580510636792,0.751653670431709
0.598477064596489,0.423869354398921,0.995801309630601
0.0155651885201223,0.322333262002561,0.984147963910306
0.759829677185509,0.329753457358573,0.7006262690302
0.121015936243348,0.735552702544723,0.304995590824885
0.0647628488326445,0.604797535341233,0.919624198240832
0.715989456797484,0.345920314184856,0.876185945429988
0.679335184331983,0.617986555247568,0.918918046312125
0.0736915386840701,0.448207032214385,0.924752869358709
0.656091191727202,0.570452396629378,0.909174470323438
0.238062988258898,0.521524383271113,0.399552423906814
0.365761153321248,0.50558939356124,0.921288206233474
0.54641816360224,0.30906579203438,0.751247757198901
0.478183259925339,0.768305595525075,0.376683986822743
0.0757285298020579,0.853466942134313,0.513700140241129
0.269447929944843,0.709834072031546,0.977504357359891
0.475558370234445,0.631858356082346,0.930885962660512
0.703253637930844,0.166893720472231,0.389200619215293
0.637018187925685,0.908973690749146,0.591381167199483
0.0979026181395166,0.706978521889541,0.343216079165811
0.493507928978652,0.434318773841485,0.995381614052149
0.347639160709921,0.376464905155357,0.983417941154103
0.383277839921415,0.948508269507904,0.977138088713937
0.258571035701316,0.147583116134163,0.416825739850566
0.108542920813896,0.0380591957420111,0.464878219808321
0.510400171944872,0.0951316157658584,0.770924302489241
0.634319641455077,0.945461077437736,0.934528571074791
0.0501912038587034,0.890596641528886,0.569710586607515
0.333084367580712,0.263879192037042,0.824010087372407
0.287604879466351,0.464903291312512,0.637491707140497
0.745871630582027,0.357699193721637,0.68091005923133
0.835841646354646,0.436708767993841,0.30570648158004
0.73642937292764,0.336000982360914,0.811837128995488
0.520728833582718,0.385497631086968,0.9597262558112
0.313219343502074,0.371495567727368,0.917625734507159
0.564676464080345,0.199938407198526,0.310174441735903
0.122274852375034,0.267866410450544,0.303552844060079
