"X1","X2","Y"
0.133948374665342,0.881433639575262,0.962616299349944
0.292811206690501,0.0922074808026664,0.367995623419638
0.0228307135161012,0.76617724182317,0.687722163051148
0.947897194664925,0.473917851164471,0.993553017149687
0.64946656390233,0.39562186516542,0.966741997148716
0.305543828868773,0.640646449753083,0.920424092891223
0.163999918435235,0.620115958630107,0.292815140720921
0.516867078843061,0.0273285278822295,0.834468732853482
0.887736692690756,0.259065192831215,0.297357431206549
0.583385619616602,0.64617314177705,0.948197778821061
0.811699189620092,0.018085908443667,0.455260815927159
0.500947626397945,0.943175475139637,0.996840840824881
0.504473403507378,0.840033175675198,0.328395023195713
0.618526772588491,0.050925827737432,0.97745987866677
0.736772887925617,0.846795258416794,0.430113194461809
0.266530417735688,0.293508613718208,0.963455943040484
0.239319578389172,0.726790885757655,0.931476371415155
0.321669385037385,0.844613216190599,0.307672546411545
0.589821216806304,0.609241899058223,0.99598088187426
0.284276672641281,0.367737303141505,0.811655528954488
0.3193316532881,0.406273983113468,0.86716348177639
0.919074546847027,0.579258081843611,0.832715569077776
0.49598156086728,0.836598580441903,0.319319792890204
0.521306768749375,0.278242013483308,0.581908777524425
0.916330539927818,0.838983828122728,0.481152195378169
0.365957633736543,0.848435795687605,0.29626803181808
0.0623275271090679,0.935943812180776,0.993309487572926
0.924441981053911,0.940106942404527,0.949213942759852
0.544107648041099,0.560524766257498,0.999298998943939
0.954806773220189,0.576471092682332,0.990986506356009
0.940094774793368,0.79701899340516,0.300016968548095
0.497631087810267,0.687315024369396,0.742229287433886
0.289644486019853,0.280279953300487,0.994357715951369
0.932308303134516,0.700545803228393,0.5708212048656
0.550684746988583,0.632176091001835,0.944896371928391
0.799386945526581,0.479065913683735,0.301705375131878
0.118722109707538,0.434037007325795,0.51112395079795
0.291991966142785,0.160327524142805,0.373057697304714
0.883542603024282,0.692761285020504,0.309167175121555
0.13620396615332,0.813059953960124,0.749355631129649
0.768428153199609,0.321745665960945,0.679749516871822
0.422518303961027,0.564678288597614,0.998961576095998
0.482523347954266,0.338167939952575,0.846206386219214
0.720915050830692,0.356831758778077,0.819804726304071
0.154844435453415,0.888466480686795,0.778872853772932
0.225543706594501,0.33626208492741,0.584079159562792
0.417593092992902,0.347441884493921,0.933227680164771
0.0515685273548588,0.251618100474123,0.495040765790964
0.576542957179248,0.197964122460689,0.311630936619047
0.444906586696394,0.533755619625095,0.998997529580723
0.33775505147269,0.722608619643841,0.872951944350128
0.792294019399211,0.718282167560887,0.709398117705003
0.879097614256665,0.222529986084905,0.41036448034671
0.845927407760173,0.926768703040667,0.445010042785512
0.76128894102294,0.302852604753338,0.80719141826988
0.979281270655803,0.816678324264009,0.409297343537832
0.462492057356983,0.599114484251011,0.981878024421696
0.717983558837324,0.399137337329797,0.715203628797612
0.725031943306327,0.568066562318709,0.612597842553739
0.702351041049231,0.439508530807681,0.715845594201737
0.442423616122454,0.0436340881595388,0.978108883592686
0.728081244198605,0.138870464096311,0.338986142865676
0.45066186009068,0.552057307749521,0.999823101767666
0.756133592871949,0.826548531104345,0.670626792676398
0.102133141760249,0.49351308268914,0.705346060085056
0.63645988466125,0.146324780667201,0.300884522923518
0.12029452814348,0.195222583284136,0.553425889633205
0.653090523994993,0.0100436569042504,0.898553485864936
0.385024990564212,0.94439201453235,0.960320222121639
0.94521236888133,0.574107591826469,0.993249067218655
0.441517823070288,0.260034691884648,0.523344647859207
0.625956727853976,0.325379815759603,0.946490432225493
0.859448274946772,0.186933208174538,0.785708643324589
0.712943283067085,0.517988307397813,0.624231762632239
0.127383991356008,0.747351962617133,0.342672910691432
0.227637821628712,0.610675988955423,0.449247179468214
0.459530222184025,0.602455062712077,0.979947640881261
0.764595972981304,0.625643282152247,0.522700935440588
0.00036566870007664,0.759716734046582,0.945932958273901
0.984955483744852,0.304042386342771,0.995762148744814
0.710068826342933,0.658850974772591,0.912898506506134
0.178510443267412,0.986745458008721,0.442207328146658
0.358981452289037,0.818763313343748,0.3243460058778
0.197797961808741,0.946105163411703,0.304333438916717
0.6879242844088,0.342218811106402,0.971718982899934
0.342169440947473,0.714724458846729,0.89220987667334
0.956630454621743,0.175737008911092,0.29720056321953
0.656920265377965,0.539758278429508,0.875348296331193
0.125314026332926,0.854929926529992,0.944770758947552
0.834141137036961,0.740274890860543,0.525535001803341
0.641520806706976,0.794026375479531,0.412499461546501
0.586831888809334,0.112236488663126,0.529818199088919
0.679166162563488,0.695718349704519,0.989106035220829
0.434120064212941,0.682533251295798,0.812399186195272
0.0140248971674591,0.540280317035038,0.703579427226927
0.114319748310838,0.782484200050589,0.394282718823692
0.523363491663709,0.710052848046645,0.641182144064257
0.754767242874019,0.465345205261838,0.434014937631512
0.498173975194339,0.937685390822589,0.990952338990067
0.253627745632082,0.963499958803412,0.656046414647436
0.128123650481459,0.708655203976668,0.294314815184304
0.202914683625568,0.990952254925854,0.640065816080455
0.902992260013241,0.780014764532913,0.31714794345067
0.0183269930556417,0.830422406339087,0.365422749166474
0.818332133030519,0.155310856572352,0.92273970018457
0.31159536924772,0.622922937114257,0.90024576445798
0.149779955966864,0.184315981815103,0.873525704244619
0.217664740233216,0.643741118705366,0.475044263401023
0.535401009703055,0.594325267193373,0.984901987012301
0.0126963459225371,0.389941618586425,0.810232773678805
0.949846026835963,0.737177943713963,0.564791484544213
0.923671024595387,0.631687980843242,0.751320331005445
0.898910037180874,0.629584942996968,0.524566825748787
0.219123765855096,0.999015881330706,0.839414083816997
0.275456775507424,0.948516022677068,0.616793173718427
0.790775988138746,0.702340980495326,0.640372909315531
0.931103757257108,0.689206680417527,0.608649945349633
0.244590222281404,0.673334254831076,0.740531935531925
0.74482999851089,0.295299438461196,0.919829604748793
0.507888618708588,0.786219224730972,0.323471568139869
0.255239477358758,0.474452808741946,0.473276756940134
0.144572722685989,0.369473848843481,0.307235735078564
0.0590188710601069,0.939717922559008,0.99344743441895
0.964753010791261,0.865494437722489,0.323234080258584
0.718552038199734,0.679758882913273,0.939992226163642
0.347454294067342,0.105058873621281,0.434823158087182
0.697482709676493,0.636927241874393,0.901397051231263
0.107471190704498,0.143430059780832,0.832361477029392
0.0892908646697178,0.58926439630799,0.734594872093732
0.171104944139719,0.537453630409669,0.301144637065804
0.117633803979494,0.54217407963099,0.546544597538176
0.644797073645983,0.0334267318635248,0.996303936611378
0.698666195708793,0.971318696875591,0.949766638192926
0.0712916167923249,0.458869896259159,0.94712273628285
0.0841474058143794,0.0484373992509209,0.786889274384494
0.470619675439317,0.385080965943169,0.961696705309697
0.0918762966473587,0.290676564618479,0.364346059236225
0.313917997511104,0.732422423728742,0.90846517593144
0.977201740488876,0.107974183966871,0.36254839501254
0.0340451490604319,0.530107723742258,0.902653256158996
0.536470916641876,0.273874391559511,0.569873172274036
0.156925041262526,0.550671480903868,0.326331426870679
0.47829817422526,0.207970111022238,0.313402777217366
0.794664744026028,0.0373833199795335,0.392946860300659
0.543734255250078,0.377138304553926,0.956580117160792
0.0967587403398938,0.914754710534587,0.972721021161589
0.602678783467505,0.627939706004225,0.991079344898209
0.78917391420994,0.771338637817185,0.972573946943238
0.404272319119424,0.713228238639422,0.72753247999412
0.981110748900101,0.277147260403261,0.943642125581595
0.276143105333205,0.904824422542006,0.321707874383133
0.773427578238305,0.811536484876648,0.88100333374581
0.387745169260539,0.807560222798493,0.323302296055139
0.552551716372836,0.0908726634667255,0.780249060072235
0.465158653381746,0.921598253309261,0.903408188777713
0.466561804997735,0.754154382884968,0.435862200322423
0.615604404121172,0.697513967917766,0.848672139714493
0.626368398197927,0.446230757065583,0.957114131496055
0.685986753009725,0.72507888220856,0.935529975670578
0.681198546752334,0.469406903420575,0.779568072220526
0.639228364321869,0.964030563041568,0.996230337840377
0.411439034985844,0.924186314381193,0.861375963739882
0.89288784367172,0.547583846091758,0.632794923072151
0.889356332639232,0.996868617851753,0.295649380026743
0.904434673940763,0.00952722683083266,0.346699802930814
0.560397168979049,0.684235484225675,0.797671429190805
0.646797235730104,0.680384100642055,0.968751948441896
0.397016791548114,0.862753394894768,0.354005617196824
0.140482533414848,0.789943761773407,0.62158752516993
0.428384117906447,0.0213552762996405,0.825505080189384
0.135102716054767,0.822993327144999,0.812431207287037
0.376717512983363,0.979537162875757,0.914868712062678
0.568801293123048,0.00256282411050051,0.608083042301319
0.389486358891707,0.664131765556056,0.946039039989495
0.251498842345551,0.126803706919309,0.343147169047707
0.996091611308511,0.677420789468102,0.915382395951372
0.643621433583554,0.391267809716985,0.979829106519429
0.784388044235297,0.973678187548649,0.536469255346248
0.617191221205518,0.887195897981524,0.465000532638458
0.21598726345133,0.716715381542221,0.757654796997818
0.511982714582235,0.0780572411189787,0.915245760107283
0.66750482767215,0.955375133667607,0.926020436136358
0.801030648123473,0.332810692415107,0.442897152712624
0.35381841030065,0.176584156804252,0.318976185116276
0.468109552394599,0.437180270375684,0.99768571464304
0.301081817042083,0.476475308285095,0.695277113415311
0.856155265067238,0.748774521186017,0.42420966042371
0.828026232531294,0.871972621920519,0.790525454342092
0.777368706800509,0.957292703810148,0.430559451483183
0.840935084062163,0.264972942993976,0.457494700851778
0.265368488858454,0.423541258546058,0.576332500422214
0.559534478371032,0.691109516101889,0.766776263089399
0.0674409014149569,0.209509094707668,0.296102842838126
0.165042990872171,0.102364111321978,0.612976234842576
0.22873851441266,0.202608935827389,0.943285628621346
0.88411346832104,0.869013662048616,0.963494105008678
0.585524182823952,0.843107748179231,0.310267108852544
0.674935547253583,0.169894111278001,0.338886981544618
0.779228722773027,0.409476825752761,0.388135377328382
0.975943811062258,0.296455926483031,0.964066278301967
0.921098343339749,0.136664929992985,0.619835574017729
0.372105258396361,0.778953685257584,0.45320599405195
0.454586903317366,0.50858912902372,0.998960460602337
0.573169154052157,0.42170774991205,0.999697925384727
0.763166089227889,0.417481624803971,0.444542906909757
0.809403198429383,0.557284548377153,0.29641691922509
0.186106161247939,0.329356644023675,0.39061153019351
0.222865546216723,0.85849353678152,0.548700210977311
0.0090858987858519,0.882932376401033,0.296087362415582
0.188649682480842,0.361184512686916,0.342305990807825
0.512781026250683,0.662690280630253,0.84183572088708
0.168781927782577,0.301470245065168,0.385100708194712
0.436192906890064,0.362113312148023,0.944718990861192
0.338378371168394,0.977187867695,0.989056701395523
0.970021612275857,0.191985075260978,0.385566151849883
0.676116059324704,0.49507802327536,0.789892683398201
0.33317810316477,0.312825778635684,0.985816979592836
0.0208056328645907,0.751414159042295,0.799345123489326
0.961055149958469,0.0635624495698139,0.879977380032344
0.271343160588294,0.252369681644719,0.977590283326656
0.629536744120996,0.0296097627799027,0.979742215128683
0.488669644360431,0.930017231756356,0.963850485502606
0.439102240137756,0.38130852267798,0.97266485897602
0.279193524945993,0.526287125467788,0.589422554250179
0.322517958048265,0.387631884493865,0.913580352501558
0.515614704468287,0.618204249375965,0.952957202599275
0.968873399570119,0.666108842012007,0.991787316256831
0.735518508009613,0.193999323303811,0.704773620487827
0.775326842616312,0.519273392448202,0.353402007414441
0.986821837851312,0.131345591324847,0.295535823240989
0.00520132844941691,0.15911196596548,0.403281257897684
0.747642483193427,0.263244399206247,0.991187694533439
0.67302937241178,0.98355108310096,0.981727523380141
0.0615065121417865,0.585020511387382,0.965265781182736
0.477791411684826,0.403740192302503,0.98049242628057
0.852273747686762,0.535349237198941,0.364659191176778
0.877554064975586,0.507102680412121,0.526359094335903
0.213952223101165,0.0772693557995372,0.293958113870444
0.486142743388657,0.426500889963936,0.992950818227759
0.693621782019734,0.284826282096561,0.979032433418634
0.851333709240891,0.0618278802218847,0.397275432402533
0.579336065548472,0.378068497556262,0.981122408136609
0.668670676534064,0.316477928695269,0.992091328758741
0.15148495110264,0.41559779468039,0.323118188947983
0.371257615981158,0.086483473831322,0.659790374014465
0.368812457557302,0.721506634202786,0.779531489919634
0.241018558882643,0.359352486740332,0.598066179857973
0.972949987473898,0.413156450067181,0.903248979651678
0.357026020440739,0.266323379712179,0.752658653371902
0.401907793698832,0.166446588986553,0.294322759307125
0.91412073994847,0.635016677078791,0.646181072754143
0.939356972526759,0.122842386389151,0.558473745031137
0.714502006729133,0.768774371651933,0.841565823553077
0.152532765183132,0.157799149227329,0.992991232942664
0.727228391097859,0.216103271834087,0.81186706998475
0.557968009456061,0.0566787574659102,0.994318803030876
0.0397896237731911,0.108701024237089,0.478576659454517
0.415859650448896,0.270709549998865,0.618733844968891
0.181967534385622,0.932770721745677,0.310592742784774
0.630193458430003,0.0412057102606632,0.994361273955404
0.0103273071823642,0.995043864338193,0.985248826011509
0.598388064099476,0.205295786777046,0.344458465412914
0.605756895019207,0.307450438975357,0.846026549780537
0.105524276575539,0.0978908093334176,0.985758800143439
0.508889311901759,0.43293211559765,0.995114536178424
0.0868886473793536,0.895298859089147,0.944162690629729
0.993877545838244,0.698369740551803,0.978623720108907
0.406511142216157,0.141503322910517,0.347760089134779
0.943884784368798,0.752325280337129,0.440546433607923
0.383435202246532,0.5675760464794,0.979217945361118
0.0995995844565332,0.00686645788047463,0.321686798292953
0.348282826462295,0.79082254451979,0.452524173025387
0.260816970195621,0.668700725882314,0.814635450669783
0.297561983758584,0.638909710671287,0.888104886172149
0.0680785302948207,0.219716908826958,0.304738845360858
0.706216681632213,0.228000170177314,0.783730368774453
0.243361043797806,0.405167533974629,0.495876797039812
0.87247036840301,0.460507488877978,0.473863521502284
0.868263826100156,0.587249888197053,0.398409588220665
0.0535582358664833,0.76062785417214,0.424154660313988
0.0554667844478972,0.909876432121266,0.802242611921248
0.130801176557317,0.802619177760556,0.626833572485383
0.538873936232645,0.974838269517291,0.825754495897592
0.174382746885531,0.591435277908109,0.292644936549008
0.913395836435258,0.182902206758503,0.384868037262598
0.256554265793413,0.429743185349274,0.521441489585881
0.891571354449727,0.521481576359365,0.641671193668521
0.950606343573891,0.220529714785051,0.378187114761414
0.524441897229757,0.900477414256427,0.723742313852142
0.855240821900778,0.424584018560592,0.351679623143263
0.79664630214218,0.275415341746062,0.712051407724241
0.330473691742402,0.00596853066142648,0.909569774064702
0.161990540738218,0.24443869317323,0.579048799830778
0.0336794395316392,0.828389694711659,0.309148317206939
0.10976579744881,0.853034238209482,0.824808031407093
0.493957432986237,0.604188036627602,0.970608083267967
0.403487029277254,0.121246508190408,0.446893995991011
0.138370203282218,0.0582963751112111,0.429314317673327
0.0432850554655306,0.181496274028905,0.303479251587264
0.355166904980317,0.151169847181998,0.293706246344198
0.863539745203219,0.756586728878319,0.413337973452648
0.190510296685621,0.310895258512348,0.466117638584679
0.839599222519435,0.349534025300294,0.296430852508458
0.123127590311691,0.988236788912676,0.294961205086469
0.201834342944436,0.243002525394317,0.87586318412461
0.248927337364294,0.764918970643077,0.984841217825114
0.461996987763792,0.793775238417089,0.313161737135666
0.309677694215905,0.601442879252601,0.845515788889142
0.821277795856353,0.0240826908638701,0.368078292129366
0.082354064615909,0.514961890472099,0.88213955686569
0.391506553588435,0.340661869150121,0.953411923863768
0.393926020625979,0.353415413822513,0.973381959488873
0.816752619360108,0.134061267914716,0.758335558530398
0.596613643929828,0.9503333370951,0.994619673395601
0.567457057436462,0.397262987665366,0.99067887399432
0.571890672790352,0.510221318799071,0.993264416311102
0.700149133723695,0.912531011341605,0.414375661841742
0.670534656876232,0.12878820593562,0.306016392169033
0.759945441738702,0.022372692050878,0.731717320882107
0.982851386327762,0.178818018857855,0.413585456316
0.0363051180597395,0.419462050536647,0.959855000245693
0.247080002474599,0.851059798518661,0.473067300522321
0.362480486472603,0.226345313842408,0.504740555064118
0.113657847748604,0.592915228736587,0.507223042533334
0.966876625339035,0.164940961745568,0.300537987466127
0.739609591589309,0.0156088431966491,0.90816356289169
0.783804189575836,0.170694068163633,0.822934343091577
0.398387321317103,0.481138041204307,0.974580326211303
0.929021533742547,0.400422872183379,0.881491608728444
0.70974096893752,0.491166892592795,0.637310248169556
0.351541235785,0.101908473264892,0.467269623807203
0.302409613999538,0.249079512459692,0.865698036858468
0.298889353893232,0.500102265721653,0.6781121322602
0.51851561595127,0.28978790176101,0.637978906071127
0.412108697154559,0.0658992471904494,0.93735858471072
0.663034792830236,0.214157720390707,0.513353262184874
0.484129096000921,0.562076277397573,0.996716879711205
0.83193965774728,0.879536113596056,0.754602103201621
0.906323754501995,0.876985522689763,0.872599699159863
0.502807135807816,0.21014250967605,0.315867359020225
0.258009021051694,0.615977532254532,0.6232198791528
0.340488939946517,0.967707287824713,0.993541053258577
0.195893603609409,0.571076552817598,0.30612335499978
0.31533843109291,0.200144944957923,0.506261556656142
0.283284785820637,0.354575575557072,0.846459208077601
0.66189691765001,0.11505538695259,0.359624282915583
0.457464255663101,0.323107539661229,0.807128728028954
0.375426975249778,0.0468213226315565,0.985805889791976
0.990393862605095,0.236772755522281,0.85078923408287
0.743532486050855,0.65564065453317,0.741805703525688
0.934977170987986,0.981307942866813,0.652484008889471
0.998760821096133,0.0845875127892941,0.351117878978774
0.0740271343924105,0.776265695563983,0.299163348981405
0.287879221535288,0.728654799721669,0.984932265756895
0.419369196844753,0.254427561603952,0.526730435063878
0.193082848323975,0.583713647712022,0.306574012913285
0.741453605026938,0.824238552372903,0.603014023739709
0.208508634625934,0.149108236982487,0.70443948547308
0.280280367112253,0.32749917955976,0.91595603917486
0.111810486675706,0.648039933797438,0.403959846853872
0.823132871481124,0.898813137807418,0.518124025484515
0.833520610341802,0.872283948120195,0.82824245210671
0.294903928418644,0.0749411165001802,0.487582617689107
0.910157806631643,0.558527623857837,0.782172624225396
0.38078672917746,0.985482993484475,0.851641324503091
0.555993617528584,0.308875626815949,0.762187277241517
0.84235044350056,0.554205837546848,0.323091932879038
0.167562916154042,0.960270122642163,0.295382094182596
0.807307809966151,0.498680761795025,0.29428160940725
0.563187138938345,0.448957765771542,0.999436868434061
0.072524664090015,0.44286481993692,0.927789213002263
0.867883117480204,0.467785451046657,0.448118820196028
0.547504587647971,0.784753214131575,0.336418328253133
0.0768481346839108,0.0828311651330441,0.988026285024242
0.360514958692715,0.393877348226029,0.982501736041706
0.324140441522468,0.739926231132355,0.837652719758546
0.183208713412285,0.247706901072059,0.72195704676668
0.045492081859149,0.189816811396275,0.311221094972425
0.235031054885127,0.11846576653095,0.354562951945853
0.565278282183688,0.299561459392309,0.73214781102451
0.781291267998982,0.0818685018108226,0.294295271638641
0.606906914697494,0.596943096831907,0.998654289407224
0.0802092554448172,0.145229113971815,0.563259021740176
0.84851692341594,0.504811749776825,0.356460387721789
0.612215747619979,0.483487195900641,0.961996868646924
0.959325028484222,0.892744931412861,0.497242328001298
0.766292684506625,0.503158701851964,0.380453512671585
0.650079913654365,0.657060596090741,0.998173480780674
0.00720312690082937,0.821319103156216,0.497126094383675
0.870261643494945,0.734034495958127,0.322627330143121
0.427350194119848,0.16350057177851,0.303764432116445
0.0171482731481083,0.232450869580265,0.743334371825017
0.694334902353585,0.660445503421128,0.962977286188148
0.335058862430509,0.286597689174116,0.9176993381647
0.803679654175881,0.111923380683642,0.481338433538308
0.655001077939756,0.15384981056489,0.2933345830202
0.894678989710286,0.0993289439980872,0.988969817792181
0.142366375904065,0.457481880989391,0.384999985924804
0.805498408838641,0.45276274366118,0.298162662653008
0.262170012921561,0.581142780685332,0.567979304115245
0.753599046170246,0.707349750992376,0.890838281353426
0.0650252960515209,0.607533213665709,0.912723886470302
0.549179155898746,0.454721331554931,1.00000500833336
0.575221804226283,0.907660853411071,0.732222791324969
0.0785415198141709,0.382918180045672,0.771844538796485
0.0466811119844206,0.484712376852054,0.976757288403588
0.730577141708694,0.772381908820011,0.893458281358963
0.77187537024403,0.522119327854365,0.364750999273254
0.690731660546735,0.0548186626201496,0.746723319351906
0.14625795481028,0.351584787700791,0.295791770237714
0.345559743471909,0.832056434116326,0.309092910747534
0.530250745221507,0.856115956650581,0.383581255979384
0.158987557367887,0.117693553626537,0.800406291196145
0.269992668100633,0.26933358571399,0.998345253236804
0.272949165406171,0.0660428847242147,0.47032300708196
0.424714037458412,0.334718454955146,0.888751016236473
0.529556425481103,0.496939953955356,0.999865343681445
0.0275889197643846,0.365465779176913,0.97719281993514
0.909928026635665,0.331130793584976,0.496476795176105
0.0257118893740699,0.742840356999077,0.794545243868451
0.814930604301393,0.133463882171083,0.739611820254758
0.23210045202449,0.952959883943666,0.440763910062885
0.682948385872878,0.923414054449182,0.56133708651358
0.211055032683536,0.0391502514290623,0.405212954241042
0.527133085451089,0.87491156746773,0.499163485917721
0.704504874818958,0.745690368128009,0.915746465232329
0.207090464315377,0.0959835219639354,0.344024834373837
0.620763271671254,0.670907949520741,0.946676580231192
0.786551227021962,0.525468626502436,0.325063859901089
0.541436148251872,0.173184740442783,0.298359542429844
0.379212455769069,0.529868760862388,0.95328431643191
0.0954732853029855,0.0690965685178526,0.880929331182135
0.634526666525751,0.731124493453652,0.738968457864878
0.230763636774849,0.19994860010175,0.923002031604013
0.688687104781624,0.92881801863201,0.588841699419046
0.865432213559281,0.0703043608535081,0.55518141299071
0.658909968869295,0.231708846736699,0.604365402874901
0.861491842807271,0.0520985585628077,0.387864682059666
0.420879722785205,0.651611523477361,0.93136663684256
0.100093420230784,0.969229272338562,0.464399786636928
0.611376071535051,0.861533844503574,0.340376218257297
0.0412289042063057,0.314364139114972,0.898234299249415
0.328639077262953,0.64462707647495,0.981199346403825
0.198380017883144,0.034723650554195,0.381920661012029
0.173234167840332,0.0010255607496947,0.523101650242648
0.449687326979358,0.0445498094060458,0.978139806166976
0.221349920976907,0.256466856520623,0.917084966841681
0.836260888776742,0.544958473804873,0.312039083127402
0.824896964809392,0.444649188150652,0.294889984275188
0.0489522169223055,0.83400384143088,0.298479934685603
0.847092427387368,0.801757817203179,0.806023705867141
0.475260338466614,0.372484209775459,0.939552196929927
0.901841490726918,0.235944265908562,0.298175511770357
0.609557252571452,0.896427878225222,0.554379501970893
0.593620502110105,0.0724238684275188,0.880679573735099
0.595161795636639,0.0134375095022842,0.784137871209721
0.490422099739779,0.993723205979913,0.597308814429492
0.988646097995341,0.318509044546634,0.973064898285357
0.813344084646087,0.430055758558679,0.295366030867347
0.480896196707618,0.548920901485253,0.998853383345934
0.749404048423283,0.224350240696222,0.950861342730187
0.881110224773176,0.282969223062508,0.29326044947491
0.472270590371452,0.916535075117368,0.86779685469541
0.326579521806445,0.572729146481957,0.85773919566475
0.722455164456274,0.441104593368713,0.612821334294849
0.874679497025441,0.704487932059914,0.293088415965437
0.590727787018288,0.487120906142518,0.983371621558167
0.633379801275209,0.512725750478916,0.924231763542768
0.936800137436483,0.674873213815968,0.728225050289924
0.0563896506424062,0.884924836222082,0.582383328216495
0.43087447934784,0.462308593565132,0.996994936077436
0.366883019927423,0.617853855331428,0.995650545371362
0.0304602112625726,0.411177269874606,0.93246515679588
0.092744493809063,0.911226970847696,0.992226013017454
0.452619718090165,0.612492953942623,0.972606861614628
0.581361311175395,0.959310829806142,0.980463571539059
0.0298975513530895,0.775615881343372,0.552841638205949
0.185379525613971,0.345407874382567,0.355572339543976
0.306130674377549,0.891276530351024,0.32820045177861
0.751331936178263,0.918612898845691,0.315883350133884
0.827966852098703,0.239262362597045,0.687801217146315
0.317561597943772,0.241464757063426,0.759596156489658
0.409961368376855,0.799077756029554,0.325741745713541
0.995874685432762,0.804367506568786,0.64535514036706
0.66564942067815,0.0880256984005682,0.524264443297164
0.00355243148980662,0.762786777731962,0.909509578221162
0.176355586954858,0.213975216582883,0.874491978098821
0.623712105205283,0.867899785939604,0.349269771152051
0.952549193951767,0.0169619033751078,0.813385100354356
0.926413974680007,0.374697951182723,0.797041645438497
0.962593216808047,0.809791796175297,0.339920999827786
0.432377558761276,0.815761576108169,0.293669156533348
0.533398248201702,0.12583070468856,0.490192417376822
0.447690254544839,0.450369685403537,0.999786995328931
0.237476537615061,0.0310667311605066,0.619209174882461
0.3942091550068,0.471451855263207,0.972618865287998
0.897342034995556,0.90306843201397,0.989441831992983
0.732588478167541,0.370871980686206,0.714188742226979
0.205474285389297,0.488327493582852,0.308198901895947
0.601440400939435,0.653932277034503,0.954868065678811
