"X1","X2","Y"
0.099729926653672,0.342172974026762,0.45676218898998
0.085205087014474,0.938279428237583,0.899293105139711
0.059641110082157,0.576318801215384,0.979802250237554
0.47290659956634,0.130506087515969,0.461194426071657
0.86542628871277,0.532719756122679,0.432575276252415
0.00784980250289664,0.140028531881981,0.318763345508749
0.454035165419336,0.626763909508009,0.951518010752705
0.226495774635114,0.526962691082153,0.360874662926443
0.891211543795653,0.753730902716052,0.303937872213878
0.199355271314271,0.0815023403568193,0.314606606014564
0.82529089452466,0.981547152965795,0.385703339913557
0.662988624551799,0.825553085228894,0.334035124543149
0.482999565156642,0.781631386533845,0.335537757187668
0.917724382623564,0.336597172233742,0.583284598206465
0.781185207439121,0.0758638786966912,0.294460901866088
0.65087755226763,0.311770322953817,0.959308197177692
0.924159421497025,0.953468834219966,0.844033420512708
0.0446434962865897,0.993154241242446,0.730117142863171
0.0660142316087149,0.944825632905122,0.971234899586545
0.278857606279198,0.598039954446722,0.691796834672044
0.434309205196332,0.870834493744187,0.438916340917799
0.247549710683525,0.713449428398162,0.918483594635031
0.206603375668637,0.507479204961564,0.309805640181061
0.3007628978719,0.839622920081019,0.352575430247317
0.830968572034035,0.116364479013719,0.710340056912128
0.859197437386028,0.761510752541944,0.460672992096919
0.144131886244286,0.811715141318273,0.805177955893064
0.259835167482961,0.409007907398045,0.57437111614513
0.0303336635255255,0.449918478657492,0.885755092309761
0.644560025886167,0.541119251244236,0.910844121038873
0.987780756677967,0.892615295988508,0.3184763722573
0.706268434384838,0.90259912189329,0.346774400720341
0.742310543821659,0.630144870516378,0.662304367749786
0.538740438953973,0.168944369177334,0.303958044216105
0.993904150479939,0.968159347963519,0.852940900677174
0.688547079986893,0.771074993412476,0.707642103328089
0.51643382340204,0.645857919186819,0.894817652764907
0.938016458263155,0.496615081552882,0.991939646168576
0.971033268531319,0.465790567251388,0.859877691280802
0.127013324610889,0.581968990589958,0.432063209797693
0.888620127367321,0.721849109004252,0.294794137242538
0.132421265663579,0.0242426296300255,0.299847420129981
0.469223454245366,0.482377894737292,0.999943132850727
0.739249278095085,0.00172995512140915,0.988069381100807
0.38097606434254,0.687973412470892,0.892990827962498
0.391848434817512,0.0976337068760768,0.610812030206715
0.100297300349921,0.60805019066669,0.586699880633411
0.505109686939977,0.852651248867624,0.373822050494091
0.521820932531264,0.657376726246439,0.862947861307666
0.610497213171329,0.619163637163583,0.998652897682419
0.155996108769905,0.868306384379976,0.923576487636352
0.287396654195618,0.295644035812002,0.995589837354286
0.163643196574412,0.269902193804737,0.464680538483088
0.953031845460646,0.457065033256076,0.98424241633503
0.266547471601516,0.15781907701632,0.443579654654495
0.418298460901715,0.396312397697475,0.995521981795078
0.176026371261105,0.420220559095033,0.29269859439566
0.800201756588649,0.182181626441889,0.967413165916742
0.546133154218551,0.376478147967719,0.95676082953511
0.636413035881706,0.809367992400657,0.344792879807753
0.560458265775815,0.694559812827501,0.752549919692822
0.578938323839102,0.170588206001557,0.294818981723663
0.940383475075942,0.273103261562064,0.525779982791836
0.405881683691405,0.207628142973408,0.347187345683054
0.72287562253885,0.252841003863141,0.965717624148091
0.343056812402792,0.928322285136674,0.712019756848414
0.58173908222001,0.0468619331461377,0.995287910621669
0.0794904350838624,0.561179111150559,0.871310299445213
0.182569371671416,0.558217395995744,0.292867324692432
0.297993252787273,0.126147150902543,0.293188783007887
0.902704027756117,0.43364877296146,0.699414722860082
0.363550517933909,0.790934960774612,0.415541012925228
0.773031947705895,0.0530152003513649,0.380101831696242
0.233662625176366,0.738837468135171,0.950319856236523
0.717529867694248,0.1087912951014,0.299820977880595
0.847876641142648,0.512447514878586,0.353299560653125
0.60211912143277,0.281496188556775,0.715541041076778
0.675908104493283,0.300906613562256,0.979756960136203
0.699548243894242,0.242917628742289,0.841490750868809
0.96221103716176,0.703610790362582,0.861605669362905
0.490613968600519,0.844005614020862,0.340029636153014
0.76093317234423,0.912936674572993,0.295649232309524
0.21249576991424,0.3653177574859,0.427318765203425
0.113568074908108,0.220156453945674,0.380381244575886
0.333036706785206,0.416187082214747,0.896208005741638
0.791687154131941,0.0109835010278039,0.65465948817847
0.0145158269093372,0.889705842877738,0.318491562424132
0.597472743678372,0.0326275114156306,0.957295366635015
0.378922753613442,0.748093436285853,0.602498452262117
0.448817817445379,0.47749090581201,0.998902563010376
0.819329803257715,0.381032313811593,0.305192736034803
0.873862507583108,0.664963185151573,0.316869459299434
0.329728030988481,0.217993918706197,0.561729708704591
0.316979496118147,0.352147722986992,0.965339866537829
0.356831732855644,0.195269520988222,0.371219524772229
0.026189040762838,0.231969084346201,0.638596773085118
0.757942431385163,0.671844296311028,0.718870147529552
0.55652684871573,0.32344203593675,0.82377940440722
0.420748699335381,0.0624432590743527,0.965657927404146
0.621924516020808,0.979117699738126,0.915485385352725
