"X1","X2","Y"
0.800121309291571,0.434312594356015,0.310289316244017
0.423616493439767,0.164897892601788,0.300739860337753
0.0190389113794081,0.683169848930556,0.99543324981968
0.891135205192026,0.523894181316253,0.636531460415191
0.531059516030364,0.0805223492807709,0.889798883642531
0.735226316827349,0.969913439171389,0.78901627662452
0.268664215766359,0.141537828576285,0.356372427757111
0.978884412822779,0.805150231779553,0.465244741189878
0.628338596337475,0.574121308149304,0.96955147192462
0.626015703243669,0.923558263859712,0.767352411478982
0.0172384704314172,0.989408910967875,0.982078281021204
0.584188568307087,0.751199705507606,0.504457893899859
0.512851858163718,0.498438169023488,0.999922536679937
0.0107952809669077,0.131507660099305,0.297806217585083
0.648504525830504,0.912609019656666,0.588049423249559
0.815586896589026,0.276748676213901,0.570292650046711
0.640022045459133,0.341497543000616,0.991573001318055
0.095035999644082,0.176310597529169,0.47369045420782
0.387286402150057,0.991309920332395,0.772436068303814
0.933034083868377,0.882960801452398,0.671765651534763
0.596457499074284,0.713303675448522,0.728683968508753
0.414808797581587,0.319994637620635,0.853921340170147
0.17216884604888,0.749982465899084,0.624298709774229
0.646175146687776,0.210787841992453,0.44617317711143
0.721343416029122,0.738660640213173,0.982336052886739
0.315770711424761,0.859265902587213,0.294139027485307
0.00134984247386456,0.071428959323559,0.424604891327564
0.793333275821991,0.238559021481778,0.922063049100504
0.492898151075933,0.230385515146423,0.369598653546301
0.828204191023484,0.442953439405654,0.297343286418405
0.227719108884223,0.807640431607142,0.89758826579267
0.482252141946927,0.954706719115842,0.971214503300397
0.306601967183873,0.384328940870706,0.865240954083578
0.460777734519914,0.652598593663424,0.887968096022636
0.812781906781253,0.147041904882528,0.834933195421634
0.711280283394735,0.571779138293583,0.689525702193873
0.724049974015914,0.541679568980355,0.584975608670793
0.687157585505396,0.191118664513808,0.462931750470271
0.229026035274379,0.57384165925812,0.400877526968484
0.0910585710718296,0.689854769342113,0.422465226400363
0.941249839933123,0.42785728349397,0.985003114181228
0.496808266176376,0.404262247093488,0.978648672676768
0.875610606105998,0.200975693288725,0.549209227109724
0.577127647235524,0.567565039406996,0.999325592460453
0.0444194312081672,0.288178805885371,0.757189636232565
0.742791815322358,0.952913292283192,0.565473952488568
0.324012671655044,0.60853273699712,0.910819903850517
0.1795470180423,0.605504556809086,0.297652178107796
0.304267554355785,0.562676634951495,0.750518623226846
0.762292673566844,0.366939004064538,0.555677124681265
0.553181236957666,0.903915327849798,0.72993561455548
0.902826684204396,0.0625761838336475,0.808351470122972
0.543659472380765,0.243184028791264,0.431107646634331
0.518210399775766,0.69899064763356,0.692339407309056
0.0397762891422026,0.0336857999376953,0.985156171957109
0.671669093927369,0.516072259178851,0.810087687540926
0.457020337547176,0.392922190561891,0.97630991082265
0.432295355536509,0.52114455203712,0.995747809914096
0.165808603665326,0.843041928667109,0.987349371094582
0.915250080462079,0.740146420095582,0.32536559873576
0.938530206087511,0.394796420693863,0.940732700379066
0.886804180891719,0.458302079101093,0.584490950484974
0.91645461253915,0.84039045122033,0.489254594540299
0.885124187209643,0.0367257516556419,0.414045834305622
0.3503933837316,0.999431343468372,0.790945805634056
0.133577223348431,0.387854898465332,0.358160751707589
0.217265726407059,0.424236702725757,0.36030545487214
0.706652880982496,0.509872033196036,0.652477714671434
0.438217748306226,0.582668797858059,0.997436943244016
0.502495343370829,0.659013976864517,0.852702725758993
0.853166009037755,0.257410818229895,0.416823733099681
0.0979657816602848,0.706738640695345,0.343652859523125
0.183897462899797,0.933870942826383,0.305101754950919
0.443078756060451,0.127311440574005,0.459998454517485
0.810967308751773,0.26524148410745,0.664015221994555
0.396788207267411,0.432978067911696,0.989976266120402
0.156716744360048,0.0820293161692098,0.496329836620441
0.130508529124782,0.811902238939423,0.691318378790604
0.365847640811931,0.208858029461,0.409798604250015
0.450314235846978,0.717341975442134,0.627098623596079
0.184066663612146,0.365537552430294,0.324474296858609
0.357546347438358,0.878824798956979,0.366987610622122
0.741249568757601,0.57954510335857,0.547198467676024
0.00877352609857917,0.894352640023921,0.312070314282188
0.816903827875853,0.645012674114201,0.334147357867014
0.507532043561805,0.192164717790205,0.293793150915146
0.574888113890309,0.704175032342318,0.730230778431028
0.266682533682324,0.684127664768603,0.898289261553381
0.664200647857972,0.460768260936718,0.851206043209524
0.462798529975582,0.202511838375125,0.306883804351043
0.0133144801277667,0.204586930506863,0.603300051597943
0.956223943593446,0.215896341365762,0.394698902751701
0.593816163673066,0.123335699027404,0.43755707829326
0.786975649888162,0.328998056103475,0.533958308883642
0.580593430471141,0.623295384994708,0.980548860797978
0.562647573075257,0.00733354683406651,0.653503829666192
0.0559263503402472,0.514779694921337,0.996802283013423
0.796844305252656,0.963516292072833,0.389972876128091
0.876192736302968,0.152022291412577,0.897107969870421
0.214943118427414,0.128283799570519,0.495675572684348
0.55815726521099,0.73103517118562,0.567723054543973
0.783798046532087,0.441922611353453,0.34452563331214
0.0868853248427622,0.151120036463253,0.578891759121062
0.863536748459563,0.711602344233543,0.306646857490999
0.704508747219574,0.615741542312782,0.818521339844849
0.263829479737673,0.359306084752083,0.731079310117432
0.774094175968319,0.588957591763232,0.406287006018694
0.402896225444973,0.273209300772753,0.659678333308876
0.0485513390582055,0.167034538269043,0.297239594412678
0.630137151069473,0.444357849029824,0.95225981934252
0.0400969600500539,0.618180940957274,0.995926290230612
0.390783595592715,0.592258838373702,0.996701977281936
0.71613464764785,0.296163278533611,0.991899444940655
0.528562064971775,0.331396569384262,0.827695130506317
0.57134446283849,0.930602635473479,0.934516853511827
0.0618625512295403,0.670707101863343,0.758835141356473
0.398535935005173,0.429842728684191,0.992390822387091
0.56510714736348,0.0145619792072102,0.74073825112024
0.166722496471833,0.744596488052513,0.553875148290679
0.388743753271643,0.822284425152,0.298091780750208
0.794404671837576,0.483877959943842,0.308606823387172
0.703950615441427,0.278207747337874,0.983873351825831
0.937885309816804,0.106150063926354,0.721565234169662
0.728717614929657,0.181827674689703,0.579467949625472
0.31866821699217,0.533339654296171,0.78103924602379
0.952421720096841,0.0478702874337323,0.993523226695483
0.927061881871428,0.0873558787084185,0.958333527408634
0.673918696342502,0.769907899312675,0.652486901203488
0.374752497844398,0.254490402329713,0.62936899310046
0.343873504442163,0.901689388256054,0.472375327326928
0.52746767985262,0.742086542945355,0.486470017467791
0.98506905614445,0.976865604829509,0.977081686499578
0.522093563686125,0.629569890618324,0.934581293895495
0.171293934084941,0.747109780862462,0.601309117248871
0.750669599985238,0.287988695380744,0.920985760550225
0.300300482608378,0.0488884466607124,0.768075212717842
0.0286433339542709,0.917069944545627,0.586337129269705
0.591229367583059,0.324739519631956,0.881494192207503
0.89212386665307,0.194620022254996,0.461885572321832
0.0507441275059246,0.162093662630301,0.306811296914266
0.0063279808005318,0.109531795084476,0.300124755165282
0.681555734132882,0.0235890990761109,0.994264908206737
0.419549808354583,0.986591609512921,0.753655407300901
0.907822469733655,0.943155011268333,0.797184600729828
0.802411228977609,0.222093681230675,0.947637372993238
0.367427315107547,0.873039504196495,0.357354829219314
0.658978450363502,0.973010703047272,0.994885485780027
0.657368419087026,0.829600577482488,0.316707811241284
0.222314728715923,0.10168973972043,0.325586016332351
0.413275416328572,0.980890151265077,0.827946697035236
0.715279945162125,0.667745348432567,0.918728928223441
0.726277574125677,0.155510858762544,0.404934761504998
0.353421290166676,0.809999367062468,0.358340504243746
0.128551439639181,0.771288797047921,0.428880620094322
0.363946614183951,0.76049168002652,0.574814408426552
0.445762028862722,0.000724826732184738,0.567338515548287
0.280620177863166,0.0902828924260102,0.347912677921539
0.449354589581024,0.80220755711617,0.303049961232463
0.690583777694497,0.0526586921727285,0.769809408789217
0.612325919304974,0.525043377880473,0.963853292901089
0.688048075051978,0.997813259216491,0.932626149597033
0.737496605841443,0.885770875526126,0.29716862131915
0.661963888017926,0.36119034152152,0.987084818089679
0.650909462868236,0.284561199650168,0.86886402752129
0.197321203163359,0.590691099300049,0.318040469026622
0.140347234523389,0.864269705281127,0.993159872609981
0.470165513331536,0.34718731087679,0.88107568389438
0.148291068051942,0.0962032919623889,0.689816723847336
0.872975479958113,0.849692115408368,0.927404749343518
0.106703184216749,0.59411096006399,0.561854300042014
0.289277900809888,0.0033144636307843,0.986562749291417
0.92428838479938,0.874997222300153,0.6891733138814
0.945736153381411,0.348623274151236,0.89621883480141
0.198603826580103,0.893607383878902,0.431114270734439
0.790855730563402,0.759975049626548,0.927369221077644
0.486983936114237,0.971806195681449,0.842127351285735
0.901352693256922,0.0304120071153156,0.471780350075309
0.467251530871727,0.416293120419141,0.990825447652286
0.904983521647286,0.345176548763644,0.501639656567048
0.308468468653504,0.184712814166211,0.442412991793948
0.910235188331455,0.401019910277799,0.70837878737722
0.986747216319665,0.700110078622587,0.995407232848844
0.13603749666037,0.915270075278822,0.682105937234151
0.684366350160446,0.543852951051202,0.777519977743794
0.733283795825206,0.668800916952547,0.845139873820403
0.718259237964638,0.938057536193635,0.544845227828978
0.102490076294169,0.353011143844575,0.466884882116835
0.3780537418155,0.676746190238744,0.93365132300186
0.609335206342861,0.702974750746507,0.809503628737905
0.683078254006337,0.234879049898591,0.721571913279714
0.381326175123919,0.887934026337694,0.466978580349585
0.693330469164532,0.792741865116172,0.586239416165899
0.187806730536278,0.597589249072131,0.304782737869899
0.327307685581967,0.121817699969746,0.3194494769866
0.195151223289315,0.224151989153586,0.928531147383169
0.435351949758362,0.0173131490838714,0.771162221780672
0.024338298576884,0.307011148526333,0.982187883175708
0.971711584555451,0.212230516154785,0.497987066198032
0.176557822665665,0.481543838252779,0.296894722869755
0.865727573072538,0.519864127323031,0.440056813757333
0.88265857261885,0.941579883663915,0.582875822317922
0.0279966953713447,0.380409942604601,0.959681229173465
0.0936355030471459,0.261868438327219,0.305548425323662
0.147663020122331,0.40369243546389,0.325279568012228
0.0778609404466115,0.0954643588941544,0.942841328354707
0.765535311320797,0.502040699971374,0.383189112600577
0.537572889729403,0.544423608589452,0.999710471988568
0.0795616023447365,0.624983401784673,0.739506863677271
0.0203580621392466,0.0925643809586763,0.431887255415045
0.101420337824151,0.362256569447927,0.49996200938422
0.723609475960024,0.853624614039436,0.356008750083566
0.233920129308477,0.179032109735068,0.774550270973537
0.963005347239319,0.794041295967065,0.398319176191321
0.425409227248281,0.275303519989829,0.625345058549297
0.392158566346392,0.453405240644701,0.977241869831789
0.930445746565238,0.133474810337182,0.557091646392747
0.965477884047199,0.756890497860499,0.615701551275979
0.355727331504226,0.115151671459433,0.393178886416524
0.504543924383819,0.924754377667792,0.935194997598983
0.923404820538592,0.0592707546995953,0.939343616631195
0.465575622851029,0.634045610093512,0.930992078625208
0.329091975160874,0.446298304697033,0.841579174458499
0.105425613935571,0.143419503587298,0.814887426438134
0.567440632026643,0.410129904433619,0.996710554067717
0.298416512085591,0.183296921115834,0.469343904806698
0.292752896502614,0.336237227573991,0.935308682047014
0.31726132765878,0.696764813469257,0.991673328902649
0.344583433243912,0.552461405615322,0.891179602142515
0.480903286482207,0.390297313008923,0.965546821495307
0.122725396182388,0.00486496885493398,0.29696199749247
0.0303942456273362,0.0571387010863982,0.857257174409847
0.0570292455381714,0.714150207200553,0.61228507709921
0.920323284655809,0.833577610535547,0.420820810626903
0.818306016018614,0.398218396015465,0.298691112470429
0.951035012669861,0.598599085855763,0.994745141798483
0.744592366295867,0.752305881456006,0.994265969080366
0.205445954772178,0.787633848310914,0.993126111441903
0.642873247896321,0.584188572417945,0.955340653222375
0.516831538133789,0.0761053133844398,0.92745642703761
0.032504019276239,0.767563212326728,0.573844619762202
0.296087173117325,0.956710152933374,0.806445887814061
0.966071773772594,0.415979536770377,0.949482070821381
0.469896366395056,0.465299904536456,0.999868560443635
0.84589174388675,0.560842182530556,0.329554992710527
0.976007690179627,0.354906324578915,0.974985529886542
0.942058549197391,0.927343911240809,0.953736821262954
0.804351977685932,0.168312816873658,0.923872187353331
0.474627705448307,0.611449913398828,0.964931549486202
0.20158919103723,0.557363583645318,0.310724760546559
0.337331817093771,0.4950003028512,0.840450858027908
0.995290966597386,0.0697372566871345,0.465144800639279
0.190543200719636,0.530162757544778,0.293629012354608
0.766918721672613,0.33246939791739,0.645748724692075
0.218604863476939,0.512643605767284,0.335636952932911
0.321039115088992,0.0196723328563385,0.994302208343718
0.974754257582594,0.695887395877857,0.974133287562829
0.0524483565790579,0.237852144563105,0.425712369390808
0.371078746731859,0.298312020766083,0.8649998035058
0.807116790886968,0.665969471981283,0.409726792001161
0.589679847870953,0.0552707173074596,0.985397544909498
0.836771718136035,0.485569609938655,0.319205609944553
0.331233675088733,0.00837661933992058,0.926822613183362
0.40451823465433,0.993455669927876,0.705574757820876
0.778233366155066,0.686885145931505,0.653667718137027
0.441326310977805,0.118028026476502,0.526054311032475
0.322241699473932,0.559632601449732,0.823044506287774
0.0838211310948245,0.535831033242866,0.85977141898133
0.73093378709117,0.304557072362397,0.942342884639618
0.857715517305303,0.60022106954921,0.338467311936344
0.839375757619273,0.161155884800013,0.996502592806124
0.0344215369159356,0.820237816913519,0.323963315524745
0.160196679383982,0.776511369723361,0.694505257123409
0.416036706876475,0.0647524716183543,0.948843170260537
0.849272410947829,0.0259915050696582,0.296822699154267
0.960831173018087,0.0414051731443033,0.992290426760088
0.373915818667039,0.546563008245546,0.95297741306572
0.108105666898657,0.0796725295032375,0.871408587036915
0.446563205000479,0.691477134105749,0.757094047932092
0.126270001044963,0.473957534283865,0.491098224644501
0.112518024567515,0.995538142768666,0.295341379517344
0.607995135303121,0.86894225826161,0.374367861122568
0.834785990609322,0.960777144305874,0.294564514566877
0.258539884308819,0.293037921967451,0.939753664737333
0.115957051106729,0.655396140360739,0.367693601322185
0.188236762152053,0.617761818413623,0.318408889567956
0.252453847758006,0.244770206491463,0.9941900407431
0.554936594318133,0.0284286141144112,0.873251341024504
0.291680618292186,0.368900305995252,0.842591418393717
0.547761208926793,0.529339708736166,0.999472320228013
0.231858399337623,0.291696006751619,0.817080013744479
0.459097448453773,0.262800757459365,0.518835491644213
0.652616656234488,0.763018263563979,0.613862760660315
0.0818123193066567,0.724443658866454,0.375202658348798
0.708203040893655,0.207369235746562,0.656102544117707
0.279567774047609,0.866152386086062,0.311854325453397
0.825110291322693,0.626552433722187,0.301130171733843
0.284161689640488,0.620275904431008,0.77674888968065
0.600410942144692,0.813960603801999,0.303575983438489
0.472913101222366,0.468130991743412,0.999890679802948
0.625351858509704,0.708660955423489,0.825088685044366
0.144946199361235,0.389690580734517,0.321734478453177
0.990839251804631,0.422156913731713,0.699887762280021
0.841125582491979,0.383611178198829,0.295263138236448
0.632802738773171,0.646437673717737,0.995572773808569
0.678760623191018,0.408193546057679,0.870300101519261
0.738652870608494,0.692688382083084,0.904739192323668
0.78031523261033,0.65120522323437,0.507453594942873
0.23787657168135,0.268857142456342,0.9407828085614
0.524696431191638,0.838530550729018,0.321812340181369
0.623097798068076,0.266119479123037,0.688684719024702
0.410815451716073,0.889750536053907,0.54156519720048
0.0696450059372,0.920484418902546,0.976608477960698
0.498298055026215,0.061953630504664,0.992112149777823
0.275969205118716,0.373243899214081,0.753146788669789
0.637235103819054,0.837337496653665,0.293939894650753
0.116833751992323,0.729984783026855,0.295448904498055
0.0144252796266228,0.613236634678673,0.836155162913546
0.544954933586065,0.876258608944714,0.496391326798298
0.360446447427385,0.662240960665978,0.987468031789313
0.339535535288043,0.861852740414906,0.298658513424696
0.635704687038437,0.187243404321373,0.334030881356978
0.909773888568394,0.880379771006294,0.870176442613736
0.428798424128443,0.863421831452753,0.391279990624426
0.235315526671242,0.732249781004619,0.934946842189661
0.789107473826036,0.241311446494889,0.930256488911845
0.617123561008833,0.466759083499201,0.960293712193219
0.254151731314138,0.727097769094631,0.978545160669475
0.241405823579524,0.418702236685436,0.463756103961699
0.251771156979725,0.607045273738448,0.56595204596748
0.454658999875654,0.737506833076011,0.521275690716974
0.48840700634243,0.719621428234968,0.589033756991597
0.550604699744843,0.251657834168524,0.474661152202999
0.897517287385184,0.431615215365775,0.64726785915413
0.870581089958083,0.675418475229759,0.301134926494461
0.0375129055050202,0.172614378897008,0.302575564736193
0.843825289640576,0.830843536473811,0.97730176590245
0.058652059184853,0.085203030903358,0.874402698946767
0.867122072051745,0.0200242438530549,0.295138982579955
0.181177290610503,0.462559368170798,0.293154753962217
0.384990043956786,0.0753873319081031,0.807821883166084
0.209103286150377,0.0390565045904368,0.397638892833712
0.427358978672884,0.783082171200309,0.356696462059897
0.776689184059855,0.470670054139569,0.352027157279373
0.667212371837813,0.789441572608892,0.506401136426213
0.980687915441114,0.478446321166586,0.750294887691963
0.0738726689731702,0.64933286312595,0.717386868828916
0.831992046465166,0.271328468092717,0.485853486235337
0.431799423677381,0.258836392815225,0.530132872611015
0.918887691326439,0.448212869537994,0.868202522593264
0.312092144336086,0.124394107239321,0.299758762339552
0.772245124481153,0.436206662580371,0.386278457776229
0.311054378118366,0.797004402947146,0.540348986301312
0.556284590255003,0.135933977399021,0.408434757553902
0.154029814349953,0.778170247559436,0.6550305096089
0.826018092709593,0.35693973623123,0.31077995864411
0.973574977160431,0.309243689857889,0.977761874378216
0.225023210599553,0.847006258883979,0.626264055136377
0.615329488487449,0.338572570677381,0.958959147571883
0.982002320812549,0.680654300222173,0.992865388729037
0.046455765331164,0.0436040586540475,0.991710438072834
0.287545214077923,0.501371803350281,0.623169089058367
0.959897193426266,0.0137696860241704,0.851616324521981
0.142954774068668,0.413213565186597,0.348651485381508
0.358850884068757,0.138294718381949,0.311899452534907
0.16920630834531,0.229076844837517,0.729820024962754
0.878199449616484,0.280090076682623,0.294642943688124
0.210950542134233,0.816978358196095,0.92752125900098
0.595392459062394,0.554619300778024,0.990468090486379
0.899350588283036,0.371015666013118,0.529815942408022
0.60476380555192,0.0119067227402702,0.788837896714205
0.929262084087823,0.29494744662242,0.523516008648108
0.748967520400416,0.907324350068346,0.297531229761877
0.491656070343219,0.965369485130534,0.900255566314904
0.968800095936283,0.457125766861718,0.886917764505991
0.759239166201092,0.720326370141935,0.914409090669316
0.121932398836594,0.300026369052008,0.295851719176365
0.134315501175355,0.158503084850498,0.925289592496091
0.696764910663944,0.496207298628055,0.699034807550616
0.485404912863392,0.406006226331461,0.981130812375029
0.347678168919403,0.824967674588319,0.321805237137238
0.655998111550231,0.764887596857268,0.614639672959452
0.583522000705358,0.98457032124931,0.78240803246625
0.138491916501895,0.0893161276383325,0.705811302709489
0.192962306888308,0.72242480775388,0.62647181591342
0.220100419302471,0.11194585711509,0.372568021605699
0.453967480990104,0.85427841500612,0.367812510204662
0.0981623023166321,0.504534291504882,0.743322395704111
0.521415876973886,0.312709425512701,0.747705821166509
0.619404403204564,0.17484535078099,0.298080293662406
0.421857722939923,0.323818310800009,0.856248114601212
0.935296846203506,0.784813875210937,0.305557757709973
0.153004796246998,0.602235796947498,0.308858969740892
0.7011006355891,0.221148703528102,0.71495964878456
0.0437476548599079,0.780916167909279,0.407818688134032
0.84652989436686,0.851402965680696,0.993219124301127
0.303682180453558,0.188363226631191,0.479597161998611
0.784354033475276,0.919362455677241,0.29477111029146
0.579180217804387,0.0679093411192298,0.935124236721985
0.257193305742927,0.801239871224854,0.779574574141153
0.677213527376298,0.630734582997393,0.948725246653835
0.77016188016301,0.948535183945671,0.400233113067926
0.260838490101509,0.351725336092524,0.740287345101371
0.549672678992152,0.439870551463682,0.999559700712659
0.889311650637537,0.755991047203541,0.31072856502122
0.249498797099572,0.335070765071549,0.736326225656922
0.478819160766434,0.489544871608727,0.999901168740728
0.586907129482832,0.7353233580417,0.592181231278589
0.754212759186514,0.7915532639171,0.898999413736977
0.997913005234674,0.226317780779675,0.86897776561458
0.832168569781818,0.474099864678457,0.308150921177449
0.0234957972108386,0.252661278149113,0.793595771914885
0.067917171865236,0.84491707143886,0.403334482437635
0.340908498374745,0.476576706758235,0.858080799430177
0.369527388786897,0.937140066571534,0.880548352979159
0.159072996000759,0.197274561712984,0.857798467997006
0.538302806561347,0.105176749107428,0.659966265773627
0.00223043020907789,0.421200714328326,0.621084967828133
0.383326521585695,0.24810684542032,0.569602795663511
0.675770283248275,0.946027280483861,0.818212095515636
0.118615474081133,0.342907326679211,0.353047497918092
0.407086506406311,0.198322497376706,0.321722533384686
0.620493683736306,0.490271416371223,0.948354576498603
0.603187320425175,0.156652786792256,0.302293615082357
0.662801349493675,0.814644449744374,0.370649507110127
0.272049757029396,0.818533819065895,0.573102394319144
0.244225628274493,0.661532221122645,0.691348439839808
0.283693254484329,0.170760668349918,0.452142558383568
0.992966951476876,0.0354342218241654,0.827831828000201
0.202403675794136,0.826372527038678,0.919283666432093
0.881503086478915,0.549924593362957,0.532188398153106
0.947904614606872,0.982821306671482,0.768994932468949
0.0747597093996592,0.455362324521877,0.923034777619476
0.0882982524400577,0.974267380582169,0.510157397917552
0.850880373460706,0.67346421469748,0.296126681432
0.376070946235675,0.897230277580675,0.525642306470082
0.541602320614271,0.637263386955485,0.928292958171591
0.206753004031256,0.944526309872512,0.31469599252007
0.561404404560104,0.581000908634625,0.997775694581085
0.349872329126578,0.32162655393919,0.97743493275146
0.294806162757333,0.136405442519113,0.300705263996519
0.276173857037444,0.149578946028836,0.36990592101546
0.532632641664241,0.772970554708503,0.364623650942651
0.163640365319327,0.282536783332936,0.416983653619729
0.174351433800068,0.0985069692591205,0.513009944716655
0.332199112295173,0.576105169862974,0.881947104941372
0.699130550160073,0.642695863758214,0.909607173222357
0.756580332734622,0.657658896921668,0.671627329476309
0.064269623034168,0.550086074589752,0.976469915187265
0.695234151189215,0.678258405548055,0.988842769797261
0.242944705503993,0.377909352092072,0.554961076930832
0.476964800648857,0.871301598879974,0.475361305228347
0.271303365428466,0.375529992836528,0.721440075237016
0.752598478951491,0.640022789059672,0.633674182238181
0.0620635453904979,0.568303036674392,0.975287126475442
0.645198355444241,0.303948905739002,0.925661815777011
0.535449181326665,0.586518285359256,0.989947937207143
0.999099580810871,0.113587513740174,0.294760679813891
0.510810679037124,0.246607518275734,0.430688113864631
0.809664886563551,0.775377890060656,0.901475321298373
0.861190170635004,0.638515551751014,0.312791409796038
0.855016958386637,0.218136735919863,0.605718339523818
0.798314361727796,0.0506292602098547,0.319334193131739
0.948679545835126,0.310360573404003,0.788079770928995
0.599637002414092,0.539222039916087,0.982072894088336
0.50095971351536,0.934414720762055,0.982621444212362
0.568243498170748,0.891484572738409,0.592469486339446
0.239938204461243,0.85717668452207,0.46708614491944
0.573260837264825,0.487584817896597,0.992998439076946
0.869359885049518,0.979459289880935,0.296756513425458
0.955193516933825,0.317033869380131,0.876814026344008
0.760337608080823,0.898856261396781,0.299043506938633
0.437064785932656,0.958525423176121,0.972094659831928
0.639125290400349,0.396571996335406,0.980576262198069
0.071914179242216,0.537283477097284,0.945631105335921
0.24639840405155,0.510031027263496,0.429810984771624
0.00559700079541653,0.145116729527712,0.342309298200775
0.894203511441592,0.216595845480915,0.356108582586232
0.668846133998595,0.103105684933718,0.405682033340224
0.859959565675352,0.116983845617622,0.92458232306637
0.912750422042795,0.834627006478142,0.481451349815548
0.335390675706789,0.0279747926085256,0.996046841100369
0.151832327156328,0.63327096563112,0.296021883572968
0.821719889980741,0.0444205543398857,0.297862282450685
0.712887708160095,0.0732611857061274,0.470540300097426
0.822485418731347,0.315257170947269,0.387639566616232
0.495337304309942,0.327490596530028,0.804217017764894
0.409854604450054,0.507157681750134,0.983522118200459
0.988026345444843,0.967998460444622,0.90574969013391
0.747774827642366,0.798798074747436,0.823499126848919
0.110858219638001,0.910702315951232,0.923386383485221
0.769906674055383,0.928216237266548,0.311282108752718
0.401805434928276,0.908150027564727,0.689833894143503
0.264388710774947,0.950103486667853,0.575325946841214
0.0854815665679052,0.451233890827745,0.834078088933776
0.21324970629951,0.37891678682575,0.403766988370377
0.125751319379546,0.527884603586979,0.49391418751659
0.508455648795702,0.493810002756305,0.999901804884255
0.610701843257062,0.232382146812044,0.472223386204669
0.514886071625166,0.565983025502414,0.995359158853629
0.395146989018191,0.905776752912905,0.650864827425185
