"X1","X2","Y"
0.97506161758583,0.781369721808005,0.569096353605561
0.924766566787381,0.441909975996707,0.908174855065109
0.816236713161226,0.0240782001107,0.388378616409276
0.231009010065813,0.797156965110451,0.935425661242192
0.0536786078158766,0.919308889950626,0.867860401982584
0.981889056679793,0.105023315259255,0.350608724525036
0.0921698421183973,0.751989541018847,0.296031836756426
0.560802888239734,0.377791292593349,0.96788532792263
0.265753716824111,0.78659296959592,0.830273542234098
0.880265183819458,0.544531821815297,0.527709734119915
0.454011455085594,0.829639203642961,0.300758369039608
0.568349323357921,0.721686161104124,0.630586929383564
0.596333424333483,0.953528038870078,0.99641512969489
0.875037876174785,0.432545370606706,0.46400609204529
0.908686406271532,0.553410150680225,0.775055343564991
0.999183070602361,0.0629387580752373,0.483648486333054
0.182672753211111,0.293935674857348,0.48275918769117
0.0192916837674566,0.618392602338456,0.894569418459923
0.540714360770304,0.603026036164258,0.979443456787596
0.703765993481036,0.726305335130543,0.975119822084289
0.332460923194885,0.16632597715687,0.31876017227483
0.533228693718091,0.651003272887785,0.888419593398492
0.91837623777613,0.710815429705195,0.417987153800879
0.617164776093792,0.794617858130019,0.367117588824435
0.898961931280326,0.847878789584618,0.704073981112153
0.108092081096489,0.693069723459426,0.331550239465823
0.732885321564507,0.479812730939128,0.526581084012099
0.863762084763497,0.81832648223266,0.788119095289188
0.315504381531384,0.0708059744043276,0.610095415852895
0.263113905386999,0.578160338563845,0.567684199122623
0.668233137184754,0.115850385122467,0.345256999611407
0.715757688481361,0.466326415253803,0.619606282420582
0.633063127802685,0.705859584336635,0.858475587189984
0.136651431987528,0.458321589261759,0.4152540149672
0.853899415835738,0.884924714097287,0.873644082261391
0.602441541774664,0.238004038465209,0.48365183554875
0.593238385206554,0.582805011844262,0.998865339287684
0.111800065221265,0.325011763968971,0.34955853861089
0.423452974162065,0.812054973229766,0.297925445027768
0.38475882642623,0.810773489324376,0.318513799038082
0.234675641450565,0.728728863702621,0.919207373598822
0.297277511939406,0.274065828654915,0.973709463340806
0.869392385176849,0.783631128349341,0.504393719618505
0.0750148457069881,0.950225185251795,0.880130485287931
0.51181264660228,0.826826677906327,0.301234042538401
0.54294751157565,0.817427428360097,0.292759893152118
0.720483742421027,0.410599281255156,0.67614295787125
0.393408957642969,0.673543349896092,0.914596903435891
0.776027680681087,0.739102627906948,0.911150252244706
0.94930492238095,0.17386332141608,0.29479779833554
0.595380783410277,0.380507534278091,0.992795258364012
0.174822076740209,0.784245782226324,0.854338633008925
0.896263933111448,0.477280236016493,0.68465874285768
0.0466928468644619,0.900845513209235,0.625661935786985
0.415878817760851,0.112767778461799,0.530320706327776
0.212457170262001,0.147380557371769,0.662916780692932
0.582019715834875,0.311372261788696,0.814070259991911
0.463583349192049,0.273014986977447,0.56549653922599
0.57661615249794,0.219474424554501,0.368640280348941
0.494609430486802,0.0915494174035266,0.804938908362456
0.978224227275699,0.0695954873999581,0.640731219054725
0.570982002334669,0.791665836349595,0.33128293176428
0.621516846309882,0.425804293121677,0.97816348731321
0.486556880026124,0.496891385699622,0.999912031945866
0.84654403147148,0.354659836651292,0.292795726516855
0.179727201307658,0.924219715906773,0.34413318194705
0.782804513799492,0.0468121501873247,0.381033744889117
0.780872958509717,0.506354000192601,0.33615112629436
0.798531460400205,0.123319100026973,0.537509334934476
0.229632111009676,0.980842368689366,0.702863132608378
0.574320128608495,0.988577220254578,0.719955488319181
0.789604258016683,0.682328491363674,0.56062790089139
0.963579585470259,0.247048429939896,0.618632878260832
0.67464007000532,0.960550354175735,0.942955199023722
0.921603796076495,0.364208048862405,0.717954598434485
0.935676244533155,0.434158525747247,0.967344281271064
0.98743512813421,0.2057292356533,0.619189367472344
0.53195711641619,0.814498252415098,0.292415348156282
0.442049721380696,0.948445956463925,0.996304680805092
0.546244050999172,0.232770478849765,0.391549952544897
0.538168660948984,0.832565163799562,0.306758981627534
0.907133164917585,0.522657084604725,0.787345130867085
0.695886949365493,0.140754607027862,0.299582813272782
0.247906631224789,0.962546505735256,0.612664754282505
0.293374660312198,0.798273983608931,0.609469753935633
0.613620421543252,0.531525209384039,0.964248908820758
0.68288480966771,0.570913351389114,0.818937475137688
0.0233609101776965,0.394148795817979,0.904414365555795
0.757293258150108,0.0775798282232135,0.316612188243803
0.310446633013431,0.580081887980923,0.806540148648063
0.408769296726678,0.902688184307888,0.653223984407891
0.55489273738442,0.528773666338995,0.998788290175415
0.803836635830812,0.0303480350868776,0.400654546149176
0.0662997411247343,0.915226398457773,0.934573933171312
0.370034486663993,0.968132220968604,0.987418684996384
0.973557678082958,0.807871312254108,0.409410361118437
0.362414408279117,0.997286686313804,0.776218849151341
0.550662759150378,0.51191084318189,0.998559443368909
0.623634378314018,0.313480552286375,0.907930292915262
0.00844541195360944,0.0880914494330063,0.375174730805319
0.170733053158503,0.335482786050066,0.32596262521935
0.0218670124998316,0.287346419899724,0.954108302218669
0.255402714214753,0.987695250815712,0.914910052694111
0.491412313309964,0.489717615519185,0.999972041889568
0.0428912889822386,0.527353269984014,0.961809847624772
0.318255649565253,0.881472343070433,0.317034876507226
0.21013449029671,0.556561600139365,0.327703476442772
0.402823235367425,0.243886849994306,0.502944735094893
0.579954685066361,0.708077733170241,0.720414451382947
0.749175455554388,0.652060023354366,0.69566130357132
0.581130562416743,0.746196454461664,0.524579386348084
0.257260581577197,0.29163700366905,0.939524092614619
0.746700083326083,0.51426796734985,0.460372894095962
0.768161886756774,0.808700886628591,0.870326070500467
0.2859925435693,0.719065937621519,0.997138557466393
0.180671794760972,0.592628469286952,0.295385382869036
0.950765244120732,0.684037092815619,0.831783386236146
0.770073078233749,0.931757026588079,0.320832974871758
0.106804128047545,0.864938762148377,0.887643928342866
0.176804673020262,0.133404180204961,0.799741113327665
0.512798328930512,0.637003916645423,0.916139137563791
0.416073947501369,0.182595951469615,0.294920870011079
0.553925683963578,0.717870193809271,0.629543520914371
0.453922198354732,0.145585190728307,0.368362964248036
0.131509554385673,0.252131933260243,0.360140880332883
0.286271009558346,0.752247198751196,0.920296617939716
0.929525087721646,0.713806931431871,0.489166569742739
0.440805318180472,0.910365126015618,0.783075133678581
0.888749130438082,0.449012417354621,0.591685418157547
0.0018270053579472,0.722153290362097,0.993671847703493
0.628219491047785,0.999508534444962,0.721239464521131
0.0486091975513846,0.487447619312908,0.983420148925205
0.400464660057798,0.86678691773396,0.375452620487222
0.657015758793801,0.805879833730869,0.394117650537381
0.406115750341211,0.608609531409107,0.997417231272715
0.690481848088093,0.358770406870171,0.93401998841705
0.205525966711342,0.0677292939973995,0.294063414909076
0.727358222430106,0.137353525410872,0.332509357860047
0.316330105038825,0.995605734858662,0.936871594192562
0.525423986862879,0.473857406178024,0.999909942397873
0.710014989209827,0.855192663306836,0.323466162323658
0.388733491361607,0.575483934310731,0.988411461016445
0.321524174781051,0.470521445918363,0.789841559270476
0.984509871762712,0.357357681619935,0.917734464420876
0.122970961324871,0.282757169060409,0.294459831237457
0.662111095965374,0.929798051796854,0.707386429934961
0.361603446627501,0.65696202610014,0.991562239211701
0.882064257518388,0.879024013624527,0.9940020609598
0.548746202544309,0.264997143369634,0.537006828107321
0.480798531473614,0.270041893889196,0.540456363635221
0.835048578056973,0.248320797699504,0.579264412065389
0.43041022847034,0.841950453431346,0.315312462072696
0.795932709750254,0.975520140644629,0.487046894715622
0.642152741064318,0.0870316477520391,0.612117884321819
0.113200610389002,0.778874048181809,0.375096024717213
0.522003284522332,0.760871103036217,0.40361402627278
0.397001927537844,0.453339209412225,0.981834909774205
0.573389714213554,0.0375650206287391,0.960130399726704
0.444278045691084,0.788326491354499,0.331136389786418
0.167519085820299,0.0648874072348699,0.3377405700522
0.587259337660857,0.0742090257206,0.876986550069319
0.305671097794548,0.616667898723856,0.864041587894761
0.126399038377218,0.235389090952929,0.390069623726573
0.722331757525448,0.124147927807644,0.297830695805107
0.752076472376939,0.587692040433176,0.50570375820465
0.146747096394654,0.223761421394534,0.584115793548283
0.334180635544937,0.612991814822424,0.94596878908822
0.339508645472117,0.161211781626102,0.302558846863183
0.141056825593114,0.599820413365494,0.343058023831427
0.439971457807813,0.0445594851239584,0.982530259176178
0.0582469833893701,0.480348758087959,0.996205678851357
0.849762670509517,0.640249256544281,0.29515555822721
0.144597937809303,0.212329469279852,0.640697106794031
0.460145219088998,0.698476827964187,0.709892161040487
0.791433333210647,0.621290041983593,0.385264714353148
0.796151749933139,0.328345417844132,0.482867036550196
0.202291340715718,0.624783802368678,0.367099901013322
0.634463490198832,0.933122759645805,0.834370061619341
0.225167040373199,0.920197518676519,0.294440311398198
0.82231783308275,0.305844130808022,0.414300155473575
0.671718899438158,0.353814397506881,0.982753753851026
0.892230537912808,0.654071078468114,0.414025027161811
0.697171508775093,0.336628336529713,0.961928873650877
0.905113778548315,0.0727089908309281,0.912979022363397
0.812286536623258,0.26313427092554,0.66615990723108
0.00266819731565192,0.320240802381188,0.912324344612472
0.51651170864841,0.0947067706328817,0.773006348225425
0.567662639858667,0.197566447833087,0.307387533424442
0.465880304414779,0.491678398063406,0.999880822497953
0.608297970038373,0.111181352170184,0.495612790645283
0.865647925201338,0.6292637707307,0.334513844282097
0.0369398599229753,0.372517481807154,0.995442993746595
0.348049160701688,0.622657616255339,0.982924344792913
0.544449706968851,0.0497546636788175,0.991964980000591
0.0553553084013984,0.307051866607275,0.731159697166281
0.0271153733278625,0.214494943346828,0.522179044333008
0.686014593541622,0.731897812870331,0.910368495153772
0.0514383002771065,0.0805586490891874,0.848727586820346
0.383487565712072,0.967741496801842,0.976467870194046
0.154760740250349,0.66943889503181,0.299716343021447
0.468479213420767,0.0132955297483131,0.687715799456548
0.347951341521461,0.230755997615866,0.574743776707615
0.946928288257215,0.155624592591543,0.327560040231012
0.988988816226367,0.886100618045311,0.30190913816052
0.664261243481189,0.170322876632214,0.324617596849855
0.164178906319663,0.890807228176389,0.682867783346858
0.618127719735727,0.143124011844862,0.319938786002443
0.644673048215918,0.351081284562126,0.998893212456003
0.851826462443918,0.7407737615183,0.417448312791253
0.119920534328092,0.436769373182673,0.505805027181669
0.195883203958627,0.413361271314323,0.312751360703778
0.0798052847073413,0.388507594131399,0.774534380424441
0.330812194258906,0.374028497227002,0.958847440196669
0.488220895588398,0.859003075583838,0.403627309414935
0.456743053296115,0.551611831108574,0.999893173624754
0.706015845687129,0.431673024118412,0.710158998268157
0.750753678358626,0.456770497066434,0.45732755928639
0.891903061151039,0.944951348478906,0.630263750283369
0.493104187588673,0.513869432650041,1.00006841048869
0.477726872512139,0.690519828968681,0.73364372748007
0.761375399669167,0.428895814492367,0.437666447140845
0.226436032551806,0.983372473630123,0.711288023787399
0.993918764050584,0.508518808961846,0.594771207591786
0.160937519983854,0.830642679115292,0.988387199352928
0.840329285629094,0.923429455450736,0.436488225541621
0.955056331502739,0.518469429360237,0.969805248135623
0.740128863323014,0.199351526992396,0.768773781822206
0.105612290723715,0.268230942470487,0.294848649085306
0.927384028842673,0.754043572457042,0.340341560859876
0.902722753417213,0.577464560099877,0.680842868697742
0.67262524608383,0.888894306106493,0.35675273091496
0.325650878136046,0.874663590930402,0.309331005284769
0.236288050334435,0.0226018415042199,0.705942109358843
0.29032520359382,0.42367894315673,0.705643995455456
0.479328614954371,0.0082777346111834,0.623453488451896
0.306651763627771,0.567662860437762,0.768937569028511
0.251645078208763,0.492298799840733,0.451792905832651
0.19284255937906,0.398890365303028,0.31573233369943
0.125767854751553,0.688829994653352,0.297543892281572
0.991379784323741,0.541433841754217,0.642297839218395
0.49602475833986,0.970075658896938,0.857402874404276
0.940181754828431,0.192797647934873,0.294240337979469
0.607800429151859,0.256889805256855,0.595724968378593
0.73951030618418,0.917422940479126,0.334232340330238
0.692333512700628,0.749738284778316,0.850695755238274
0.504178369070869,0.686326027326752,0.74664026494939
0.719698707376607,0.733256260682363,0.9889385443749
0.922416919901967,0.769345721653663,0.30045816667349
0.831928411381785,0.195763477704022,0.921841389539388
0.937923529373948,0.500929386371281,0.991513952739767
0.148145754714496,0.349748617507052,0.293983182170806
0.0943977456125431,0.857069179517217,0.717510938721556
0.556211124381982,0.678767990034539,0.814857641079779
0.101495411849115,0.371391581995878,0.52406996064356
0.21419678354403,0.383223063586745,0.400247469131676
0.132041850507725,0.367299424498342,0.337978155974021
0.0619567561405711,0.595685008918401,0.951114517593595
0.877685571684036,0.588774904325139,0.452238083830522
0.245586142204236,0.342812393118162,0.683072867674391
0.508506697810255,0.820838607978076,0.295033621759215
0.700990999065805,0.151716491913889,0.32783759140115
0.605464529707097,0.347948856981006,0.963444711646941
0.758200109819416,0.979665181674063,0.765046171363154
0.064901108355727,0.175700918271672,0.31666432424049
0.833139503087383,0.41592308502784,0.296491505859122
0.631909501467831,0.0185675590177998,0.917903497695123
0.243479212995619,0.224141485151369,0.971273161595136
0.0318002390936017,0.226266841145232,0.544845561256052
0.957111772155389,0.245200816065073,0.542161249333638
0.514265922077931,0.943018624674529,0.997011837585722
0.308734099815134,0.0340066090947948,0.935424418909326
0.884095959720667,0.483764096900355,0.57771796884699
0.971647034080233,0.972826061801985,0.99279652398189
0.367843466436025,0.630954805866815,0.999323288562407
0.588949988847133,0.463315672134049,0.98910286706455
0.786326640907675,0.504190388742369,0.323365720175716
0.279723029584624,0.180479758339468,0.529297256819815
0.447110808263998,0.00169881319021806,0.576637156928412
0.450699295161292,0.64395147719048,0.91874541737047
0.253738811060321,0.39150824810192,0.58016139721472
0.842447346840054,0.097539632930886,0.626838859416173
0.40574942716863,0.532087586216163,0.984295978056212
0.994399521414191,0.30970748471655,0.960850904269139
0.411304508256726,0.103738664038479,0.599061472401627
0.115627273174934,0.670722895275801,0.34202105981385
0.520181791692041,0.45514931058092,0.999291981977136
0.275309460827149,0.777644409552682,0.837640870754077
0.562911151030101,0.331968657796737,0.863029977300831
0.313500796756241,0.314267111374065,0.999020328390268
0.0884303470253944,0.909696759075392,0.994089356797729
0.866930682370905,0.793831535580568,0.586301161687832
0.685833115476649,0.169639709167648,0.358319104266292
0.37913380231522,0.369230954322498,0.99795644876999
0.0875896005798131,0.386879393097013,0.693957163403361
0.474825174506288,0.443130970570259,0.998573308351544
0.302303295664024,0.0616149216908962,0.644099467200537
0.272991282732692,0.484281018366106,0.553601015659641
0.742220578558277,0.860221582126804,0.379827010821318
0.412009428558871,0.954476808710489,0.995014637546212
0.763757645758335,0.572154437314719,0.428688498487972
0.00427707712026313,0.984095049149822,0.960428787938432
0.260067837746814,0.251832178036682,0.994120947491269
0.913680400787853,0.0783577428329736,0.983253864390477
0.482990535890218,0.326613917054143,0.803638487291634
0.676548753923736,0.926256487710867,0.614489099093195
0.728858763826545,0.591391889927443,0.635854633864137
0.968670121436939,0.237402492866851,0.615904290226674
0.391681069829501,0.735765264013316,0.637705967305285
0.259533178700134,0.254644055255223,0.996624241326062
0.27008423401555,0.549785419844557,0.563563421838769
0.21927621029038,0.99310898623243,0.775687877136935
0.0635326598961838,0.0381937225889415,0.87370005238822
0.283496032975148,0.90575043597538,0.338242265579985
0.506015337191057,0.135869833970908,0.433417631220818
0.916813931316137,0.69557752677938,0.458663999589637
0.199952255249023,0.0326668050917797,0.401475236653756
0.357574429641943,0.164178721832111,0.296541611524862
0.886087399804033,0.409029867476318,0.50903523546686
0.300096178655047,0.190178392255213,0.504132729169625
0.537376651043072,0.186069677067455,0.292819763647148
0.638861821848899,0.0855185881024227,0.637409382192304
0.0176635939092375,0.120764925033785,0.304560081956089
0.341231109637767,0.00468997330078855,0.865188455050213
0.467064557548147,0.00652001821389422,0.61105743480418
0.209145721244626,0.153811693356838,0.738906211619853
0.23913204375701,0.278112973635551,0.912983153679072
0.184204227490816,0.892656683711801,0.520215492476679
0.267981201014481,0.339428730678745,0.82236464323534
0.352157948367763,0.499228432898875,0.886682658153151
0.0829864673456177,0.300538195309695,0.446615252897701
0.43258622172568,0.406950556600466,0.995414011683323
0.129928157092538,0.610847264204174,0.375734193437982
0.045688194191549,0.775907654702663,0.415570545187493
0.200572947049513,0.297081698795781,0.584363289382809
0.765162756635807,0.00251257378887385,0.907403067276167
0.911756167936605,0.277764604775235,0.350082023603645
0.801974669369403,0.724203241802286,0.671905531453289
0.793237550004385,0.82540946753975,0.902733634181426
0.0142971768616699,0.131781621183269,0.294908591545104
0.116325340600219,0.956243732939009,0.458090208940019
0.845955113714561,0.661254220530856,0.29502976264936
0.640038398860022,0.837658328289166,0.29443346531206
0.071997754950542,0.447736191032454,0.935377165350742
0.600793822149746,0.539872483565006,0.981337299035576
0.688649545792025,0.179944895123132,0.409467033739821
0.591125196907669,0.043158658075612,0.992509247579002
0.281649380707182,0.418396888955031,0.671245132200949
0.0252379792700522,0.562449129229877,0.851649698120457
0.472050447460264,0.229513010249473,0.371128233387009
0.471276313889306,0.468115737826098,0.999855176134384
0.939347595626488,0.697383089541458,0.655306457347056
0.959490457919426,0.028248123741243,0.961014467665287
0.0983023435734212,0.638354861250613,0.523458979914181
0.836017738935538,0.835267577286344,0.996411394509002
0.736745501770172,0.714555440098047,0.973093068073568
0.528345017001498,0.736407422282733,0.513732393109726
0.734443741763476,0.852506863009185,0.391637207724453
0.828340195378754,0.421843353528064,0.294040912619479
0.172690626916941,0.534170218418352,0.299721183839952
0.380755635610316,0.0270866870391183,0.953922298620763
0.16357402185211,0.658640627055429,0.304749149834485
0.945676077036653,0.461996940970421,0.996506897313209
0.232426885984838,0.564874592982698,0.404966743106666
0.932757459992543,0.127931153417099,0.579777301775547
0.0332822330044582,0.939612270667683,0.855806925515762
0.419838124377653,0.0981172448960133,0.667736989263523
0.626955285711214,0.869393765576649,0.350562792571058
0.81008934301883,0.159513708633836,0.903383174287771
0.077183347449638,0.757020280926023,0.31812370211456
0.336905203532893,0.644050963932183,0.9905093023493
0.375923687218688,0.703975254879333,0.842559699522366
0.699268719116226,0.606851082693785,0.820058563536772
0.288533251810353,0.206161138975993,0.663855991814029
0.222660283126868,0.405788100205828,0.400413748721191
0.0966133503969759,0.464804847682361,0.743794969836959
0.873147582795005,0.317193976768758,0.299877648406023
0.355140034275129,0.870436142575927,0.331280437122728
0.295640253488906,0.554073311561719,0.697367016712165
0.82525116562983,0.0168669578763656,0.396411209912912
0.534713852277026,0.895547335280105,0.669840584657599
0.248346904095728,0.0549864179464057,0.451837170015231
0.169474377817009,0.803022002045531,0.923306899374566
0.37295017383201,0.439175799881108,0.961034112745181
0.961145074758679,0.341309835481457,0.976386206809351
0.501730251111556,0.360793692751788,0.909590477960886
0.659920232311357,0.108761754510459,0.394820247824155
0.424340176559985,0.990463209757116,0.700298953121508
0.135899840418715,0.520167016315274,0.430088433839985
0.0283860880318098,0.184149390590377,0.364480698042831
0.559210032016039,0.362431685792748,0.941196115886515
0.15717597452132,0.666457795206457,0.300872311823079
0.0387818503584713,0.426695811826736,0.966355496531682
0.189836758804973,0.770224078247324,0.872281210972033
0.32650995228719,0.392373248139862,0.916697768216676
0.815491087045986,0.823865937564522,0.989480296403642
0.654989423787687,0.289289987362456,0.900011694668086
0.398351605173666,0.323205989292357,0.895246471794787
0.0857755153318867,0.958980418808758,0.692483025522922
0.704036767145153,0.772358781584539,0.771212927212632
0.526598782276735,0.0525539281223901,0.994353325763469
0.0901232188488357,0.596710642695427,0.710184107447963
0.827154075508006,0.74507006311696,0.60139841321657
0.0732085456606001,0.200972297956701,0.297114945698829
0.772263253136072,0.647929140097462,0.543227839616982
0.191484923152719,0.89873367876932,0.433499115206729
0.870301650589798,0.384453879346605,0.370161344604461
0.197490233617835,0.542101184755564,0.300861272558093
0.667187986593693,0.116306501296815,0.345161827855655
0.653525561450049,0.851990562129766,0.293267286547662
0.61434799622139,0.149238261645194,0.308933158804947
0.42907596634794,0.345636516524479,0.914498262799572
0.0806434938143939,0.267164653873537,0.358175884466186
0.838141864758916,0.041141288026236,0.294467744545175
0.0691213545012288,0.118868341878988,0.67726223113984
0.775923897570465,0.475422543368768,0.352872044839516
0.730516939064022,0.189851355075371,0.646794028169909
0.724841623326298,0.801632601491176,0.677879053364778
0.857509330095258,0.494824286608957,0.396838799735523
0.143028833664022,0.157084569436964,0.972051966967898
0.395948048608378,0.302147275909781,0.819917895463206
0.343539007610641,0.66574510981841,0.99698420148212
0.625979731169064,0.0159302952880971,0.881750216443281
0.997272842637263,0.450130778587889,0.584703514728465
0.712256829509977,0.2409855695609,0.884251017228309
0.965326489720494,0.260378757427447,0.715012001550272
0.458355196786579,0.600231120651122,0.982316203606163
0.648313904800452,0.877714821699075,0.352419942711803
0.344849721063394,0.295756683342159,0.923515386456534
0.103649653127883,0.569957639233675,0.633866136704876
0.953269086031709,0.525383046552073,0.978768641768495
0.153584366678726,0.318068341291044,0.307664838305436
0.299639987362083,0.64937527232524,0.922107012950614
0.754863553783856,0.10048775157379,0.295065346432612
0.0560162954060361,0.674842212286778,0.801673774199674
0.139573913815897,0.0211911842455156,0.294530930020449
0.187969926117454,0.90705608691182,0.398824175783553
0.369046556835528,0.537572889609728,0.939159740290023
0.976175444818567,0.912512223961297,0.498839230590471
0.858713208240457,0.838498110916,0.947479108350957
0.564350036975462,0.93514584416151,0.966169000769883
0.328966786296573,0.849619897938333,0.296074350519901
0.365501030467916,0.766694887595251,0.534602499587609
0.717613748968579,0.402503528456204,0.709057729670963
0.15118592710793,0.502312431466766,0.357820584892171
0.322350319303107,0.280452754601836,0.931113955469215
0.351583926504012,0.444776752959471,0.912771618986601
0.807822444065008,0.106243694102392,0.463972200258182
0.0119756703139283,0.561510575841181,0.705392632927815
0.358621551667806,0.128039730716031,0.340828480142517
0.00736456612264738,0.662877472133376,0.902450015218527
0.485767401410732,0.896148487571161,0.687335436136811
0.120907339111902,0.333776072541252,0.330576458069259
0.879400318483356,0.634609231222421,0.38338507369128
0.449169781604782,0.379740907540079,0.964505167922891
0.216893047118559,0.88267474607937,0.413807814367455
0.785133817217313,0.680831529963296,0.583063726604289
0.387665321329609,0.632307415176183,0.993462986133131
0.74531729808636,0.862002053637989,0.38138869946343
0.268640901857056,0.0519002657611854,0.577454241288107
0.5980251050191,0.202158181530889,0.33543989200168
0.85442657674104,0.401989686517976,0.330057082472007
0.502984079175163,0.873255268236157,0.494370978161945
0.518011922670063,0.284571707997471,0.61198490189847
0.0419729608343914,0.221515384649858,0.431039284722261
0.860136549981777,0.259621527957264,0.374417125365596
0.93024574281415,0.29881983672129,0.548988298614593
0.983855087290518,0.417108416478615,0.788984073024945
0.818028533228673,0.585934730562381,0.295007321084225
0.895540131065063,0.762159904826432,0.306060999474067
0.498730839696713,0.70096085309051,0.678871434456712
0.809351521383971,0.6155728945015,0.321822313219777
0.377620116114616,0.16215735500725,0.292775686046797
0.0123378288820386,0.216073465588037,0.691791442839
0.966480284617748,0.0838243903638795,0.629949200836142
0.42600272695953,0.676454600896221,0.848664276239374
0.434336525863502,0.0562995250299573,0.993091609442787
0.651296194322407,0.138971145098563,0.303114654928022
0.437386488638818,0.626579338913318,0.963115500012916
0.805957343319431,0.516576252658851,0.29517678257159
0.943051529042423,0.764155644539278,0.388361468821682
0.159357107670512,0.176363899433054,0.964680163867071
0.421059608910233,0.94760335765779,0.995400346967325
0.778626374391839,0.0113825468234718,0.738202417176619
0.901546089045238,0.396523587265052,0.614567719998021
0.637357520306017,0.843984286591876,0.293103756752551
0.679102975039743,0.605861368947197,0.895866276912437
0.220414808689617,0.742459918078966,0.908025293600338
0.766967973178718,0.210922118787654,0.960018267047123
0.709565442713909,0.208001210532151,0.666983131603533
0.585501246760134,0.707661464875098,0.733425419993747
0.276629342472646,0.845424066320062,0.39088976391951
0.660503423098475,0.964618694996461,0.986288745735582
0.915391909694299,0.936846191294026,0.914240490101259
0.68170578042604,0.759068799833301,0.753332961881697
0.611096355032641,0.941691087957006,0.951241110747223
0.240754058159888,0.0583320873570628,0.39772189538558
0.0343784960573539,0.0937137356321327,0.548272219912077
0.206675006469246,0.547550056470092,0.316904589407258
0.820138140404131,0.558481898531318,0.292598212945755
0.646485603675712,0.976774225978181,0.973351701330207
