"","V1","V2","V3","V4","V5","V6","V7","V8","V9","V10","V11","V12","V13","V14","V15","V16","V17","V18","V19","V20","V21","V22","V23","V24","V25","V26","V27","V28","V29","V30","V31","V32","V33","V34","V35","V36","V37","V38","V39","V40","V41","V42","V43","V44","V45","V46","V47","V48","V49","V50","V51","V52","V53","V54","V55","V56","V57","V58","V59","V60","V61","V62","V63","V64","V65","V66","V67","V68","V69","V70","V71","V72","V73","V74","V75","V76","V77","V78","V79","V80","V81","V82","V83","V84","V85","V86","V87","V88","V89","V90","V91","V92","V93","V94","V95","V96","V97","V98","V99","V100"
"1",NA,NA,NA,NA,NA,NA,NA,NA,NA,NA,NA,NA,NA,NA,NA,NA,NA,NA,NA,NA,NA,NA,NA,NA,NA,NA,NA,NA,NA,NA,NA,NA,NA,NA,NA,NA,NA,NA,NA,NA,NA,NA,NA,NA,NA,NA,NA,NA,NA,NA,NA,NA,NA,NA,NA,NA,NA,NA,NA,NA,NA,NA,NA,NA,NA,NA,NA,NA,NA,NA,NA,NA,NA,NA,NA,NA,NA,NA,NA,NA,NA,NA,NA,NA,NA,NA,NA,NA,NA,NA,NA,NA,NA,NA,NA,NA,NA,NA,NA,NA
"2",NA,NA,NA,NA,NA,NA,NA,NA,NA,NA,NA,NA,NA,NA,NA,NA,NA,NA,NA,NA,NA,NA,NA,NA,NA,NA,NA,NA,NA,NA,NA,NA,NA,NA,NA,NA,NA,NA,NA,NA,NA,NA,NA,NA,NA,NA,NA,NA,NA,NA,NA,NA,NA,NA,NA,NA,NA,NA,NA,NA,NA,NA,NA,NA,NA,NA,NA,NA,NA,NA,NA,NA,NA,NA,NA,NA,NA,NA,NA,NA,NA,NA,NA,NA,NA,NA,NA,NA,NA,NA,NA,NA,NA,NA,NA,NA,NA,NA,NA,NA
"3",NA,NA,NA,NA,NA,NA,NA,NA,NA,NA,NA,NA,NA,NA,NA,NA,NA,NA,NA,NA,NA,NA,NA,NA,NA,NA,NA,NA,NA,NA,NA,NA,NA,NA,NA,NA,NA,NA,NA,NA,NA,NA,NA,NA,NA,NA,NA,NA,NA,NA,NA,NA,NA,NA,NA,NA,NA,NA,NA,NA,NA,NA,NA,NA,NA,NA,NA,NA,NA,NA,NA,NA,NA,NA,NA,NA,NA,NA,NA,NA,NA,NA,NA,NA,NA,NA,NA,NA,NA,NA,NA,NA,NA,NA,NA,NA,NA,NA,NA,NA
"4",NA,NA,NA,NA,NA,NA,NA,NA,NA,NA,NA,NA,NA,NA,NA,NA,NA,NA,NA,NA,NA,NA,NA,NA,NA,NA,NA,NA,NA,NA,NA,NA,NA,NA,NA,NA,NA,NA,NA,NA,NA,NA,NA,NA,NA,NA,NA,NA,NA,NA,NA,NA,NA,NA,NA,NA,NA,NA,NA,NA,NA,NA,NA,NA,NA,NA,NA,NA,NA,NA,NA,NA,NA,NA,NA,NA,NA,NA,NA,NA,NA,NA,NA,NA,NA,NA,NA,NA,NA,NA,NA,NA,NA,NA,NA,NA,NA,NA,NA,NA
"5",NA,NA,NA,NA,NA,NA,NA,NA,NA,NA,NA,NA,NA,NA,NA,NA,NA,NA,NA,NA,NA,NA,NA,NA,NA,NA,NA,NA,NA,NA,NA,NA,NA,NA,NA,NA,NA,NA,NA,NA,NA,NA,NA,NA,NA,NA,NA,NA,NA,NA,NA,NA,NA,NA,NA,NA,NA,NA,NA,NA,NA,NA,NA,NA,NA,NA,NA,NA,NA,NA,NA,NA,NA,NA,NA,NA,NA,NA,NA,NA,NA,NA,NA,NA,NA,NA,NA,NA,NA,NA,NA,NA,NA,NA,NA,NA,NA,NA,NA,NA
"6",NA,NA,NA,NA,NA,NA,NA,NA,NA,NA,NA,NA,NA,NA,NA,NA,NA,NA,NA,NA,NA,NA,NA,NA,NA,NA,NA,NA,NA,NA,NA,NA,NA,NA,NA,NA,NA,NA,NA,NA,NA,NA,NA,NA,NA,NA,NA,NA,NA,NA,NA,NA,NA,NA,NA,NA,NA,NA,NA,NA,NA,NA,NA,NA,NA,NA,NA,NA,NA,NA,NA,NA,NA,NA,NA,NA,NA,NA,NA,NA,NA,NA,NA,NA,NA,NA,NA,NA,NA,NA,NA,NA,NA,NA,NA,NA,NA,NA,NA,NA
"7",NA,NA,NA,NA,NA,NA,NA,NA,NA,NA,NA,NA,NA,NA,NA,NA,NA,NA,NA,NA,NA,NA,NA,NA,NA,NA,NA,NA,NA,NA,NA,NA,NA,NA,NA,NA,NA,NA,NA,NA,NA,NA,NA,NA,NA,NA,NA,NA,NA,NA,NA,NA,NA,NA,NA,NA,NA,NA,NA,NA,NA,NA,NA,NA,NA,NA,NA,NA,NA,NA,NA,NA,NA,NA,NA,NA,NA,NA,NA,NA,NA,NA,NA,NA,NA,NA,NA,NA,NA,NA,NA,NA,NA,NA,NA,NA,NA,NA,NA,NA
"8",NA,NA,NA,NA,NA,NA,NA,NA,NA,NA,NA,NA,NA,NA,NA,NA,NA,NA,NA,NA,NA,NA,NA,NA,NA,NA,NA,NA,NA,NA,NA,NA,NA,NA,NA,NA,NA,NA,NA,NA,NA,NA,NA,NA,NA,NA,NA,NA,NA,NA,NA,NA,NA,NA,NA,NA,NA,NA,NA,NA,NA,NA,NA,NA,NA,NA,NA,NA,NA,NA,NA,NA,NA,NA,NA,NA,NA,NA,NA,NA,NA,NA,NA,NA,NA,NA,NA,NA,NA,NA,NA,NA,NA,NA,NA,NA,NA,NA,NA,NA
"9",NA,NA,NA,NA,NA,NA,NA,NA,NA,NA,NA,NA,NA,NA,NA,NA,NA,NA,NA,NA,NA,NA,NA,NA,NA,NA,NA,NA,NA,NA,NA,NA,NA,NA,NA,NA,NA,NA,NA,NA,NA,NA,NA,NA,NA,NA,NA,NA,NA,NA,NA,NA,NA,NA,NA,NA,NA,NA,NA,NA,NA,NA,NA,NA,NA,NA,NA,NA,NA,NA,NA,NA,NA,NA,NA,NA,NA,NA,NA,NA,NA,NA,NA,NA,NA,NA,NA,NA,NA,NA,NA,NA,NA,NA,NA,NA,NA,NA,NA,NA
"10",0.737879354945347,0.757320256310833,0.595813600116164,0.7918896239855,0.936341278627171,0.851285647007718,0.809864670978207,0.767523346474608,0.812221024974692,1.07387415354193,0.770812711831303,0.968638683069468,0.863334451565795,0.896623253379416,1.08528405792222,0.986149427972335,0.887294505709935,0.922829286910431,1.03184376053369,0.771914685028825,0.930220391400357,0.980359993406599,0.872745757746674,0.88789503972667,1.00346594039061,0.778248321337945,0.767335881947077,0.863333770808466,1.02429934576349,0.900855540740551,0.95997589998729,0.82039530535671,0.79139737300694,0.902320984113835,0.794577499790693,0.940130994652616,0.808782254802225,0.965280442787751,0.737494114036913,0.853102347102504,0.839759515452686,0.805375134628509,0.792669369898509,0.826847945891261,0.877885313300617,0.762272128080747,0.749580836151979,0.986562760494393,0.765802104748985,0.825377934866628,0.980797646594547,0.84400112164979,0.955836444645189,0.874038988744011,0.861471886163797,0.777397547080624,0.8535206104121,0.993187504435606,0.745854630024408,0.78208663271869,0.897979306237602,1.01396531108279,0.741397717087027,0.925790978053277,0.854204771366999,0.80032751652393,0.941099523392687,0.865628965314422,0.704378633568573,0.9483782651179,0.748366927362617,0.917998568688055,0.827548147462541,0.95558286209569,0.968287203763778,1.02249296790705,0.930799417297566,0.870926599117236,0.731984436538378,0.846768264941283,1.01824108683737,0.752461849208209,0.99225277826804,0.847971064446734,1.03241809375741,0.989281889997793,0.962090881571863,0.876759056755452,0.768585023404069,0.746925281113459,0.867501294806944,0.897368046263408,1.07649924656241,0.85677832927864,0.801832885847605,0.91319352833105,0.832266303182928,0.729021165155531,0.852644218314348,0.784173320494921
"11",0.718802995946833,0.653093424094601,0.582738997106655,0.710418971307666,0.831899238861864,0.844411637696566,0.825894493196084,0.8043232184385,0.739431600911747,1.05595500724332,0.693696177499044,0.918873537107601,0.992581410320758,1.04924543910047,0.857825519373791,0.910904508583898,0.717916923237561,0.847578961464942,0.901616511673831,0.945459731606942,0.830382514050868,0.96207324938126,0.938041285148844,0.840741093914639,0.784859744023189,0.930484747835238,0.996803202162981,0.827467483220918,0.725102765513965,0.839497642257727,0.795870403968425,1.01956824298574,0.862129281093592,0.825029047876314,0.734850958872862,0.957142447545649,0.747390555735998,0.994113254956997,0.76649399738223,0.92182371827732,0.83890909046037,0.969538367500361,0.796687951458571,0.772611445770393,1.06666866841102,0.837364835479065,0.741258270443748,1.06081740899714,0.772675278783637,0.896165981386069,1.02187584655203,0.849295009915115,0.953134259850196,0.914669716993861,0.759381490212564,0.756508726149312,0.99878560850047,0.930834575204017,0.822372984773612,0.821733679314043,0.837140722442736,1.00159301752336,0.904439984242646,1.01526905446226,1.03678085812448,0.905284171770973,0.673764389005445,0.638146811765158,0.800006174627146,0.796350263562951,0.722037117158506,0.879461541683894,0.770927430512404,0.836364801935388,1.01530964139214,0.908493700451786,0.823272130809131,0.790009042887945,0.776457202127694,0.967145113407878,0.721150446814561,0.781312124415752,0.690230085073648,0.779174489807298,1.03822289415301,0.959358480499237,0.840790782134843,0.98569912273339,0.877968249858737,0.810865017782818,0.755226832107305,0.997798300001966,0.811182493477935,0.834329078848377,0.840623486019287,0.902806286612615,0.706362919274595,0.811190700476522,0.985882759225387,0.820629708335888
"12",0.810138475025531,0.727924830709398,0.650641061890645,0.747542737672678,1.00543135697191,0.75486904843736,0.94563867001117,0.924982718853555,0.896281806480638,0.940323216237449,0.959680874870033,0.96506009828569,0.827797847270273,1.07450762129918,0.861412526480501,0.86896817893643,0.6460858519868,0.955610902464604,0.895078353446968,0.754978334252509,0.773688757232438,0.943967040708226,0.79258942985876,0.743883553734297,0.780916367426002,0.996175019655964,0.82857057562622,0.746555252044941,0.764237192066495,0.694397842924731,0.989210366939534,0.823628905155125,0.894452523895776,0.928161571684721,0.953672021911138,0.878113479684611,0.732522310824157,0.755269369766864,0.979536586262469,0.757121936527003,0.940448052441517,0.746480282958135,0.789509240354059,0.776162846102132,0.872229195892842,0.768414409271307,0.700096924177132,0.934150449329697,0.738008167378178,0.946566256699482,1.0311666185286,0.92128468043536,0.872211859569212,0.883883484171558,0.821834005101762,0.733756625718093,1.00704168751468,0.751504250205414,0.934071386223663,0.782460749484504,0.874449260152996,0.790354028951827,0.620410148506786,0.815167611551533,0.962401373157015,0.964631410974991,0.7345469112959,0.786937808590157,0.684171490484279,0.817214723919986,0.723075722832513,0.996696675027222,1.00575421935618,0.937108405933219,0.965922414392781,1.00494303196505,0.767986642795734,0.791731777726669,0.737805376343954,1.0058886003189,0.823578376699429,0.713162969521447,0.890299681724914,0.716903421371917,0.817157768387901,0.972548866083987,1.01525989288764,0.997700368395822,0.774012916800288,0.773988297440589,0.996713745187963,0.995366277241376,0.71798547195147,0.884309370038244,0.743561344304862,0.785933334752976,0.786091131681108,0.732175956478887,0.7766837058966,0.74542368570985
"13",0.796005239315399,0.719920238196445,0.626123474139732,0.681372858545954,0.974534080800142,0.729805083357025,0.82110826136299,0.879374186876289,0.774121516694085,1.09663605526905,0.734206978535389,0.916364373774994,0.938293409327143,0.735334151807037,0.939416712578316,0.969373901279939,0.829043043334798,1.00158118437171,1.0146025660609,0.818879217806353,0.921273134607566,0.812644237803683,0.976638849864882,0.749255240826123,0.760858474157607,0.672444655115171,0.759507117823802,0.761294561623372,1.02335927960273,0.745149260070704,0.890100346590101,0.865849545162521,0.799291744548032,0.876813466868508,0.841732299385348,0.999591208423596,0.759661443820041,0.790573282235135,1.00273663268292,0.779390760864765,0.921521576692563,0.95239851414105,0.672942323963701,0.960264359179926,1.01463376046723,0.731457823221261,0.665911681622766,0.839069450444133,0.919199918626313,1.01778754017125,1.10287078585448,0.777391391964726,0.879411971808035,1.00435388480935,0.674595943620105,0.671041186091556,0.894403344848552,0.658552493438242,0.995308136675336,0.71303651691709,0.748790577017447,0.890806646549045,0.606439257816216,1.0145216679165,0.672568592742292,0.883911208749524,0.992685867972383,0.894613858095165,0.700416708704406,0.646544538871679,0.760075251835054,0.808551030297172,0.973666131370379,0.944022558936203,1.003947951984,0.952790468560867,0.822137679405134,0.707414458023839,0.663288056777029,0.926663727663762,0.918755138085086,0.661868662004071,0.930413778509221,0.963389394336079,0.746586957844095,0.870970057097209,0.663114907700122,0.744486339438186,0.723403423974948,0.745620704414125,1.00780073033996,0.878439936187663,0.83071509561968,0.77537135791316,0.747455266133309,0.956093749621192,0.941820100756983,0.738693364845545,0.888363849840602,0.918315028060247
"14",0.851682331322513,0.985464241630363,0.770865016557474,0.668121260476244,0.828889417377812,0.903914259054309,0.912872229837444,0.702157299386445,0.679670106472156,1.00608151323319,0.869040910154968,0.82774078685245,0.726863304197866,0.741462958372187,0.731675773122624,1.00690473557129,0.978020280144229,0.745312252279831,0.927516140530456,0.799265595201164,0.872505468166097,0.814871043103322,0.846063689976828,0.710619887104345,0.917141994196346,0.63220055754195,0.931927312123772,0.719156402605845,0.756921165711067,0.739105720997423,0.995827218476824,0.773961214476993,0.729558062599769,0.69238755755665,0.954397192824247,0.906006199464747,0.69463636052489,0.857015637571901,0.680456514938629,0.711607380820485,0.839219491231874,0.940431295272767,0.875664092190641,1.0143740048424,0.823507004402698,0.691922977402132,0.908662124104933,0.82740138517814,0.959754225825659,0.807642068688349,1.0963738285401,0.868099491066104,1.00631505968722,0.7965318441943,0.646369968207717,0.913339336874405,0.908471120956774,1.00341231666078,0.716184887790935,0.823882303890665,0.729707766429065,1.00961949230572,0.619784651340268,1.04797534307883,1.00954476315581,0.726637563180943,0.698002061606779,0.758329854205085,1.00827318084934,0.77034453149123,0.677054953852539,0.879174425659034,0.759553781261011,0.921981800155611,0.997928855352181,0.730581948534667,0.774142396802175,0.612215921738202,0.853755148175057,0.698593576526624,0.736333328500873,0.769287415020345,0.836175153734686,0.973009530830464,0.769645171253631,0.967100906603054,0.71303168755975,0.962805005180901,0.687883660426656,0.751876661471752,0.914234354802854,0.788623457023269,0.761332834085112,0.91265230430466,0.862277602601698,0.830066088685462,0.909022419908224,0.806469910467136,0.913066965502248,0.733336926095256
"15",0.789434976272106,1.00443862159523,0.765293270228985,0.902235142441902,0.785523947428333,0.69119559230953,0.664777791885457,0.676948031905367,0.981885773957631,0.867589682286482,0.799020851438166,0.853001164823077,0.936521152534995,0.724136338353415,0.905513451466116,1.02264016272371,0.855012813968139,0.888554300791241,0.658154259689197,0.905754107739927,0.665221973174449,0.947077602190766,0.979645229618139,0.633337218430672,0.749784842098983,0.699404779122619,0.744039020027492,0.660369803657604,0.641748023845508,0.961987002433889,0.5942811452902,0.817876614238707,0.715176845229868,0.701496598652569,0.924950805449419,0.846143005009266,0.659069120995385,0.849679134635813,1.01168949462409,0.731887894442369,0.699426190549594,0.827143172107906,0.687166441749532,0.625663990640404,0.972391638015717,0.750063720336788,0.704125408459735,1.01069300104842,0.627982044787893,0.95536606638717,0.883535091577218,0.995754003497084,0.739307261950767,0.892504417329969,0.689588218767823,0.646828143286315,0.874018704610255,0.887311298116039,0.951404893428257,0.810532546274791,0.682113878188617,0.918505821581837,0.547155680979784,1.05549414774676,0.959878615900782,0.972937391764107,0.827083438982358,0.782507045937219,0.735682775515627,0.628021212118542,0.716249470313323,0.982478635734397,1.00108660732157,0.683909801680834,1.04673896925674,0.856931421384669,0.805986192306045,0.794763272173497,0.991335348171182,1.00418197445684,0.63408740003628,0.866257217983563,0.654707777489627,0.915671175664306,0.768128776702817,0.831386120343743,0.635733747937558,0.933942664987487,0.985984531380946,0.727649229727147,0.736194777156232,0.691687554684235,0.792263601669129,0.857544602230743,0.759150177994774,0.975128803003348,0.898853146438998,0.607539475821789,1.00132379575452,1.00902703709113
"16",0.81381334778238,0.667221288682865,1.00708456084245,0.693938784948657,0.857931877848759,0.884559239991679,0.700860710710543,0.584504723064089,0.664694855238612,0.846369916719226,0.56709164185073,0.68171542796819,0.927151700522729,0.761611310246295,0.80074965312512,0.684109510592807,0.89077374551718,0.742641042866743,0.8988829286075,0.898355283158169,0.855189983192758,0.6976273182365,0.758523797095378,0.645774694326197,0.981168769607473,0.586405594002833,0.973600942294649,0.739215227811993,0.617729111848771,0.589413064114898,0.903671857690932,0.745024947485152,0.870598372547334,0.711960533693087,0.743668249150908,0.566159965849336,0.630363216827996,0.779681890412102,0.792767202334026,0.84054487509687,0.789899022347199,0.619542840535029,0.674946546736652,0.669988077131076,0.739382764338182,0.708756727790459,0.667663341701678,0.728196618215492,0.712697108029192,0.842995629658889,0.814925004208762,0.845330881182086,0.674891697201901,0.987967135001014,0.741598367213271,0.795267656375512,0.820622023785277,0.735102082960684,0.794346972517627,0.929769741544613,0.928752874354428,0.765913332493846,0.853935231220638,0.882406459847591,0.658747112560635,0.691372257552574,0.712920792301966,0.776732535266857,0.86195528847446,0.701686821745515,0.735181855111025,0.723624582998281,0.992399057549809,0.842901700843313,1.03230477438877,1.0005322337919,0.85274322478145,0.683273464083278,0.659242767150842,0.683479332967467,0.638335458049144,0.70930312363573,0.597053074125245,0.911427867165097,0.764686725641694,0.991559470591687,0.998937600510696,0.843245648676473,0.826225268757543,0.670340891906931,0.814232544745852,0.709678989159506,0.816128024540589,0.939333551074382,0.890786027198177,0.627871374378506,0.636054514987316,0.621447927212697,0.979088032660128,0.935638984895718
"17",0.972772228754724,0.591384183723049,0.792242485186707,0.782384656264799,0.762498450364782,0.667053819147244,0.609750970105797,0.608014725666865,0.590941789030174,0.786847917220735,0.863881714413988,0.620598601194549,0.614648240823199,0.670471342276565,0.727480840869112,0.719653965871797,0.820088819295436,0.71131714428017,0.812675759962055,0.660250990348687,0.812202027637353,0.828825922147694,0.661877342592132,0.617740883170416,0.749454167270596,0.915304002328917,0.791688537214097,0.780677275060001,0.914192036486983,0.860820826201129,0.411578621695229,0.668450536807693,0.522777034925345,0.995474071007255,0.780484399663287,0.833746889137307,0.812122863232353,0.539523365530541,1.04229896081378,0.925920263949556,0.860901180548783,0.60452267647355,0.874281507819726,0.38114794867238,0.608309529853914,0.662714366526853,0.673427707760396,0.814821048285988,0.776427474680032,1.00635910920794,0.925019405270198,0.75888703690416,0.743115635081655,0.655568272337346,0.92834242096828,1.02087512751317,0.997973411287722,0.981511525124351,0.675981209539457,0.907059262909276,0.796159587625462,0.637261716736304,0.527925942106468,0.57594953035251,0.48707917951905,0.990000749987402,0.664288222072672,0.815234713281705,0.99369740054469,0.83695501360024,0.652686195807957,0.870053302980138,0.849019280007984,0.663263094889134,0.939983770780822,0.894283460564289,0.958825667541932,0.6657703358565,0.594511487520591,0.705494964067321,0.701256022129497,0.694811288954996,1.02791529024885,0.820129063706554,1.02355928212003,0.994458838135002,0.660293641056617,0.682275782819977,0.886106986044733,0.890966891636593,0.596916227403306,0.92832729439175,1.01049796081949,0.723792892313224,0.608963954223574,0.998825066090813,0.865495400484625,0.684827190967844,0.675060191399905,0.727016413943792
"18",0.623347552172947,0.64082893559942,0.728210788884163,0.827766738205534,0.729122227719332,0.514363881851436,0.654584836884334,0.657065566410566,0.919903462231383,0.698469676785736,0.496493588171608,0.994597261913934,0.693553343492483,0.806719326356964,0.30370705741878,0.71854886578978,0.593267631457882,0.940921753553809,0.870774705246819,0.636975187362959,0.682553440865777,0.592408695730325,0.658498522947475,0.879966693725114,0.991747117623329,0.518422100245593,0.571817101226313,0.782855021649671,0.917175104494555,0.695493030530972,0.309632311898307,0.662421547528868,0.63290312446213,0.607686635390115,0.682982137470492,0.815594425126015,0.551919810774789,0.810106924150177,0.935207750526908,0.675082752162163,0.749535557828761,0.735126875357459,0.698842985398706,1.00084439416774,1.01068517669112,0.67650699089384,0.657510788828517,1.04057276219011,0.544074019975972,0.617930276101784,0.813177916140254,0.62338636427489,0.862168790954264,0.528918799662549,0.587347203781589,1.0296718630153,0.626740450032376,0.709530116863909,0.606301705172654,0.552927604676129,0.791666362764769,0.512725419959352,0.516865262287974,0.61692495102307,1.01717177921642,0.635425531712942,0.575107976790195,1.03505720285636,0.544802755797694,0.58077420322403,0.646500659690916,0.77401720546181,0.372088722335715,0.878776228518646,0.845149447329406,0.359783253379875,0.65512412288096,0.752659828370046,0.667324653565146,0.688883088240014,0.800943831970716,0.728552939970702,1.03992833655996,0.744766885077807,0.345344126767483,0.568323965958286,0.851300274568343,0.63996468460039,0.897235332636515,0.70430104223254,0.783862713568828,0.992861289542346,0.510783199282343,1.01247096422498,0.801558082392318,0.816687176644684,0.724979883790436,0.678963709096488,0.704025973793671,0.957739251071215
"19",0.599856312684115,0.620368232302716,0.629531992638746,0.497418502521274,0.815171750327914,0.578298729911939,0.609289310122672,0.531320456121758,0.646086271539102,0.937286159296146,0.412389638275935,0.585615229578287,0.985259857678137,0.321182676804932,0.719511178423456,0.562088701456421,0.588733958007973,0.35107121002308,0.471152709034091,1.00491933100106,0.556002107979559,0.736812429871269,0.607149607563152,0.597803383471377,1.00731135718933,1.00107179458125,0.576358694157697,0.352870553811071,0.55415235083066,0.52597544700011,1.00048332034232,0.707496383328007,0.603430991037192,0.544941790598579,0.661736807900412,0.817247216452115,0.668683845170333,0.423614443261018,1.03879834868387,0.590051115189503,0.852422596747988,0.601821470707069,0.946648985093239,0.923859629768742,0.680772158698463,0.637168756379558,0.629919381465717,0.88576357281725,0.624267935712016,0.707670369546759,0.741351340077319,0.460662149443161,0.783160282160342,0.6697257820157,0.619715215383207,0.731576768604524,0.679931220427326,0.728006006668277,0.633440055066311,0.619507358166585,0.552460505399271,0.999136801081149,0.706589371337956,0.779165245765546,0.986548120897462,0.753096926950071,0.905312875035393,0.722738983938181,0.323333560254409,0.685487667612737,0.862416147427324,0.469597405456533,0.48640845396387,0.624389540964125,0.606796818345389,0.478098848285106,0.566356856657663,0.308263918708445,0.552708778323002,0.656922304438954,0.650760362748183,0.695233994178146,0.957633960383542,0.548394075344237,0.435560210697639,0.489601931441172,0.776320422963714,0.596384369078137,0.551395553625479,0.613613491240359,0.561628982169554,1.01073510620462,1.00712291005441,0.727813704942905,0.643526216956925,0.979914250609867,0.805300170508867,0.66608410876341,0.6526023218613,0.966634686213694
"20",0.454789861611728,0.629275070913298,0.420223595047256,0.570332083548092,0.60511119288735,0.73377945320373,0.731677220438817,0.483656067797963,0.239362427156523,0.696683317245815,0.366974538206429,0.817579482681262,0.590101058760281,0.405081883188124,0.731885019943093,0.464621034717067,0.671862475941528,0.701583090653807,0.818572743126454,0.547910315315102,0.484176193544313,0.515666195011728,0.640921952053853,0.641113237324918,0.108987511509699,0.651676194535772,0.808161723000756,0.718141638258978,0.688329760999052,0.379099848513931,0.101259376998239,0.523034489346373,0.475871637649314,0.464630980150626,0.696711050907818,0.526148583492531,0.612070985066989,0.54219855824862,0.688862789253791,1.00109611048855,0.632641516407629,0.594171968909263,0.746772174987763,0.496529818798032,1.01955325925476,0.674349454497346,0.742678537050071,0.581170500880721,0.253531999423546,0.606027137640713,0.141520689947321,0.568431689153341,0.768129297157595,0.901806773422264,0.561623028878094,0.368484432409926,0.508040019081971,1.01069634874899,0.834858127719528,0.768358150747778,0.496295980127284,0.338812027224002,0.504506107454804,0.746595948881018,0.129616656864061,0.619127361300992,0.436498419941494,0.601970032366642,0.521540776138518,0.265146746430172,0.648743269264566,0.349322402240049,0.171404201875165,0.369160700705405,0.364795415423249,0.84836456655562,0.627229178028325,0.675319730425645,0.574765799960196,0.370414224788957,0.644009376840529,0.982646187797439,0.350821673258586,0.293219979041347,1.01088450816544,0.816742546460867,0.497647019090529,0.623327930951708,1.00505798165153,0.518991373024394,0.58848023633581,0.992070417862521,0.590854326636338,0.530830672564951,0.562628874792643,0.68602215521413,0.456658856563158,0.519215055055036,0.66269719601494,0.604825894764392
"21",0.466819459418652,0.45590980276446,0.638772956509199,0.648658081322839,0.357556428140611,0.554094223272816,0.58060471818887,0.401555710981195,0.493042494082131,0.347184545137508,0.234210296377032,0.463129556454764,0.802367759454597,0.233790417048042,0.737662703024856,1.02357430480625,0.342695704377446,0.639031833229646,0.552595430140269,0.376776754651923,0.661980848955402,0.966131976630621,0.357809000826983,0.496306093236356,0.873988721681143,0.528485308487658,0.212178131082496,0.165012221147068,0.585288221723279,0.768732739390696,1.00498197716207,0.443428756153398,0.858693395338731,0.962927098685611,1.01296494837797,0.496694062282352,0.434883275521636,0.402598796945267,0.288939512082915,1.00881200734261,0.230913565646886,0.678230273023493,0.951906942144187,0.862141144935754,0.305316884578769,0.426056551886401,0.719857789703662,0.776965234828524,0.174488326552152,0.414467456984221,0.376960385791569,0.189248435854063,0.689189677429602,0.998224236113539,0.890554825199815,0.158511886294211,0.903089137425119,0.622027234996791,0.484542559009564,0.529910722143493,0.262854172372019,0.355860423341599,0.56064490708955,0.644185757988144,0.794534165614413,0.489627342029575,0.15226494777304,0.382311296892938,0.256236745574149,0.487536781139674,0.663208292783491,0.265022434639653,0.355508827514098,0.54361096473043,0.343727475928093,0.149590557933295,0.435207910469321,0.325309027624354,0.444929173746368,0.539817265896468,0.943589377243786,0.460108451812808,0.452131862316772,0.579077806720208,1.00912254057731,0.199543800464219,0.404882552236795,0.235336765335167,0.301477183906259,0.300443106112622,0.426024996531376,1.03779608585613,0.872540897886608,0.339947321366683,0.636659904107727,0.693941791253191,0.335442942545358,0.943030655749357,1.02365303672004,0.520128144361127
"22",0.357304575755233,0.201305149403996,0.426691949109143,0.318989648899287,0.29771966641668,0.126290522847789,0.197847382430153,0.188204659548463,0.377221826958943,0.269536366402759,0.19324251660885,0.340831656674706,0.49590003002298,0.141688771861648,0.249798541316556,0.451560332927811,0.433038420087496,0.200235104503762,0.235858286251544,0.454510497890649,0.530293431034452,0.384773983091194,0.176222820227767,0.447276353176432,0.16987464266358,0.33064141523353,0.340594391817837,0.114559744994075,0.318047564930074,0.327894800759203,0.0783024681467532,0.507277535329641,0.111981962739866,0.244763242931712,0.399701133754221,0.444273479451701,0.360691905189337,0.344162423866743,0.393080880699489,0.191558946364867,0.14713625106518,0.335147260554702,0.372981151763441,0.136188990766809,0.216625288570121,0.324223963384761,0.345789196011677,0.267282933156813,0.220922123641418,0.443605734727796,0.637279057443515,0.666769683803772,0.378690670915842,0.361827520190951,0.327009237260753,0.366992331599682,0.41585339124922,0.193793527414387,0.303499455956455,0.258342308421001,0.147564234139697,0.258836402169872,0.677786164012942,0.466121642948861,0.606959980878782,0.172529589810443,0.392188288250234,0.419651060153741,0.177320272613601,0.289819045685496,0.410536588924351,0.143506312671057,0.667738628954313,0.215218919484447,0.165031568058546,0.166108479774484,0.24275224714682,0.492808212230499,0.446081227412655,0.662122028981362,0.666543492926247,0.504524299665291,0.330079370424621,0.173903049226842,0.195125161030488,0.124324674316666,0.278709228168311,0.489661438675418,0.362483485425404,0.247710266720471,0.215788560574558,0.0891894953966391,0.113161109498499,0.480659943482559,0.323634266427228,0.329145120665235,0.281953877390257,0.380518897206004,0.469710596992356,0.240060922961929
"23",0.247998896303946,0.231683768259622,0.100990180921401,0.159442375399904,0.099926483377986,0.462008613444543,0.242555075415003,0.248817745054428,0.194162090454994,0.281091544293107,0.202666359986357,0.128568595949303,0.360894634696818,0.133820248570834,0.102534873637954,0.386888380989666,0.287323523671035,0.115964769001055,0.107802482398939,0.244116544646393,0.419788878400839,0.0821330601620643,0.528067376101173,0.0852617502479105,0.118161854321573,0.156805778615143,0.229110763005323,0.103042341196672,0.0920763386098507,0.209717174560823,0.226921393637336,0.397692762915536,0.113960645312778,0.295178360678191,0.447882787102323,0.601693692385092,0.548131899629073,0.145353984146769,0.112518136205798,0.529258147789474,0.163343573972788,0.300637179722768,0.112271820676651,0.177096645427624,0.135291179569987,0.151560158900436,0.474465097505231,0.0926838661783095,0.152706302113292,0.327508019352573,0.113029155104083,0.10789356830266,0.484586746485466,0.180727289147452,0.414279705586962,0.187317250248363,0.201092899274203,0.136085668367909,0.295832787458853,0.319799623746149,0.217100683594422,0.28441944143899,0.143558529293787,0.530311153151081,0.0991800067868231,0.178015741766717,0.329476527629918,0.343764674567012,0.141299009655361,0.256696815232767,0.311775028331313,0.156883809783228,0.281223496097766,0.12173122754901,0.158250217374834,0.157303965764237,0.199975827329532,0.165957802685123,0.117228683663618,0.531955070699339,0.376057706715483,0.297998940666063,0.140801090235313,0.111009296715519,0.189735401088164,0.1146601495972,0.318184126943836,0.397737919797948,0.126342646399592,0.222215420837655,0.171265973360905,0.089917016795375,0.117492119040987,0.293643293296103,0.37039744460372,0.333855889372283,0.344025784576441,0.241777243871571,0.291639269015564,0.142753116886825
"24",0.195151171338312,0.215628534727925,0.136902015382231,0.117809276510071,0.0886758779035638,0.561792606092583,0.501043251936165,0.404134964612962,0.298468536586194,0.118380138242091,0.206577327920875,0.160981968608077,0.0768707917024134,0.130816028360928,0.305646368144723,0.129501781175177,0.422024438184727,0.127138923579736,0.111824663888515,0.14443802435579,0.294270494806839,0.0903187345998423,0.189719178497179,0.126672943520496,0.123619984645226,0.454764245655456,0.111553969806959,0.134901397558134,0.344182931650746,0.123350472354809,0.0715602200065897,0.167862148341995,0.108750871512764,0.0883077378948312,0.117010480659438,0.185393990540766,0.331884023905342,0.116771870422089,0.184431649001638,0.434574665689731,0.141085908852582,0.144337436999974,0.55113955341775,0.13082342537059,0.129555782487097,0.173307238550314,0.107002251486203,0.105728324696473,0.0978312190307391,0.234639940257697,0.132980439686101,0.107308791610778,0.182731412010347,0.167039265955961,0.190777993388067,0.14255044270374,0.185338926277855,0.132659973994765,0.129145281485181,0.164460450874395,0.144416705384178,0.138131136042849,0.146459056623029,0.136019791013516,0.103922020134625,0.180334256068105,0.277448824184753,0.487713759567959,0.119147717871452,0.276398933272506,0.183583879982781,0.106600946161112,0.0976371547179568,0.161355868018444,0.188352092783265,0.450009651135472,0.219988826615724,0.161433680355211,0.0999201986398025,0.220831843513671,0.38168582126796,0.336700762484491,0.170603609767133,0.180971514650009,0.167958118415758,0.119250008223684,0.15523581729249,0.191096452100142,0.192175630007149,0.292455667172352,0.195687018961195,0.0973287886486612,0.111888193065499,0.0825526941591068,0.237121733826863,0.154830171526752,0.129476301345934,0.124323744302472,0.139958609750192,0.145323175906575
"25",0.148286518327219,0.264962531512581,0.136024427050965,0.133640686220808,0.156006748672855,0.109787779569143,0.29228323306501,0.0994732779301391,0.11710916761218,0.117272641962956,0.113834498425448,0.100200871752498,0.0772950705049483,0.143986091629296,0.122521327044501,0.0888339770906607,0.156125534593243,0.204626729170397,0.106908491140582,0.130829418703253,0.161638662740157,0.09645724049622,0.0917973813589395,0.0841243481090518,0.141867822535423,0.122204547814214,0.151599317923832,0.100311784546383,0.162777655594052,0.162902176298715,0.0740321084018965,0.110682733812998,0.100461724650252,0.080976125117868,0.582277743844235,0.370647693002692,0.559904353054139,0.114888283513024,0.114097474197903,0.106417715458631,0.132004859661784,0.0922890192466201,0.111610500283347,0.12202277427948,0.20274404175973,0.129871777003367,0.0938378887788384,0.0887198247227969,0.092930258938569,0.101198180441626,0.130721156858947,0.128828556377595,0.091622908927694,0.130659095204675,0.204816947655572,0.101576119837456,0.0988465276189722,0.1525854675591,0.158108070042091,0.112565350105839,0.130898979108151,0.128429170334272,0.15952515752773,0.0690726962112212,0.0672970318644856,0.11325821516394,0.150757566379877,0.378471405232092,0.152345576008527,0.0935177764122714,0.271420385171452,0.105245848435247,0.104334323281303,0.140779972992243,0.23515231770499,0.193644941868854,0.194246437106668,0.154642149278349,0.102049793212474,0.126369615186746,0.204697538130128,0.241362332760776,0.129033289173235,0.107503484165546,0.157313655755015,0.118679270027236,0.433274511820095,0.106148135910242,0.225098737102174,0.179983623756081,0.116434837522557,0.0880753231794365,0.111088551714429,0.240406820929026,0.0843334330569821,0.156717968654492,0.405403313239545,0.214606535409721,0.216540650623444,0.128867800782712
"26",0.0901700633740712,0.117061414729744,0.0884678657933441,0.109712340535018,0.0850801816888228,0.0971484011442078,0.115205747388601,0.0817413863491885,0.123143971954729,0.113893031072837,0.107644678141857,0.11630733533947,0.0777567376354802,0.113916060336149,0.107692037107251,0.0883022781539243,0.0793856653992542,0.0815421485482042,0.0978936829112373,0.0982725633072462,0.0839821904519232,0.0784440986486831,0.085387316262634,0.0867587297562896,0.104642777895842,0.359059106717655,0.0916485930875836,0.0901112848749061,0.28143951990189,0.113893298882124,0.0681908432736912,0.108997437168712,0.0995891409286306,0.0799202696776403,0.083844788609569,0.150397137041751,0.5085198814609,0.115684178161199,0.10918753858299,0.191056461983626,0.123077411508122,0.092673077435085,0.102323698747789,0.113312657169699,0.0978697834191687,0.120295259033837,0.0868625607006149,0.152284603445531,0.0913894590057044,0.146945403957305,0.129421750049878,0.0937193046847075,0.0879153366457132,0.0961335336442585,0.0982362577425213,0.125216777508607,0.092289778772383,0.137827951529543,0.235131697661486,0.0930306599732739,0.104088474271699,0.109330320110306,0.110393414480966,0.0822858400540134,0.0631459289761974,0.13218149421511,0.088170768136147,0.372499084788272,0.0915216265492407,0.0947750551312418,0.101227304989967,0.103420019538052,0.0951975979719714,0.0985979937488573,0.151406280004035,0.254053648150292,0.161700750929991,0.11811019889084,0.123149460909577,0.311431111630384,0.126282309063764,0.178701008354528,0.12504268368976,0.101837293625635,0.160724872355011,0.156101390076212,0.0948590521400074,0.261407603229185,0.175972012834368,0.225282061563225,0.112567315934073,0.0809181873595256,0.107497192301718,0.128505097773269,0.107240330472454,0.155497114727868,0.106312856793258,0.317272346094483,0.135075742557922,0.116642652334187
"27",0.0877344806800289,0.101614111592532,0.081483272302579,0.10239912922266,0.15586392435981,0.0975414137871726,0.135079037165881,0.0816935120344097,0.0881254391986305,0.10736130331416,0.284950648265663,0.099513599197143,0.484534376177256,0.627510702854999,0.104867470726894,0.186325245894256,0.239293569607802,0.0830534791646525,0.0959270104123932,0.0984818777144486,0.0889188644917836,0.073658074990766,0.286200352150178,0.088353903612193,0.104693975860164,0.234584626934924,0.095592043746685,0.0846400427680419,0.0766852607888706,0.105259111507025,0.134681444408141,0.108360860684863,0.0952278549300899,0.0796174498041516,0.283519121725456,0.403713727265378,0.0864103698868338,0.108360152569068,0.112053275809579,0.0981773896061899,0.199511299059331,0.0993605886572624,0.101153392473646,0.109191905806942,0.0928954070913167,0.119607340664469,0.265070624892936,0.273115010401787,0.0923768012724725,0.44638083947578,0.13246753623658,0.0866382115698592,0.351855349364206,0.0946521313181374,0.115495185382483,0.127457573093556,0.0946483458575112,0.110764686106582,0.105903847330353,0.119058771609887,0.148093819344299,0.099427752885858,0.111994291970229,0.0702411716631823,0.156554650355202,0.218580491541521,0.0806699912981876,0.117571488873752,0.0925668778888084,0.0942652554817195,0.139834365144831,0.10353681321901,0.100749314847236,0.0996244847350667,0.222682247449708,0.0859789517990539,0.171334696710629,0.117476495949443,0.11384145266129,0.595406336303944,0.0819571356017854,0.0538902106749806,0.126738221421202,0.105529201030016,0.118410381001256,0.111513758278981,0.084166949455439,0.199146172986654,0.108260477432763,0.136220924353025,0.0983022264523093,0.0756723206926577,0.100364435386987,0.10514052735897,0.0741976331071554,0.118844203042298,0.108137377008831,0.0991728055018061,0.114825711660588,0.115455910119832
"28",0.18485943150557,0.100201950452849,0.080751726739469,0.10173361136403,0.0750718712005714,0.0851427506957861,0.104223058059189,0.12366857350596,0.0892791267763756,0.108452009697478,0.0937100373398219,0.0929597648353737,0.0784089128161201,0.158446412016829,0.102643505073457,0.0928745206057799,0.0761353009250316,0.0701970971819889,0.0956071131404435,0.0982869666290336,0.0819883509136297,0.0765837459925085,0.0954248172817467,0.0923067691507441,0.103035359133505,0.0974182299402636,0.0943918316757103,0.0785800762401721,0.0817960735734227,0.233548945005454,0.064173656849222,0.103566403244729,0.095734832236803,0.0761859121937939,0.0802984212950071,0.0958302276516286,0.0805405376656742,0.110561296294449,0.125738066307713,0.155029079275577,0.132260771905744,0.0940120420196485,0.0818988633417153,0.16631410596212,0.0946934275331149,0.108411630991236,0.0845809386499704,0.107521232832597,0.0915487316425195,0.131335471904254,0.110063926753821,0.0924286186102025,0.287771988467372,0.0937131239746894,0.105160637950487,0.0940340059961976,0.0922102252413088,0.0948373303396406,0.0970936235284446,0.0822025277395806,0.0920916662597118,0.17987665113973,0.101702650215376,0.0816273453968441,0.059838885844899,0.0985346384754393,0.0826802751353058,0.254709109563419,0.0871610428550444,0.0888722331666784,0.0890219099114097,0.101796346983431,0.0844455608595533,0.0924168295159883,0.481250132249214,0.0823896727744638,0.0808275824248564,0.109185843322411,0.0927363285314493,0.0916357368618356,0.0802153759983106,0.0472419948946423,0.0932174531440246,0.100802516048526,0.119530414082404,0.108688090144638,0.075915302896234,0.0920250350996524,0.0995598617172313,0.158132592636017,0.328469875510315,0.135204121521701,0.090024826015698,0.0859043023456506,0.110167137046048,0.130186980511955,0.219157090214313,0.0936064112756225,0.103822303860809,0.122745754928733
"29",0.0950871384299251,0.0995986422928069,0.0794199565314812,0.101113292160157,0.073633948510127,0.0907966662153742,0.149028995738509,0.298659971487261,0.103521563760553,0.133823034489239,0.0809771834834942,0.0873307649876719,0.0881735789005512,0.394956966732314,0.0919798973682767,0.0865879785641696,0.122855170044663,0.09671986111766,0.0910321128394458,0.0970020033078323,0.106379023327637,0.0746138502145867,0.196615071740669,0.0712996964775408,0.104728421716882,0.190113388767008,0.0817570784861773,0.0697539643181955,0.087909233471091,0.0904579237208773,0.0644141400483396,0.0940876659431142,0.0932584268709705,0.0786050741903268,0.187989978789934,0.131496188570951,0.454279526512945,0.109706316131456,0.118270088159088,0.518367662685774,0.106029032600948,0.0938108517306229,0.0757031509387224,0.0845982035716556,0.0988194324377733,0.108965129918008,0.0801996265471547,0.104802105454289,0.0908482403780183,0.0997706373447298,0.117049378336721,0.0876483121049332,0.0849529099616099,0.0935395372941451,0.0895302202149586,0.0923470593985155,0.0851835852343485,0.101465611717845,0.104740545122829,0.0978700720226224,0.277986951757666,0.098594882883808,0.101747098585602,0.0712319869576959,0.273312409813276,0.0862693667788755,0.0827254205510455,0.171071251675169,0.100309841981275,0.0924312950494037,0.3801538455785,0.103583062622092,0.0832833320252342,0.0908806372377753,0.075968449897628,0.0831404948222956,0.0906856687144615,0.11009746104424,0.103281538291068,0.193281345652846,0.251237704519985,0.0450558095450765,0.0953043264609656,0.107201351265649,0.118116936394678,0.110306744420976,0.116487096068523,0.0965990850137523,0.123260115788755,0.115672269332,0.0967711353268794,0.0778723466040328,0.0881835628828415,0.0719539106195277,0.0754048644423216,0.121019365260112,0.0994119931839337,0.0981665159064507,0.106565896676765,0.128422016516363
"30",0.0838417311813042,0.318100388699841,0.0810257736482232,0.0966835909958207,0.0765931859445887,0.0859614729431753,0.102140030032955,0.0857332961398308,0.0869663693925978,0.108941906759132,0.0707354349937998,0.0883714024593588,0.0754062973297461,0.0684676066978926,0.157550196837282,0.0829409048762614,0.215538669278442,0.0776818496853368,0.114494058246877,0.0932310758906112,0.114348846661319,0.0795269641093136,0.0858462483238917,0.0688909612730076,0.102328823519786,0.09277061984275,0.0880617810726287,0.0768185590182041,0.0952240104303891,0.081250135595528,0.162346107280701,0.570528755221337,0.0947793674363732,0.0758822816230279,0.0778315678689915,0.0951474447184866,0.0760944238347244,0.111790950370629,0.106379987557239,0.524152144983576,0.105911691459224,0.0877278918714175,0.0744296696210264,0.0922081099937213,0.100365162653046,0.106366364868217,0.0774028088204289,0.0898936704689566,0.0929475290078664,0.101076930500295,0.110789436531234,0.0841721205135311,0.0848578282625527,0.0953136116129929,0.0908271569443165,0.100590547956307,0.0868181253262857,0.0884177462852782,0.101058258339902,0.0832097852368446,0.304231480815662,0.0966166274293025,0.0988436496651205,0.0735931207789989,0.0597152536353568,0.220842452690986,0.0728924963843065,0.0991828962291901,0.0900097663047414,0.0909638023915456,0.0895656484485728,0.0992334255320843,0.0827207948289359,0.588800378843341,0.0667266196817236,0.0754254482106921,0.386934492977907,0.108323254122555,0.0921916730697432,0.0771311222527768,0.07123141683327,0.0980520155356446,0.0925787583203994,0.0940363592219355,0.113555657369436,0.107710943529074,0.0746725619595756,0.0897697055649152,0.098369499279635,0.11732751578672,0.0941787366473353,0.0823202252173531,0.066355194748228,0.0709343237492562,0.0711585536016254,0.497237493615237,0.096710006970654,0.096346101512671,0.0969449365454244,0.0975053511560996
"31",0.0805972275871319,0.101393342999375,0.0802758227720119,0.0931974927017544,0.125496242186272,0.0753962492416729,0.127381228633297,0.139024974002368,0.0917442304131501,0.110988021769342,0.10455575885678,0.199201844777077,0.0707902199908296,0.0716188190158746,0.0871840442085396,0.0818234659837051,0.0819941144188856,0.0688456759117899,0.0900105433758531,0.0921003795603692,0.0730139890853116,0.0795803288069204,0.084107965491911,0.470376199031193,0.0963256366765456,0.101352047498523,0.0843018172955239,0.0786851777321866,0.0853072409687628,0.0870445596398474,0.0703684565239199,0.0993127072162373,0.285922712318162,0.0696858338391576,0.113814932603425,0.0973384629299695,0.0930675830625556,0.108531276454129,0.105468995655893,0.252659453930116,0.10757677202117,0.0854193967822754,0.0735209020392838,0.135336208794719,0.0945324083059463,0.0943206190851321,0.0779718469590736,0.0890004560802445,0.0928930954759198,0.0932322125137776,0.13650460169088,0.0894969782550361,0.0723608391828091,0.0926607719220121,0.200305568668896,0.0878022742004409,0.0848489742594872,0.0888459496397729,0.100297230644891,0.152075279058493,0.100802379823196,0.0896651099621849,0.0906596135478,0.074427654228096,0.0612067361835299,0.086193865121379,0.0763433083182428,0.134650048474187,0.0881240463184743,0.0919352748969146,0.0871444106259406,0.102174926159316,0.0725766669165127,0.087885554752702,0.071529591259579,0.0803019711014852,0.092341606046859,0.112225562306284,0.0961917219855272,0.0763987023283796,0.0984404914437958,0.0434189900991839,0.117754789617849,0.0938029649721373,0.10531318636191,0.225897058180636,0.0752776563911928,0.0870035900204306,0.0953631198456244,0.105189268009142,0.0938315421029634,0.084151246256726,0.0787516518765249,0.147466573859227,0.158951834576106,0.119021787494634,0.099050231205428,0.090484278446795,0.0953163120137715,0.091261877188376
"32",0.0835928376096558,0.0982843670588794,0.115454419904641,0.148727930395534,0.0741871084471737,0.0731854493555936,0.10227457890329,0.0801403033416064,0.0952940877764061,0.10934024700872,0.0681259164984886,0.0843578646998561,0.307897954592749,0.0783525260648931,0.241254573682499,0.0782310445961704,0.079095032134056,0.0691429607061417,0.263624463421868,0.0867641029635967,0.100122743616057,0.0783011880882857,0.0829129725562629,0.0759480688960998,0.0930618598066941,0.0979201219561362,0.085821306945883,0.0759797569543683,0.0847608857728205,0.0853101433535401,0.0749469073678254,0.101765104268581,0.0958307519261273,0.0692105141031297,0.0823034280345697,0.339202602018517,0.0845798490280781,0.104301677064007,0.10681729430505,0.17475062589356,0.105831754939144,0.0800119850594903,0.0686972202088621,0.0952607062853989,0.0946027383283427,0.0938424002436226,0.0793256404682444,0.101717831174931,0.0910151636797659,0.0981196237345174,0.100395945420652,0.0875555579341923,0.0669780881836864,0.102332683497056,0.086697762128474,0.371396368012868,0.087871023010734,0.0900434225344585,0.0971798154279511,0.0810741385972124,0.119135731114398,0.136469389769565,0.085956322592085,0.076899866144777,0.0614159401167186,0.0844726642861321,0.0758925477386529,0.0901653191063898,0.087450353357945,0.0790482527184246,0.0990499502616462,0.0969717869119107,0.0686094349842134,0.0887005218731129,0.0704455517666898,0.0824987637903583,0.0881824843975809,0.109420431863547,0.0947119464714527,0.0737782676976552,0.0650689152288046,0.0414541745192673,0.0855319276993037,0.0920771006946387,0.104333548691237,0.0998838035665023,0.516171182814211,0.0716952599275978,0.0992490811535794,0.108384930667245,0.090736293528746,0.0809973095096627,0.0650392494752449,0.0700494876524554,0.068854573942956,0.115754195713987,0.0936474486709312,0.354438278578256,0.0975262292503798,0.0896216404244944
"33",0.0826228800861473,0.0979759483646531,0.082573056782684,0.0927459766758166,0.0739915955828859,0.0766460849867071,0.103689493737359,0.0776926499916269,0.0838886334929959,0.0926350232114771,0.0683419148067061,0.0841970387212756,0.0672712511722003,0.0692572402109692,0.0855325197735313,0.314977438807735,0.0754520065255817,0.0694151294506928,0.0862401379562946,0.0808027020489438,0.14339799472557,0.0784538127373543,0.090444999024527,0.0722962095109961,0.0938567817972219,0.33039708599906,0.0884682597080624,0.0802456742992599,0.0869262652773657,0.0815558704244912,0.192688406095359,0.125642916268968,0.0919560165435419,0.054912987674088,0.0781683600419084,0.0886769531563625,0.0845050411463618,0.0997809137471274,0.104500288398972,0.106262252463145,0.105041706255717,0.0764553156081442,0.0542911112165195,0.0939819967022369,0.0975802046274919,0.0920686799425878,0.0756188855109558,0.0830583502138525,0.095911196600552,0.0774901060397212,0.137776540563785,0.086250376366285,0.067827075442233,0.0992656050412549,0.0858318344641698,0.0798236310072901,0.0836143044817409,0.0773010804529669,0.0973537455072552,0.0848584799612757,0.0874122536304778,0.0873948745243376,0.0801711524254297,0.0701548095093807,0.0573290870673595,0.466074681819372,0.0752850516402665,0.311181194596219,0.0858316674404159,0.0782064581086467,0.090852106047108,0.0988915794670487,0.068496584111928,0.0885294799560015,0.0760689680529009,0.286880292361537,0.0858972114312446,0.0955766844330481,0.0906908898617863,0.0760171766243111,0.0561522657374659,0.0459073726304535,0.10047281598274,0.0799638308868432,0.106948837439441,0.100929990376245,0.077589695490577,0.0797072824803304,0.0967651712287496,0.10249316912525,0.0957823007042783,0.0842351881405314,0.0614104510140647,0.07392454664853,0.0707472316155246,0.113342125859678,0.092892610010351,0.0984547305055796,0.101282703205245,0.0779942741901372
"34",0.0815060042150445,0.0843598601936215,0.0780547920916315,0.0764626116991515,0.0657548496155467,0.0754033465407695,0.0871000855021876,0.0783294347967179,0.0926315430612193,0.0926148840026691,0.064102740836226,0.0830769153804582,0.0572410598416585,0.0706932393786285,0.0873434834347901,0.0976660421650342,0.0777622574271828,0.094601506903447,0.0855659200415217,0.0757278845208549,0.0688404656422399,0.0806251698443417,0.362330209311809,0.0736596717538896,0.0942393653464523,0.0983004095200452,0.143314165366707,0.0790312317723979,0.0828787775287587,0.0814328134939483,0.0730663378753385,0.280445574281345,0.077242239089961,0.0586051570469311,0.0809377846407548,0.0871814666308072,0.0792847647489879,0.0864147023115033,0.0948815449654906,0.0939580498892967,0.101928483736988,0.0685632279446947,0.413750542876249,0.0974152213999328,0.0802751714252382,0.0875481066461754,0.0793885407573306,0.0875515123908137,0.0921868932817168,0.0628162196863729,0.0996901900032542,0.0874136111045453,0.058340110835174,0.473727916091115,0.0875636979851431,0.0874595550315898,0.0813884166455842,0.0856760133866295,0.0990873828655861,0.226756570761947,0.087464128733406,0.0887535346535138,0.0773350608288154,0.0742190379809171,0.056248191409712,0.0850233140982922,0.0771426539593086,0.0959292435073891,0.0782591707416483,0.0804497894319488,0.0855865125169349,0.0965670566473699,0.547939036877109,0.0873381950865243,0.0752108455940827,0.0837615220182525,0.0908394161967824,0.0955892334338236,0.0890328312844399,0.0687819040651469,0.0656817873287926,0.0413512002661977,0.0835271686784748,0.0863991082918579,0.105592961671915,0.098400182399365,0.0741614526199834,0.0772672672578286,0.0683585788427792,0.106383948453889,0.0933025416040847,0.0836465348504144,0.0638277539164943,0.0719641669955714,0.0686589376885341,0.105854941703828,0.0908211506803378,0.099118046616464,0.0945675539990575,0.0719681570361034
"35",0.0750560137262353,0.0982625463962386,0.078362817239916,0.0833585397113453,0.205600360572182,0.074399706574198,0.0842909806067195,0.0814997579600029,0.0946572248442471,0.089566640326095,0.153553044694999,0.0811796844867581,0.0648437610984297,0.0724943833271205,0.0864355138619397,0.28948141895812,0.0935293631134377,0.070682675616491,0.18454510126177,0.0755966917817633,0.0667245393539122,0.076029271113946,0.091250281056398,0.0676932230898345,0.0921329527215071,0.0964592220351898,0.0830472651644828,0.0733914387642684,0.0860458263123683,0.075707358845439,0.0729846681086092,0.0883528580372014,0.0806005096804096,0.0670203486715499,0.510065915131341,0.166314160596129,0.0754685090618711,0.156660003247068,0.0897434218944698,0.0887226446570454,0.101841602454415,0.0685926671888327,0.0443927771287075,0.0954512721537332,0.0804000920318648,0.0872813392073399,0.0656430717649663,0.0858301246132664,0.092786957680152,0.0669402780990554,0.0876249337787401,0.0842442005455502,0.0614447025273135,0.0948913323017972,0.0832915700808003,0.0891929711359015,0.0823119759207224,0.0865303555456738,0.094075411225684,0.0810834223028146,0.089237728584228,0.0876802134972554,0.0794941144449783,0.0761603835148168,0.0580926446483555,0.0789510083805325,0.0581284549280741,0.0842334461642011,0.0809837198658005,0.0799479629395057,0.0850359785662873,0.0849699333910051,0.0658966613632839,0.0814241108628512,0.0740701263065816,0.0871362034413048,0.0813132496860183,0.0896981983510563,0.0835374905300744,0.100319930477843,0.0679799704481688,0.0446358298301439,0.0905218085313409,0.0936540477413854,0.1010986891045,0.0890735856410785,0.0715856403622488,0.0770153419182083,0.0849839491394452,0.100252943710801,0.0929763564826113,0.0981485358221703,0.0607896548211691,0.0748946353056593,0.0751551400990427,0.105060577370799,0.0887776691104207,0.0968098120688086,0.0871643217810487,0.0756965637693833
"36",0.0714261070111395,0.0868786784341699,0.0762933742475111,0.0808679003409289,0.066114482981065,0.0711152213989205,0.0861351405481495,0.0828016719857778,0.0836427955599852,0.18405800075112,0.0829037940671945,0.149160608404357,0.0537547107308619,0.0715299712745568,0.151869724031653,0.0829825618988,0.0795949436705482,0.0708135086383554,0.0753137015659276,0.0739221484660266,0.0721669030346833,0.0766342564009875,0.0853478444443177,0.0727299569702055,0.0887216451578965,0.0937927499581477,0.084712087874761,0.0833551282601681,0.0880091941492918,0.0785020821237647,0.0704438260582968,0.0943989363638411,0.0739827820822986,0.0617437756189604,0.0749998253989341,0.0893197233367724,0.0799187659256236,0.0976921102728989,0.0802380557989928,0.532510227927246,0.0947801831963937,0.0691921998037687,0.168732596075062,0.0938429113492002,0.0820629421098282,0.0817647861175498,0.0665019562567528,0.0809817279236267,0.096383422887924,0.0712137543032796,0.0888685713380351,0.086765772233281,0.0660048265566191,0.0970205403224703,0.0853203964473273,0.0681192011544319,0.0805223802114192,0.0785104825454754,0.179734830392363,0.0819000429445219,0.087563788780965,0.0812469292429293,0.0787701732650888,0.0759359116266131,0.058346417673891,0.0767530217732709,0.058033916232725,0.0904183787440581,0.0748804638922176,0.0712206760627689,0.0841523190387679,0.0886768111398562,0.20288527022229,0.0869614337167273,0.0764424029103685,0.088284495082782,0.0825353051580065,0.195166277535051,0.110009578538983,0.0723585360309193,0.0651341254771301,0.0463425922916343,0.0849226193613963,0.0749232317045773,0.106423322589205,0.0863932031099085,0.0748960414419607,0.112229566448171,0.083802574614437,0.100138536329681,0.0936315035003517,0.0861936483123116,0.0603374106954578,0.0725527790816568,0.0733726202455019,0.103486330299027,0.0882498185796194,0.0998659828788894,0.0809879661543576,0.0764339731398699
"37",0.0777024902427333,0.084390747799493,0.0782911435203173,0.0798359435306466,0.0650616827030615,0.0683502244888668,0.0868871015696067,0.17803425974376,0.079663940899485,0.0805090140293596,0.0743321760613427,0.0738038022280011,0.0614065466314609,0.0728391835721033,0.0913109301131018,0.0763176468475908,0.0711908370181999,0.0691417918003193,0.0838182120016681,0.0748566344763609,0.0640525439748644,0.0721668033107181,0.078252787091801,0.0762155302066331,0.0884521603241065,0.0945262102862876,0.079486663208008,0.0767515127646744,0.0855962137593736,0.0746575341454918,0.0725648678657144,0.0857459113715712,0.151051056780816,0.0587766832133255,0.0715189632314625,0.0914666371235295,0.0781515902369591,0.073635191982223,0.0818915431219288,0.0922448425588291,0.100661664889368,0.0697982226709958,0.550970635280699,0.09700023694993,0.0798462189565081,0.0898463175260075,0.0649910222556578,0.0747647793405334,0.0959023190956991,0.0690167237149156,0.0882418560164146,0.0823532729309377,0.0515869266069202,0.089368027778582,0.0847078822133349,0.0696806171992524,0.0797651885581568,0.076454273701131,0.0890390623227025,0.0932742899812288,0.33219084672229,0.0889338540163475,0.0774804825496671,0.0752195221943635,0.0598237388623555,0.0758037212019239,0.058192008433395,0.0900348484183119,0.0798003568089471,0.122700421316809,0.0849213787997627,0.0861060653012598,0.061466286808665,0.0846718671205515,0.0798353664165034,0.0911268990914035,0.0742734731668521,0.0921757458784922,0.0745592455619523,0.0729888927535116,0.0625069093167615,0.0443890881033176,0.0863124706718128,0.077911047492014,0.174474412893272,0.0820190018811967,0.0724862666277947,0.0758106187853598,0.107614115015123,0.101205834243552,0.0937857309023234,0.0820811987135711,0.0598340473042709,0.0676855530248394,0.0725253863602571,0.100423639178697,0.0855710143889837,0.0956942251510236,0.0756984901307126,0.0758206520145532
"38",0.077629758353156,0.0854147922943217,0.0762880080370108,0.0758182787255789,0.0656738096560476,0.0696732171952661,0.089042971733917,0.0733317649845934,0.0802555857899473,0.0809897922639799,0.0675499020234123,0.072591953272954,0.0615016300541543,0.0748271987945508,0.0924581041129789,0.0938069522920161,0.0737994472247897,0.0718319978796764,0.0750522484430136,0.076785064187189,0.0703856725730619,0.0768682486057067,0.0790178323473482,0.0742128262612859,0.0888569035715368,0.414025192866025,0.0769084514230692,0.0632870967792712,0.0819789883929322,0.0749126776320465,0.0728256566503075,0.0837302328149969,0.0749920277889161,0.0586815379202123,0.0695375671894612,0.0894752027869316,0.0671832466729754,0.0781363977620937,0.0804185414265646,0.0888958888472054,0.100671465719659,0.350118712871027,0.041533257182037,0.100082965842355,0.0741308041383765,0.0911050408132261,0.115378211904212,0.0768337282721393,0.0957026561609929,0.50149589847942,0.0937045278843659,0.0791155932775151,0.0507501288009969,0.0924437751800346,0.0830645973777128,0.0693910607273487,0.0769601112429684,0.0740509083710093,0.103952877186809,0.0747526454174784,0.0785552034021281,0.0868394191679798,0.0779950126168091,0.501506791023037,0.060349223984613,0.0747327553825573,0.261395028489666,0.0902695525957041,0.0784265842453933,0.0719525085085194,0.0833070410882971,0.103109865810007,0.0621180394131709,0.0848751377452599,0.0730278589735324,0.0993867542646757,0.0830639589172228,0.0923532908509303,0.0747982774837292,0.120512026877611,0.0640340983790438,0.0478324636015961,0.085547861216041,0.0746397651817452,0.106695275408889,0.0780399119374242,0.0719361058144511,0.0783732873430723,0.0843981525581742,0.102705153750701,0.0847538387245729,0.0774470588611338,0.0666717582167749,0.0745462259550517,0.454832614547329,0.0972184427148765,0.0864360528058976,0.0891963849240809,0.0924533148993238,0.0673480012674827
"39",0.0793175249400151,0.08610685606257,0.0720034742548301,0.0776609725927077,0.0645811818596175,0.0622607537448862,0.0907786779410607,0.0724037667862459,0.0846075768629704,0.0850069060040682,0.0644260992065878,0.0701046065744173,0.0530996927165118,0.0694436399185608,0.120929845025124,0.071910672654151,0.078220634173282,0.0703572579903867,0.0787016601832643,0.074701003608944,0.0690032557560371,0.0763632824476991,0.0802334983266846,0.0684659276847868,0.0890500367858814,0.0880561026815614,0.0808118447726412,0.0726872991032418,0.0809274427658237,0.0758172411320155,0.0976988496945556,0.0859610690631954,0.0809810533593651,0.0579976044530967,0.0703039200909281,0.0773709958650892,0.0662742879762814,0.064665667672623,0.0808092663300116,0.0890712794045833,0.0995156182590616,0.0647802218249843,0.0403592722755898,0.0928920446189227,0.0736649126128106,0.0918575787041561,0.0670708302642136,0.145149494427614,0.0949946458858096,0.0663248102820659,0.0874538349960688,0.0715225285764692,0.0485974937539784,0.0919415166059014,0.084605661741645,0.111147637352506,0.0785856476503587,0.0777971178142149,0.0864577168430505,0.0739326873759076,0.0777030623273679,0.088960820246719,0.0753267900947035,0.506702158454542,0.060166162852294,0.0737201775773045,0.0578588611043562,0.0877222183621548,0.0803422409033144,0.0738443242376701,0.0814616170638615,0.0822851417870535,0.0832120729505312,0.0842220770697663,0.0779166412860307,0.130547246020124,0.0801957377356218,0.0858342083044596,0.0756062298359492,0.0735814376841521,0.0624030666687256,0.0462897167788875,0.0875306316753051,0.0727801407226336,0.104835392908653,0.22904156279396,0.072906662793823,0.0760887783046561,0.0840241716076246,0.152910528956072,0.0781406671349998,0.0841074451799449,0.0666269842921787,0.0706672381768786,0.543517900256176,0.100125543085503,0.0820073936901005,0.0889803663696185,0.0845427553879358,0.0669308025477507
"40",0.0674502175632017,0.0810697806344083,0.0689558751105534,0.0743218643680114,0.0645371052666595,0.666557888291917,0.0877172209081064,0.0748906482116786,0.0849597938303488,0.074683609044664,0.0678071254117422,0.0749043568827977,0.0567888998664587,0.073792565370529,0.0918682732720457,0.06711320406761,0.0752932531423024,0.289705807179285,0.0748763443273032,0.0738591711246356,0.0692716145049748,0.0714021635109498,0.0787831530679387,0.072742357548188,0.0888365632956653,0.0876179621529002,0.0766790230822207,0.0718699919928512,0.0780736221984055,0.0798266566720719,0.072853366650021,0.088165389396945,0.0749977823667491,0.0592583790462695,0.0699355489000832,0.0869242902158664,0.0729421197610204,0.0655701974084398,0.0775764917606676,0.086636814635367,0.0984454468373734,0.0675457572296357,0.0433675741104555,0.0916949651961331,0.0722587365219325,0.0893360045321236,0.0665140728972315,0.075580095731983,0.0932774449375805,0.0717220282701417,0.0871091976807391,0.0723757081964384,0.0475354338958125,0.0872828655390585,0.0666592932709901,0.065625168022697,0.0793431846012991,0.0765761693099716,0.0906551968409002,0.486743841927768,0.0792906327808684,0.0854819854050322,0.0761542533753913,0.0741183374609164,0.0548445290863782,0.138616514818437,0.056318312088019,0.114753344316574,0.0758484567522558,0.0684725305197598,0.0925252001008128,0.0785571133009192,0.0615242081277648,0.0836791400513763,0.0753044560300435,0.0859199867114517,0.0868763328232645,0.0879234832508621,0.0761350909846923,0.0672659974765938,0.0631020322693529,0.0475658270277992,0.0884173515143518,0.0696104542658038,0.0832369626247449,0.0832806759149046,0.0727838765660104,0.072158979768366,0.0867639619846889,0.0977139783653026,0.0823971808447245,0.0815091776803006,0.0656283717576282,0.100528325154388,0.05760596733232,0.100504289707055,0.0830574659804931,0.0793026131098657,0.080958093143215,0.0707358304277411
"41",0.0766089723199562,0.080667021683634,0.0610121208429279,0.174376072834237,0.0622929885477967,0.546142315375464,0.0767239380818816,0.0702982190195049,0.082749329598464,0.0737653729848444,0.0683197696714689,0.0753456164676823,0.057192360441291,0.0663714574643134,0.092267398204561,0.0731320770037313,0.0787622651897511,0.0660929133252406,0.0706394505932727,0.0745713921323513,0.0661753263728349,0.0692334182047016,0.0782198514269616,0.0732135426293249,0.089116738571028,0.0878655098075469,0.0775997682462704,0.0730774442608254,0.0805002523224992,0.0788130592525107,0.0727480233913693,0.100383527477696,0.0760309751242836,0.0574109488374059,0.0722703538482126,0.0870642772249854,0.0728216137024749,0.0684371980885941,0.0794078138668987,0.0912372828171064,0.130936824055228,0.0674240346161082,0.0472816700034571,0.0970369999957412,0.0710243221807055,0.0897533002074336,0.0643440520276542,0.230978677796373,0.0932167544168056,0.0673190838191623,0.0851415720162855,0.0700309010833553,0.0456299245835029,0.0889243292404575,0.0710277276436564,0.0699494661409943,0.0781396352860656,0.0809164002661098,0.0834697532982493,0.0740341339233057,0.0783240152831262,0.0862474784976498,0.0793840133419846,0.197563550637886,0.0503557442976912,0.0632615029246789,0.0543540536741407,0.0824781909363343,0.0784161992813813,0.0665677214010771,0.0855353201267248,0.0798273357982567,0.0646775037533272,0.0811253445524562,0.0759661866427043,0.0883044341275751,0.0857340203539947,0.0858823049035737,0.0781836431293395,0.065592207093725,0.274404183756633,0.043996844773982,0.0869341045746968,0.22866740628941,0.0852147892613856,0.0846531705266206,0.0708460247440913,0.0727466069663432,0.0784446710835102,0.14080191551771,0.079673138023612,0.081321215948956,0.0685130382677982,0.0738415921653043,0.0608863071052728,0.101337478855996,0.413799871346618,0.0875756227017628,0.0812667355778068,0.0655691192772712
"42",0.0774351446584699,0.0842675614890234,0.0699845028667399,0.0776913069676675,0.0602271658466098,0.0664947246810925,0.0838422366999551,0.141468537150931,0.162004163059708,0.0777291669780946,0.0623434900918869,0.075275295911559,0.439683360335063,0.500468279697898,0.0892210436611925,0.0670445083403435,0.0770156631578571,0.3450393410356,0.0693190208755776,0.0770285076462486,0.0702874927836334,0.0720882301167782,0.0766452883951489,0.0747521162400934,0.0810695316158412,0.221245973132513,0.0692365579460304,0.0746751860369857,0.0791320331689198,0.0765442832166685,0.0738539487406032,0.0865633468971935,0.0760970497423825,0.0554671198088824,0.0678047654715613,0.0865993099052139,0.0963034112275744,0.0731245988747543,0.0786202964745555,0.0948845996627848,0.100891654738518,0.0677372176309666,0.0431975015801524,0.0958980913163082,0.0730614362923759,0.0856122839413888,0.0648768826150348,0.0665727499036931,0.0924998794410465,0.0640620775031713,0.538703981689531,0.158323609760296,0.0452755796556575,0.0816673942777751,0.0683887168216468,0.0660326942418744,0.078681292494132,0.102088131594242,0.0833288032308383,0.074393925515949,0.0761820511631564,0.0835167139536526,0.0788453516122313,0.102800862380243,0.0499678124626541,0.057092818355733,0.0543754703514047,0.0817322212010143,0.0838351180022248,0.0629207032238434,0.0834387205698615,0.0737886851503825,0.0635133286860626,0.0807001697509376,0.0738790208479525,0.075889759934071,0.0868361800652948,0.0804103072958538,0.0764549694031365,0.0668678336993899,0.0602558835624412,0.0439480400516229,0.0870163739221128,0.066832268436854,0.0852491139154654,0.0825329993957473,0.0651894722404885,0.0761451992940179,0.0752835173582615,0.0939122592561007,0.082602294214933,0.0776883384639383,0.0685185993520644,0.0732789708704109,0.0550306398687667,0.104869470512046,0.0833452787876996,0.264977407276021,0.0828334288354481,0.0661889249018874
"43",0.0741658432474869,0.0792391987893713,0.340705821626751,0.0754921007878405,0.312741113946574,0.0682530850624225,0.0772392085504315,0.0701576848851241,0.0840178836678873,0.0805169300927245,0.0646038803089806,0.0707808185516571,0.0605431159239346,0.0692587732808907,0.087453690507245,0.0689394659803505,0.0715434643149128,0.0672950480795043,0.0678424800496488,0.0763679260617574,0.068679338200949,0.063791598775209,0.0679296284469154,0.069412136889486,0.0797370796634119,0.0891613653784658,0.0706716480644913,0.0687460193304154,0.0797400744067892,0.0760132624994798,0.0724260350308715,0.089213712757616,0.0729552738357523,0.0580580998693929,0.0696741910014253,0.0894260918734228,0.381543808823233,0.0717913772488265,0.218964721126563,0.0915254795988893,0.100706727673944,0.0650766402698807,0.043912003078718,0.0907185743003233,0.070236495878259,0.0834807707727041,0.0624320216199251,0.0645514814984006,0.0928501440477685,0.0613717207262205,0.0866376308548027,0.070055987670849,0.0453106265184937,0.0815665574859183,0.0611993320967581,0.0534444414431072,0.0778812331261429,0.0741016651070478,0.092422081962979,0.0778457531769827,0.07944873906931,0.0829728691175328,0.0776608762006349,0.0692554278111939,0.0489209667308612,0.0613984864556549,0.0499128395871639,0.0784917058188053,0.0843448344307208,0.0652518875854421,0.0855552104948183,0.0745930842322496,0.0633794044666066,0.168488273776961,0.0782325217614423,0.0817760243151335,0.0703176175537968,0.085750552847968,0.0701868448338326,0.0636733762873853,0.0625344287952805,0.039334721287522,0.0857192904108578,0.0700955182834734,0.086995362767238,0.0825481197772025,0.074530506553169,0.0757830676861113,0.0754794139796453,0.0967763435255874,0.0718098162215479,0.0815099448177434,0.0665660490078571,0.0615173174744773,0.0585889070039786,0.122624547621532,0.0896435055808519,0.0751547062420545,0.079792732865918,0.0655793282721939
"44",0.0717913243919134,0.0777101385200893,0.0599131797845118,0.0713496801153443,0.063134363091593,0.0626827520549467,0.0818951834678041,0.0729776777256181,0.081091790587615,0.0816303626923117,0.0667789283592012,0.0654262775455919,0.0602907253902105,0.0680742358121019,0.20982970134025,0.0617861889996364,0.0730047069765322,0.0591985645764251,0.070023264895074,0.0757857914475853,0.0670722299317564,0.0647118739485677,0.064796393627382,0.0721958468957106,0.0772089526465252,0.0828620507671896,0.0755107082381526,0.071602759661385,0.0793644539651852,0.0683876424340617,0.0661073648268349,0.483359254373763,0.312151610675905,0.0548216719355202,0.0667179132608586,0.0890541480831842,0.0682403746070111,0.0566108318731705,0.0647141305587397,0.0780169157050506,0.0963898681173106,0.0649943883011735,0.0426898589944892,0.0944026552780644,0.0724361810313271,0.085224704472488,0.0604763489533242,0.0701387850423567,0.0927126762274237,0.059876618839711,0.17935773575909,0.0759195230772314,0.039301104968579,0.17313928838052,0.0640106790365138,0.0575770259194116,0.0790814204308092,0.0753216357615917,0.0848615752695816,0.130277125856353,0.0731651954042697,0.104059828062391,0.0780022066705787,0.0702530262878935,0.0408136791732029,0.0595553105613324,0.0530119493128956,0.0836400758626656,0.0802071878601556,0.0711776302395725,0.0840686362236475,0.0709738521290333,0.0650872327155709,0.0796060664475561,0.0765764693511898,0.0757778537636094,0.0685126476786397,0.0889372031618157,0.0791388579546047,0.0567651563876172,0.0627759393003609,0.0416138043903796,0.0826276622992251,0.0631071236929571,0.0856708735687037,0.0772416266422286,0.0689456232715285,0.074836008013022,0.0757831686216583,0.096558839921677,0.0738933827580202,0.0799037099990546,0.0680551337609316,0.0618435059986282,0.0583112739176057,0.0907593226342225,0.0789428556240283,0.0738975371196298,0.0753375194329952,0.0633548641150604
"45",0.0698336280859636,0.124389452543313,0.0586713143496152,0.515027469030475,0.0580693388241997,0.0665254671264362,0.0671326837988958,0.0705777412799085,0.0811671508445053,0.0799456737582917,0.0646298776787784,0.0576909653249587,0.0565845579795353,0.270890219406105,0.085730239478007,0.0686099192559155,0.0733427268899566,0.0612235384652234,0.0670243392651655,0.0742424545512646,0.068944141190701,0.0628243282803702,0.065824098045435,0.0712529828582869,0.0800002643066942,0.0823069902915416,0.0749070503228278,0.0693625350993793,0.0786926818160884,0.0624524862482045,0.0671410418140867,0.0897187725512928,0.0714187192824484,0.0574538200719877,0.0658100574754315,0.0897729945064735,0.0717862956097131,0.066361260366637,0.0663188785833033,0.078707538983855,0.0848139908912236,0.179897104362763,0.0438485099977741,0.0878988198137347,0.072988624372522,0.0646111115082838,0.0613755482700703,0.0639054628210492,0.0784926490565943,0.0545626106092467,0.0833182319013207,0.117591370354715,0.0444235459288394,0.0823994109672983,0.0640534336662465,0.505124921399351,0.0821277418203686,0.0731640599360863,0.0829657075431128,0.0975583561523455,0.063951500435409,0.289719098060996,0.0789814039717092,0.0709468553917318,0.0513505986086197,0.0598091707313489,0.0526568628850649,0.0794072596072569,0.083650257678813,0.0667621650272074,0.0827670277303557,0.0781203366302543,0.0699144000151172,0.393980083723028,0.0793338655213111,0.072633827546885,0.0710710195601803,0.0990950422488455,0.0731488218604065,0.0627945469146182,0.0631742094134476,0.0412559147097266,0.0826677816356401,0.0657158001720185,0.0825982536620768,0.0781425880485115,0.066747652001783,0.0737060096141419,0.119485959026903,0.0896081920464559,0.072248690294889,0.0790257941373263,0.0700348763326257,0.0577168442509339,0.189401031062825,0.0924788075161945,0.0705780370860146,0.0746753558387996,0.079232234714117,0.0615154206843038
"46",0.0721811326260149,0.0654618510615864,0.05223836982322,0.0715204249587906,0.0612615330637661,0.0671195131587031,0.0687619247579666,0.0668152498856104,0.0802999699236984,0.0881903582585659,0.0654731581774265,0.0691059640612151,0.0531374668147786,0.0675667875328773,0.0849759752507414,0.0645014884233052,0.0761541109847512,0.0639779415018352,0.0688960948142481,0.073801287937789,0.0690129707960042,0.0594223590811763,0.06922838989488,0.072995950076668,0.0744306829584048,0.0728191058472135,0.0766791637994988,0.0697064499088939,0.0792913645098221,0.0730408135810705,0.159776952035537,0.0899090714093783,0.0704316237985932,0.0585985290710837,0.0673663177330983,0.0887377099971089,0.0621943282060235,0.0614360364001456,0.301189825704068,0.0727584960318192,0.100720065217196,0.061743625139916,0.0461289283821225,0.0914583890241773,0.073882481458551,0.0740767159671814,0.0631555123477187,0.0664565575964176,0.07990309977886,0.0873269037923499,0.0818914566782647,0.0676853609384439,0.045514185424671,0.0822403360324788,0.0682516126857967,0.0497237017368826,0.0809001084852432,0.0751784544043398,0.0770533177780009,0.0725734109996694,0.0702607836082815,0.0802940514961821,0.0787900602298363,0.0701713710152183,0.0546295648621352,0.058721388104288,0.0490357838590365,0.0824521238412085,0.0868203024123481,0.0584617966838565,0.0732334934171355,0.0763060320254388,0.0723075121238275,0.0784096224986471,0.525828347542621,0.074788152079056,0.0688494386202302,0.0858278919244725,0.0735768026602879,0.0630546961872275,0.058061750525037,0.0420631774565066,0.0810754040082316,0.0720057890488483,0.0810706909584222,0.0814870734672697,0.065022288633026,0.071646324974447,0.0700944333601324,0.0906398089981938,0.0682772294432667,0.077039572285425,0.0680188924620362,0.061312623840826,0.0592138706938575,0.0927659262810867,0.0722991402240469,0.0655187131570974,0.0724588021595177,0.0605076184152532
"47",0.0730705187392752,0.333872681628182,0.0587009036913435,0.311781342702518,0.0674803350304642,0.0688499507174204,0.0759479413342723,0.0620402382878225,0.0826040339445843,0.0819938600550446,0.0613503217631813,0.0994268167183872,0.0559590437536776,0.0659178924407225,0.0891847510191202,0.0602687791302066,0.0751948938610039,0.0594224347077244,0.0655808552453308,0.0999242298367737,0.071245431150584,0.0612980435426598,0.0717035935848189,0.0620348391684438,0.0764857532888125,0.0748557589308203,0.0722679309397985,0.0703521726160801,0.0811791505904801,0.0701535452130033,0.0609562431813294,0.0819978056696111,0.0742862699503539,0.0588285970907292,0.0687305583672096,0.0859561271633088,0.0720963175189615,0.069585179792298,0.0654398846127677,0.0567753196857935,0.0812923482728761,0.0583616927981472,0.49929988852796,0.0926486089741504,0.0735637864743967,0.0679994240552399,0.0639594119875669,0.0658779240546471,0.0771976448501969,0.0583042384043604,0.0824030390317838,0.075160545631836,0.0452954419773727,0.0783723358784582,0.0643591414225863,0.0519784554538111,0.0810538110098184,0.0730583942484973,0.0822471040806577,0.070335074538534,0.211571333274702,0.0732273717103731,0.0763205372420019,0.0681146602967453,0.0534605766848339,0.059015231713015,0.0999079389171925,0.0766916481586876,0.0894572225434486,0.0544901928848063,0.0767552706398476,0.0765480940454139,0.0688171704349701,0.0763386405985974,0.0746257499528317,0.0766491448663744,0.0707737779748613,0.0861204068564278,0.0744744332056209,0.0629724481885771,0.0722692986995817,0.0436367585929582,0.0824536222600859,0.0677435267956297,0.0840746833968486,0.0847886386881708,0.0597742269706994,0.069206192637855,0.0754522793991292,0.0873029313617743,0.0645633869291481,0.0725888801719887,0.0688342298349449,0.0616778409830952,0.0565394016523919,0.088508495088384,0.0628048969034952,0.066448088550693,0.0780111521280291,0.0585404322469159
"48",0.0703430324518717,0.0751338305867435,0.543140293216521,0.0714559796275642,0.0614863033321436,0.0651445488388797,0.0749882385296396,0.0630237270695561,0.0759030735501944,0.0841808250247497,0.0650198520144634,0.0680427513856902,0.0618644178187375,0.0676110040280511,0.0891313476205849,0.0677332231352328,0.0830501562399067,0.541346068981509,0.0693614759149339,0.0745503788560787,0.0685143032434276,0.0532774513143742,0.0703040750776073,0.0607994841581316,0.0772029397706887,0.0696685571666971,0.0750479015922858,0.0707336817053527,0.0762965743387004,0.0665126438383911,0.0607952491214357,0.0872137134499101,0.0744347819093402,0.0583423700089366,0.0695082581772152,0.0866639869747311,0.0685506060819829,0.0701686600106091,0.0666630647854188,0.062721755592086,0.0831301509073644,0.0595699905325412,0.0470884823911777,0.0909419543842514,0.075250091289004,0.0615986781555802,0.0609951753731271,0.0646614872862503,0.0766569636340466,0.0618537049991376,0.0808665769991781,0.0760959579379324,0.0467171548017975,0.079123998411528,0.0664760706897296,0.0507756825894543,0.079561337108075,0.07425851574082,0.0769516365897354,0.0658703578555613,0.0663869329505311,0.0745879545510615,0.0653324410045899,0.0671280736863647,0.0534472702289963,0.0562724863248938,0.162779558268874,0.0780157694326251,0.0866670483122568,0.0648732544186576,0.0761272679503821,0.069475127909895,0.0658985117408168,0.0722934194912321,0.0796333693247736,0.0716388736110787,0.0645652600066176,0.0820703747233168,0.0799294565027726,0.0655764885903743,0.0591055056205084,0.039698047025664,0.0806386888480199,0.065740293969096,0.0773859692122173,0.155551789800415,0.291195635460538,0.0657016074347344,0.0698293964357235,0.0857519555653995,0.0679698560833239,0.0788260282272983,0.0678654618321512,0.0600492500898041,0.0534256018257734,0.0908935439729082,0.0541229140241438,0.0659153895473168,0.07386710435718,0.0591192013464351
"49",0.0739893262094119,0.0694022357107021,0.0591035850756139,0.0725541703381903,0.0625621461118322,0.0648026628153857,0.0755334546362138,0.0599808968552044,0.0750307294409176,0.0819323835744851,0.0648407456650229,0.0708257345481212,0.0586306262124829,0.0671372829042771,0.094664840057843,0.0577058758032932,0.0755758611498957,0.0653042216929723,0.0672238461756699,0.0689098760904558,0.0637570438633069,0.0605098432436406,0.0715346386924266,0.0607027822847174,0.0797186636182476,0.0727809540498262,0.0752085514075896,0.0714603181686068,0.0737897995155036,0.060094995337979,0.0577841299569779,0.0870549408959839,0.0710660623884363,0.0592563215556389,0.0703568431421911,0.08633598537524,0.536220279788783,0.0697162954854562,0.0790024315053522,0.0643085749587439,0.0851787649607847,0.0638379164522401,0.180707836908214,0.0897170523074096,0.0764938210127653,0.0688528731211557,0.0602595681454065,0.0606082611775961,0.0756278200445442,0.0602215775605552,0.0827188720942671,0.0725620175855367,0.0436536064448303,0.0806988217868961,0.0665725996808157,0.0490834184461251,0.0767285384978832,0.074235324339835,0.0777683665991726,0.0671478787570311,0.0654266707434088,0.11688394220702,0.0783513234357921,0.0606122070206669,0.0530121520564044,0.0559339883684312,0.0492037510552441,0.0792510700203161,0.0848037685704407,0.0832677481557943,0.0743045396667405,0.072446965759761,0.0616567189073656,0.0716300834267786,0.0781472340225797,0.0771110833396957,0.0656880744739892,0.0822450186982755,0.0794613410250886,0.0660865419154912,0.21740427855296,0.0372449280546669,0.0809536432061781,0.063799229797355,0.0665259963336595,0.0812448655799811,0.0613732868310654,0.0655108352362417,0.0671581967850224,0.0886886093184313,0.0627060539771359,0.0764404309571432,0.0670831939926145,0.0608484701899651,0.0534654947894101,0.0897895641102979,0.0615535150629398,0.0659846948433235,0.0718326142548139,0.0586206063246344
"50",0.0684099092319499,0.0740510373684875,0.0568432082582561,0.0691620002790395,0.0538580469515143,0.059860084181375,0.0719040912552513,0.0606542632112675,0.0771450879298454,0.075604407183505,0.0670212043976021,0.0675338011240897,0.0513354642990569,0.0667465433099092,0.0895343071274336,0.0670833261318154,0.0741263960026295,0.0651597263552256,0.061662051911436,0.0591390275606318,0.0684634884292947,0.0635588119461368,0.0707506966116877,0.0595319979728118,0.0790662028517266,0.0718773659367229,0.0740765823812356,0.0680938982972581,0.0721881271151941,0.10163367430257,0.107533200623329,0.304399881757159,0.0728802996990115,0.0562002459511394,0.0700610305877226,0.0858095843921879,0.0698356121297019,0.0589229502068736,0.0656502846342358,0.0635463611608534,0.0836678725695479,0.0639746890637375,0.0469231556507973,0.0875478599944738,0.0754995175478916,0.0702760257994679,0.0618742115910554,0.0609700347955486,0.0785329226063407,0.0613910093214736,0.0980604707179471,0.0715383566038914,0.039493932207574,0.0806320896262424,0.0687083848973151,0.0557774189583292,0.0780986071291788,0.0718100291236346,0.0790224949349004,0.0646505537655765,0.0651246970011793,0.077522397392447,0.0771092475229086,0.0589971395455855,0.0522051261014168,0.0580930784773103,0.0504850929142922,0.0654297715154572,0.0872196537393437,0.0635761485716175,0.0783563840719901,0.0680067249514653,0.0641992779522135,0.0718168618909066,0.0798933857885933,0.0783180379815363,0.0634344031302207,0.0766972956141618,0.0773611470995348,0.0645404105497576,0.0605971653169158,0.0368997950323878,0.0820608969726797,0.0654200601711988,0.244417609603679,0.0786781887743399,0.0594556697835549,0.0673641256408567,0.0662293016280249,0.0788304602543475,0.0616173583534186,0.062591597096263,0.0649686747668737,0.0602135126542232,0.0554092457812254,0.0897600181374279,0.0607956803238684,0.0670249756149237,0.0723068006491501,0.072547241430104
