"N","RMSE","CRPS","SENS","SPEC","F1"
100,2.53822540600557,0.718365959229274,0.960151802656547,0.998741505159829,0.97495183044316
110,1.64192761763316,0.504340378590459,0.973434535104364,0.996476214447521,0.973434535104364
120,1.71210991902274,0.521507931415276,0.973434535104364,0.999496602063932,0.984644913627639
130,1.58149660641857,0.474919875508296,0.98292220113852,0.998993204127863,0.987607244995234
140,1.65523446384462,0.526191529123043,0.98292220113852,0.999496602063932,0.989493791786055
150,1.42820238952347,0.458054146259732,0.984819734345351,0.998993204127863,0.988571428571429
160,1.40877004400362,0.451946151235662,0.988614800759013,0.999244903095897,0.991436726926736
170,1.3636371269834,0.455843276878413,0.992409867172676,0.999496602063932,0.994296577946768
180,1.36854337890801,0.429526244513281,0.992409867172676,0.999748301031966,0.995242626070409
190,1.25766112333623,0.425397759460543,0.992409867172676,0.999244903095897,0.99335232668566
200,1.12665461445657,0.36999353408828,0.990512333965844,1,0.995233555767397
210,1.03247176485261,0.336706185125808,0.996204933586338,0.999748301031966,0.997150997150997
220,0.900369904823257,0.309963134121232,0.998102466793169,1,0.999050332383666
230,1.02748749790077,0.348314259720113,0.996204933586338,0.999748301031966,0.997150997150997
240,1.01716634270404,0.336068489905843,0.992409867172676,0.999748301031966,0.995242626070409
250,1.03556983360148,0.327506296773995,0.998102466793169,1,0.999050332383666
260,0.989153813963477,0.281547789739229,0.996204933586338,1,0.998098859315589
270,1.00810549060721,0.29127981987775,1,1,1
280,0.907178169628855,0.278452364417248,0.992409867172676,1,0.996190476190476
290,0.8240811539762,0.261091241690837,0.994307400379507,0.999748301031966,0.996197718631179
300,0.806190839515606,0.247507704198382,0.998102466793169,1,0.999050332383666
310,0.805111865386155,0.245217428617131,0.994307400379507,1,0.997145575642245
320,0.768670204717272,0.232478960060007,0.998102466793169,0.999748301031966,0.998102466793169
330,0.788811556324787,0.243067086134902,0.996204933586338,0.999748301031966,0.997150997150997
340,0.771023301308641,0.244449886943836,0.996204933586338,0.999748301031966,0.997150997150997
350,0.763829467807734,0.238143778288447,0.992409867172676,0.999748301031966,0.995242626070409
360,0.759736501872225,0.255997047184254,0.996204933586338,0.999748301031966,0.997150997150997
370,0.793651979049111,0.259079651259936,0.996204933586338,1,0.998098859315589
380,0.798410364884412,0.267333236881152,0.996204933586338,0.999748301031966,0.997150997150997
390,0.778439765615784,0.25606876582944,0.994307400379507,0.999748301031966,0.996197718631179
400,0.745122834148113,0.234928973473734,0.996204933586338,0.999748301031966,0.997150997150997
410,0.731554488983943,0.228509456510204,0.998102466793169,0.999748301031966,0.998102466793169
420,0.727300578598572,0.236637026832302,0.998102466793169,0.999748301031966,0.998102466793169
430,0.708844366871123,0.221875138494036,1,0.999748301031966,0.999052132701422
440,0.757862220780135,0.241904306219259,1,0.999748301031966,0.999052132701422
450,0.716727733435186,0.212362585239355,0.998102466793169,0.999748301031966,0.998102466793169
460,0.674578935656974,0.230391307215425,1,0.999748301031966,0.999052132701422
470,0.666026854713049,0.230926733409206,1,0.999748301031966,0.999052132701422
480,0.673737872425056,0.227758649056403,1,0.999748301031966,0.999052132701422
490,0.623270008635853,0.212022720043057,0.994307400379507,0.999748301031966,0.996197718631179
500,0.6332813551253,0.206577064987133,0.998102466793169,0.999748301031966,0.998102466793169
