"N","RMSE","CRPS","SENS","SPEC","F1"
100,1.82945747535108,0.558340763500138,0.919694072657744,0.99823987930601,0.951533135509397
110,1.64168593160294,0.516353522903671,0.963671128107075,0.997485541865728,0.972034715525555
120,1.58326780283745,0.501692502108228,0.967495219885277,0.999497108373146,0.981571290009699
130,1.38961934824738,0.457940709158043,0.977055449330784,0.997736987679155,0.979865771812081
140,1.38684381488445,0.468086606817658,0.975143403441683,0.998994216746291,0.983606557377049
150,1.55278442115685,0.505247146338506,0.973231357552581,0.999497108373146,0.984526112185687
160,1.52821780319904,0.478011345203493,0.973231357552581,0.999245662559718,0.983574879227053
170,1.17465608257552,0.3810028677546,0.980879541108987,0.999748554186573,0.989392478302797
180,1.32915730421867,0.42444567341661,0.988527724665392,0.998742770932864,0.989473684210526
190,1.24791710806653,0.414122429953424,0.980879541108987,0.999497108373146,0.988439306358382
200,1.24530355730397,0.419341868347928,0.982791586998088,0.999748554186573,0.990366088631985
210,1.11126932953118,0.403393668028272,0.990439770554493,0.999497108373146,0.993288590604027
220,1.14606560037709,0.35619279367239,0.992351816443595,0.999497108373146,0.994252873563218
230,0.992872115971081,0.36312500900683,0.996175908221797,0.999748554186573,0.997129186602871
240,1.03345724837638,0.36008225065942,0.994263862332696,0.999497108373146,0.995215311004785
250,0.997880652378345,0.358104318365955,0.992351816443595,0.999497108373146,0.994252873563218
260,0.977405865865782,0.338802435816985,1,0.999748554186573,0.999044890162369
270,1.02092432494785,0.355938099617255,0.998087954110899,0.999497108373146,0.997134670487106
280,0.96155539691631,0.327369670105458,1,0.999748554186573,0.999044890162369
290,1.00082467077125,0.35038569074931,0.998087954110899,1,0.999043062200957
300,0.95363393067428,0.315394625831305,1,0.999748554186573,0.999044890162369
310,0.898796073176245,0.300139055664973,1,0.999748554186573,0.999044890162369
320,0.78635739428295,0.278555395951755,0.998087954110899,0.999748554186573,0.998087954110899
330,0.77675377465627,0.264941122964326,0.998087954110899,1,0.999043062200957
340,0.8421203368367,0.314991579137046,0.996175908221797,0.999497108373146,0.996175908221797
350,0.830216309040972,0.298709216109721,0.998087954110899,1,0.999043062200957
360,0.786007350354576,0.27222315675114,0.998087954110899,0.999748554186573,0.998087954110899
370,0.792200366893662,0.283289002763046,1,1,1
380,0.745167253215852,0.259334428498909,1,0.999748554186573,0.999044890162369
390,0.802431007922107,0.292653610706066,1,1,1
400,0.779136653130295,0.284013390079435,1,1,1
410,0.782302974407481,0.277788542115477,1,1,1
420,0.73545138466553,0.254325554113175,0.998087954110899,1,0.999043062200957
430,0.723741532947248,0.254319568459861,1,1,1
440,0.751728403552902,0.264819711089941,0.998087954110899,1,0.999043062200957
450,0.75687235983466,0.275928627118641,0.998087954110899,1,0.999043062200957
460,0.741239188965668,0.269290742562461,1,1,1
470,0.747204533339063,0.252271676217278,0.996175908221797,1,0.99808429118774
480,0.708123862643835,0.257679041159779,0.998087954110899,1,0.999043062200957
490,0.748238304520019,0.265138567241888,0.998087954110899,1,0.999043062200957
500,0.715424885686938,0.255521488378066,1,1,1
