"MODEL","SEED","SENS"
"gpMLE","1","0.852941176470588"
"gpMLE","2","0.852941176470588"
"gpMLE","3","0.88235294117647"
"gpMLE","4","0.88235294117647"
"gpMLE","5","0.970588235294118"
"gpMLE","6","0.5"
"gpMLE","7","0.911764705882353"
"gpMLE","8","0.764705882352941"
"gpMLE","9","0.852941176470588"
"gpMLE","10","0.911764705882353"
"gpMLE","11","0.941176470588235"
"gpMLE","12","0.970588235294118"
"gpMLE","13","0.852941176470588"
"gpMLE","14","0.205882352941176"
"gpMLE","15","0.911764705882353"
"gpMLE","16","0.764705882352941"
"gpMLE","17","0.852941176470588"
"gpMLE","18","0.676470588235294"
"gpMLE","19","0.852941176470588"
"gpMLE","20","0.941176470588235"
"gpMCMC","1","0.852941176470588"
"dgpESS","1","0.88235294117647"
"gpMCMC","2","0.911764705882353"
"dgpESS","2","1"
"gpMCMC","3","0.88235294117647"
"dgpESS","3","0.88235294117647"
"gpMCMC","4","0.852941176470588"
"dgpESS","4","0.852941176470588"
"gpMCMC","5","0.970588235294118"
"dgpESS","5","1"
"gpMCMC","6","0.5"
"dgpESS","6","0.823529411764706"
"gpMCMC","7","0.911764705882353"
"dgpESS","7","0.88235294117647"
"gpMCMC","8","0.823529411764706"
"dgpESS","8","0.88235294117647"
"gpMCMC","9","0.852941176470588"
"dgpESS","9","0.970588235294118"
"gpMCMC","10","0.911764705882353"
"dgpESS","10","0.794117647058823"
"gpMCMC","11","0.941176470588235"
"dgpESS","11","0.88235294117647"
"gpMCMC","12","0.970588235294118"
"dgpESS","12","1"
"gpMCMC","13","0.794117647058823"
"dgpESS","13","0.705882352941177"
"gpMCMC","14","0.411764705882353"
"dgpESS","14","0.0882352941176471"
"gpMCMC","15","0.911764705882353"
"dgpESS","15","0.88235294117647"
"gpMCMC","16","0.764705882352941"
"dgpESS","16","0.764705882352941"
"gpMCMC","17","0.941176470588235"
"dgpESS","17","0.88235294117647"
"gpMCMC","18","0.735294117647059"
"dgpESS","18","0.735294117647059"
"gpMCMC","19","0.852941176470588"
"dgpESS","19","0.823529411764706"
"gpMCMC","20","0.970588235294118"
"dgpESS","20","0.764705882352941"
