"X1","X2","X3","X4","Angle.of.Attack","Reynolds.number","Mach.number","L.D"
6.51e-05,-9.34e-05,8.08e-05,-5.26e-05,3.395291821,5144692.167,0.758171299,20.70187047
-3.41e-05,6.92e-05,6.78e-05,6.37e-05,2.091642538,10649056.08,0.829367678,5.975622953
7.23e-05,5.86e-05,-3.51e-05,-7.6e-05,1.542285855,9756258.727,0.858143047,0.256685161
7.84e-05,-4.56e-05,-6.21e-05,3.3e-05,1.70826898,12702228.98,0.71559181,71.39791708
-1.96e-05,-4.11e-05,5.85e-05,1.93e-05,1.850320882,11947821.15,0.705847888,71.28580309
-1.93e-05,4.52999999999999e-06,-3.62e-05,5.42e-05,9.636531151,6542738.06,0.760297312,5.786260062
-9.11e-05,5.16999999999998e-06,7.08e-05,-7.61e-06,1.170374423,13021805.07,0.858843494,-1.441501696
7.52e-05,7.91e-05,9.31e-05,-3.22e-05,7.501255,9070216.617,0.749037681,8.932920735
4.54e-05,-3.99e-05,-7.1e-05,2.22e-05,9.163479505,14714992.92,0.847165886,5.317213377
-4.45e-05,4.4e-05,-7.32e-05,-1.6e-05,7.95658736,14393004.35,0.712258049,9.563116266
5.25e-05,8.62e-05,-5.95e-05,-5.06e-05,3.694699644,9111843.103,0.758975818,20.60519568
-6.63e-05,6.58e-05,9.19e-05,-4.89e-05,0.345025251,12550530.8,0.769403053,27.86728009
1.05e-05,6.67e-05,-3.12e-05,5.71e-05,5.119550506,11426882.5,0.747515123,14.65710008
-5.85e-05,9.33e-05,9.73e-05,-3.9e-05,8.6187145,9827288.284,0.745400804,7.581821696
-6.83e-06,9.93e-05,4.19e-05,1.42e-05,7.749546554,8348063.123,0.807985564,6.78517366
5.47e-05,4.05e-05,2.93e-05,-6.3e-05,8.079640865,10175797.76,0.789524111,7.02546999
-1.01e-05,-4.08e-05,6.77e-05,-1.6e-05,6.623084104,12371189.04,0.743634446,11.07272956
9.38e-05,-5.97e-05,-1.24e-05,1.85e-05,7.530891157,14137800.4,0.871997187,4.917351051
1.74e-05,-9.4e-05,-6e-06,4.04e-05,2.798605004,10945586.74,0.870448475,1.036916546
8.78e-05,-7.23e-05,9.95e-05,-5.52e-05,8.50103732,13473158.86,0.831983685,5.920170462
-3.28e-05,4.85e-05,-3.37e-05,-7.91e-05,6.934331071,8160851.291,0.708847163,13.40116673
5.39e-05,-6.34e-05,9.51e-05,7.89e-05,7.184489465,12664395.07,0.82724908,6.453086887
2.73e-05,-5.53e-06,-7.2e-05,3.05e-05,4.321198271,10044620.3,0.745469582,19.24637417
-7.07e-06,7.78e-05,7.76e-05,-6.12e-05,0.002728119,9360580.665,0.826898248,2.307885985
-2.51e-05,-1.57e-05,-2.27e-05,-1.05e-05,0.948295081,9574456.507,0.768423614,31.81273266
-9.45e-06,4.66e-05,9.3e-05,3.75e-05,7.139350045,8946317.099,0.75037858,9.320306893
-8.76e-05,-5.72e-05,8.11e-05,5.95e-05,9.398194911,13301203.48,0.800303605,5.761287202
-4.42e-05,-1.08e-05,-7.03e-05,-8.1e-05,0.360163218,13680179.21,0.758153454,40.34976411
-7.31999999999999e-06,-2.23e-05,-1.34e-05,-4.78e-05,6.808497199,10833988.89,0.846947478,6.274611208
6.96e-05,-4.37e-06,9.46e-05,8.15e-05,3.867202505,8222257.521,0.764784139,14.73276788
-3.43e-05,-1.21e-06,-1.04e-05,-6.89e-05,6.857120502,13917482.24,0.791445639,8.337004815
9.33999999981313e-10,-8.74e-05,6.8e-05,2.78e-05,2.627116785,9954835.529,0.788876575,14.27821431
6.1e-05,6.72e-05,9.22000000000001e-06,1.64e-05,5.01773724,12100122.11,0.710728009,23.21266428
5.95e-05,-3.95e-05,-7.01e-05,1.16e-05,7.389277819,6124565.924,0.865772882,5.27292048
-6.11e-05,-1.68e-05,-6.46e-05,-7.97e-05,6.210227516,10887524.42,0.883047303,4.538918474
1.27e-05,4.19e-05,-7.7e-05,-1.71e-05,7.75409103,9019335.809,0.817532053,6.650730039
-8.11e-05,-5.93e-05,2.21000000000001e-06,-1.26e-05,5.511355518,11784800.86,0.824489219,7.829686253
-9.74e-06,2.2e-05,-3.01e-05,-4.05e-05,7.705202217,6524041.663,0.860236432,5.505462827
-5.04e-05,3.43e-05,1.73000000000001e-06,6.64e-05,9.986534314,6151254.758,0.815083537,5.297044307
4.53e-05,3.23e-05,-5.07e-05,-1.77e-05,8.584545028,11507627.1,0.897466886,4.463284746
-5.98e-05,6.04e-05,1e-04,-6.23e-05,2.722638548,10982667.47,0.872064359,0.801062195000011
-5.81e-05,-3.99999999999999e-06,6.86e-05,-7.19e-05,2.263127223,9945882.405,0.803970467,11.75005499
-1.18e-05,-1.75e-05,-3.37e-05,-5.96e-05,7.786323294,10198803.24,0.857681746,5.590257981
4.04e-05,-9.42e-05,9.1e-05,4.8e-05,4.869213866,8880964.72,0.781931296,10.97600326
1.25e-05,-2.88e-05,-9.76e-05,-2.67e-05,6.564285536,12041133.69,0.824925339,7.294213718
9.74e-05,-3.04e-05,5.43e-05,-5.09e-05,3.801571026,9143131.227,0.72847648,30.53125367
-9.17e-05,1.13e-05,-3.34e-05,-1.1e-05,7.417472686,8510860.112,0.722547575,10.54100469
-4.63e-05,-2.58000000000001e-06,-1.31e-05,4.23e-05,3.959819327,11435903.11,0.74513811,21.64654234
2.13e-05,-2.89999999999999e-06,8.73e-05,-2.44e-05,4.826484651,13469290.61,0.709760101,26.88086337
2.07e-05,-8.37e-05,-4.18e-05,-4.5e-05,9.347662257,7854108.021,0.846085315,5.287352092
-4.72e-05,3.89e-05,-1.29e-05,7.79e-05,3.554233059,7803783.861,0.84248386,5.617647151
9.75000000000002e-06,-1.92e-05,-8.81e-05,-3.87e-05,8.21724259,14395904.29,0.827761098,6.213868637
8.66e-05,-4.51e-05,-9.22e-06,-6.81e-05,4.123044591,11551892.76,0.805055384,11.11084315
3.45e-05,-2.75e-05,3.55e-05,-2.32e-05,8.817994926,9666411.885,0.72019233,7.556148717
-7.05e-05,-7.61e-06,7.80000000000001e-06,8.97000000000002e-06,0.484189492,6370330.383,0.819043987,5.340035477
3.7e-05,-2.16e-05,-5.43e-05,-5.24e-05,9.131350426,10444913.57,0.89355132,4.422720383
-2.39e-05,-3.39e-05,2.85e-05,-2.04e-05,1.386642219,9999123.411,0.732414588,57.78345513
9.59e-05,3.26e-05,6e-05,-3.39e-05,2.25415722,14357637.79,0.81478345,9.982285466
-7.9e-05,7.57e-05,3.65e-05,-3.25e-05,8.166919444,12176231.14,0.845748303,5.826345216
7.42e-05,9.09e-05,9.64e-05,-4.74e-05,2.896387443,6418439.314,0.851955185,3.705952837
9.49e-05,5.52e-05,-1.34000000000001e-06,-3.01e-05,9.675388892,7084015.426,0.754596492,5.879209975
-5.3e-05,1.68e-05,2.88e-05,5.4e-05,7.415338998,12457486.02,0.706345442,11.56423608
-7.81e-05,-1.25e-05,-2.97e-05,4.05e-05,9.370443784,9637758.087,0.892447245,4.33382735
-1.55e-05,1.3e-05,-6.09e-05,-9.25e-05,2.346760724,8115611.795,0.845194369,4.091321418
-9.05e-05,-6.24e-05,4.77e-05,-7.77e-05,7.366800343,5379279.842,0.743157356,9.664064394
-5.7e-05,-9.35e-05,6.35e-05,-4.29e-05,8.139043453,13018009.55,0.852937379,5.556926547
9.19e-05,-5.56e-05,1.7e-05,-4.53e-05,3.966945469,5090482.598,0.70672021,41.00692752
-8.09e-05,5.78e-05,4.36e-05,-7.47e-05,8.390694027,8401118.558,0.772143823,7.207932407
2.95e-06,-3.12e-05,5.24e-05,1.92e-05,3.135570571,12226437.22,0.752756192,23.95593007
-3.04e-05,8.02e-05,6.95e-05,6.66e-05,0.297401161,12982957.88,0.749834732,44.83221103
-9.85e-05,-1.67e-05,7.11e-05,-7.97e-05,0.52762135,12192695.14,0.847696168,-1.382591128
8.34999999999999e-06,4.35e-05,-6.97e-05,5.75e-05,0.287575397,12051649.25,0.713990864,45.46594088
9.83e-05,-2.92e-05,7.48e-05,-4.25e-05,3.420530168,9534724.038,0.855839581,3.554742562
-8.31e-05,-1.43e-05,1.08e-05,-9.31e-05,0.861253938,13393400.45,0.831897415,1.866500759
-2.92e-05,-4.52e-05,-1.86e-05,-9.09e-06,9.528351003,11457674.1,0.840367146,5.318640784
6.39000000000001e-06,6.37e-05,-6.77e-06,8.38e-05,3.502737056,10930758.91,0.719231795,37.38412797
2.48e-05,7.84e-05,-9.43e-05,9.05e-06,0.605419796,7237334.351,0.851661869,-0.436401107
7.25e-05,3.54e-05,1.93e-05,8.35e-05,4.437182056,5739488.076,0.744735497,16.82310307
-4.69e-05,2.41e-05,5.1e-05,-5.47e-05,2.820379471,12150400.64,0.715615374,71.11506261
4.16e-05,-3.88e-05,4.83e-05,7.91e-06,3.411615597,10131426.02,0.896461629,2.490133977
-1.47e-06,-9.23e-05,-6.53e-05,2.79e-05,8.326998105,5806856.032,0.890695078,4.400674076
8.81e-05,5.54e-05,-1.43e-05,9.15e-05,4.710813707,6646533.87,0.845501291,6.150805089
-9.49e-05,-2.72e-05,3.88e-05,-4.67e-05,8.021754392,5889049.441,0.700961291,10.47118985
2.24e-05,5.09e-05,-7.67e-05,-4.74e-05,2.980374701,5456118.726,0.786424085,16.52928163
-5.38e-05,4.6e-06,9.4e-05,1.35e-05,5.736765769,6860774.757,0.779644722,10.01369778
-4.24e-05,9.49e-05,-2.94e-05,-1.43999999999996e-06,4.784482663,8205261.806,0.787817623,11.36867959
1e-05,8.35e-05,4.67e-05,-8.49e-05,4.680325763,12712314.76,0.8237246,8.723272342
-3.98e-05,-4.04e-05,-6.61e-05,-8.14e-05,9.942944816,9166114.705,0.791289185,5.464746698
-7.64e-06,-1.82e-05,9.95e-06,-8.91e-05,6.063895267,9569574.695,0.811202063,8.363474074
-2.05e-05,-6.32e-05,2.16e-05,3.73e-05,9.587177347,7639329.8,0.784467972,5.688416841
2.97e-05,9.86e-05,-2.72e-05,4.59e-05,2.729186306,9392342.468,0.872811309,1.377579142
-2.81e-05,-4.48e-05,3.43e-05,4.15e-05,9.855921431,13075573.95,0.744423618,5.781209575
-7.7e-05,1.19000000000001e-06,-9.81e-05,-7.69e-05,4.806998444,6553690.65,0.790492402,11.77422332
-3.69e-05,4.71e-05,-8.05000000000001e-06,-3.76e-05,8.446013867,5625869.648,0.703679681,8.91063935
-8e-05,6.25e-05,6.36e-05,-2.21e-05,6.421353419,13184557.31,0.82598427,7.292863074
-4.74999999999999e-06,-2.64e-05,2.63e-05,-9.02e-05,8.048535878,13214207.82,0.878644396,4.763205538
-7.57e-05,-9.36e-05,-2.82e-05,-6.88999999999998e-06,6.785233966,10565578.22,0.812979604,7.429516999
-6.05999999999999e-06,-6.75e-06,5.11e-05,9.61000000000001e-06,0.805819827,6246968.568,0.847200659,-0.554832371
-9.76e-05,-9.19e-05,-5.97e-05,3.82e-05,5.115102876,12720800.14,0.857379688,5.027090384
4.07e-05,1.43e-05,-7.39e-05,-2.27e-05,8.002369363,8708652.675,0.855339014,5.569598163
4.14246119460261e-05,-3.03786112392765e-05,-2.44080619614676e-05,-9.71628571428572e-05,4.39780442005958,10578781.0238999,0.88610476606046,3.09785495073091
3.83818264932533e-05,1.29964235950904e-05,3.73302422548166e-05,-4.94803571428571e-05,2.81763333700745,8949594.13136249,0.854225647257558,2.94886584698861
-1.744600706783e-05,4.71685052609009e-05,5.37804990032703e-05,7.33570687963908e-05,4.91632696890739,6347931.87671332,0.894629135071429,3.35517574770559
4.40033044604572e-05,1.74743561507949e-05,-3.92915726113841e-05,-4.0549174654561e-06,0.66281158812631,13616130.2851894,0.895310610742857,-0.110504674588354
5.37172868683332e-05,1.4655482610559e-05,-5.99494598118374e-05,-3.52580991665547e-05,4.49754454183378,9674830.53266974,0.897828734011476,3.33757036529629
5.83093612234588e-05,-1.23028991813618e-05,-5.44975134675002e-06,6.97980238812457e-05,0.212015671544661,9865453.14864846,0.814204261835457,7.88622421171448
3.67143149334866e-05,-3.66282374241811e-06,7.53487712056605e-05,-2.64651621178385e-06,4.32790000809172,14817908.499217,0.888543384864098,2.97756837413276
3.56751153412248e-05,-4.48055804525413e-06,6.39401411074753e-05,5.14274432588107e-08,0.188685365353753,11767225.5972918,0.878938987141262,-1.84497644071483
1.35138484638606e-06,-7.99712302375827e-05,-9.23222192135955e-05,-2.68989008403508e-05,0.333370243342857,5350946.12574853,0.828824969477431,2.45298065800554
-8.18228217974383e-05,7.76790304215402e-05,2.17063687825509e-05,3.23716669843334e-05,0.122118367428571,9840067.68797703,0.826897625398995,2.72588793293475
-2.98514090923097e-05,-1.10926188665871e-05,-1.13367350139217e-05,6.69975898885426e-05,0.177440840088907,7677206.27464005,0.872112730487482,-2.06380565297524
-9.00992608390122e-06,7.39122984516922e-06,-5.90426290529027e-05,-1.50787707900134e-06,4.46937774299501,10650981.7467324,0.871926512219292,3.53589456777473
2.368125e-05,3.06875e-05,-6.13e-05,-2.074375e-05,1.515885334,9946258.60675,0.776420570125,26.5534108033084
4.38324523260654e-05,-6.20720512745313e-05,-3.18120307408958e-05,-2.60922279860137e-05,0.145356414140327,11987574.3504831,0.826381528626712,2.83590383888451
9.35666400334866e-05,-5.63731769193895e-05,7.29048753394578e-05,3.15319145666164e-05,0.23564050612712,10728141.8957144,0.778846868883768,23.5677317224517
1.50267240069726e-06,-4.11141857820282e-05,1.25923348129121e-05,-3.41864501675818e-05,3.68780334716145,12106710.72045,0.862871351693909,2.97587550875262
9.56728091433355e-05,-9.08963277918162e-05,3.79511501798447e-05,4.59674430385719e-05,4.4336632817284,9803936.39271246,0.885117767865448,2.96104187560134
1.302265625e-05,8.5984375e-06,-1.91375e-05,-4.055546875e-05,2.777742620375,10611752.0585938,0.736811907140625,45.3475533907008
-5.06341338964512e-05,-8.46953322114371e-05,-5.48301499293645e-05,7.652599158868e-05,3.17917291761553,8265820.7105245,0.705469911749678,61.0450438280577
5.29347984850833e-05,-2.72401871937012e-05,5.02212332364869e-06,-1.7289716847322e-05,0.174435506830387,10853827.2568526,0.70327541069176,40.9146559867784
-3.70997726935654e-05,3.22073168871237e-06,3.32512218595131e-05,2.27225855395168e-05,0.976232861483904,9856872.89111361,0.830313086378467,3.37109746492001
3.73109022582482e-05,-8.88522195254576e-05,-8.9817258220721e-05,-2.43076980788419e-05,3.33152554617846,12925878.5093042,0.895902351941535,2.42368931199803
-1.17908198992729e-05,2.14461894368615e-05,4.64166576160872e-05,4.5631386785759e-05,1.41141115242037,11634911.6103324,0.897396371718673,0.876159702964129
-4.87174155554321e-06,-4.52584599399188e-05,9.69782928429039e-05,-2.41805142286085e-06,3.8759976340442,8138048.58992503,0.861937621859381,3.0061255414463
-6.2420138483722e-05,-2.10525821665882e-05,-6.52267775913903e-07,2.75903729363224e-06,2.34566596144598,10684524.7269358,0.845750766510655,2.88292276783422
-6.21472359442984e-05,-3.49467831020532e-05,4.39726349094884e-05,2.68374268489935e-05,4.76393684376957,10565041.0925249,0.897365299066421,3.20844450018423
-7.54699528813025e-05,9.37950483796048e-05,-9.02066841310093e-05,-3.14396628854626e-05,2.79364653519932,13845311.8132209,0.855609074847229,3.25622988802625
3.91609031557621e-05,-7.71865329988699e-06,8.19235068530651e-05,4.61708382445463e-05,9.73637214518572,5735624.37877969,0.704732216841847,6.4647033585336
-8.43928967452687e-05,-8.18735687987702e-06,-1.68494597773863e-05,-1.15510451505212e-05,5.11269880776296,11235253.6362858,0.701733587096424,27.0554656576745
-3.21531105823469e-05,2.64986802443432e-05,6.44050176384344e-05,-5.12948215695927e-05,1.59376023229422,12622284.6346615,0.837168940767658,3.07088270165709
5.15228908422075e-05,-3.03227362370443e-06,-7.80951910527952e-05,1.88343377792995e-05,5.37319351134806,8488738.51199733,0.897783272742186,3.67755052764898
6.02548385641453e-05,1.82822117481335e-05,9.60431731903378e-05,-5.95018162196066e-05,0.344844150166322,7615230.62440544,0.729067906528733,41.9701840902945
9.75401427802543e-05,-3.23210553743906e-05,1.95767895441983e-06,-3.91298880707938e-05,1.62930532307033,11722773.8973145,0.839064876040232,3.43885869189774
-3.42576223342335e-05,5.94666428456658e-05,-3.6820525045784e-06,7.84309221574018e-05,0.840347915540226,5228802.03586186,0.833539203999321,2.84583904914695
6.09665022925055e-05,-4.51255698430535e-05,8.83293797800613e-05,-7.73232313119011e-06,3.25504999792811,8579255.53266659,0.702759235575062,64.8273482734615
2.89229917322595e-05,-1.60828353979532e-05,3.26633429122177e-05,-4.18714257091883e-05,0.824055141634199,9941468.80478042,0.829089033101796,3.4997804035284
-2.22065338864584e-05,-2.17533388937179e-05,1.65401883397363e-05,2.4858831404587e-06,0.10671243235954,12126815.5939973,0.897627228150119,-0.407095277428853
-1.56813122059038e-05,-6.14709143534432e-05,7.4901082159217e-05,3.40146060410121e-05,9.79766477152725,9826041.22104117,0.890201403096846,4.23868776664565
-2.42279210020004e-05,1.99654487515651e-05,-5.09588522211555e-05,5.15648407321133e-05,4.47269405685232,13082872.114792,0.897401716932982,3.22207818121768
-9.62597801284109e-05,-7.8636079803718e-05,2.94560531665232e-05,3.96439056185268e-05,0.237052454806891,9784334.80648403,0.826334429481169,1.93545745230753
-5.51786406131609e-05,-2.20382989128994e-06,-5.92707070631491e-05,-2.42093533331122e-05,3.5174369409384,5284654.27164853,0.89523460657926,2.41495288455729
-1.17347807250787e-05,2.89870795146808e-05,3.92248040357405e-06,2.29826496179174e-05,2.59968508477152,11692498.9828527,0.850800004969991,2.98720345398138
-1.65182269594001e-05,-3.27130309393349e-05,2.63224846515025e-05,-6.36088318824816e-05,3.88157193301204,9722036.75753212,0.701966331381311,54.1369821308618
-1.43475704368595e-05,-1.90225333732468e-06,6.76210555387678e-05,7.69033737731556e-05,6.44729269338534,12554781.4186391,0.8970817813812,3.92128215439847
2.96614365560765e-05,-6.29705887441762e-05,3.06653564380651e-05,-3.53636101394941e-06,4.38126283029476,12155340.0206539,0.87737773760265,2.88622646733647
3.94243286727536e-06,-3.7633635410906e-05,-9.61478909877566e-05,-2.30109779270225e-05,1.30187676904914,8458037.11051926,0.708982556896084,55.1670901165299
-2.25109125218772e-05,2.82705616678922e-05,-3.4390787979801e-05,4.06784770165117e-05,4.0812620040733,7888984.38875163,0.875647613665647,2.76153331039345
-5.95801737537372e-05,-4.19000452675985e-05,3.86258773838592e-05,-3.1774212992421e-05,3.82845871576374,14070516.4060632,0.896881024828775,2.65609322728628
-5.57090606229028e-05,-9.68574778537577e-05,-3.54953002780644e-05,-4.32289222705605e-05,4.26135824489546,10089936.8470635,0.890985305834907,2.80757620573367
6.19441718745613e-05,4.37020474459704e-05,9.66657519528751e-05,5.96958621919858e-05,7.72544188025934,8898261.02167451,0.875835411834362,4.7394646154488
7.18864990232104e-05,6.53200694228615e-06,-9.53565511739837e-05,7.6289714002854e-05,0.767172717762592,11404217.103151,0.834229334472683,3.72640946666843
-3.8710414210334e-05,2.01310484246297e-05,-7.46073187337833e-05,-5.38329031204047e-05,0.805700573951431,5133838.37574853,0.833616016333651,2.53397725464485
3.80008847959052e-05,-5.970123972586e-05,6.86736873376947e-05,7.41159803411765e-05,1.54626702363719,5231497.53827449,0.832821996699962,3.47791778967002
-3.48600596948433e-06,-5.31174810745116e-05,1.11281287227641e-05,4.60338618858611e-05,3.76832637358672,9934728.47297553,0.898720690856438,2.72921529531406
-4.64436175572467e-05,2.12586580745418e-05,-1.36752320582594e-07,-8.23056813010681e-06,2.63903358393058,11605811.4523896,0.898745919743672,1.89938875815023
-7.10667923500382e-06,-6.40124854822018e-05,9.77164705918918e-05,-1.83129883767533e-05,4.79398263698163,12977624.7906458,0.868925066401522,3.63896374693548
1.80707417925202e-05,4.2423903597408e-05,-2.92930666203074e-05,-5.45101017904868e-05,3.5560497690816,11573115.1605742,0.898036106823743,2.7122678147259
-7.25910771208788e-05,-1.55825305677636e-05,-8.38598974756256e-06,2.92503354265467e-05,3.62824878592368,9540120.58419629,0.860486690004562,3.00945561078601
1.65076091780066e-05,-6.21367148860059e-05,3.15317441130524e-05,8.90788026015882e-05,0.182015481892522,13376865.0985729,0.859499196521688,-1.41964570189929
4.88071099990105e-05,5.13437599138895e-06,-1.25484595363776e-05,-1.96591993907989e-05,0.978561258096194,7251266.08448657,0.896426806172334,0.304513455005496
2.16040908610799e-05,-6.41828785394485e-05,9.76991676950046e-05,5.0117838299554e-05,5.25868974859767,10125192.2964099,0.882467755863829,3.46023765758844
2.17588833909407e-05,1.13883584170118e-05,5.99686898803198e-05,3.57450884709715e-05,1.10384990254025,9520867.32611024,0.792952416453303,15.6740206217308
-5.05392474998605e-05,4.02634930235802e-05,1.97426416279221e-05,-2.31556130066832e-05,0.0769430402159106,12290415.3757447,0.866242539198956,-2.48099711792867
-3.88648818529369e-05,1.88459023166675e-05,1.37902467753835e-05,-4.34202820566896e-05,1.61855018098623,7680066.74167463,0.842902838989114,2.03396251344307
3.03257235034724e-05,2.80381075617355e-05,6.3504374904075e-07,5.93774999510487e-06,4.04158652334062,10063009.208955,0.894116257796859,2.95574337295548
-2.92119035716207e-05,-9.7236983761705e-05,-3.86051664650636e-05,4.57093726982579e-05,0.806436873074549,10200803.4189473,0.884843614954586,-0.839863895549184
3.780121244285e-05,3.51446581067769e-05,-4.09480237394655e-05,2.94197361607822e-05,2.52579219850778,8339613.92870425,0.853807124192578,2.72551235163143
-4.62585148208263e-05,3.32150969464702e-05,6.0424231247607e-05,-7.30184905871132e-05,0.161119040026998,5916552.78756528,0.883913584318768,-1.80031592499286
-3.80205686837249e-05,6.56809897540406e-05,-9.72497815703992e-05,-7.40921874409179e-05,3.73060688541548,6608436.45214196,0.871267698875666,2.9010676487866
-1.33747453439008e-05,3.1087752912097e-06,9.82295570634204e-05,3.30958754539211e-05,3.77599482224224,12697973.2396401,0.857119285208935,3.53375447593931
-5.28220132263299e-05,-2.46917118839743e-05,-6.36312408071725e-05,-9.58692550638865e-05,2.48096611250211,5912864.97833419,0.876207318129419,0.456192563072946
1.24866898439876e-05,4.5085722617545e-05,-2.95336394197388e-05,-9.63023934183466e-05,2.20685338447005,13634498.749112,0.881271760087388,0.433959230705909
-1.46857977100154e-05,3.3343733701364e-05,6.0113309008396e-05,-8.02092533643214e-05,1.947457929563,14837985.5169761,0.841960337550667,2.96178922162328
-1.68834428720337e-05,-4.43421915509942e-05,2.03435062375924e-06,-2.47625819550692e-05,1.19110190825364,10900935.2805816,0.875786096120986,-1.08726851009622
-6.02334795194764e-05,4.44378098046349e-05,-1.09988527662864e-05,-3.64910487114908e-05,5.23625737279786,11653406.0730203,0.897795690163066,3.62255307200538
-1.11562421936051e-05,-7.07444746788811e-05,9.72221464875796e-05,2.15242106338557e-05,1.58892091255195,10173895.3402914,0.833437336937831,3.05669187920139
1.20412678768691e-05,-5.33343439178247e-05,-1.968263909826e-05,8.45993818698874e-05,0.0981503075087994,9185555.86701128,0.82744710893675,2.72378939653838
-2.33209176735728e-05,-7.81827391311291e-06,2.11523781059629e-05,3.33484136043809e-06,4.20637136866443,11511103.2620234,0.897636017732914,3.00111806574136
-9.50662248573615e-05,-5.76715026714924e-05,2.6582816477015e-05,2.7710240786308e-05,6.53242719827431,5608007.12430796,0.892312384880098,4.06139167561476
-2.30067546539841e-05,-8.42143847719892e-05,1.83450032842989e-05,2.87739246043215e-06,2.97611898323736,11119838.254078,0.851216546787362,2.85135529953751
-9.16579547275503e-05,7.30768056505616e-05,3.58136947605846e-05,4.3840971554277e-06,3.76799682951457,12421862.9130012,0.896486290397007,2.67974881140245
-2.75454547258463e-05,9.84578697778815e-05,2.82945415054564e-05,1.35131738728678e-06,1.72446920231986,10647914.7422427,0.841406531572498,3.36966177658397
-5.40134879892779e-05,-5.76837232097832e-05,6.58160518094253e-05,-3.45190698899127e-06,3.80737281042857,10307207.0542724,0.860118210703303,3.04487626305072
-6.29219497358797e-05,-4.25995976678466e-06,-1.16494059140708e-05,4.1954286256453e-05,4.35626213439363,10431180.6333943,0.877020439986057,2.86463967744141
1.13688396561241e-05,3.6504959485353e-05,4.03176860329519e-05,5.49635113950392e-05,4.24302506851057,9810873.00864588,0.873090991471564,3.02154170451041
2.91421223013933e-05,2.25240936864585e-05,-5.25766161356265e-06,-4.11384465532515e-05,0.656118913498559,8535443.99786301,0.831410556845403,3.06993520855757
-4.04201947612461e-06,-4.50144408824917e-05,5.05651960288821e-05,-4.9229375652892e-06,7.27627711217641,13691746.3824067,0.898232665088156,4.17311740764871
2.33569450105553e-05,3.70283111667602e-06,-5.62530427951254e-05,3.46825653346094e-05,3.0280654686426,6173123.83217603,0.897848795056875,2.2938599085406
2.88063080966496e-05,1.15059138609764e-05,-2.29554217915055e-05,9.10816233253322e-06,4.05692524986518,11024943.172992,0.896720684868129,3.01034555739729
1.39788383193645e-05,-3.59609154425873e-05,-8.77732732190974e-07,4.96595883504597e-05,2.16216650216737,11731136.6033032,0.898832713851324,1.63124745291101
6.26552138013564e-05,-6.68546493260016e-07,4.72032051488273e-05,-3.35915979685129e-07,3.48211390303775,10059011.45691,0.880686297059887,2.08651631256049
3.2856275707793e-05,-5.24949266289192e-05,3.02984046512058e-06,-9.24492998805566e-06,1.78027548758018,7001316.7664156,0.746666782630456,43.2592167893366
-7.07674438958579e-05,-1.00423358918981e-06,-9.68446785813501e-05,-8.71295534475332e-06,2.75711783515748,10728200.4223743,0.70514640874843,75.721859414935
-4.8443904648343e-05,-3.01657686730836e-05,2.15151075203534e-05,-6.12716916048858e-05,4.11357360276435,10781026.8962455,0.869061006960719,3.03107947531506
-1.25231878730416e-05,-7.47062740823235e-05,8.32924945678901e-05,2.67568117664167e-05,0.197257132102201,6639399.75540862,0.717328645248195,35.6195081122106
-3.27135564328304e-06,-2.1045068742636e-05,3.08834821976103e-05,1.68341381350404e-05,1.92991428283584,11234916.2290175,0.881052822595015,0.157974372000135
-8.63538148643794e-06,-1.25800784100604e-05,-5.51053728551982e-05,-1.0435830037071e-05,1.33444844407719,8624444.30156355,0.836437907778868,3.38467789266529
-8.34567797844901e-07,6.88893220834412e-05,6.70376382661753e-05,-6.76542841588176e-05,9.75682919426085,9217754.39548386,0.866366045456139,4.45861848509613
3.62564228832161e-05,-2.46821364595929e-05,2.69988085091003e-05,2.68550925982226e-05,0.0152084552223883,10897639.5961735,0.830360845771871,1.67807747711182
1.05452000601394e-05,7.56313853543289e-05,-8.64405835687149e-06,-5.39860659879431e-05,3.79201517079321,10198169.5848698,0.860143590033303,4.27411388739599
-5.38281035076709e-05,9.63784125214984e-06,-9.58487453250408e-05,7.24980298211156e-05,0.832726094011123,9297372.36755212,0.835433977395704,2.70532177790029
-2.72196306773959e-05,3.17572458028313e-05,1.16639415225485e-05,5.43629297586197e-05,1.32171454223222,9076717.62026171,0.837464806383714,2.8458441745713
-2.92223998585461e-05,3.29656810364092e-05,-5.22351522664607e-07,1.49828636405798e-05,2.61707574725618,8102435.73451675,0.888972796331812,1.39234492380205
-7.09463738978828e-05,-4.61134732597417e-05,2.34144150863319e-05,-1.45568147253237e-05,4.14323679425699,10108604.4498263,0.867814285556251,2.94113632465648
-3.61050748420512e-05,4.60995848571553e-06,-1.16324643510559e-05,3.45192172982854e-05,3.65328716282184,7189190.51701857,0.886722312757332,2.291121524721
2.40118135975761e-05,-9.53480810094751e-06,3.34962985493523e-05,1.20844167819767e-05,4.29438352170997,11539690.3824238,0.891077973788217,2.99822360934768
2.96010988748317e-05,-5.20486566497245e-05,1.75265519556516e-05,-3.43760466483792e-05,2.49373603531595,9087851.46426106,0.847686740068504,3.01340829582573
-2.91798131820508e-06,-2.12028804819283e-05,7.06947982512812e-05,1.64165660274454e-06,2.15079849398491,12585036.4297599,0.841225667816195,3.1577278889549
1.37108417787111e-05,6.26184031930912e-05,3.44664842160693e-05,9.68691587363535e-05,0.680759132057732,10043064.4420121,0.855474627934205,-1.13645893250284
-7.593201576075e-05,-3.83946292528694e-05,2.18557964836428e-06,3.17112080988142e-05,3.65093299946965,10159018.839107,0.874028604596238,1.96341789494388
-1.9925196542547e-05,-4.85088312546184e-05,1.73220725815186e-05,-7.28472008103972e-06,0.0260557365396047,11258958.2632819,0.790854517326017,16.0585514906982
-1.95743285847816e-05,1.7232635468968e-06,-1.01186304369344e-06,3.76158310397404e-05,4.37838528963978,10331981.2520687,0.890543353888679,3.01585486387226
3.17983449078411e-05,-5.40903008508617e-05,1.13132681983914e-05,2.67581118187884e-05,2.54388455196467,12182297.5036483,0.848456734546781,2.7895832861824
-5.81400190815112e-05,-9.65938314854139e-05,8.48259990217833e-05,3.61745750408912e-05,4.29732943975042,13089808.3223944,0.882089657414794,2.52131149282005
-9.47539556896449e-06,9.92619605685773e-06,5.36578762457911e-05,-4.60812766386592e-05,1.75772991098131,13533867.0917928,0.897961244023176,1.08031414612614
-8.05909622887629e-05,-3.03448037310169e-05,-2.9513938898918e-05,-4.88680826802905e-05,0.769355843356063,11403562.0794946,0.896926658927375,-0.100612438037743
-5.21080349058858e-05,7.94077894553058e-06,9.89690759028475e-06,-6.96065346796191e-05,2.70539096275632,9808115.85115933,0.85488668303029,2.38091915083473
-5.96821597532369e-06,7.00110502395897e-06,-2.13512108252844e-05,-3.17234730686731e-05,2.61317271678603,6583100.73685241,0.851216023017858,3.01593667802521
5.69231649015696e-06,-2.68360497982608e-06,-1.98531645381259e-06,2.07076698377236e-05,3.95717740047438,6302552.58200435,0.867056029450432,2.97971262908449
-9.67045050712776e-05,2.3649230313533e-05,-5.154122220493e-05,-4.63065139719661e-05,4.25399130872095,8436564.28368521,0.895785857638449,2.98548838650306
-1.19429615503241e-05,9.42986939698448e-05,-1.26460638122699e-05,-4.65880427534551e-05,1.89879974883677,7536009.86688608,0.703862693864696,63.6859464905868
-5.81073635063645e-05,3.19007025682659e-05,3.62066488634756e-05,1.43640833621435e-06,2.64870338619914,9410608.59743494,0.849721051062495,3.0295802330441
8.37829823977709e-05,-8.35271694739187e-05,4.50676559545544e-05,9.46947242608984e-05,1.91047440138355,6113972.28512928,0.716062827856612,58.4393815105112
3.90405151499658e-05,-2.81095540878722e-05,2.30341944092819e-05,4.51672497697977e-05,0.0490965853193803,8733077.62548085,0.845407069694621,-0.327995303838188
-9.85158408344275e-05,-3.13054510513564e-05,1.91122277652548e-05,-2.13458822706698e-05,4.73525157387911,11341686.2274182,0.884355210855795,3.09398016960484
-4.15805409438272e-05,-1.04644499410576e-05,-8.05328005503845e-05,-8.91580377647771e-05,3.39938785252154,14825181.3920234,0.861320366334597,3.11117421129564
2.57271594634822e-05,1.48482001461183e-05,3.81020826916689e-06,3.12798068194502e-05,4.30884076597893,12304706.4209344,0.886619708282604,2.99578726650837
-2.20163307426813e-05,3.40631926250973e-05,-2.85197127713758e-05,-1.30259389998412e-05,3.57857981001653,11350799.0417675,0.712518361606272,50.5754739079726
-9.63607696890587e-05,4.27747979506613e-05,-2.08707085090486e-05,-2.04483779412277e-05,1.3159005111505,5725002.85689669,0.839478286585212,2.01699443941253
-2.24444471116492e-05,-4.52808702468665e-05,-1.26102206132317e-05,-3.30354538273929e-05,2.76158605994136,11700941.1253035,0.892231181199634,1.6329087199409
1.17051292056899e-05,-1.43953199247911e-05,-5.82144627991985e-05,-1.52913319401748e-05,4.03631149759999,6796968.46647388,0.899314637295594,2.97401705521653
-8.71401373648743e-05,-7.24382789934146e-05,7.66635529662214e-05,-4.45571099944352e-05,5.84408238218592,13169577.2795638,0.704705075572806,20.2712495175588
7.89426328895076e-06,4.63768923857492e-05,-1.96593856162477e-05,1.06086269392965e-05,3.32754500380551,6020505.04731771,0.859550000072819,3.16251446730567
-6.54652855876345e-07,6.57756509974834e-06,5.89529515368899e-05,6.11263372451237e-05,2.70591824181184,8932278.5253261,0.854844291045317,2.12618063938876
-5.07529343663281e-05,-5.72443865565066e-05,1.69138317740657e-05,1.97057050258744e-05,2.97116131336835,10410489.1687993,0.899284079060712,2.12812187385224
-6.75691663577151e-05,4.47526224872687e-05,-6.05308924599602e-05,2.97408183220936e-05,0.511657376875537,6541679.22230385,0.896046379024078,-0.313447690795202
2.07512521499275e-05,-3.73521397447332e-05,9.6897860206153e-06,3.34775688125113e-05,4.78302510906104,13961208.4597922,0.898695118338995,3.32565085289016
5.67917631727297e-05,-3.24354480176816e-05,-1.74490329135554e-05,1.38758357415696e-05,0.543814839925433,9630431.27887843,0.832923214400405,2.32656308078705
2.91319718794216e-05,-6.23567012421595e-06,2.9306737096953e-05,9.54908548786042e-06,1.97024497495407,9846271.59523432,0.843059932128355,2.97001451150502
2.13358211893839e-05,9.68793589438215e-05,7.29310856560768e-05,2.70305068275419e-05,2.64742521686837,11542380.1252222,0.853019413562236,2.89605875509646
-9.68301446525422e-05,-1.66439604466952e-05,4.12698230523838e-05,7.3075157417028e-05,2.41188701950541,13431446.7916042,0.843991758537757,2.79232851135405
3.05240981424959e-05,-4.02313689927459e-05,5.93311322213883e-05,1.5171376519112e-05,3.9429402594548,10109493.1351946,0.86437503041279,3.03544946822188
-9.4521153249307e-05,3.69311299873175e-05,2.73089976719079e-05,5.03098833601967e-05,0.809391227464132,6744224.58088369,0.708257144394447,46.0529873404726
1.26433685897334e-05,-2.82932153842711e-05,3.8159558593518e-06,2.73219735503506e-05,4.44810440976541,7178137.49305009,0.890068453187077,3.03728311048782
-4.49279975309771e-05,-1.96132538737953e-05,-4.8318813124035e-05,-6.43121759290398e-05,2.67338660070082,10929319.487038,0.853369005988255,2.67248548414007
2.3637317993538e-05,-2.46307457335576e-05,-1.47678953946725e-05,-3.23128729683705e-05,4.29498564014134,10282426.7864251,0.87685651620009,2.98664947210928
6.28159336286728e-05,-8.76193846398758e-05,5.44184985327516e-05,-9.56054996171381e-05,1.75351556377056,11168978.905746,0.852058021441495,0.318170111368248
1.29431127366298e-05,1.82266419592e-05,-1.4597782685279e-05,-1.2339658048835e-05,2.86517405530594,9516063.41994175,0.854902532450859,3.01535293900888
-5.28962592502376e-05,-1.4007450639673e-05,-7.22530680261913e-06,-4.02154613346511e-05,4.10209800118484,7713422.74702455,0.869831944515644,2.9906557184984
6.52884619556395e-06,3.69458879635294e-05,-4.39858705562237e-05,2.35235053127066e-05,0.147809779418197,5215635.52613668,0.741361940963151,33.3285993635318
-5.14071549689464e-05,-4.22607143681341e-05,-7.20820303365858e-05,8.17999301427007e-05,1.36845057386271,5188124.03955187,0.847955858050627,0.507505225501795
-2.55538448889703e-05,-4.87702618821994e-05,2.65555251155485e-05,8.49509236043582e-05,3.6063478868106,8826178.30719133,0.897982710381764,2.58563657836652
3.07036149179712e-05,7.17945441272552e-05,-1.98104086107988e-05,-4.7065644189543e-05,0.13827623131961,5411349.31208054,0.782762836273614,21.3403544152325
4.80414824829979e-05,5.93873365680589e-05,7.57618768000412e-05,9.64053304290189e-05,2.04458491629335,5496164.70921232,0.845931305859543,2.50702340238775
-2.37364347433463e-05,7.0131685708347e-06,8.99155370233147e-06,-7.11886584395299e-05,4.33670257913414,11908247.4430088,0.883243815661851,2.95061638983023
-3.88478919931309e-05,-5.20272027356002e-05,1.56985914167109e-05,-1.62576216095112e-05,1.74159250975611,9819758.46296876,0.838234761202368,2.90012146660576
3.97162931233116e-05,-2.1290829195571e-05,-4.65112337497668e-05,2.28472087919642e-05,4.34606561623074,13108505.3706526,0.879677861287148,2.99876143039087
-2.68091228148833e-05,-3.78369586846816e-05,-8.08798555205053e-06,7.56486063342514e-05,4.84406690558593,14840613.8134771,0.885241247134381,3.22575329794935
-1.98188313059843e-05,-9.70727863693036e-05,8.15701414087892e-06,-3.37971354225009e-06,0.294759316261099,12773091.5194676,0.839295639614522,0.209522655813386
-1.15954670530605e-05,-7.73569650715258e-06,4.71410075678527e-05,1.49070192725695e-05,0.202245788279148,9158661.78772698,0.824920813717014,3.04369793394007
2.818530195754e-05,3.11120088399077e-05,9.82845078714272e-06,1.19999475327558e-05,3.97020574802571,10121889.3347818,0.899358590405191,2.98018413415627
1.63917643238879e-05,-8.80454074213402e-05,-6.28723105489801e-06,1.39206216208869e-05,3.23774882458481,7821781.90771828,0.855238563354042,2.89196926948973
-3.82650523974218e-05,1.3111460367993e-05,1.56255398390708e-06,-5.13699351359376e-05,2.83969806376709,13058877.8566244,0.853207004682467,2.99975581489343
1.43863358856922e-05,6.59174602566368e-07,7.81436281126097e-05,1.27823541648711e-05,4.75540538542036,8225236.64091615,0.879675215755577,3.24590248513427
-7.9192782347921e-05,-3.72371041540039e-05,8.47033520604245e-06,1.90066032717745e-05,4.41675367150552,11541216.9691869,0.898885413112376,3.03929734261016
1.09543104072215e-05,-7.83987484950795e-05,3.3622810324944e-05,-1.75019311183639e-06,2.1345821440127,10925796.9070615,0.841434508674562,2.99598372387405
-1.69151767987777e-05,-2.78457830261292e-05,-2.54624575989858e-05,-7.06634466477274e-05,4.13219153792882,12477017.7630397,0.898839689440651,3.00264128788318
2.46053490765929e-05,-2.75416904347385e-05,-4.32919568240227e-05,-6.21869814066556e-06,4.04453518934675,10866473.505804,0.899817093108882,3.00172563711907
1.06063377188363e-05,8.47436487547078e-06,-6.3782595420559e-05,-6.81476624568209e-05,2.78871418539423,7681731.04509929,0.856249373444307,2.9140782059338
9.63910372820009e-05,3.72479998592235e-05,4.4526599772927e-05,6.54881891012821e-05,2.64104082663902,10316760.8604448,0.885055749324075,1.51365725111348
-1.55652335182981e-05,-3.70313353546693e-05,5.43854932142983e-05,4.41508013042523e-05,3.284574357062,14799284.9211162,0.734616983208827,32.2261628154959
5.32163943010509e-05,1.17941530319438e-05,-3.22937150809038e-05,-4.55191592067772e-05,3.81071176358581,11566187.7871654,0.869568081906248,2.98716113578339
-5.09634201939707e-05,-1.45005609922867e-05,-1.64029659247662e-05,-3.2021603696214e-05,2.60539637518459,7295070.13883545,0.754741297750687,29.9981158559748
-6.66938308494582e-06,-9.80779005162154e-05,-8.64866152663543e-06,5.38198666673649e-05,3.34951992217167,12799294.8716737,0.886713260078984,1.97881119239231
1.93168525594088e-05,-1.89586698048188e-05,-3.59817916408963e-05,2.37778042195174e-05,0.262557350717988,8127220.17492236,0.828265053948319,3.00428260688076
6.62367844556976e-05,-3.10403590955846e-05,2.25668928779729e-05,4.00270830928863e-05,3.31941109759646,13287521.8002062,0.898345985923674,2.55720430249172
-4.87770205878891e-05,-1.24054577041464e-05,-2.83842378107606e-05,-7.10450420746628e-05,3.15277549142606,12360391.3614036,0.8702314073794,1.65025270731375
-5.6804100159968e-05,3.96855624932275e-05,4.71639880790431e-05,-3.83839618189331e-05,4.23110152120256,12857636.7401067,0.871860189870336,3.1020538085987
2.57840087932808e-05,-4.33592924341634e-06,1.31951342350582e-05,6.56806956377945e-05,1.76497335660456,7515718.89907592,0.840102656582733,3.15472141000093
4.72119527620734e-06,5.08453016008536e-05,6.81989888855914e-06,-4.96747673694145e-05,1.20909272225842,11126169.5475861,0.840469198797489,2.04638690615125
8.1014260691326e-05,-8.79828921274071e-05,-8.3676392556821e-05,-8.97125603855315e-05,0.181767872601978,12386688.3041327,0.77999855814486,25.0835953502542
2.80875885254595e-05,-4.37754556154666e-05,5.45034975549522e-05,1.52229496338453e-05,1.60008258608404,11171190.8006419,0.839634497523132,2.32382213204892
3.08459847889629e-05,-1.11684944590781e-05,1.80211514672258e-05,4.37238088110857e-05,1.27239309642031,12337274.5187634,0.89902954080332,0.903728553147422
8.22457276149226e-05,3.76513874205263e-05,-6.31828826881358e-05,8.92258119843976e-06,1.87096665381481,9955347.38769533,0.897428751675618,1.38421236247698
3.54707757708298e-05,2.83373051670346e-05,4.77323104514938e-05,-6.29180762649958e-05,1.27182905268374,8465134.89411778,0.835959024548995,3.13830894377464
-5.72069155645348e-05,-5.8702546842915e-07,-1.1531111914208e-05,-8.52340483225144e-05,4.01604674753267,14903097.2919795,0.779460547199535,15.5870687116652
-6.42410607405114e-05,-6.39497740373403e-05,2.89200131569712e-05,1.53779634092477e-05,2.99671438985381,12199381.7411598,0.857897961097094,1.86842466607444
1.5177249922194e-05,-3.05744111429805e-06,1.11956423436217e-07,5.21499421120401e-05,4.00613070218689,5838936.8162803,0.866036803267195,3.06678966891121
-2.37096031336738e-05,-3.49720720367193e-05,1.21804518648021e-05,7.77004244237278e-06,3.61253981666163,11616076.5720351,0.860488898714591,2.9804764314334
-5.87165429025251e-06,-1.49139394039078e-05,7.64345285544683e-06,9.85378008394573e-05,3.32647122441855,7141419.67969538,0.811760332193485,9.35982443754928
2.77471868108324e-05,2.21796272341309e-05,8.08800235085332e-05,7.33475069643972e-05,4.14806519436234,9330553.97897018,0.898262821586473,3.00197820317413
-5.64441648516373e-07,-2.38535636290902e-05,4.23753651353691e-05,3.10519966525717e-05,4.1765087861377,12244064.3173632,0.899815969981033,2.99154087595129
-2.43778518473788e-05,-1.50592309921592e-05,-2.28244540501038e-05,4.60091995632973e-07,3.00608630142567,12933993.1953818,0.718788816566258,63.2078248841955
-2.92226020009495e-05,4.92011649479564e-05,-5.19270450753721e-05,1.95175525494763e-05,1.51541531761096,8376961.02135411,0.755941565170803,39.9530455304855
-2.04126106190376e-05,-6.02669365073718e-05,-1.4563756497739e-06,5.18739799416257e-05,0.056542693933565,6844411.04923018,0.823213330346944,3.17727038708537
1.23584538083301e-05,-3.2237684638711e-05,-2.01102869887522e-05,-4.50289550492721e-05,2.86578954711309,13705480.1036842,0.702624892262992,83.0818667278098
4.74239251726734e-06,-4.09266824808359e-06,6.95379663746228e-05,6.58651232100024e-05,3.74537071867755,7643821.4986372,0.86082309231354,3.04585049935876
2.58591904105139e-05,-2.40031413753497e-06,2.21885239149953e-06,-3.102593449961e-05,0.350842854488781,7600180.11351417,0.828024407242202,2.96717987574972
3.61902913072694e-05,4.26011900940026e-05,-1.03820065111507e-05,-4.88590797336262e-05,3.69343371088212,12395710.1521139,0.867538135699192,3.04343190381571
3.87765905593846e-05,1.49513152031199e-05,1.6792360346368e-05,-9.6775036928839e-05,1.38932893655036,13524611.8189718,0.762721838575748,34.5235804900437
9.66489509768656e-05,7.26076883532985e-05,-3.73998971065876e-05,3.4443420858589e-05,3.07523887555599,13231181.2955395,0.884412438485198,2.01945126906581
-3.08157688504541e-05,1.15747398698597e-05,3.14595848637661e-05,-8.43720960054077e-06,3.64717573469439,13807907.8869283,0.884541929450178,2.22162678614952
-1.30668777105889e-05,1.70251862103942e-05,-6.99109122531918e-05,1.58800336446827e-05,1.87955595695229,6874917.54779297,0.845628265285172,2.72691486720318
-2.33318051573222e-06,-5.85860437763135e-05,4.82242885433626e-05,2.6319175626099e-05,3.29239160470891,10786987.5738393,0.854340122928669,3.01619521450974
1.1685126598232e-05,-4.73219375167334e-05,5.20380620489521e-05,4.11307232153225e-05,3.70768331319653,8134268.84580011,0.868214403009048,2.2926223858669
-6.04360027648242e-05,-1.83730625649832e-05,-1.02485248217032e-05,-2.94887288218566e-05,4.41803413494712,10595544.2715577,0.891764391161725,3.01276669416957
-3.08430202668503e-07,-5.43539196771763e-05,-3.55337734525402e-05,7.66935245210653e-06,0.890594490608911,8566454.72945166,0.831453572810863,3.10584275793408
-8.32710483786841e-05,-4.47822245852228e-05,-7.16632559753651e-06,-3.32455637315673e-05,3.82965038492936,8494529.52359846,0.863258065218401,2.99722648538743
-2.87629694123562e-05,-3.09088056668656e-05,1.55668661327882e-05,3.63282335697452e-05,4.38036781151029,8208435.25025454,0.896209673724942,3.0331909263143
-1.98957714459767e-07,1.76608206717589e-05,3.74106843878119e-05,-4.14006196526873e-05,0.663831161730808,11486464.3384148,0.829047912863616,3.13153309061909
5.08930460206413e-05,2.22964487232682e-05,-4.34359490309443e-05,-8.08700127422588e-05,4.02138172017292,6756328.2121512,0.897246851872529,3.02395628956382
3.13405735755928e-05,8.54788258750747e-06,-3.13060890591146e-05,-1.75372333473265e-05,1.38584703770362,7827750.66868351,0.839191327655693,3.0311117275581
-4.0172842723043e-05,-3.65525287504969e-05,-2.87372979629723e-05,1.50282687739532e-06,4.45420736670238,7676336.43653172,0.885363296176875,2.9337011055548
-2.41022574229896e-05,-4.64280234673566e-05,-2.28947366859396e-05,-5.73354387340006e-05,2.77396283323237,14892421.2643214,0.756341443094077,31.335610192437
2.18305190323042e-05,5.78001131042206e-05,1.18990631315365e-05,-6.67300478467908e-05,2.29982047226094,10956104.6349749,0.849268450520796,3.11279424296061
-4.01847839976247e-05,-3.74499755367246e-05,2.99382789813281e-05,-1.14495603781425e-06,3.24111899463124,8398250.10710548,0.859606083404136,2.37582972470506
8.47966073552461e-06,-3.18377220238868e-05,7.22995789298377e-05,1.62318495229935e-05,4.33103640159773,12126269.4063884,0.899200273683436,3.05444946102229
2.18510865506208e-05,6.39658755503728e-05,6.3187209933616e-05,-3.15967160016827e-05,0.118812666905096,10517449.0098152,0.895977109071982,-0.560716138062284
2.29672080834343e-05,2.30040715695497e-05,7.92060822971545e-05,-4.54297051530775e-05,3.98854884772383,9773376.91015659,0.869662477816291,2.96897006803931
2.73074022114454e-05,-8.99106326081636e-05,-4.30071396664068e-05,4.12228475662407e-06,2.93126446881388,9405309.67882043,0.861383672342238,1.83107254094341
-9.7080764877959e-05,6.43582806310783e-05,5.18278157176128e-06,-8.82868666148417e-05,3.00177036657951,9327169.98466371,0.861628036902325,2.2572809063757
-5.33484585000712e-05,-2.42534839441768e-05,-1.29285751912814e-05,5.12098294087475e-06,4.24995278972891,12899685.1253015,0.871422203211473,2.9847030490418
-2.59240524459918e-05,2.91512844255102e-06,3.50960733603247e-05,-4.18257649016325e-06,4.33973636637089,8399846.65169844,0.892767304351415,2.98915530767259
4.04716044989117e-05,-2.00023133038625e-05,-6.3578249036771e-05,-3.32219058640492e-05,1.9582761240051,10397844.1297122,0.845830971968547,2.90739189435335
-4.98115514484571e-06,-6.21299536375627e-05,1.57814797238235e-05,-5.12116679972913e-05,0.0492772931157956,9437290.96374093,0.822045197056061,3.09377781394442
2.26961840242812e-05,1.64114919262399e-06,-7.44869785142383e-05,5.70879972582597e-08,3.20319612423572,6562839.18564859,0.859157346982157,3.03455359984029
-1.65844075341086e-05,1.53547891171327e-05,-1.00172857300131e-05,-3.70548418242199e-06,4.09290868211889,7191861.19389573,0.870659767925703,3.01143461295541
1.07300257007535e-06,3.80836324061904e-05,8.42262149137309e-06,6.34373567117662e-05,3.24698707466756,8080204.47005989,0.865034624624097,2.20078344154209
-6.77880177955159e-05,-9.74161232340055e-05,-1.07199013537549e-05,7.69199067642114e-05,3.58092234601662,8871728.4341447,0.85678060599419,2.85485679544038
4.07270730013014e-06,-5.53117200324891e-05,2.28945753489271e-05,1.24809660956647e-05,4.31418086884874,13580485.4063822,0.893175431059876,2.98572775369898
-6.22379778683479e-05,-1.54130155078132e-05,-4.73014689700068e-05,-4.33866354222159e-05,1.85326645065404,6868095.62160262,0.843480962958936,2.49876248188477
5.90120022912129e-05,-2.84561740690013e-05,8.99381611161515e-05,2.51558239041922e-05,2.14394196801355,9148413.13896529,0.897563228846128,1.58791628409191
3.23253920023548e-05,3.96478288277814e-05,2.65590407098962e-05,4.66703377653966e-05,1.82302588942195,10277454.8685656,0.845922214400953,2.33726125258982
-2.74260342327123e-05,5.95474098974557e-05,3.99513264566031e-05,-4.64315019157479e-05,4.25875145809532,11492025.8152502,0.877788798847784,2.98163334690337
-1.21076056479371e-05,2.1343938484266e-05,-5.55678056312447e-06,7.89950835670324e-05,2.76763392043567,6764250.7634403,0.851627129428305,2.95032550942117
-1.10018620334344e-05,4.89369969890953e-05,3.02482718635642e-05,6.17082554237537e-05,5.31668376578404,5081734.68838197,0.760052841284568,12.1546411850394
-4.13146226569522e-05,5.02856234100582e-05,5.85734726127047e-05,9.51022918444952e-05,2.03030973464596,14755851.9838438,0.888890938979301,0.890937181233149
1.79348154758354e-05,-2.58114739043313e-05,3.49643468792584e-05,-4.27211583806558e-05,1.06671664766935,12516371.0596389,0.833953741703777,2.47512987329641
3.65618414617959e-05,2.47357226480703e-05,6.60519088384504e-05,-6.35143798451412e-06,4.43922427703973,10319257.9708755,0.88424906816926,3.06009719395131
3.21989746957113e-05,-1.87475589323856e-05,8.42891286649535e-05,6.10039767227746e-05,3.0428803733917,8171474.5027201,0.852011459638413,2.99305521860249
-1.34297668995331e-05,3.26343638212602e-05,6.37700993378879e-05,-2.63561337788877e-05,4.42026332844765,11863951.6952511,0.885332433055112,3.00080909507212
-2.89317112262017e-05,-5.30666264005273e-05,-8.24999901750396e-06,-2.34573789879152e-05,0.0360147291648129,9578046.31841838,0.867332738855412,-2.25286327174222
-1.75111684114848e-05,-1.39673217600527e-05,-5.25376778909155e-05,-8.0741993691677e-05,0.120594195672513,13887477.4721254,0.852315844082307,-1.14709281915521
7.35000672219495e-07,-3.32030533630127e-05,6.62799596719034e-06,-9.85424548193192e-05,1.6825825887072,14239937.2803588,0.799369059999302,14.9033357767193
-7.97616016858062e-06,-4.17445301485472e-05,-4.20735480929523e-06,2.74521343644217e-05,4.44653632560767,6134052.9706605,0.873682989427258,3.02244390468327
-5.2546405857382e-06,4.31401321720345e-06,5.4428688966647e-05,3.35608763418292e-05,4.45326290875204,10012311.7847971,0.700813340325876,34.5568040413821
2.98768535370281e-05,-5.35326338051945e-05,-1.45092073791165e-05,-7.09558726113395e-06,4.2458494950736,8932467.95233382,0.894160856332018,3.00083220723019
-1.60388613955302e-05,-1.27189129502658e-06,-2.34703038137195e-05,-4.89363919366406e-05,0.242226516991107,9627347.14267158,0.826311629130275,3.04860973545938
-4.06723450766491e-05,-8.89043361917364e-05,-3.11186702830156e-05,7.35233797098711e-05,4.3159208982223,10647228.5194895,0.897994802922056,2.9794178791424
4.73750239710154e-05,6.38821692559972e-05,4.19792209216464e-05,4.84912303799118e-05,3.62204480870636,9724417.7276096,0.898671199633907,2.80082845263131
5.42459312335418e-05,7.48690988305527e-06,7.32428972658226e-05,1.6734720848689e-05,1.17244690743275,7986051.7319835,0.834696333823092,2.99086616539975
-5.97740615434574e-05,6.01930742787782e-05,-4.58905468338107e-05,-3.12331681738651e-05,3.38685589384861,10181294.3839893,0.898728958539561,2.51003131270453
5.89022896135605e-05,4.81808848709816e-05,-2.85329632721039e-05,2.95411650264181e-05,4.25094692672073,9876149.69622459,0.886023925791721,3.05752927424241
3.43829675114776e-05,1.49890905123433e-05,3.94381220758451e-05,7.14560022382336e-05,3.32289849909232,8483201.6656098,0.857578699105258,3.02410285882476
1.22720487341969e-05,-7.14021421890753e-05,1.73280283759936e-05,2.9564195178556e-05,4.33183546242773,12296460.5255719,0.89294959561476,2.98190266561812
2.18339957949087e-05,-3.98448365901145e-05,-2.18386408349847e-05,-3.35328470981277e-05,1.65789501431288,13767913.3391527,0.840910056173841,2.61725076111548
1.66770055989583e-06,-6.99482512184916e-06,9.70396812574949e-05,1.13136232493487e-05,3.23701309565467,5545244.10915044,0.894163727520111,2.1875383600566
1.8112032821253e-05,2.61244199896645e-05,5.23152447746403e-06,3.88164643232969e-05,6.19387933686722,8341441.6584471,0.723710929145965,13.6950860324115
-1.77984984758302e-07,-4.59904794406027e-05,-4.39830584751333e-05,2.69777358001221e-05,1.97871577303661,12871598.2300959,0.870590235981255,-0.0115621543366196
7.4747111063591e-05,-4.24130823344096e-05,-4.03379566702947e-05,-1.86287668800518e-05,3.79859742169586,10476664.8784138,0.866566153317528,3.03871382948934
6.23911793795064e-05,2.50231495489254e-05,-4.99189987164344e-05,1.17156176450318e-05,2.70191398645545,10599452.5854555,0.858557047495822,2.41500810608851
-5.94974789897803e-05,-2.47414963874083e-05,3.43861007058991e-05,-3.02369415393374e-05,2.78629178592604,10559615.614551,0.849834959370448,2.95544675324523
3.10390617418952e-05,-4.09514134857078e-05,7.00858311095252e-05,6.67835990226044e-05,4.12072171152568,8974631.19811446,0.867092085543679,2.9065984202984
-8.01748926221679e-06,7.96855220698216e-06,3.35659794339058e-05,6.65154279312222e-05,3.56516403614436,11465894.8782147,0.89361750578791,2.52558535961524
-4.73488729900204e-06,-4.07728664749371e-05,2.82580696970914e-05,-3.16023954390752e-05,4.18686487338182,10786238.7763521,0.899468148680274,2.98812181635767
3.60056301835749e-05,2.65450663603761e-05,5.43070110675539e-05,4.15500623609387e-05,4.40865006092684,9331680.60438974,0.882894903356527,3.00533475334151
7.02300453260925e-06,-4.59597662327193e-05,9.89167869958946e-05,-3.12963061344817e-05,2.94973451165828,9128029.88955189,0.850341490465332,3.03234804520608
-1.54846765376228e-05,2.46723535074419e-05,-9.88186197557303e-07,1.29682426847627e-05,6.55364259939232,10154611.6635664,0.700624330670231,15.5356278672771
2.90153448885465e-05,1.54437216574475e-05,1.67355322433434e-05,6.26871025976126e-05,4.51282293590375,9252126.30715978,0.881663186682521,3.08419165904065
2.03186834064534e-05,4.0977752359361e-05,5.27673918678327e-05,-3.6990219112467e-05,3.21608663597927,13257719.4538216,0.85910787484431,2.94265276264803
-1.11001861259593e-05,1.50729647170394e-05,-1.58723613474903e-05,-7.33255957498963e-05,1.92076424651811,11054638.0609876,0.843767519569224,2.99195043652854
-8.59644208773841e-05,-9.65953630130973e-06,4.31505835660261e-05,4.36609346678442e-06,0.139191951092242,12387894.4360196,0.728364239683782,41.5730244300193
8.07770275479508e-05,3.16270714396129e-05,-6.04904237242988e-05,9.43385714285715e-05,8.09778733470787,10456597.388544,0.719853975499447,8.40699476409278
-6.28429963239403e-06,2.63876949854091e-05,-3.59674406535154e-05,4.37564264288455e-05,0.0304974352286397,9966468.77823764,0.827863211298108,2.83872922552346
4.54586814147306e-06,1.92369917988858e-05,3.58870127728866e-05,4.65425668603e-05,0.986519671460861,8097106.55137904,0.833293939736673,3.02246587321154
1.03236114501245e-05,7.46274828455248e-05,3.84444802620459e-05,-1.73861184273308e-05,2.93332686296185,13966564.6277598,0.897990093169785,2.23860773725413
6.25230396417272e-05,8.44224837769222e-05,7.60104114565965e-05,3.44147003787707e-05,4.2695577740875,14808139.790618,0.883640066809529,3.02317032779671
2.92700021835392e-05,4.16581709069877e-06,1.9998744521017e-05,9.50693771509408e-07,4.33885974695933,6548680.13644407,0.876496893506615,2.99076502706368
2.0369769620037e-05,-3.69301582213606e-05,-3.36368243919429e-05,1.34908454424119e-05,4.48645046353708,6660844.08882067,0.883631025561648,3.01683974246458
-8.41426012245467e-05,9.60261403422452e-05,-1.61625407408286e-05,-1.23253751355168e-05,6.01872856761902,8492598.9917411,0.708045702807257,17.5759452157377
-1.16688151140216e-05,-3.30397774552964e-05,-5.03004288825019e-05,3.20277399861486e-05,4.6094825832176,7876011.72048439,0.881374682417291,3.10424020101106
3.73576574210937e-05,-1.70217678966696e-06,7.64982065363973e-05,3.30260012376781e-05,4.53637926395248,9438752.70902516,0.887176254301519,3.0817893010667
3.42945385494429e-05,-1.95152181180474e-05,5.89299884148543e-05,-9.07665914717227e-05,3.93614923587268,14852580.0777549,0.892568358335796,2.75744796139124
1.95852937276523e-05,-4.7327000003718e-06,-3.77773702377526e-06,-7.97519978050471e-05,3.98853281493828,12869865.0816806,0.87173803094113,2.96193711748856
2.99257195818262e-05,-3.0318126420973e-05,9.70286392708865e-06,1.60939231170057e-05,3.95808460499975,12580747.5848452,0.880390308932997,2.52230912589637
6.79977722049205e-06,-5.33529638880138e-06,4.05912689442099e-05,1.11399684555433e-06,4.21944033497305,13158269.1278474,0.896244058373297,3.02455537594322
4.72721626119696e-05,-6.80712051747864e-06,6.73398127270366e-05,-3.82368076327219e-05,1.6057635189383,7581203.09426901,0.837981545641319,3.13690772017701
3.90288325221961e-05,-6.64939196660961e-05,3.45516265351339e-05,5.48325965234548e-05,1.49631937190168,9744937.0858458,0.83605813232528,2.97711444879374
-2.79227322368005e-05,-1.84039049941665e-06,1.78423584882412e-05,-2.50767432362944e-07,4.21534674605639,10356471.4866306,0.897418330483487,3.00102064329371
-2.5030058645516e-05,5.47842064882047e-06,-1.67509354068699e-05,-3.369137361963e-05,4.14598897820528,10552507.0477047,0.897670744073513,3.0026644170123
9.69987453674008e-05,9.27205436064439e-05,9.05017979913789e-06,5.05076442129659e-05,2.27374991725288,8130074.00247003,0.896901371862063,1.83890183615427
3.76114608460301e-05,-1.89844552463654e-05,3.07921741762442e-05,-9.7262579093514e-05,4.99972742790502,8823779.70066826,0.751033832139738,15.8321535710687
-5.68686347621337e-06,-3.70581339823466e-05,4.87165515505653e-05,4.04468538455394e-05,4.55571822870483,10234500.6036452,0.888031325536963,3.02745347246203
-3.82909629488082e-06,-1.16098151177262e-05,6.81106472416796e-05,-1.23912130427964e-05,1.60506196287828,8415142.89511504,0.77728513807357,20.3557759470555
-5.72067210518195e-05,4.8080467224897e-05,3.64295836577528e-05,-4.13844156248306e-06,2.3743435555172,11618188.0632948,0.848969463259159,2.65710227733742
-1.70371389592917e-05,-2.06002108288857e-05,-3.30890381078184e-05,6.54801178939615e-05,0.769104564971285,7928472.27885511,0.834256450332177,2.33150875496708
8.43674945398571e-05,3.12333454269726e-05,-9.0661952222805e-05,-7.51449423317099e-06,0.10347735744432,8428654.70414872,0.76560908667773,34.0547317117831
4.75248346335147e-05,-1.48832863205121e-05,6.61746453200298e-05,1.61432472067456e-05,4.48236355237182,8515782.63349035,0.881345810097954,3.00294954592639
1.77665143163433e-05,-1.76765424374308e-05,4.69514255749614e-05,3.55241029094075e-05,4.40080078270847,11950870.628577,0.875033107799311,2.99698657131211
1.53346765677607e-06,1.77090820793957e-05,-2.22482681863621e-05,-2.68953497880368e-05,3.10518556240854,5916058.70191411,0.861743525487855,2.38703698241147
3.97126431578765e-05,7.88768236624599e-05,-1.65295084558997e-05,5.56503466443023e-05,1.65297935935216,5085361.54114702,0.801883994107345,13.1839126686836
-3.92032474255784e-05,-6.31860762545142e-05,-9.64440580245638e-05,5.1535028930267e-05,0.185491246366364,12492518.7421459,0.773597173984791,32.2477531642891
9.5986639471726e-05,-1.95703564182564e-05,-6.06300064937759e-05,-2.59095887783877e-05,2.13191789784219,5912487.28020536,0.848168975861505,2.9506264983106
-2.41509983836957e-05,2.62060679020644e-05,-8.57721714665907e-05,3.81933938560305e-05,4.42136206590189,5124382.98124534,0.878888495394856,3.04306981911829
3.37105604568271e-05,5.51343238148306e-05,-1.4021706494381e-05,-9.44060719994614e-06,0.961831807947254,9359518.42692923,0.836194751564985,3.03596403593339
-6.46220311776587e-06,-3.16755644206176e-05,4.91121404728116e-05,3.70233057438979e-05,4.62078732913789,13473355.4346132,0.887720234422914,3.09165398473606
7.23616137893093e-05,7.02846259330263e-05,2.83300815432512e-05,-5.17618799877959e-05,0.104030805370432,8900369.58828577,0.801987942900966,12.6055220305282
3.65687386062467e-05,-5.29368953390881e-05,1.09390857359499e-05,4.90199765799348e-05,4.09367865990879,13067948.2245696,0.867614470926709,2.95961103158043
-8.25305398119833e-05,8.84301331705046e-05,-1.44268215444106e-05,9.57169631290289e-05,2.11591258276194,9427117.66957379,0.784949934655689,16.6301486938519
-6.75270946140224e-05,4.75753047401236e-05,-6.74741537990972e-05,-9.33189153121604e-05,3.69194204850419,11318057.3564655,0.897284715681224,2.68693401531096
4.92620975401206e-05,1.30517395822931e-05,1.13356170530849e-06,1.86190628357919e-05,4.11790968658477,14186888.7205867,0.872346868165401,3.00602350673733
4.01207738571881e-06,2.3993657554718e-05,6.38634297559111e-05,1.06470940391546e-05,1.44661901894337,13680870.3957377,0.836481760007127,3.00760044720086
-1.76293648613434e-05,3.96166884431811e-05,7.50988227284314e-05,4.02729730419098e-05,4.4494249343339,10485385.9998298,0.877605845309926,3.01552416805542
4.0365338986713e-05,3.68083670357669e-05,2.0058000103098e-05,1.70165828384454e-06,2.77826951526737,12884995.2074022,0.853924093321522,2.96407418499239
-7.19666062578017e-05,-7.96222944348491e-06,-4.82304906006794e-05,-4.00636997465607e-05,3.87060837939864,12405226.0692405,0.875918152607212,2.43031535728392
3.78215884465399e-05,4.80558510558191e-07,1.15456137938334e-05,4.40636988364439e-05,1.40812258766852,11504972.260036,0.701647593450691,65.4567620380834
-9.26155780838597e-06,-1.07552443232676e-06,2.73157988230387e-05,-2.39283626004437e-05,0.159814513886845,10439669.7665943,0.827085212882976,2.41225384655822
-6.04867133166971e-05,6.08360129902581e-05,-1.31780483885131e-05,-5.73736066382663e-05,4.19194014920131,8976042.63329752,0.898711902155812,3.04958439246872
1.11745650437407e-05,4.72685540806543e-05,3.56960987426051e-05,2.3485784083587e-05,3.01931705474519,5123827.82487819,0.714064912959772,51.8364376857227
-1.84369426345439e-05,3.011624863126e-05,-6.45450729453059e-05,-7.76542844001477e-05,2.06253733128486,11794119.451328,0.847909451778398,2.81235652317597
3.12277919470477e-05,-7.21769952306195e-05,-2.3419256914578e-05,2.88788791851315e-05,2.27556875940762,6373441.74684117,0.897379700403238,1.60659388064476
-1.05062862723187e-05,-2.03638490890239e-06,-4.49569460852969e-06,-1.35311820743695e-05,4.0967465896186,11986524.9992508,0.89867270066662,2.98978979531035
5.62542737049034e-05,3.32116005183437e-06,3.9554960923655e-05,-1.41841084237184e-05,1.01976677412974,10677429.825133,0.833997675113447,2.97009809100167
-9.69084597672281e-06,3.22452703381127e-05,4.33514582495205e-05,3.53769466240584e-05,3.39946786945568,11424246.6876139,0.701248376602443,63.2441672222237
-2.55960916101296e-05,-9.86006471565993e-05,-6.27254805275143e-05,1.19545928896013e-05,1.26180799614439,10618746.7223633,0.808497366764884,11.6148483182874
-6.82646298155525e-05,2.21780813075416e-05,-2.54686580788322e-05,-5.29835835560621e-05,4.58501473318294,11768540.6053708,0.701611017530407,36.2971488059116
-6.37729871670312e-05,-5.29601176754852e-05,-3.90947808236771e-05,-1.58735706698537e-05,2.98128420707671,7122804.26188607,0.852046341634006,3.08150971891039
-4.23380067729191e-05,-1.72665252913494e-06,3.52457848269269e-05,-1.44004688847077e-05,4.22526462500265,12338288.0834331,0.899805125904125,3.00723425277172
8.35362718854532e-05,3.21385102070134e-05,-9.55384687395898e-05,-6.13643851302362e-05,3.86282690999543,12821370.0985468,0.877722981832204,2.87766221116746
-3.65011867525193e-05,9.75211850368638e-05,2.18605884218988e-05,-5.05840156913813e-05,4.21881892447702,10616261.6512101,0.886210614525207,2.96262837064375
-3.98645987932748e-05,6.10200176765844e-05,4.57387547427873e-05,3.0309789460763e-05,1.27048082725886,12058165.2761051,0.836011408552005,2.96557017037259
3.22787756541149e-05,6.48808590179062e-05,6.60639200472696e-05,-2.21265341838846e-05,3.63386035258257,11599774.1190567,0.865418597421426,2.97575997115242
-5.11166018302634e-06,2.4080077095204e-05,-1.39966694575153e-05,3.68866476328199e-05,3.38639604932294,7735914.32597474,0.860152335217203,3.01439123701977
2.89887981785976e-05,3.04289503894737e-05,5.25249050508816e-05,-9.77173554082436e-05,3.90773354628395,9448789.30615893,0.869748419760062,3.03486581755381
9.72435604387952e-05,1.786020255757e-05,5.84120046964638e-05,1.73808927957528e-05,0.220575294664968,6242865.45119022,0.831966803844288,1.90318226852464
2.91549575426415e-05,8.56146650184662e-06,4.13572446664818e-05,-5.0184582043656e-05,0.0154160633783023,8779334.63438459,0.824428481398177,3.01440566009553
-8.28198477423277e-06,2.8074083165939e-05,3.69153412131002e-05,2.02495676765514e-05,3.05729305723594,12096406.3337767,0.899845637022969,2.33904675594649
-2.88545538428854e-06,-8.80904986849085e-06,-6.85326066906537e-05,9.92984387841629e-06,0.992001364670975,11513952.0342935,0.835971275120224,2.74736605976718
2.86298490726408e-05,-1.92473451659543e-05,-9.73544303967901e-05,-2.36804348183979e-05,4.31703122067883,5110657.92752256,0.88696631625667,2.9898583740579
5.49472432185217e-05,-6.26009191857143e-05,-6.06912429978199e-06,1.00612885095047e-05,4.42162953649941,11752008.8098995,0.885302204449702,3.0069626026596
2.74874126044193e-05,-4.60639431368538e-05,3.54064952579736e-05,4.33746516869054e-05,4.04682287471026,7789027.44145973,0.899445214780045,2.9078943944715
8.11397601643671e-05,9.18669727799064e-06,-3.98394829893173e-05,1.99575193433126e-05,1.50722630432167,9775643.37088296,0.84278976042289,2.76090304948323
2.98143749674669e-07,4.12783020114612e-05,-2.73263084381864e-05,-6.49435616430155e-05,2.15185158842357,5951741.01975271,0.847924196975456,2.93180500892931
-6.3689651429504e-05,1.20597317444378e-05,-2.06261295023881e-05,5.64740932868639e-05,0.612398106259762,7537726.37690681,0.830822168528978,2.68104152907233
6.24764356190666e-05,3.91097386459748e-05,-4.37370638152716e-05,-2.75895171690234e-05,4.16469170144673,11353664.4236575,0.879838028840755,3.04043552496991
1.67270812126376e-05,-1.12978321392575e-05,-1.04202406472023e-05,5.77546231137666e-05,2.95769794464239,10799547.4619227,0.85382111797063,2.95615398115148
6.16454840529041e-05,-4.1079816374271e-05,-9.69975848521249e-05,-5.39711180462491e-05,2.34970539185485,6000281.69951709,0.783135349742901,20.6686337166383
2.06020798028873e-05,4.82606381284396e-05,2.65249276274587e-05,6.01345329757317e-05,3.77182181877775,12366935.1075291,0.86459070954295,3.10415219485192
4.53640786442024e-05,1.22350293856122e-05,-3.03137804387484e-06,6.7732751435356e-05,4.01012954716399,5753300.9049315,0.898126952532188,2.96166853707311
2.96343007787273e-05,6.61244753432426e-05,6.00235928556898e-05,1.99659115998986e-05,0.764539664019993,9385728.98384223,0.832636272896653,2.98997053571693
-4.37009546780924e-05,4.78678532150759e-07,-1.36405725142104e-05,-4.99218857616687e-05,4.33428188720818,11264678.3758869,0.877307295259632,2.9949966165197
-2.77790832807368e-05,-3.32601221352571e-05,-3.84037394865634e-05,8.1258281716468e-05,6.07800856203744,13886102.8132429,0.702808073620611,17.2135277776191
-9.8993731563734e-05,4.02918993175599e-07,3.1531240736453e-05,-2.14357152218922e-05,3.74736576469476,10048065.5531068,0.726801003270416,34.0446221797139
2.70505711086668e-05,-9.68054555921835e-05,-6.73665593813272e-05,-6.50861634440334e-05,4.28894446991259,7015038.39290172,0.890633956632149,2.94098271761186
1.18267085500015e-05,-4.33038451214962e-05,-2.39591053158327e-05,4.10288877310875e-05,2.73872789593014,8377211.32242444,0.85036519459055,3.01326580900806
-1.83024652094916e-05,2.34124257709319e-06,-6.60550350011874e-05,-8.11980245575097e-05,3.69494295773769,8036949.08151173,0.877141448329412,2.36091769288872
1.80250355645699e-05,-4.40739446303859e-05,4.32605927008179e-05,4.98620977097615e-05,4.48695924696665,11309470.5675165,0.886537961455906,2.9868954212697
-3.17755259537265e-05,1.01502756796115e-05,-4.6630794986849e-05,-5.23300271003647e-05,4.25902763357207,8215942.3020591,0.893019168868071,3.01136516311857
-3.72755254552627e-05,5.82275499683966e-05,-8.97242002175747e-06,-1.45795686964218e-05,3.84568389530566,9532052.7774741,0.868129742165136,3.05489796746087
5.82488495886279e-05,-6.38047460167029e-06,6.06121083635035e-05,5.48056855201728e-05,3.43823823368885,7264160.39427574,0.86289468854652,2.48390171518799
-3.47177066055159e-05,-9.39588587155379e-05,-2.05703763355857e-05,2.6172027027615e-05,3.66618592008598,10707242.3261016,0.859451995922798,2.93586639801829
1.1269364431693e-05,3.06265075765385e-05,-6.87489354787626e-05,-8.06892698925395e-05,3.21414050083381,11694404.2491495,0.703210294689608,73.5033949778429
-8.93664099662768e-06,3.79311385516703e-06,5.9104244315532e-05,2.36425355485522e-05,4.49764749499037,12499061.9289158,0.882584834375109,2.99844067514573
-2.71809659519963e-05,-7.34113885045569e-06,1.79716406704956e-05,-4.43842986204616e-05,0.871893204887512,14864862.8936302,0.732256915347136,59.4350324561887
2.83648598017862e-05,-1.94019414335221e-05,-9.93323426005643e-05,-2.44584629019877e-05,3.39142085936025,11806934.8626638,0.793008686330498,14.6030544074228
3.70757049741718e-05,1.32814044612675e-05,8.70650640690923e-05,-2.30538452480725e-05,1.79410746423298,7847899.0709157,0.840333458228089,2.99439092663576
4.1021638599131e-05,3.03609894738689e-05,-4.76948348100837e-06,2.00599425682202e-05,0.0319388825500182,11360421.3726088,0.829129937961844,2.50699143944763
-3.5966639410823e-06,5.65056779268846e-05,-2.4845014978696e-05,-5.5583058211794e-05,1.17097637442423,8643352.55180086,0.837886088010685,2.90687312872956
4.03327177766035e-05,-2.99373573028633e-05,-5.85694229589171e-05,-2.09894475074748e-05,4.01542623490221,7153892.40769541,0.871186793886861,2.95502810554229
6.29688108058688e-05,5.41740600054582e-05,-9.56127180990694e-05,-2.38397016194587e-05,5.33600164909536,6640573.23911709,0.704335274299947,22.182933459366
9.19444374453903e-06,-4.53211164389006e-05,-4.23357111772506e-05,3.610952807494e-05,4.40013586276775,6530748.96130035,0.872901403036319,3.0813493713267
-3.25940959376859e-05,-5.96169929717915e-05,1.42815860663776e-05,2.51218271279957e-05,0.0557151308816059,5858705.61843453,0.826410696225372,2.05484375772089
6.92835709227016e-05,2.1923139777203e-05,-6.02638073486386e-05,-7.04583896224391e-06,4.10622480291404,10704383.9820382,0.877205961048664,3.00508911416442
2.00405873481965e-05,8.79912212581088e-06,5.88122236034724e-05,1.90298085468915e-05,0.15707147577974,9952552.63534495,0.825731348940254,2.98167920053585
5.82685179213061e-05,-8.53316837741758e-06,-2.25687111210582e-05,5.10345012075599e-05,4.08591734208006,12465540.2346995,0.870877477028724,3.0025080728382
-2.17490803129964e-06,-3.5128002060928e-06,-2.31328006338329e-05,-6.91743879234283e-05,0.772410488862028,7636691.39387335,0.831020795081819,3.04876788614802
-6.00192787437555e-05,-6.98126084871876e-06,-2.30703729771258e-06,-6.48585018086059e-05,4.34494333534696,12430427.5976822,0.876775207826941,2.98616099771501
-5.71160534303283e-05,-4.74284507495237e-05,-5.04041345092951e-05,-3.20247432710587e-05,1.84051271898538,7951880.65573917,0.840351306171653,3.029261973693
-5.07449908990355e-05,-7.21416539275561e-05,-8.30333695854047e-07,3.57111733203699e-05,4.56231883644724,12203521.4345277,0.874810202390146,3.00094651270578
-1.30549708267104e-05,1.59733314410439e-05,-3.3640132126996e-05,5.83103117502519e-05,2.18986840260877,8598561.72855797,0.846867560535394,2.8983807059002
-1.89885741609313e-05,-7.27731097107408e-05,3.75713580871927e-05,3.05825251199745e-05,4.63341400157268,10938725.0734215,0.882047715577192,2.9738201897244
-1.61357140799519e-05,-4.49886847815987e-05,-2.79149259521371e-05,1.40117153724256e-05,4.25737060569281,12213177.159492,0.895293298523453,3.00532060006775
3.30179061838172e-06,-7.15051078159428e-05,-3.74626444564487e-05,1.17872673419116e-05,0.0187367028162633,10736700.4585693,0.82540795827324,2.77681589375275
-1.3072414218907e-05,-3.08618621469923e-05,7.00359233609941e-06,-3.33406015383694e-06,4.51309331455445,8801712.69466577,0.883073911732092,2.99837490541673
2.34679452504509e-06,-5.21727726862579e-05,3.36599417181224e-05,5.6034096927535e-06,0.545018278912758,10419801.5004031,0.828469491099062,2.55991835122843
3.92590159203599e-05,-1.23737553592133e-07,5.35144303996401e-05,1.49798930334191e-05,4.27044376289509,8276712.32508731,0.89151688620723,2.98320542538509
1.17592827036906e-05,-4.0764178046775e-05,2.18578536564335e-05,3.34596698022864e-05,3.43591705059545,14026528.470285,0.858536986028552,2.8563887898537
5.59473154261488e-05,3.75022235531952e-06,6.41447940354405e-05,8.34375418121596e-06,0.143830497678765,14409512.8923323,0.712738036043357,46.6883392965538
3.62566488883809e-05,-5.64366831435916e-05,-1.51866591484604e-05,2.2364269408026e-05,4.41439214066869,8315107.34542987,0.874865915601895,3.03357075094223
4.78325832214461e-06,-2.78373847791428e-05,-1.03764791488435e-05,7.05747035109706e-05,0.943550437554411,10746789.0116775,0.755943676062526,43.0266067436581
4.11207526625559e-05,-5.90917525076937e-05,6.657439136325e-05,4.33949250653515e-05,3.74664669005229,9365229.60163033,0.860352462483275,3.0122123193009
5.82287455804892e-05,1.82819200041453e-06,3.33840154576575e-05,3.86464229099788e-05,4.07153052129628,9840196.44779919,0.896471809562217,2.9958783534332
-5.72874627344498e-05,-2.11509528815139e-05,-2.28328459082312e-05,-5.02848404032884e-05,4.51895230729931,8523095.99354154,0.884147041793084,3.02592020498733
6.99670375930278e-05,9.47948520236012e-05,-9.30032792524164e-05,-1.8032771219545e-05,8.00965560187823,10808059.0189545,0.775295883623808,7.27015131483299
-2.93390079553439e-06,-4.5116812870322e-05,2.49268419867183e-06,1.65041121867424e-06,3.41567173364174,5426219.02928913,0.857772286230099,2.93314285951586
-3.60698497988766e-05,2.85987636608051e-05,1.06867548389482e-05,2.18680553876551e-05,1.88858141805428,11198922.9949825,0.749685050951913,38.6251980715471
-4.62352852535268e-05,3.48649268922863e-05,5.34375640779543e-05,-1.79476689245902e-05,4.41078637798001,8127007.91368995,0.88733092859992,2.95836562815505
-3.36425044258545e-05,6.20338868435412e-05,4.29030017404006e-05,3.07184048665406e-05,4.1006384351605,9309027.53226461,0.72455775597049,27.1386596645461
-2.11467365214565e-07,-1.0704943181218e-05,2.22416704192586e-05,2.05346008244637e-05,1.83527617191639,12835596.9236446,0.732304157953839,61.5521762573154
-2.53741228253021e-05,-1.00555750823728e-05,8.86211117600351e-05,-1.30146166718042e-05,4.80336317315675,5117759.80890674,0.719357072813664,22.7097312881325
