METHOD,N,MINUTES
gpSVEC,3000,0.0548833333333333
gpSVEC,5000,0.0879
gpSVEC,7000,0.0877333333333333
dgpVEC,3000,39.70298
dgpVEC,5000,64.37552
dgpVEC,7000,89.0578
dgpDSVI,3000,3.0979165196418763
dgpDSVI,5000,5.105429494380951
dgpDSVI,7000,7.141291983922322
dgpHMC,3000,7.585305996735891
dgpHMC,5000,12.214822681744893
dgpHMC,7000,17.35167315006256
gp,3000,807.329233333333
gp,5000,3979.303