"","","y"
0.580621185307391,0.94365901296027,0.249453091051638
0.819327477193438,0.0743071925034747,-0.737921268417989
0.703216289957054,0.803043378116563,-0.615637173519048
0.62146937363781,0.163009467436932,-0.226350863849222
0.229881719853729,0.207116446178406,-0.753720059682608
0.914084830326028,0.772734284214675,-0.712531438274195
0.944173060916364,0.104033598769456,-0.687797234022485
0.00750238578766584,0.310816577328369,-0.336766765220196
0.417336364840157,0.824758597584441,0.104851961099914
0.328872816506773,0.637696479149163,-0.0882822977513342
0.188372760680504,0.0284785745898262,-0.642422979912081
0.524960007159971,0.744416807647794,1.18134260250321
0.929657081202604,0.85324428009335,-0.736189706799157
0.422454172503203,0.00668343482539058,0.397768212760665
0.844397045811638,0.798553442656994,-0.797710227680826
0.143582320366986,0.600387192592025,-0.0539052026926334
0.87071039814502,0.135022151949815,-0.797045172420747
0.744487269367091,0.412634451650083,0.105259519573624
0.259195500263013,0.255863470281474,-0.644297210542921
0.171353521523997,0.497883216049522,2.96759046134848
0.115909298928455,0.381792230396532,-0.171802136443289
0.549863122343086,0.668686425630003,0.761219655194934
0.0737743734940886,0.274719644114375,-0.599452551428372
0.732777766934596,0.727052338793874,-0.593495891348599
0.890896338494495,0.967515035192482,-0.644757831526364
0.397444739765488,0.568815159252845,0.818655724363619
0.785707516544499,0.685168141848408,-0.543847900872811
0.454194737910293,0.181457320204936,0.623649195781765
0.509900253140368,0.474766502915882,3.18308238425022
0.0256785688409582,0.293068150836043,-0.446114450926082
0.664938001888804,0.44020472379867,0.620023766676203
0.357577209281735,0.555239882003516,0.775633085544065
0.572882215813734,0.238008045894094,0.242341163463202
0.986095366855152,0.589417229006067,0.255169091262012
0.465276843416505,0.655973988487385,1.10804008657168
0.319133385857567,0.378048049849458,-0.028534038643272
0.488235330004245,0.98032530373428,1.91648633765367
0.963376105078496,0.500872733788565,3.62744851872488
0.610301091866568,0.939409623113461,-0.031177785617964
0.261006923629902,0.894505952764302,-0.677095771198197
0.375704682813957,0.434500785525888,0.723430940913879
0.282904520807788,0.338565801256336,-0.343918181048932
0.763035147571936,0.142531922589988,-0.752204481936365
0.217290727784857,0.873133457005024,-0.769499069159174
0.125392748164013,0.0843810133775696,-0.748932000471234
0.687294310783036,0.350384987709112,-0.206349743918051
0.0506852571805939,0.714301900495775,-0.525778301777509
0.825161339547485,0.529686390673742,0.996159861677401
0.652403670176864,0.917552047702484,-0.337900963182547
0.0844043830269948,0.0431981881381944,-0.642379425534327
0.744862203601127,0.460841855374165,0.801765691727164
0.964548177616671,0.398107853854696,0.0895875909323163
0.574900459124086,0.527885884114852,1.75266184236993
0.188029176913622,0.988381970488466,-0.599578525921192
0.00290938214841299,0.515361619101403,1.74940120659098
0.627100869014509,0.00404953136644326,-0.0175177196281828
0.501249926476002,0.0640634287989233,3.37578240628189
0.000520588396803941,0.412983891168931,0.315047127228795
0.105948408013132,0.537877342580983,0.832339125414222
0.000171498527260846,0.464208769525869,1.0758728127278
0.37690887728706,0.519518608927416,1.70726989794136
0.926477212226018,0.212387868191323,-0.712161065715831
0.0119357217047108,0.905171786142339,-0.581970858360523
0.00459533844073303,0.165122861843773,-0.59030757281106
0.036343096229602,0.505815910402752,2.40152761742397
0.368843543422408,0.131752400402911,-0.273841751376808
0.690312568259092,0.997392016946338,-0.326878435775461
0.661566888204672,0.476310821095895,1.40053872951464
0.307989027208338,0.483967536834276,1.6273988065979
0.229915288219539,0.703739042915404,-0.591484970245941
0.924877603827044,0.539992117822791,0.826902884694326
0.439056037681702,0.99928869937174,0.622387152764396
0.131070409488528,0.472517596342346,1.0805192819375
0.656415038087785,0.577083014668207,0.437531705679793
0.530013474961225,0.61751543274408,1.39700558752531
0.326556825535372,0.0556381366060426,-0.389722174372438
0.996513421388576,0.344015209721196,-0.181399912577018
0.999130439412186,0.467048458547536,1.14277790452044
0.58327338970944,0.0770408092007662,0.184429158594828
0.430849214133871,0.0674997546757416,0.363638605706673
0.479119489289027,0.553699031637602,2.19320915784152
0.792956648236667,0.998245352606941,-0.555664852832347
0.0773476774180826,0.99467768783154,-0.543984946274001
0.524715358413865,0.000536648309591692,1.37903341183413
0.486162383922686,0.382425111445288,1.9961699935627
0.878504219736593,0.341043391232034,-0.41999296949373
0.528011141124779,0.566366782832178,1.83222317660472
0.419830169230182,0.313976827166561,0.302867218606095
0.00500553412679488,0.628247391589871,-0.0276754453366623
0.26940512174637,0.53984907734432,0.806660020569128
0.372466442050587,0.906184416573495,-0.209084551319008
0.19005578042008,0.406080415900797,-0.00687130617658349
0.991027670984855,0.937770456148811,-0.531820430719996
0.776277892697189,0.277986767177045,-0.648549244908549
0.553666879650619,0.43246544605328,1.32257502616795
0.0933039022233873,0.830869047881046,-0.768659308666373
0.507639185769173,0.837611472730835,2.07524016959239
0.457255773292337,0.430564133295686,1.47781597887554
0.194780321212451,0.546039828661956,0.620159834556974
0.223132776384138,0.462643722928198,0.812226403722415
0.999507905519852,0.702485693319163,-0.363003728682318
0.536412891533102,0.0472136287697604,0.95508295260163
0.578605160962066,0.795023886165064,0.153207970608831
0.473389470057177,0.000361004156749114,1.31956991064047
0.816050942883723,0.427788077851953,0.223686786284407
0.525498567026936,0.920531929808462,1.19899086043066
0.349289737638534,0.233864232616982,-0.375048086667874
0.60461446874913,0.340286159885495,0.171917133825774
0.437761379956141,0.501260591286901,3.90373514320046
0.164159903810868,0.458827076097555,0.719024834799514
0.800974058725433,0.00540415650679497,-0.573878704551225
0.901434883929755,0.48955097648777,1.88300045052923
0.468496203555683,0.0439747292104713,1.08300353652751
0.423573945354145,0.455441836702825,1.37650203572102
0.439530366200874,0.462422187095137,1.67563756910111
0.40403833233623,0.529864786489054,1.53253612127879
0.780189994668453,0.866614057793499,-0.77089030844381
0.596711408993126,0.478887383754676,1.79602616345745
0.512906018031912,0.107520519401542,1.7112739453374
0.742146193745466,0.522537086905371,1.26807607718326
0.548147910774145,0.385058905794688,1.02906356823432
0.22910607311432,0.516177542978158,1.50896346405006
0.302752858896533,0.807667864421382,-0.598288212719158
0.483491372545422,0.860967333374579,1.49191585085845
0.537247637919392,0.851055762901454,0.811523885748827
0.403828674921145,0.70614302174033,0.0950738874249102
0.0147526708349366,0.549808307031342,0.759351955477815
0.845248819973009,0.584948883448314,0.0865179213357692
0.906492812539868,0.00547188776381256,-0.563381021397016
0.48230237431807,0.24448073108853,1.44959518979565
0.0911206379104207,0.505403616442027,2.37666342800355
0.454416108815068,0.375655357302511,1.02185407368459
0.0131413256350919,0.495128766343342,2.56888412025652
0.333183885548637,0.964618362144567,-0.316414109853712
0.553266352960311,0.274258312289373,0.564726800052774
0.448064381533418,0.915825684560785,0.587567558525124
0.943119722208307,0.462843854710343,0.920029665891618
0.458451916406455,0.965146562555602,0.868168470905529
0.428595616622299,0.219934094636816,0.245479979202347
0.448708348973758,0.758439475657522,0.553322608133852
0.529192215885714,0.34724744317645,1.26208263070946
0.720260804635645,0.194509385734655,-0.665291542987785
0.44728035749034,0.592829393125944,1.10415323538298
0.620415350079916,0.73025421686298,-0.143431272741714
0.4937691806343,0.780155918678717,2.23028003303662
0.392062501818388,0.469820410385377,1.44705615370704
0.15736075024986,0.527266795764154,1.07218417625816
0.616009614435599,0.999876702598934,0.0701494315609008
0.513327657251979,0.175661961833524,1.64797676434978
0.728089582792583,0.594929414473995,0.060133992123047
0.668306656986761,0.634088882001728,-0.0574659328264904
0.493476137731395,0.154879933813334,2.1938620866924
0.544197433091485,0.0772583191240228,0.737735626452781
0.248270435356535,0.0970777191247584,-0.69302389042903
0.477108253144655,0.301901667143847,1.3294511194958
0.0742372119319175,0.463635034651101,0.909346284481272
0.670535130074752,0.103196973797788,-0.453876379588766
0.527531578071158,0.999958270098534,1.29266041194956
0.91961385193963,0.686722953660717,-0.487945218593038
0.231366910392786,0.59654264964056,-0.00912237438138508
0.479648399850078,0.719610090597567,1.38344509062545
0.686709373345974,0.525310307556491,1.27444617189688
0.459506696591853,0.134612336231337,0.74852610714167
0.847549055453654,0.482341815004488,1.43091522956965
0.00444998607338639,0.0779448121634824,-0.542396052176457
0.61824505667859,0.609562443138005,0.345665652899809
0.560504040419193,0.493846590261803,2.95929179488382
0.992533293672812,0.0290619743582053,-0.465795835023214
0.3296008237684,0.00144197893732876,-0.243197640314151
0.46486563933996,0.821960616545913,0.852713098892248
0.491220880366589,0.102065428143934,2.01075758331714
0.283418396483348,0.441553103203977,0.50110832051163
0.619440413821062,0.510694525142006,2.17767643343605
0.393327282972753,0.645556298005145,0.217849250046553
0.549234349640567,0.148730649557333,0.569952547526855
0.99958318665425,0.247998712413624,-0.490866302133819
0.516576505571224,0.429885686804816,2.18405891030439
0.958116358586897,0.543427360205808,0.815819996360619
0.554471880222686,0.529366419069611,1.9340557232649
0.570294109687646,0.468399806689919,1.70104308548056
0.143016280503944,0.188739034556784,-0.802302795633438
0.999526778825235,0.820281579102506,-0.573093962017321
0.124634815874507,0.749636663764075,-0.717540918138098
0.999955498273974,0.534140185235416,1.11551275211611
0.544620414159544,0.458543918553027,1.82212426798381
0.765132372028511,0.549050964017703,0.585864457494782
0.253409292235599,0.487596267580211,1.73889791832192
0.443576053390184,0.259463884297302,0.49176539186456
0.526671175788513,0.804263759191539,1.08648156277316
0.318618382511626,0.577595146165666,0.344505625067505
0.513755158367446,0.966938501213759,1.77015685462494
0.498262788536556,0.681423501571652,3.21554686701288
0.449584639395909,0.693909033608427,0.678877851861536
0.358986802104595,0.491102185382356,2.22167971241537
0.47256224862747,0.353327378630549,1.33534997211302
0.999605824016353,0.138416109079113,-0.578061514817907
0.341517679531556,0.510103201406716,2.069313397624
0.497851035638095,0.651637640934372,3.15330420439954
0.715639038048808,0.000300426803670212,-0.403028082359596
0.879224961609541,0.410558441264777,0.0651241344391595
0.491714956029887,0.620660822268132,2.35638893080599
0.697712821717258,0.487487661342184,1.80752734798243
0.805857532867422,0.490956687017465,1.94648028356906
0.522837415794594,0.219383579605383,1.22367426871483
0.607739783429518,0.404318776579148,0.52031485091109
0.524361972679871,0.69817557828315,1.27859780636677
0.764288643404672,0.491445209765667,2.00604007704309
0.516962266756019,0.399123234681597,1.93551054092555
0.49815382948185,0.0361916021063288,3.17122608953736
0.149626390895185,0.304125114930794,-0.591575917193181
0.443479393038532,0.5587977370842,1.38661685723201
0.616918637010977,0.538554474641688,1.19866458738551
0.660145777077472,0.26096747311262,-0.382595718866279
0.34515145010815,0.717169121770292,-0.313614404704917
0.119560252185031,0.937976235400351,-0.710973850170391
0.486444842674319,0.215107210299616,1.64096852824876
0.883824609101428,0.519743161661434,1.36536797053568
0.207864123674152,0.492234827318626,2.06370488468315
0.519855607330227,0.307802474203223,1.45744119149445
0.0291833453647568,0.474324190173437,1.28195993472438
0.0848454208356377,0.58883730892096,0.115504554139373
0.0523480583592236,0.531167186671692,1.0762213058946
0.514497207550694,0.519277317874365,3.10914775782277
0.00446416995613967,0.979286943697482,-0.439217941227273
0.499615195481231,0.580242212245971,4.41716853184544
0.322370702168548,0.453340475188047,0.789425339232014
0.126517265882936,0.501729336182842,3.11548900791425
0.876069633664317,0.460817077585678,0.785375999974053
0.515412525830584,0.877518342028165,1.5584020937669
0.496325158130313,0.904625318799137,2.64166702179383
0.00713514192921512,0.837568707143231,-0.597963300096997
0.477126025598621,0.524745646932956,2.65117707851286
0.929896197611765,0.510138609366375,1.94131821349997
0.778938701649334,0.372803098893027,-0.251366950172903
0.623129731437149,0.441136961377498,0.817825228680507
0.468895464211193,0.455917607768902,2.04040895026688
0.532326742966053,0.538336839925385,2.11109177592038
0.489510744301405,0.945570127522833,1.93935400280513
0.655905558457236,0.504105217931464,2.71627413948447
0.524162627853171,0.682761835161602,1.32235005148803
0.778426182766868,0.510484286933611,1.84313680016792
0.306303942828755,0.511306605195104,1.89335781990871
0.463522099352048,0.0711799706767157,0.911506510511595
0.518474778202869,0.275513839193709,1.45349367787524
0.371556079300569,0.375508554180636,0.187132962644605
0.525909210980802,0.645946499769485,1.38437629142686
0.788923559784091,0.459862206747861,0.744008384182107
0.643079744518666,0.53991423574712,1.04328675286067
0.47104142378299,0.677102174555821,1.18980104920374
0.477966761321712,0.922007043627585,1.32088757844113
0.318603549856216,0.501792447812032,3.19590105150983
0.596174509700531,0.669501028543663,0.203547214911135
0.571247955506617,0.000399359756670339,0.488327926812006
0.518538835134624,0.137043700924069,1.4000013283393
0.515879213990638,0.628040918260566,1.84288033824362
0.540635973915332,0.970185261424187,0.897912901402745
0.661898225440625,0.523109920411692,1.41934114974217
0.391003237147226,0.506401268600616,2.59334349197506
0.671728422793055,0.489301233456514,1.98816432696759
0.486664887595416,0.414291643848597,2.21452705849766
0.49945919588145,0.748060938974693,3.82463588566347
0.973815987313123,0.526146759743263,1.27348325999415
0.685383539285429,0.500699734118397,3.75459818468125
0.0413107577043081,0.368530899631277,-0.139773679423283
0.449630706306333,0.867183871839935,0.560306541464011
0.562357679198385,0.320597305117106,0.537041305881866
0.350674809225501,0.29546895367996,-0.25531599049096
0.0207363094973898,0.00605715001508384,-0.443459375252709
0.8604197748866,0.277139342200134,-0.667554907511201
0.558756557588198,0.597814886238088,0.979814904419016
0.456500223667436,0.323068624313652,0.850844712684469
0.0672336486906467,0.491618187165293,2.08772482536469
0.78634863977003,0.621682146590239,-0.219780961527426
0.429125521640454,0.413573425374695,0.921562415600011
0.728240406354617,0.490288867873907,1.94838626262894
0.849906138098589,0.72348151272204,-0.67421785447038
0.452788932864431,0.528267991768019,2.06181624566107
0.548317993749632,0.20204075835227,0.579818265619105
0.644741707031995,0.83853977066137,-0.370517077282032
0.46809071897891,0.623154734627154,1.31836986023216
0.896580091913228,0.603887984977274,-0.0465323976748522
0.0702341149867636,0.509396330093004,1.99834213593881
0.852178334700856,0.510590455779888,1.83444809361651
0.583525217907754,0.554751748331542,1.15037078910162
0.547789130084573,0.905082235223395,0.64515790718303
0.507203357281137,0.33612576533674,2.30055331211438
0.606229637199107,0.567622888703745,0.807358983600102
0.190613610626301,0.775503054561501,-0.770506229370724
0.077530499510995,0.486885612752807,1.73404475786443
0.544125401817861,0.0160498789453408,0.859621213682326
0.0910014557028965,0.146080969926042,-0.765732370165111
0.469114389649339,0.786852003627384,0.968650541048934
0.498752885984297,0.0123630848575565,3.45304192324266
0.207528897374351,0.349590444029309,-0.395147183873813
0.361298255184665,0.587250506801841,0.413130289874595
0.48465574594553,0.190742164112692,1.53655379374881
0.282331899544224,0.145315521902025,-0.656685342065122
0.866914471455184,0.895791124359777,-0.776299680925805
0.831388440201186,0.184897805579979,-0.808205422601662
