"","","y"
0.785068547162227,0.972592624868266,-0.615423250006164
0.0253280723001808,0.730648918002844,-0.511754811310279
0.189365296009928,0.711487937895581,-0.643245094772023
0.913368909964338,0.324242273508571,-0.453762138589812
0.259512647981755,0.236187655455433,-0.67480942804419
0.865506685129367,0.907982473829761,-0.763300087494203
0.625806008884683,0.829859864674509,-0.257399675002427
0.835135502773337,0.590213949377648,0.0300301042031925
0.108762979032472,0.155818281760439,-0.78672673234919
0.0782263033604249,0.121421482879668,-0.737917851401524
0.22285284625832,0.807861455651,-0.77176058638615
0.0571287544257939,0.765285084522329,-0.652778813417414
0.761892767171375,0.294486673255451,-0.586779367889347
0.299609533278272,0.564012005887926,0.457714491180822
0.31104527675081,0.866909289420582,-0.557439153975543
0.728167800148949,0.523760624327697,1.24377454003763
0.526911053177901,0.403673120453022,1.61139326068824
0.696262290910818,0.477632708181627,1.35230511671846
0.474012292376719,0.885528547205031,1.14137367561748
0.448640089272521,0.000256318445317447,0.770510531316916
0.571260765534826,0.453414005334489,1.3924747043035
0.58627204648219,0.118950873371214,0.0986239308550507
0.983376060710289,0.548808282208629,0.77214425363437
0.851432535131462,0.959493079343811,-0.680378680228872
0.615295421355404,0.348861101944931,0.130743736013127
0.347117249141447,0.840729139773175,-0.413324804268829
0.011877607870847,0.219231065507047,-0.569940432329812
0.745054608802311,0.656944125057198,-0.377637577355727
0.484255628418177,0.305557816894725,1.63620508275293
0.669587701736018,0.435599995953962,0.541007762110145
0.418018807214685,0.518869213066064,1.98724123226909
0.968304303511977,0.986682204799727,-0.486348370717427
0.125654634581879,0.621444431836717,-0.204157382568698
0.20141364953015,0.183179003377445,-0.795726126474701
0.383017263179645,0.0350418451521546,-0.0276286782479707
0.0819137412402779,0.932229845961556,-0.683407901365336
0.504018889558501,0.370066350316629,2.81738676118955
0.542582008894533,0.0600584556907415,0.798133367453477
0.65287684569601,0.0848207277664915,-0.344036943142182
0.948400707114488,0.494308553468436,2.39186747303315
0.922013693638146,0.25213673688937,-0.658179780788024
0.884248632485978,0.177894815020263,-0.78986717689294
0.151263960674405,0.0449544956814498,-0.68998010101128
0.814613116355613,0.685326646338217,-0.558118981993645
0.175085144429468,0.619158865595236,-0.212330962833195
0.269624725636095,0.27818989333231,-0.576251262680181
0.379802108532749,0.664648345289752,0.0413887790779111
0.705635571642779,0.794078505421057,-0.618234840326868
0.336671948609874,0.389313578093424,0.112076576956028
0.427813688619062,0.741877763639204,0.274956539621601
0.581376354318733,0.617411964676964,0.586044776666892
0.522867410569999,0.995945602538064,1.43294504775973
0.995269487717422,0.391666545777535,0.115035119816449
0.523551975689414,0.529898394359172,2.50444934807772
0.00186028400855139,0.475380326705848,1.37885854255626
0.863312472409258,0.447437150434901,0.520159645728664
0.419569881794353,0.426083047158706,0.94310283448744
0.297720334605282,0.996408772424981,-0.37141110362141
0.440457630478949,0.571138650904996,1.20357079210555
0.000686894593969919,0.347063932338816,-0.157779248234872
0.616299803588125,0.516152892731027,1.88606814186977
0.882282894099028,0.510653217760329,1.8498298279229
0.431533345850667,0.959294307389359,0.424151420762596
0.483499941510252,0.399940839309452,1.96130500068139
0.699136384491373,0.00890755667327903,-0.376083489057151
0.868431078973523,0.00934011858467711,-0.600848404008059
0.573742711198758,0.554487750589054,1.24565597228387
0.99817868956147,0.689917225895216,-0.323120455234635
0.453713554899484,0.491616884861314,2.91804200986487
0.998324149653672,0.839818038040161,-0.582915456600863
0.534523313110694,0.341495089718762,1.10376890103014
0.938019887307935,0.517923351145798,1.51146928044345
0.00536209067702293,0.844986087112214,-0.593854268172676
0.351433429700943,0.490731599015805,2.16514799058417
0.000127358930126065,0.411232611227267,0.29895798284309
0.535016996003687,0.255334593328233,0.897305631687642
0.571198163492099,0.533513012559751,1.64719310063868
0.413499152940801,0.373651480715618,0.484621288731882
0.935660889080389,0.444470749893624,0.561068320159074
0.824587722219078,0.493950330840976,2.243853455865
0.171205792349298,0.494617590131503,2.32871341867903
0.0995735703132426,0.530480782891356,1.02403879779415
0.0363606159914603,0.00831879892805591,-0.4833474257806
0.975682085180733,0.478261127151533,1.42725573942775
0.437396664197706,0.527208249610791,1.89425965748081
0.0903022405308887,0.478776994750042,1.33485683626177
0.999825141960757,0.764866104865898,-0.513281776788994
0.286437056886705,0.458220922413577,0.795916508994537
0.64458065553897,0.932799364026946,-0.269900071115284
0.252417460838091,0.505616839477669,2.3286010204136
0.301153474605769,0.520120148127133,1.43204560935571
0.313007987064472,0.489690889852172,1.97796221232574
0.321864963790395,0.50018087899837,4.49330472450654
0.17704425283876,0.417194826071285,0.10317034697086
0.12036053439781,0.501291789257634,3.30290986549695
0.307542657224812,0.528104344337809,1.17444173298156
0.680243298215964,0.505848741746784,2.40727475993452
0.199569465872285,0.539797765068136,0.747386292669716
0.00244991120523346,0.577199675015109,0.413198846309986
0.749672604426282,0.498447887783433,3.19225667467089
0.770991969116189,0.537474153829593,0.813590730476279
0.517295124537403,0.449568003549608,2.36962970497765
0.0891579507665917,0.435734810682865,0.393943078590409
0.0639120316175609,0.494879368115749,2.44857114984539
0.358998298046813,0.512568385473226,1.9663797649738
0.538488981083377,0.43555170977904,1.6118181575952
0.00147918471463697,0.487937537649408,1.93758467382033
0.467135423455357,0.542748431624986,2.02221450017432
0.366355153934678,0.549239680755383,0.911680992626046
0.0226137091791438,0.520005526926755,1.49746192521285
0.586252910871683,0.501026636875089,3.85828763539666
0.984775877869481,0.472911985045899,1.26903437281584
0.163711930873131,0.511902381485757,1.73850074346374
0.885146094726767,0.539596839427925,0.784827543214927
0.993185028334547,0.180155271200214,-0.590970239977762
0.625973152040941,0.546471199718258,0.997546262058508
0.999650508514765,0.472474967866167,1.29207182180139
0.467429962533837,0.198644751791704,0.918699207479045
0.45226112606803,0.439213590443157,1.49008810226877
0.481466984681418,0.521421236948491,2.88474413857558
0.624046805398609,0.484259841853359,1.8678593694822
0.78175076525385,0.509957457484667,1.88079351532162
0.0845959474872307,0.501379048585715,3.29232663869221
0.0088476016996714,0.528380913197091,1.24594262818847
0.993080805365404,0.0492671178205901,-0.504474847431204
0.238632923521186,0.46034419598751,0.773082780568947
0.441848187587289,0.452304507487726,1.52343401064327
0.0620331037033158,0.51512189264462,1.64571272693489
0.404283833027529,0.456373051220745,1.23396296042331
0.00436379159586504,0.923068873357619,-0.540831495391725
0.812524266351539,0.47994512301977,1.32087893790768
0.524021251154501,0.563352930220374,1.97885689366167
0.571155746689377,0.401982742577481,0.824907081239495
0.207730906353225,0.513344064892436,1.65039105941395
0.515285078650728,0.583967848600778,2.1277712870346
0.743928190837946,0.471331002252388,1.06676709451293
0.369986624565079,0.156624750799764,-0.281162327987401
0.993735086262175,0.570400158656671,0.482685314915404
0.593853493935039,0.479566828020979,1.84014025945513
0.156203526528623,0.471034735153474,1.02192647867198
0.410300950407643,0.999617718748152,0.289227285446988
0.806588309866248,0.46623775856902,0.887140447776263
0.467257890305827,0.349758549308991,1.17770504817749
0.316959491217373,0.479547803760518,1.45602448038098
0.608866506619473,0.500479790486492,4.17008771830343
0.68944554346394,0.999314996177394,-0.318031787687106
0.502147251086862,0.563356403482046,3.58816400505121
0.433281858504767,0.466764814523262,1.69910139266321
0.678128083468618,0.525360188597579,1.29548797442688
0.0516434221309013,0.468664835168154,1.07301687172311
0.663298932681815,0.465830848662983,1.09583684866309
0.556801381389406,0.585289187955599,1.10606240628538
0.445181605887475,0.606584948265175,0.975102308825196
0.449274289518268,0.461044994264066,1.77506098704944
0.563452827552809,0.0230741102697793,0.530231110737853
0.487537978541688,0.584636400116,2.27130185920773
0.540871301480527,0.99829277248787,0.960587994972704
0.992253885162409,0.530561136243822,1.18774448614378
0.546872598450703,0.999075162471139,0.84666739298638
0.593697405852811,0.572790304994759,0.840173486726871
0.529573001673238,0.19097673949705,0.999122836155847
0.51793197917752,0.300795833313907,1.52326017129769
0.0796034065452268,0.491678470483835,2.07638922767652
0.129646711922751,0.554609198737943,0.492023513353924
0.465043677491998,0.566174494215327,1.6664222152413
0.545518593650218,0.413735857603181,1.27322072080917
0.457545577142101,0.56002052558177,1.5885350665785
0.513817860297364,0.570225727434399,2.31431636629837
0.640196635734233,0.502087158777056,3.20636145202173
0.0546855284072639,0.540934116850362,0.841589848342092
0.555155182122131,0.939134357901039,0.573116330269717
0.484790549608424,0.655291558860448,1.77019785851213
0.627727269885751,0.222924046651633,-0.253306068197238
0.180882876525218,0.506621345503232,2.17762922420882
0.250532153329549,0.536475536811243,0.856891869179621
0.485177469427502,0.341794238840115,1.78046757015138
0.00115560921777148,0.458183491860841,0.942755945021022
0.495567528985234,0.253179054004888,2.49711441371421
0.393766979429676,0.495936883253345,2.91367314316786
0.542348290385202,0.446177906221046,1.66975020696068
0.0701803609360358,0.503793436448695,2.64868946534408
0.0712319330329412,0.496783758349426,2.75951656159785
0.93551401424833,0.535442824260784,0.946847652335894
0.695513060611177,0.518323184890687,1.51405621403711
0.440557405172364,0.220275773162064,0.406869084380017
0.56399097093728,0.700854462737307,0.456884861933492
0.408277197209437,0.546415848242147,1.21431734321437
0.111887905942034,0.461848846862127,0.819773385155761
0.621631757556484,0.457757947713937,1.09858833531048
0.499348283446291,0.998995217902387,3.85213644667306
0.446104062177114,0.299828356924136,0.60637093021089
0.447060859901534,0.985969081346633,0.708823202157393
0.242424890416617,0.000428755868668668,-0.501393871835809
0.205856540741236,0.489435283670483,1.83076087256421
0.472943513374567,0.44994219608561,2.05303554058423
0.468297973891226,0.947939357498926,1.06251756338741
0.549873767780831,0.999946635746277,0.796135658228613
0.767471779598774,0.515293166365898,1.5560522688614
0.527150660859295,0.618890457379397,1.46952533493281
0.368066235725811,0.499745622580792,4.42331874545537
0.554603090732894,0.805414291538949,0.471031731562641
0.28395416826309,0.484509550581139,1.60711231733485
0.0013521516166655,0.492123274630595,2.25315753633649
0.116526938877934,0.528793923628978,1.05380678077301
0.406604652343864,0.567413492420902,0.903487610785277
0.690672883245986,0.500601544939699,3.83181918302859
0.00132898184969132,0.479414768046948,1.5236393213565
0.497523497730769,0.214266848431214,2.86866989848378
0.295783572122389,0.474092758918411,1.21532850181153
0.492198403054922,0.699341261745653,2.15886960304633
0.517708063367531,0.572515502085184,2.11394854362241
0.536972875970498,0.417653562611748,1.46951687399168
0.518224975239954,0.0277962948019461,1.5606600008545
0.485476357242892,0.810940200794395,1.57997839444366
0.335021623176063,0.453197660289916,0.827177879563663
0.00138677272699793,0.486491860108984,1.85182516451102
0.59558200567545,0.463579593689802,1.37869285048849
0.468267547094136,0.698836861415102,1.05894377578871
0.846191383181657,0.355388699066308,-0.367102049134669
0.499251712193644,0.286510901404506,3.67289306115512
0.555916904547873,0.330384008325866,0.660963119948685
0.460742998778237,0.257761061363696,0.802938306316545
0.995213159979783,0.524478754255554,1.37627632442708
0.468496149638959,0.750719742059751,0.979731405737647
0.447794534391195,0.450854364064983,1.58071302399165
0.700602981409581,0.522481332605321,1.33873565003638
0.570409767105568,0.0107459951294586,0.470724149758359
0.00241191119311537,0.111255128222433,-0.570548849538894
0.586898755048438,0.465520142348423,1.48692389920226
0.564105755854226,0.223078459825639,0.342391337751521
0.481416779796686,0.283276593220976,1.46142918448433
0.141983203967333,0.99597388228913,-0.589167555966259
0.0469762439425397,0.438544085692762,0.505392670158443
0.729954362058349,0.48247053273915,1.48740558271951
0.0538740048218354,0.995952137782337,-0.504929799636535
0.00291188982088502,0.977313146320834,-0.439618865755238
0.452236697918489,0.994860672665724,0.819537521466357
0.490568540864463,0.47364381219457,3.18702175747825
0.16370708325035,0.492518235590245,2.0903187014148
0.922114830097968,0.483144173707463,1.53654210184797
0.773404837989604,0.520908259226719,1.30034970401507
0.500479773263114,0.297621517204379,3.94089850080248
0.310187031873658,0.516135123821104,1.62742349263219
0.592111418219642,0.469555521353068,1.54481770564716
0.525310727134999,0.658345492992384,1.35796506871831
0.456670779094677,0.453947184804886,1.76659951011889
0.0889630327331073,0.399997856364322,0.00601225306019582
0.508228507877054,0.716971822180903,2.08878815934846
0.572728746956487,0.00663662341601836,0.453489626031787
0.603806407026427,0.505886440030869,2.67777602320654
0.725136219915113,0.400472557153934,0.0253434148929432
0.510442582749635,0.757701951926534,1.86055761916322
0.939203654153339,0.00293036182026336,-0.513379362140702
0.444286735078436,0.672925588521767,0.653280089131073
0.499155149463359,0.924200754201665,3.59803890347924
0.069867873212142,0.258349067877269,-0.631714391527651
0.480488471910435,0.919222886301874,1.4154754049168
0.00421655484052346,0.532567954280932,1.14394320913332
0.766339415117788,0.185734072014069,-0.760331177538762
0.420135765001134,0.797849034735591,0.138198046378312
0.488933802266959,0.957045109867659,1.91821313834652
0.489525807880251,0.933489583457066,1.92186696829164
0.377876883063643,0.536074638156919,1.22451572979978
0.441468111870108,0.460038105425018,1.65254019643164
0.492538253203523,0.938245149175463,2.18125003018252
0.590304675577266,0.544823987622354,1.25306494146364
0.683051948103957,0.576258504457679,0.354240472106546
0.344098897179384,0.501160287829133,3.52146251214607
0.627489863787766,0.521570417075447,1.60853743228032
0.512209079197537,0.944808205648054,1.82256574183998
0.608513948848595,0.900597862200831,-0.0791176945941885
0.489970957036264,0.31499119097974,2.00319780930361
0.53628862657636,0.295504811656002,0.933977286588156
0.893314981148579,0.786058408344625,-0.755218652851397
0.998331422658282,0.916319719168746,-0.541907563886739
0.516840676908474,0.791352148086626,1.46630077255313
0.521028998498939,0.997744530976107,1.50439451664645
0.489723143084681,0.925637741320202,1.9251574305824
0.464343078202671,0.0979150175448668,0.893307901460718
0.536304474106128,0.889583134547217,0.863754975644043
0.590954555734373,0.471547497240823,1.6060312209374
0.505546972496593,0.579609992050392,2.86751403832066
0.921461534427947,0.565352310765034,0.395011236608328
0.398758387909263,0.35426447191106,0.258868613715483
0.421230889540609,0.530831103639667,1.64126147051448
0.415842297988244,0.532038721649293,1.56618607685597
0.527554020521323,0.725176078948248,1.12614017857167
0.334471514698127,0.474492354355413,1.32808716159944
0.112153681196329,0.520188831925989,1.35105991948875
0.459874804873582,0.831439260911672,0.740129231804925
0.139242031479512,0.000437377739836229,-0.578384582026668
0.0609300247314587,0.579859407900729,0.249105387350105
0.484551971250171,0.90965072923619,1.58934601567345
0.500766559932782,0.670992771199495,3.72990164649314
0.348588931915233,0.592633343977687,0.305721872547619
0.472503378012529,0.615504302413874,1.4775810902865
0.623254273138944,0.528064836508244,1.42080220172441
0.487115347469915,0.162512169611207,1.67713730090676
0.513197937156321,0.0115630788877606,1.84637429905341
