"","","y"
0.846886870097369,0.701226451061666,-0.610803997078979
0.927379596177489,0.988151871208102,-0.554806420605802
0.338286735108122,0.217774104960263,-0.44377253100828
0.0996746435249224,0.489543905574828,1.88129911977154
0.633870164668187,0.408514929246157,0.398878036691265
0.975683330656029,0.376853919746354,-0.0451720190676574
0.243669442930259,0.230570792024955,-0.710178700454804
0.914058951009065,0.778265455202199,-0.720031141944546
0.645183478365652,0.795852495399304,-0.36907921435178
0.112289391029626,0.0940124105662107,-0.7518626371926
0.822158664679155,0.686677315863781,-0.5641084790286
0.546482632164843,0.591308515123092,1.21636352652245
0.884063563826494,0.384394090147689,-0.152848171736207
0.352662305585109,0.64705041020643,-0.0349077786682184
0.157137464680709,0.0590144313499331,-0.717463883544476
0.137760630217381,0.920937175536528,-0.747212991307422
0.815380810275674,0.564604508453049,0.321954521616522
0.0263036823552102,0.745653391717933,-0.548423264031597
0.47426391302608,0.0172427583346143,1.30620983772944
0.582126470413059,0.531006555114873,1.608292432781
0.292967390287667,0.884695733981207,-0.603287134128196
0.361525944294408,0.278461900851689,-0.238176684874458
0.482944333851337,0.176447807499208,1.4522371308545
0.688270367844962,0.352250412190333,-0.200188434283346
0.041362410034053,0.138082643961534,-0.680059606075372
0.317590863974765,0.623942337450571,-0.0464247537751628
0.181389194214717,0.143146791467443,-0.80571360345983
0.94666913560126,0.243601235472597,-0.630097298001047
0.7829296537349,0.0658115087682381,-0.693640786356304
0.0187213777611032,0.802049209387042,-0.61090512265737
0.6144670376461,0.190328029878438,-0.177523116288524
0.228237989563495,0.868265305599198,-0.759021838735869
0.275240888167173,0.465183530948125,0.930739344583176
0.435263795605861,0.439648096272722,1.26416603352328
0.173402380626649,0.95179855784867,-0.693587855380027
0.211261976803653,0.515235936087556,1.5471276689067
0.774905948010273,0.334156545242295,-0.456201294510608
0.0797361648827791,0.109032618142664,-0.730791751293403
0.502364348159172,0.844772706376389,2.89879359480999
0.869410455236211,0.66704646141734,-0.465894848587309
0.706771504897624,0.442546025323682,0.536274413074742
0.568481477121823,0.829466216797009,0.271697795001958
0.450554440147243,0.972539072185755,0.735555177647037
0.99752052183263,0.313583140731789,-0.311915985483577
0.734481280213222,0.723636954454705,-0.589137567424505
0.381557110371068,0.281443948070519,-0.106627527025743
0.521081251888536,0.91034546810668,1.34112504663762
0.41628103137482,0.608980968049727,0.617276849583674
0.671177897755988,0.0255976021336392,-0.312226549838318
0.757801880748011,0.554316985565238,0.504020948092423
0.488376003899612,0.681687396516403,1.89989813012703
0.311180644296608,0.00381285948422738,-0.324850582524498
0.382664681343983,0.792172950188008,-0.192533281705031
0.483563690215039,0.376535657863133,1.83763492644994
0.49133334673165,0.909219082222941,2.03260562941658
0.0557802453047285,0.457759980418098,0.812733210434656
0.185052174377876,0.62827722175202,-0.274025655452476
0.13304144391997,0.392624892672627,-0.104943567782927
0.422796297058008,0.0658344751060164,0.269872255136911
0.566520108432095,0.438685714074721,1.23151681378794
0.441517489407625,0.891310368198901,0.452102452218613
0.986479939466808,0.0426419141346593,-0.509071845930611
0.679588597708692,0.623087485047678,-0.031611337580173
0.457801677800922,0.772877684360267,0.710103799452643
0.688387820574414,0.998034547169693,-0.317857704926947
0.996245005900506,0.654381467929076,-0.174082063454514
0.103676833419336,0.621158173014927,-0.178803677709823
0.478405061432816,0.88176738559941,1.29050437115501
0.526991687237492,0.247770498413593,1.10766811891544
0.495115864750998,0.418289822736858,2.93661124985933
0.0961654442498736,0.446642926221851,0.547544573050366
0.808140754116599,0.99930932091889,-0.566135953470441
0.466009153048508,0.54664585981518,1.93573640235142
0.504886386274119,0.761343765891226,2.41613473529976
0.834834912448811,0.214523096494377,-0.786954824967478
0.9961812301039,0.828357862671823,-0.5862041335787
0.523891761507839,0.128006198570753,1.19923329200738
0.0287958233834555,0.56192841502217,0.537946489887932
0.138204484582637,0.541979338225771,0.714887244171432
0.92910304894407,0.531946632042826,1.02402619363608
0.548141847373573,0.344273695174294,0.836614459938527
0.546148622846461,0.746294552602311,0.658672963779046
0.217317258339134,0.362793071881902,-0.315947678231346
0.602732566762198,0.581800851761881,0.679262635058077
0.357343542689147,0.394431176024179,0.239921290900267
0.538218577297887,0.505446043001591,3.30765756144646
0.224027646214428,0.00314136454170803,-0.53891030823414
0.0078241003989242,0.931999702373288,-0.537628392400762
0.519565741608701,0.322859950483673,1.50695571468447
0.243627009305379,0.706828288267263,-0.583002735640188
0.463831043819966,0.235220751327773,0.848858412605624
0.473650657197309,0.0703611440037946,1.18543464520109
0.471314450190633,0.411491192290904,1.61792497163003
0.525244070518371,0.811860896354875,1.13144046851649
0.0843606230081829,0.994189913011098,-0.554101729849883
0.47625760552939,0.582311780996,1.81160686587404
0.516903454170413,0.547800139313288,2.42110140573324
0.486390070916104,0.558919260041489,2.43731069253948
0.0910876832266028,0.805322635568057,-0.754065724693274
0.868288153296917,0.99937305960635,-0.576668776204525
0.527002419636972,0.673096821413935,1.25867635019423
0.556444524096635,0.0569488530130022,0.5601650231056
0.483688022658217,0.738636282255965,1.53316276900505
0.0060549287458416,0.051573076721116,-0.506300309552941
0.868081501883506,0.107658839799091,-0.779122618823256
0.497212009688658,0.645698666308779,3.00385593428947
0.503462824222053,0.26861706674168,2.68418291683863
0.234606707769986,0.447737512972528,0.53039006484169
0.180678042941171,0.469872125093978,0.98315640792855
0.744077201276604,0.156887545047017,-0.723444310806218
0.407767627909947,0.988254510788849,0.234035388258592
0.276952191206482,0.121577918637311,-0.654939918063286
0.818893661779629,0.833737243525265,-0.809800460411343
0.392171278940514,0.483825829012009,1.93048663954692
0.00069395145723829,0.491798939682442,2.22534833863475
0.536592606852222,0.400416410661958,1.34716707384358
0.476218943164667,0.562625633617556,1.99414367509009
0.375347724763366,0.572249711504103,0.640837608960695
0.562288385381014,0.491712770730395,2.74421857211717
0.431148075864961,0.490039928366637,2.55718003540465
0.967010461833535,0.521060673239419,1.43472781167882
0.03261220226534,0.362547188020691,-0.156479017312087
0.399555693189614,0.515371822960916,2.0119127665711
0.491255688302932,0.219813019080191,1.97981461612999
0.931586170026929,0.617791520463081,-0.101693941225218
0.592650183194924,0.912615410691127,0.0749290668855107
0.394926205745174,0.439301700436303,0.902539081556565
0.802071959666597,0.463848207974806,0.829555185021029
0.717488320239898,0.87587476203142,-0.642143768812982
0.000337444010153995,0.271649024306826,-0.437660379464327
0.514046379016088,0.198529905354846,1.60761899424203
0.499688815398267,0.697806833395434,4.18277729125993
0.735751172377279,0.281098167493215,-0.580226066750027
0.237968338385431,0.589151831763383,0.0663279868007893
0.942252452105353,0.427436227711154,0.339046766134489
0.999200023064972,0.177819143136653,-0.574976522362796
0.493495584185495,0.124938383357918,2.21237490665021
0.419527716803778,0.471171284550456,1.67834992881234
0.452849263317573,0.579312869620302,1.30556303504178
0.584246546730708,0.680826286354641,0.276473546983109
0.088891650497005,0.531150552940923,1.01915241193815
0.517995647600594,0.0851053985291833,1.4746302098063
0.488160839304615,0.471258598035029,2.98853181673214
0.999769062658444,0.503098147784707,2.90092519397899
0.451524236925146,0.466982207558129,1.9297183221079
0.108923592868188,0.520891265580507,1.32646370690308
0.439471369851898,0.547110184132133,1.50330304886236
0.548504185582772,0.556705069850417,1.52932853379951
0.355655953432433,0.488127060973683,1.99661501172329
0.630543514024294,0.518451144066812,1.71635395530676
0.89114248690534,0.474410355909596,1.15981558486767
0.987674843464161,0.559513429651067,0.612239226343028
0.515569962877201,0.986276043381432,1.71421564622185
0.329413461429584,0.449247255981996,0.740019858069588
0.610311262374859,0.455217262462563,1.11572401210044
0.878542115375028,0.523653832135157,1.21287742996097
0.502197418681931,0.322670891696162,3.07483465247777
0.857252187315655,0.48730413200652,1.69697036008135
0.38091781270604,0.470418196807332,1.4002282268328
0.537241803787188,0.990855033779991,1.01980843322627
0.488636739274661,0.0575697669558641,1.87362013266611
0.524279952627233,0.705732735803893,1.26542916845985
0.847795903602915,0.445182143376338,0.474090994573941
0.470333175473464,0.449910665961354,1.98521734020116
0.496082133723452,0.198263577311415,2.55300097731199
0.428354037593142,0.209814221262414,0.236874355212681
0.495136698826155,0.809837095697177,2.40020552780987
0.431384002014749,0.719521458940887,0.356325540531622
0.850391704322119,0.525187490864908,1.14174418397097
0.51076458485217,0.22203780761621,1.82318018639305
0.698098470433328,0.209437914139557,-0.592279143421008
0.187650894031825,0.793472076478173,-0.790065516736793
0.2741708818546,0.290608588252849,-0.53444823969556
0.301358087485955,0.402157167962692,0.0993447649098023
0.781507578712042,0.902973775491858,-0.738857577041794
0.396479023253091,0.164474267109565,-0.089884642457807
0.127471803559255,0.739984295020386,-0.700142672101658
0.336976377520366,0.0637417510758516,-0.358432879516496
0.509328187165796,0.935280197903684,2.01171048201652
0.537296757306009,0.565271241428932,1.62676068922453
0.491817530063414,0.964698437823624,2.15697539348665
0.489830428907983,0.275502903255205,1.91880966638303
0.423391712968824,0.517507311819895,2.08666423110975
0.649208760432259,0.472071477284352,1.31126051904664
0.972568281806608,0.435796098414072,0.50974130093543
0.563200190752388,0.260790741155441,0.394790758624904
0.486859798191445,0.988461862650091,1.84977946107372
0.516598937495903,0.442744711615536,2.31531349778233
0.380750835868413,0.921420204322986,-0.129454459641175
0.979782602099529,0.486651639812732,1.81908879531236
0.455772739756013,0.326883499209938,0.84843360101563
0.523565687163491,0.636701334281935,1.49776992949197
0.506448392132459,0.0439204594344935,2.31497431858724
0.456944384031574,0.476093577986598,2.24600984322977
0.141798693718376,0.215122202599741,-0.780675923418999
0.477901772314102,0.94881886407744,1.36142320683788
0.865396859274637,0.468965543764151,0.975746157223149
0.579706585395989,0.461871915755893,1.46828674838985
5.15697733696142e-05,0.381724733596441,0.0540798188152081
0.984039982188194,0.475181962003837,1.3386888060576
0.649856343010226,0.274159689161777,-0.307948250179564
0.485540818359558,0.0155510733174936,1.76753292136774
0.539903884260073,0.427282278784072,1.49784378071077
0.614029819832908,0.0909581616750263,-0.110201270233857
0.515435308285908,0.603440543467009,1.99085796802785
0.418031827341133,0.507639687715816,2.63470722874401
0.0188419221784455,0.443761217898994,0.644912847592275
0.221843543848259,0.978080993882872,-0.592967560900961
0.637621559498395,0.574446493625457,0.549071918605413
0.516144578196218,0.0388067952549965,1.63452932913326
0.565906461503271,0.57660481224513,1.06915032460132
0.208848909171603,0.477615191384687,1.23533517125451
0.33678733587554,0.962585236331569,-0.304422866437741
0.493427681357521,0.0710121031629473,2.26056959628457
0.482600195781976,0.308352431387101,1.56374950382455
0.523211839920777,0.572170641403076,1.9164171824406
0.470371458794899,0.497999345278936,4.03146730685595
0.0582494466646235,0.283106138309086,-0.548468505920805
0.485941587633732,0.781352848649556,1.61400483764053
0.83657195043479,0.492113276948745,2.05125297423515
0.522766048146944,0.373741921233128,1.57197204292701
0.518158173250055,0.397482718210648,1.8740411465977
0.514843069479192,0.339757587804321,1.77288961549695
0.164052465325827,0.323513389051424,-0.523285824895847
0.968828395671157,0.753668261934366,-0.576273583702245
0.679184718401521,0.514946535638801,1.71321383338858
0.459600598810061,0.464328817168694,2.00314170942847
0.0529254463860006,0.64291332658501,-0.233008790918596
0.761249804191498,0.413516926180261,0.0935661882991257
0.714586034682386,0.50393651550924,2.61889248291495
0.322990672193744,0.54984286808039,0.735265017004281
0.548469143769671,0.457714398806884,1.74724327549434
0.504968251245358,0.585974321955362,2.89671890049457
0.984818122652047,0.527890750225064,1.24520492471873
0.195811599923907,0.548789035358903,0.569805628527738
0.888522537292188,0.280839474038221,-0.634735743266996
0.572868206297994,0.384401678360803,0.686585220976351
0.705525065619408,0.564117002083905,0.444312985064621
0.486857974246775,0.0887705435082201,1.71790282613763
0.5258040171324,0.561747340715099,1.94321194524684
0.109570596716938,0.0027357220631412,-0.570209175603134
0.725970993683268,0.540790167719461,0.794095869409333
0.951253821471762,0.109373299023468,-0.679069119435778
0.49285443540385,0.931106048068022,2.20269865051978
0.42732794951751,0.818787000915726,0.218077405313587
0.758153291698998,0.507367236349761,2.12188367757158
0.125506043571989,0.468686318963553,0.975183333626207
0.511794331097976,0.112683326819285,1.77613008062189
0.491505332188689,0.760444298932249,2.01426935285918
0.584129539662282,0.136430796708072,0.105748018696188
0.803368684136487,0.521361673917185,1.2703520865151
0.742058200262707,0.454476729284568,0.675887077345602
0.534990655175216,0.442580463068831,1.76633346150533
0.506960824791755,0.167661303808269,2.1426420080257
0.690188766670756,0.472851339372425,1.20839861270747
0.787864645167361,0.497525706080584,2.86851173330325
0.933342712649646,0.497669542588385,2.97883289094431
0.306419693645676,0.794565657478826,-0.579770033754838
0.590288798893931,0.334278354232291,0.269700613180548
0.674110447839775,0.551170010449388,0.72184912623578
0.792183791720057,0.54676105597849,0.610355647966802
0.914151496020339,0.883415659135063,-0.74510867488814
0.777331601698888,0.471950214446653,1.05478546883826
0.96572176564579,0.486501048134985,1.78232085223705
0.996178041314069,0.923065265923001,-0.539356208585933
0.400109112991559,0.658517612399015,0.214300613727265
0.317962504597783,0.501051153334066,3.52228342874558
0.0484552824196573,0.493569824347154,2.30960500109223
0.715611000538616,0.477088194722077,1.2941150815971
0.699051026272924,0.798454737295143,-0.600167849220392
0.437590301498865,0.1184157085245,0.384707701163773
0.94315207447575,0.516892282623543,1.56688476763724
0.257406995794276,0.551410211977109,0.569879362655119
0.666175441336412,0.928841573297413,-0.386536774674717
0.433720297982349,0.28118273286941,0.387734836650253
0.428143577545264,0.377601955841674,0.657932277148063
0.0462827774289992,0.00271543993921286,-0.4877621418858
0.591859549314274,0.740991111452085,0.0670175173408893
0.53064235905651,0.861528130426693,0.983855568895099
0.283536796186411,0.505881632086433,2.33414436676641
0.606093269185509,0.967168330546937,0.0608728323364094
0.38901474353516,0.351159026645457,0.171187305828062
0.996177881874578,0.991969384236455,-0.406682595261657
0.663283476666024,0.441044143951397,0.637869342499837
0.177012248400092,0.408430029882836,0.0148099886221364
0.849164016376318,0.333130036476068,-0.477543357462594
0.38890366298128,0.719581606445108,-0.0559704811499462
0.0259816857534504,0.515765726350589,1.67835045047059
0.17671483477582,0.509029133135768,1.94739796657804
0.901009104976671,0.498577910211046,3.25956422833299
0.581255666682947,0.0404510834672126,0.275095407518282
0.423661791894082,0.0122022303787784,0.396771587267792
0.30753895139818,0.471827313421395,1.17242957683168
0.480511282884327,0.342030016256411,1.56790759840576
0.947105643466929,0.470535606144841,1.12207424769585
0.507057602613725,0.363345055633527,2.40425405916544
0.883195183311192,0.188594390588688,-0.785892694311743
0.0191035798187023,0.996309480769219,-0.433419452827336
0.359400772938597,0.517780584004996,1.70290962384581
