# x1,x2,y
9.795416145184536738e-01,6.318040272597084117e-01,-9.197338193416837449e-02
1.137071963673559477e-01,8.913101403977633508e-01,-7.682113083823405297e-01
4.109517231183848485e-01,3.263847217797709033e-01,2.532780550242597073e-01
3.161044639366549225e-01,9.688154764980132505e-01,-3.786310415257421180e-01
6.306911589760363368e-01,7.752648117428736496e-01,-2.705893218096111497e-01
3.809379263877850086e-01,4.449593291061695183e-02,-6.367750836229313371e-02
5.965224568768547897e-01,7.521061424397917916e-02,5.824864832654874647e-02
2.274668152010293765e-01,4.371370060491546750e-01,3.628012057670937374e-01
5.476822889738440781e-01,1.658375213634126766e-01,5.910541821043413524e-01
4.997014024605180710e-02,9.395763829151528856e-01,-6.206520686553829158e-01
3.622796872372709975e-01,5.018692074911730305e-01,3.283347042975950369e+00
2.108508873602252254e-01,3.460140011327240694e-01,-4.114096892876795142e-01
3.381729776161733758e-01,9.058559595257902330e-01,-4.021358950158915313e-01
7.775983034903583002e-01,2.334826723013269101e-01,-7.347218223584861541e-01
1.200789653265582901e-01,8.648415175080705897e-01,-7.910934336617536644e-01
6.615922618031193636e-01,9.903959397175076118e-01,-2.261314095824895620e-01
8.460174261788141470e-01,5.230230403928513017e-01,1.214124515438680385e+00
2.488366634884599249e-01,2.028434009520305448e-01,-7.277766780840266847e-01
4.470330527886417493e-01,5.691260909418957015e-01,1.315431145085783626e+00
6.396125729519247516e-02,8.252443132226390254e-01,-7.230044065411389553e-01
1.542641286533492050e-02,7.408619471240999177e-01,-5.099994074913705155e-01
6.866143862396426600e-01,2.920207790680908744e-01,-4.204369882295166949e-01
8.911515637732528861e-01,8.176679628348021422e-02,-7.334535323323865263e-01
9.863654561095790418e-01,7.085898435686327490e-01,-4.198108061884708864e-01
8.319567329592594263e-01,4.150389871880300042e-04,-5.775760782746020006e-01
4.659192341375935631e-01,7.327298228613509101e-01,9.363787022119129944e-01
8.338221673125070788e-02,1.942915156679538291e-01,-7.437182154295718384e-01
3.267296469852550705e-02,2.486802798666658820e-01,-5.753358050769685761e-01
9.212850212138965489e-01,1.302438452677155412e-01,-7.435785128811089884e-01
2.723553395693863455e-01,4.776787295912237052e-01,1.295696614978845140e+00
7.262985374368537972e-01,3.104329430478726670e-01,-4.747297528241400943e-01
7.975619328544971687e-01,6.661091983668564476e-01,-4.735209060020928451e-01
3.418091869854181786e-01,4.833003179543829408e-01,1.688225148943841569e+00
2.930079436386293645e-01,1.522505213365877574e-01,-6.286575547976047673e-01
7.007991841737996053e-01,3.925257429662278863e-01,1.539384239688912359e-02
5.078505848789317545e-01,5.588852142447761073e-01,2.814663691647168786e+00
6.119474329646176214e-01,7.883501828767853770e-01,-1.506942677817901810e-01
5.797525094980373606e-01,2.702627648510878555e-01,2.072632473963720301e-01
9.095026449483010200e-01,3.497607765077223596e-02,-6.323522423535732351e-01
4.239789507935762258e-01,3.765736265261535598e-01,6.060417439245713300e-01
1.744351063486359876e-01,1.190678669238987297e-01,-7.937286158605383335e-01
1.562524192330422834e-01,4.550929538305971689e-01,6.465785396947565378e-01
5.364221131567386003e-01,6.180566352066325653e-01,1.238466522777784684e+00
8.660612512130206886e-01,6.471436351726906899e-01,-3.694977668094956424e-01
9.467941568727572532e-01,8.102693325481657993e-01,-6.954521587425821494e-01
8.121115512878751552e-01,6.954766059242120102e-01,-5.937036406278650702e-01
1.983554824502588854e-01,8.405079956410020925e-01,-8.005550259246518863e-01
7.469269430016006739e-01,4.163857399134013870e-01,1.399763041211177228e-01
6.407856353445077202e-01,9.499009726176490531e-01,-2.149858438663510007e-01
4.865102327566449558e-01,5.850274826841411757e-01,2.211115019289402461e+00
3.896617195736491457e-01,6.348492591753074343e-01,2.444202626109059917e-01
4.127133228043387558e-01,5.204224026923813806e-01,1.887259109585297523e+00
4.790672648751373441e-01,5.114980772550808963e-01,3.203702368688251312e+00
5.158356745607516336e-01,4.483137517600094268e-01,2.415651401878845306e+00
5.212150001214419515e-01,4.287108636812129725e-01,1.991757564063449948e+00
3.482216764657628527e-01,5.659747469227074390e-01,5.869268794982140935e-01
4.853026718494723446e-01,4.154903673446442847e-01,2.152446128739258224e+00
5.367287282982189378e-01,5.322908150597327470e-01,2.142099828998852207e+00
4.526733076779951848e-01,4.576844484873673347e-01,1.764121284306064963e+00
5.402864140747195565e-01,5.023223763692333810e-01,3.785005536974594964e+00
4.426743901207801923e-01,5.234162484230852064e-01,2.065624230738394296e+00
4.937736035226545916e-01,6.892489116610813760e-01,2.342705297727276648e+00
5.230244158318425596e-01,6.780233434200474418e-01,1.374099093914117331e+00
4.961690841518067718e-01,6.729233486605804559e-01,2.718021886687874478e+00
8.523412464071109529e-01,4.800598835850590773e-01,1.334836176563162224e+00
5.845085961038574141e-01,5.008616769133366065e-01,3.965890285027976248e+00
4.769943095614181394e-01,4.070925930793902192e-01,1.756145406260988251e+00
3.383072823338124091e-01,5.334795181445820544e-01,1.118108204758805346e+00
4.694725617068615797e-01,6.315255506368414595e-01,1.313458493069109556e+00
4.912900843067403156e-01,6.131596209358236571e-01,2.356360298522388597e+00
3.980335306392696615e-01,4.560840680409632419e-01,1.185018886115736247e+00
5.064881105237883929e-01,6.911986353226898805e-01,2.309085084067414861e+00
4.970791238215334085e-01,4.074906650105554751e-01,3.199397637445204889e+00
5.236097806944273181e-01,5.562918806632299873e-01,2.071981153354662819e+00
2.841964072331387703e-01,4.344276556947755386e-01,4.029689862822793955e-01
8.251717062978718431e-01,4.851994171467140515e-01,1.565491017425971743e+00
5.554450706111342395e-01,4.343445695926286265e-01,1.318530094400858221e+00
6.195045035227672026e-01,5.025095325983532923e-01,3.164987381276825662e+00
6.387429244886969615e-01,4.784949599765603301e-01,1.561615520878096852e+00
4.770873121657812077e-01,4.572351022590153691e-01,2.280824755122444536e+00
8.264279284210372944e-01,4.477505228917509905e-01,5.094071448525094858e-01
5.959593569375587485e-01,5.565982974128347305e-01,1.023585629235446159e+00
6.256210288277964660e-01,5.344145941660137789e-01,1.244857990463434927e+00
6.054517509594786739e-01,1.775679044940344786e-01,-1.080128885662390292e-01
6.205998444661922075e-01,5.258460195260270531e-01,1.499710966192839834e+00
2.445829807987478510e-01,4.993737450470046024e-01,3.735439964707141236e+00
2.240259121048822910e-01,5.421390389179265856e-01,7.091701979732778494e-01
4.849576348122492941e-01,6.350359625966582877e-01,1.854052673010162522e+00
2.036260176111792664e-01,5.106948450689962060e-01,1.820741700837148480e+00
3.906566257831368127e-01,6.319308852702222312e-01,2.671206818080040790e-01
4.374419146744819020e-01,4.802434848065685324e-01,2.131159042099962431e+00
2.435235639422842213e-01,4.700774855402664043e-01,1.017096851702798954e+00
2.904894160196951347e-01,5.159631939000771661e-01,1.594978597120735309e+00
5.054930431896282883e-01,3.693349274166588536e-01,2.602474591010247362e+00
5.906142056898202597e-01,4.581321335517282711e-01,1.304855687277179932e+00
5.469744883986181749e-01,3.806412100002569687e-01,1.024073841169325094e+00
6.363454825834397033e-01,4.845100760526537265e-01,1.826288765576882245e+00
5.351219371204807285e-01,4.044091993192598378e-01,1.407390487213393548e+00
8.199175506158488114e-01,5.058623951821298315e-01,2.266238725682085953e+00
8.007517342769114865e-01,5.147991172784045499e-01,1.566542918340856350e+00
4.805968713728279718e-01,3.651847791488757045e-01,1.658718833607119025e+00
3.498563252141099200e-01,4.825881499422028376e-01,1.683253774009728643e+00
5.000034638392792941e-01,3.584185959909821917e-01,6.179469307015354573e+00
2.065722696364422628e-01,4.878237332848218144e-01,1.721464567199447737e+00
6.508377080961111893e-01,5.557485026608369738e-01,7.323996549121447597e-01
4.947435534780955102e-01,6.417136015707409769e-01,2.592177795215451219e+00
4.642255399377889780e-01,5.388089133011407794e-01,2.029739421620275763e+00
3.100921243205588818e-01,5.084910552184334076e-01,2.115907800944833994e+00
5.442551300115527901e-01,4.557164165025385238e-01,1.779753481112121838e+00
5.731369466268624313e-01,3.625608678043688027e-01,5.646557525186191029e-01
4.581761473964206521e-01,6.597432199780093320e-01,9.398531599503578970e-01
2.144171354541903607e-01,5.151118017850905284e-01,1.554933191616805210e+00
4.254283262565253798e-01,5.186816673370558961e-01,2.056306965904439732e+00
4.995625956211414698e-01,4.297767728914965724e-01,4.411293154410185657e+00
4.121665620343473169e-01,4.828844415386518429e-01,2.015675193879233884e+00
4.888273800792725110e-01,4.630882739155959271e-01,2.869384090347494087e+00
8.303323801539146398e-01,5.126771895321597938e-01,1.688052246336831930e+00
4.754217674123866755e-01,6.836335550589127674e-01,1.306220496490223537e+00
2.905805277882136384e-01,5.417335286570111874e-01,8.051144934593401636e-01
5.478363110884841847e-01,5.323247745844897905e-01,1.954686919154745572e+00
5.634035498132483610e-01,4.474345351265462956e-01,1.385401966245379812e+00
5.863385046432345593e-01,4.734905489448543725e-01,1.695501241428890582e+00
5.109237611826645820e-01,6.968075094415798754e-01,1.912954353008543551e+00
5.885482807141702022e-01,4.343488478949964482e-01,9.638599507352019202e-01
4.536389615479295423e-01,5.303908240002752628e-01,2.021838004159511648e+00
5.139862837269356666e-01,6.786828750771305430e-01,1.765908123150353726e+00
2.621019088514000006e-01,5.663977762219780665e-01,3.536584233562312107e-01
8.235270838929179549e-01,4.929237361346501811e-01,2.129154446854998106e+00
4.902223718451952372e-01,6.962777421322713378e-01,1.997564411577005261e+00
5.260742129386695165e-01,5.417107038913709927e-01,2.205891069974266205e+00
4.576118712128686150e-01,3.448880198025866539e-01,9.455349753156672143e-01
6.425207231598838442e-01,5.018270805781931410e-01,3.282295057723074727e+00
3.807701696293318561e-01,4.841607200621548812e-01,1.886227178440572638e+00
6.678504420317059598e-01,5.147452230995294142e-01,1.754874352711802699e+00
4.230342005259453697e-01,4.945657599720150177e-01,2.900480148319100060e+00
5.466966637212845592e-01,5.317065396364109020e-01,1.985850009101017832e+00
4.399674808601332088e-01,5.236485965515196295e-01,2.026996199778883234e+00
8.398652758410668495e-01,5.010663832070186841e-01,3.402643824775102299e+00
5.124675443462596292e-01,6.159769249493464160e-01,2.081690044973465437e+00
5.106715696213497413e-01,6.001152170668085928e-01,2.281415042778317304e+00
8.836962409482412850e-01,5.016064024608488658e-01,3.169169216446346748e+00
6.069501735044753321e-01,4.825688011600515193e-01,1.878899829489198980e+00
5.496074478609072056e-01,3.656901872542846488e-01,9.023435479820540728e-01
9.085761579894652273e-01,5.023751309332841197e-01,2.938422879025388568e+00
5.562554916228223956e-01,4.696982742767461527e-01,1.888272063094263986e+00
5.248469861000730763e-01,4.099924342346705219e-01,1.717752749300016646e+00
9.332590871848888137e-01,4.991005220587961255e-01,3.570909236085253458e+00
8.146183445075881879e-01,4.966554855876146868e-01,2.660865405395110628e+00
5.259383817714724518e-01,4.031921172372559536e-01,1.636760935086487567e+00
6.251424400292802108e-01,4.041176213444278020e-01,4.087294687188214315e-01
4.871855594006627155e-01,3.528514833154372532e-01,1.929081465615930524e+00
1.757841355503015068e-01,4.961672712635975535e-01,2.567489198385763949e+00
4.393162638601211256e-01,6.889151444456186324e-01,5.330123045085721767e-01
4.775560313861903494e-01,6.631770175346970442e-01,1.438652856612893105e+00
1.655109685048419266e-01,5.039080903176266224e-01,2.555671343542411655e+00
9.275000065183540698e-01,4.844535856707660737e-01,1.608146764042664989e+00
5.313025001586311191e-01,4.452445040383090080e-01,1.883094405397747195e+00
5.451246227156955060e-01,3.468570479871674883e-01,9.007075611941262050e-01
7.862345477540451100e-01,5.022609961062256545e-01,2.928585459211467956e+00
3.358467128782478550e-01,4.882654124676921725e-01,1.940107895118489134e+00
4.771004701328235287e-01,5.952236629397418266e-01,1.743740117338644646e+00
7.754775947177919848e-01,5.112646073659714574e-01,1.789684100939304967e+00
4.520529062214498350e-01,4.693093457523871970e-01,1.991035715324884769e+00
3.903461226888468860e-01,4.851905786148759114e-01,1.986581355811642968e+00
1.846906329402850655e-01,5.097850005596030742e-01,1.886101348465027971e+00
6.572044206728311355e-01,4.896670346205186930e-01,2.056604488835843458e+00
9.449929076344414369e-01,5.123817392733295284e-01,1.812091304561557203e+00
5.230181024677976742e-01,6.060344257656188338e-01,1.670983154018542693e+00
8.959806251138586752e-01,5.132231742492857629e-01,1.695914558315382292e+00
6.738263317671089325e-01,5.077806007441939551e-01,2.217950489848064866e+00
3.792170237339102523e-01,5.177574652961078883e-01,1.791400587498416241e+00
4.657186093253093406e-01,5.526882045260296250e-01,1.842800203253700531e+00
4.815382815496112578e-01,6.500892786580034777e-01,1.637753237920420712e+00
5.223433134682605727e-01,6.501231267895071220e-01,1.487026778268154548e+00
5.667025936782557061e-01,5.238707186724141929e-01,1.948596703414472442e+00
5.181257709194589944e-01,5.745364840871485246e-01,2.078900075299186856e+00
2.059693267633380676e-01,4.905978630893456649e-01,1.919600413388450333e+00
9.201851742054167893e-01,5.114162127147235948e-01,1.837830619588970427e+00
6.762835292100537465e-01,4.951857624231471577e-01,2.553179485771276180e+00
6.876850035701931318e-01,5.051327310543869409e-01,2.482855892626425476e+00
5.167749589680298294e-01,6.035970151541342199e-01,1.927455245304499076e+00
7.028160384429362750e-01,5.096737169036059667e-01,1.992680215912395747e+00
5.583371267725875109e-01,4.763449440009682734e-01,2.046279131429720177e+00
6.559778480824469682e-01,5.142219139159553976e-01,1.819497045198709140e+00
5.233593420707597366e-01,5.885136895007112567e-01,1.776084556769264022e+00
7.154778301921582706e-01,4.962173061903232818e-01,2.644934789126272889e+00
5.419714335342163958e-01,5.365620783422089257e-01,1.957970929513871416e+00
4.875452121331644295e-01,4.846378401972379901e-01,3.343033253192659870e+00
5.171295904252535269e-01,6.456227237588814116e-01,1.712496260892297784e+00
1.533561406782212588e-01,4.918093330606094771e-01,2.026389971762515341e+00
1.456783923962102212e-01,5.055248353635000136e-01,2.318080981570601384e+00
4.666125728008304607e-01,5.422326980731848600e-01,2.019387775523737716e+00
4.997327014692254932e-01,1.534376098520886522e-01,4.192217301355093184e+00
5.316993393928275413e-01,5.441210330357018066e-01,2.026050210971455989e+00
5.105040268784527546e-01,1.364615228266597702e-01,1.846909148708322235e+00
1.368944427177969936e-01,5.077142086097583551e-01,2.079123047609928499e+00
5.075872317161134184e-01,6.343928705545586189e-01,2.361439868179464607e+00
4.965694507562389837e-01,6.614452055888899729e-01,2.821585927825926987e+00
7.254005505219345284e-01,4.859099788776481965e-01,1.666599590689372690e+00
1.634958114236386428e-01,4.889621129716967829e-01,1.796795776674235956e+00
5.532071753909072465e-01,5.268117885881163920e-01,2.017440352937536208e+00
4.267919678295709618e-01,4.802550581615593339e-01,2.027466301675429072e+00
5.349163269396457476e-01,4.582493061733240447e-01,1.995131025643080980e+00
4.472594241292018880e-01,5.276263202960640442e-01,2.001569905920238313e+00
1.544236680070564527e-01,5.114588735358134297e-01,1.770984588690793782e+00
1.335191488728556253e-01,4.967000395484938435e-01,2.685007376198855766e+00
4.821644106368531135e-01,5.342717102803057339e-01,2.603323966502169018e+00
4.570201286758192039e-01,4.450569450253267778e-01,1.643610284394751986e+00
5.222899825487546943e-01,1.661181419984132379e-01,1.236622654144462485e+00
1.096734302191538224e-01,4.924603109373659193e-01,2.116537611157481624e+00
7.470415576148969894e-01,5.035833873115985737e-01,2.644226739644427226e+00
5.067760428710703646e-01,1.657081576754428354e-01,2.162838057678320158e+00
4.879813192441704306e-01,3.973074915217231773e-01,2.180117180411287325e+00
3.975321210134212246e-01,4.848944520145173631e-01,2.012744773395468201e+00
5.951654300265729614e-01,5.204060789517672703e-01,1.832273548038734212e+00
6.937512363239415336e-01,5.102061343804407123e-01,1.970628062703887462e+00
5.447450274736449494e-01,4.669183564086784033e-01,1.985085418627198228e+00
2.821149761996228356e-01,5.118312388724609585e-01,1.813545454207985408e+00
5.042803516224810823e-01,3.456484120002198401e-01,2.692457643553568314e+00
9.567692873047959345e-01,4.894426729989757585e-01,1.953303266132087046e+00
5.253094463301096750e-01,5.231980846371987459e-01,2.626700094307793165e+00
4.238212126205926356e-01,4.803604707958399334e-01,2.005298218074980987e+00
2.970409089849194162e-01,4.962688326763818880e-01,2.674321888089180366e+00
5.779617553886371439e-01,5.383249051846479283e-01,1.479841730215994966e+00
4.909667087186053713e-01,1.359669088426742334e-01,1.961689174779398526e+00
6.175382081039074711e-01,5.170291181710363615e-01,1.839604942419139633e+00
5.690572189690217275e-01,3.935564818863781511e-01,7.889671099113426678e-01
4.807890655674200708e-01,3.617702192388451143e-01,1.652231543469075969e+00
9.652007791509515933e-01,5.037843454753997419e-01,2.702626671235177636e+00
4.560151720436370626e-01,1.558322321847067093e-01,6.647793430478809995e-01
4.565851057164475590e-01,4.645861077300033060e-01,1.956964492257475818e+00
5.380825277974899956e-01,4.614705536672261132e-01,1.989948297732839766e+00
1.317953455737746749e-01,5.082006272891879117e-01,2.036824980853236600e+00
6.900837471926118960e-01,4.874919916978750489e-01,1.824261496964364460e+00
3.046764404926450842e-01,4.866343838006590428e-01,1.761751363264029147e+00
5.039098881200485547e-01,6.977921803444335769e-01,2.651524826261252077e+00
7.772073004320041445e-01,4.833913166822392804e-01,1.484006842999674447e+00
8.310306855086437849e-01,4.157540369015383375e-01,8.917847075566642800e-02
2.979830371610416306e-01,5.101771220437263388e-01,1.956073410200530605e+00
5.089374772231065602e-01,7.064219465746813809e-01,2.045172048094106021e+00
6.922524690605103004e-01,5.204659644311452338e-01,1.433045255314047139e+00
2.685038505389653607e-01,4.833505941360130564e-01,1.526280703271949424e+00
2.736712502694845783e-01,4.888893267320312264e-01,1.848847160861938344e+00
4.303414147738808260e-01,5.213077902708023181e-01,2.003922065235821393e+00
7.912626451079239898e-01,4.861283147977393249e-01,1.620294109899599322e+00
4.697045058681473262e-01,5.617965663473931670e-01,1.822746311407780206e+00
1.106418645270888235e-01,5.047587411443016370e-01,2.447681156638217281e+00
5.953319083579999837e-01,4.813148861377488097e-01,1.897956794815366388e+00
3.437140055880342215e-01,5.168907901511060610e-01,1.685666959175541324e+00
4.622412102312034032e-01,4.618928764259669917e-01,2.004004975622795115e+00
9.855698777923656284e-02,5.079503602180839295e-01,2.088211269669593140e+00
5.178140030233895352e-01,5.827325855828776602e-01,2.024183557882299755e+00
5.063634626076121137e-01,3.963739833021230896e-01,2.625412801763747694e+00
9.434083868856818489e-02,5.069927792988985216e-01,2.187143348051612257e+00
2.502593966854063656e-01,5.166679394598803210e-01,1.503289378989101088e+00
4.471415700852372499e-01,4.730070309529478267e-01,2.017048808188906861e+00
4.718038529440740092e-01,1.450934272243818990e-01,1.049882079070666441e+00
5.472030652567944076e-01,6.315382754784547581e-01,9.568041283904926697e-01
1.165697869586250629e-01,4.900522149826692653e-01,1.902987894232851529e+00
4.452178881974409586e-01,4.735271908861583556e-01,2.006633027675570613e+00
7.372385569550568007e-01,5.119214358440369317e-01,1.780289186699778314e+00
3.237624421471992364e-01,5.498661422605469751e-01,7.372096071867084710e-01
8.588528432956342440e-02,5.087063255716683940e-01,2.034962230220775936e+00
1.583277321420065997e-01,4.278545826200473856e-01,2.292151030038125370e-01
7.642787626533190104e-02,5.000619908089857235e-01,4.954311538833069406e+00
4.364982499364665203e-01,3.423013668151886901e-01,5.956891726696278422e-01
6.187578802979363246e-01,4.682924499942905383e-01,1.346385949778359237e+00
8.982552587166926505e-01,4.864479263422630262e-01,1.679136719180532866e+00
4.803199791458607204e-01,6.042440614811580568e-01,1.802359025548079252e+00
4.987237111033311354e-01,1.353674819865308132e-01,3.301617204026251251e+00
3.487701992390883077e-01,5.106364193612947799e-01,2.054528964712799333e+00
3.827770456777969676e-01,4.339281788492063141e-01,7.566265752771261788e-01
7.448182565274626965e-01,4.917215284383789631e-01,2.047957805962948630e+00
5.630857055073693607e-01,1.605071292470514055e-01,3.469261610849838640e-01
1.658907261322765947e-01,4.914615239131413515e-01,1.991283602679805309e+00
4.357583080604195414e-01,1.485121712543378547e-01,3.362574983208366231e-01
3.870149788325513152e-01,3.669311537105042209e-01,2.354412656783488877e-01
6.734258286294667606e-01,1.367567590156812118e-01,-4.984209292198693575e-01
4.507637233350796913e-01,5.841403680701399148e-01,1.228943856904469722e+00
7.756783524183993306e-01,5.083948140541434402e-01,2.012782998911053500e+00
5.170068080973171387e-01,5.390290009932761084e-01,2.550338582960933742e+00
4.954510752176915500e-01,5.547540353387820922e-01,3.211152874664108037e+00
4.531973834655682043e-01,4.172889053910661117e-01,1.281245949881910651e+00
5.518149297807689591e-01,5.533703736774738813e-01,1.524693918204081955e+00
4.445101967224312500e-01,6.795947034159687261e-01,6.361105634677000076e-01
6.841745903255189720e-01,5.100077633629419571e-01,2.006740972996139405e+00
4.501925414153012395e-01,4.765153070742157992e-01,2.159287564894829536e+00
5.148422581679193977e-01,4.018111468609928405e-01,2.051925064462159831e+00
4.628842443453834443e-01,4.152650841734192300e-01,1.446601116292822731e+00
2.419820888978516382e-01,4.812719851648972758e-01,1.401742415125833974e+00
4.627762176556572959e-01,5.384843221048488671e-01,2.007195634478290192e+00
4.919031691873207435e-01,7.072932469588723015e-01,2.116841161156664874e+00
3.356308049635814417e-01,4.894566583788833025e-01,2.019840049822283490e+00
5.440481733610297299e-01,4.671807301446230798e-01,2.002002016452276489e+00
7.026269703569399949e-01,4.883453721702077921e-01,1.852068312410695139e+00
5.514176659766099192e-02,4.738570115312895625e-01,1.217076707802632329e+00
4.336312925992023559e-01,4.782455486498183306e-01,2.020892690243984990e+00
5.121438452844239153e-01,1.430174786554886945e-01,1.731387161324785540e+00
9.701288400410783552e-01,5.123612789356455366e-01,1.858352329356164345e+00
