# x1,x2,y
3.605393777535383874e-03,3.667610809929905402e-01,-5.519771087164282442e-02
1.604096722558246702e-01,2.416790628664411411e-01,-7.502041927044378333e-01
8.347990303559579273e-01,3.589820479549327148e-01,-3.504642997871132426e-01
9.466816578860468567e-01,6.271687585669630804e-01,-1.375773220030995780e-01
2.151795917632101096e-01,5.412577524772140825e-01,7.222187472849861400e-01
4.840407209175454778e-02,8.283732686036368031e-01,-6.945794266172455877e-01
9.129611288395163005e-01,9.915111708211047370e-01,-5.644335398437494433e-01
7.803868672459648437e-01,4.458052733427062542e-01,4.874818936078750831e-01
1.145992894044163685e-01,1.623347453756003311e-01,-7.920484321348442158e-01
8.946842597461071023e-01,6.552898219308894712e-01,-3.844183612030060981e-01
3.343569835867976070e-01,8.124566801530598292e-01,-4.765588641990992080e-01
9.883613304686733603e-02,9.701590178753558003e-02,-7.426115313914327665e-01
6.025561629181216960e-02,7.951929893510435443e-01,-6.968013375013826227e-01
6.280065686584361817e-01,6.974743214639743394e-02,-1.742162276795911069e-01
8.090551832898400519e-01,7.473134033515430596e-01,-7.270482874604877743e-01
4.012737286154931526e-01,3.169595799509394851e-01,1.364977131458811055e-01
7.522326399346962456e-01,9.713657933785453391e-01,-5.673924897821702729e-01
9.663774047951714241e-01,8.975058916004736709e-01,-6.416255844358476068e-01
2.811134735917015792e-01,1.021747214373795037e-01,-6.234302194998475599e-01
5.233763459717091227e-01,5.287248186733032318e-01,2.536566452991869447e+00
8.473523525013529900e-01,6.186580925437469292e-01,-2.026894604924101007e-01
5.123203677014530610e-01,1.371430849414566056e-01,1.723586790887415843e+00
2.926437052996689464e-02,4.263873541410181933e-01,3.864110980965551612e-01
4.414076519021391531e-01,1.831582461334987366e-01,4.080149467814142561e-01
3.797334666071693898e-01,9.139213234954132181e-01,-1.484071514833262828e-01
1.378780834057016236e-01,7.266872830832248331e-01,-6.763189761669341493e-01
5.604146595776234863e-01,4.072923128599208464e-01,9.962534608147810555e-01
5.859990401886110423e-01,8.766607481716885975e-01,9.720485364681841212e-02
9.238603616053320255e-01,2.719908679251531458e-01,-6.103647673398615581e-01
7.066774884290218939e-01,3.959287150797589638e-01,2.744428658399855614e-02
9.931738470286617382e-01,9.353526446987862064e-01,-5.299224799847279677e-01
6.730522947983117454e-01,2.263759759372486746e-01,-4.858766548540904839e-01
4.214004560524900467e-01,5.940232855008703572e-01,7.769302094893126842e-01
2.268924898191843342e-01,4.912363742028975633e-01,1.982044732621683902e+00
7.692308058277460558e-01,4.781080064160014298e-01,1.265629650499289216e+00
7.389966661147435723e-01,7.615000398621742939e-01,-6.686783018644870680e-01
3.510476764301099228e-01,9.487591841212555943e-01,-2.628794242633658573e-01
5.546565067269635385e-01,2.163655071572828659e-01,4.781597272689130929e-01
2.422332246398931910e-01,6.762193314791014043e-01,-4.802961040701925199e-01
6.928442971748212109e-01,7.147650524569734154e-01,-4.588193761855463570e-01
2.742545187137768736e-01,5.754109613283003855e-01,2.628179387621409901e-01
1.433017323519045483e-01,8.433805762118150584e-01,-8.094179384588384707e-01
1.863273462322508067e-01,4.970854196335564718e-02,-6.906080397833047613e-01
4.758020224686757560e-01,2.895959456331886339e-01,1.259049303543688936e+00
3.847974935810494768e-01,3.320412810249764868e-01,6.231761381009781608e-02
8.758774481326961903e-01,3.449867858384295799e-02,-6.593076604046799183e-01
4.958524277015985415e-01,1.526466802764699371e-01,2.518138739665643833e+00
6.561313358185544287e-01,3.895048297524916943e-04,-1.731172725555796266e-01
3.080335296126130440e-01,6.991488810565191780e-01,-4.133971598547148130e-01
6.146933544180900322e-01,5.072296708440640067e-01,2.480640644338082179e+00
5.577811885414358795e-01,4.694835448128789612e-01,1.864274223007231779e+00
2.468040390668296558e-01,4.730746993266998768e-01,1.108712250230345919e+00
4.712713422638064587e-01,1.503139712307562936e-01,1.031444871453022216e+00
5.609109136933122519e-01,5.324396123816655946e-01,1.781455575570141114e+00
2.261017879130138852e-01,4.520268721183050009e-01,5.982040097415819435e-01
6.172172461006364408e-01,4.736292673720996493e-01,1.501456717890933268e+00
5.013144412061096844e-01,1.961396910424836604e-01,3.271399335847899881e+00
4.991972188408944078e-01,5.239785040626012691e-01,4.609250675293674604e+00
5.926960112198340624e-01,5.535049763932263778e-01,1.093363784329944854e+00
4.918606811402262413e-01,4.482669859690187053e-01,2.869465802837343205e+00
5.670209521643735373e-01,4.947855072232944518e-01,3.007270860348557395e+00
6.250195904947496439e-01,5.002223896007795823e-01,4.511183795450812717e+00
2.264714250479847590e-01,5.119626010124141979e-01,1.744422896618461616e+00
5.045434385811152778e-01,4.183003234396573400e-01,2.983948896894160541e+00
5.021108609645410503e-01,5.987290335789495765e-01,3.367728347321311322e+00
4.925765393968091765e-01,2.655955079113711537e-01,2.140495659295514663e+00
6.235112870986377898e-01,7.903372234576567790e-01,-2.345619569868095944e-01
5.256169555428891194e-01,4.687238137068802102e-01,2.416040551461977604e+00
4.779416100244038845e-01,5.656174847567145836e-01,2.018269216848154191e+00
6.115654663553712345e-01,5.124577721911925954e-01,2.104846332143849086e+00
5.268900195104591067e-01,5.556225035034956239e-01,1.984600921844227317e+00
5.834294701607313227e-01,4.787911049723717061e-01,1.888166301577505202e+00
5.166289531166948779e-01,2.333725728701510627e-01,1.490050825207671625e+00
5.833718211109903962e-01,4.948501179424682483e-01,2.890349631717876733e+00
6.319906388743734560e-01,5.783416289114106101e-01,5.351462421031039085e-01
5.161789765229436444e-01,1.644072160260930116e-01,1.496792790934596828e+00
6.213595086690086866e-01,4.689061079588360270e-01,1.348398880013464973e+00
5.274964697103110556e-01,4.293803125608812721e-01,1.803560980047510531e+00
6.458483516897974841e-01,4.719664604342757031e-01,1.321208108596515496e+00
5.277174764750089953e-01,5.452015308639266422e-01,2.106337057310937233e+00
5.309166034378178800e-01,4.569211343999302621e-01,2.061001450814095914e+00
4.839503758086918239e-01,4.232380115431209067e-01,2.149157761610991368e+00
4.941893820880607358e-01,3.883966272260754304e-01,2.646994062178591456e+00
7.533973219982111891e-01,4.962259700628136594e-01,2.602947962693761053e+00
4.745094647941124344e-01,5.322641203011779787e-01,2.398221872346771644e+00
4.880009767635443141e-01,1.449077564263262785e-01,1.739689775985113762e+00
4.793998068260229006e-01,4.503934258668272905e-01,2.256254507311736823e+00
4.688933319514246301e-01,5.017166858365569304e-01,4.089391662707503095e+00
6.541398841082435300e-01,1.492325008423425192e-01,-4.157380558852796781e-01
4.845370745559627879e-01,6.188061052842531717e-01,1.906533347469301365e+00
7.598564722954397332e-01,5.206922561479055966e-01,1.319234950844891952e+00
4.467093220942089382e-01,5.103483274655453705e-01,2.690184345530564958e+00
4.403373866062665898e-01,4.809167095223196853e-01,2.187878510037262192e+00
4.789754748843650933e-01,5.910491758416964725e-01,1.837961406259228658e+00
7.618244376987337585e-01,4.919140352432666008e-01,2.049983419412908514e+00
5.142528154615378932e-01,1.917514880464165072e-01,1.595075525446761899e+00
4.409978251378304792e-01,4.698585825838128560e-01,1.858877815135079326e+00
5.337035990539976682e-01,5.174041712371509893e-01,2.630967482952374148e+00
4.983530642807080246e-01,2.704419931318192694e-01,3.174349715837334607e+00
7.379428632889910578e-01,4.882618978628821549e-01,1.791364687777625697e+00
6.394238742995078661e-01,5.504142754091815304e-01,8.652863532208987518e-01
1.000000000000000000e+00,4.516068617778588035e-01,8.219729959647259498e-01
5.387432151746319731e-01,5.389769995687476722e-01,1.969249263992528531e+00
4.875297532370844733e-01,3.489379323653301612e-01,1.935946807527610947e+00
4.410007886321490322e-01,5.248838162872901947e-01,2.001285840558132190e+00
5.877211089647492726e-01,4.843719216455670273e-01,2.083864910987619279e+00
5.424031891631050373e-01,5.340982804480465251e-01,2.001265953109232498e+00
4.346824636810722731e-01,5.016864097584702309e-01,3.713478810576565703e+00
4.755805545571117898e-01,5.443706701234326539e-01,2.210258620140993280e+00
5.070715698283245754e-01,6.317646459694784555e-01,2.421743805391870286e+00
5.211232388282984740e-01,3.074968745459694119e-01,1.407055792437167385e+00
4.815710671870543913e-01,5.984633953228533088e-01,1.888028880004555266e+00
2.296693203218756474e-01,4.959152981263179050e-01,2.535973392020982597e+00
5.493889893100840638e-01,4.748383476185175089e-01,2.115135528350322591e+00
4.911264738378431360e-01,3.407699831979356109e-01,2.162733668590993474e+00
4.722178248261879041e-01,5.420299119196291260e-01,2.155213860229608702e+00
4.152117736686205540e-01,4.719896487608096769e-01,1.665200882865492948e+00
6.108336900511649459e-01,5.053166934872443949e-01,2.711292631478070536e+00
5.485151474101569447e-01,4.704959288864224431e-01,2.011598343999545513e+00
4.949317673807446805e-01,1.406255974911462814e-01,2.382253135852028247e+00
7.496633630693360084e-01,4.683170644700619389e-01,9.761218848001129711e-01
5.804374379047977373e-01,5.367390566087988368e-01,1.490835189927103288e+00
4.962603075656761842e-01,1.226445936839963557e-01,2.606279992173335724e+00
5.989997603130170489e-01,6.099285184761565892e-01,4.786555673468251282e-01
5.081984661025562566e-01,1.152089632668781977e-01,2.049553540729234236e+00
4.882819115314146474e-01,1.107166107689353807e-01,1.782956602672035595e+00
2.324353489010905494e-01,5.198695346395284522e-01,1.345940538903940276e+00
5.147968516421581597e-01,3.876365206910371564e-01,1.972654579614815384e+00
6.313144228553079218e-01,6.401651292092650491e-01,8.357143664381783132e-02
4.856725645309191708e-01,3.305131979379349327e-01,1.772325828561258643e+00
7.382141186160778856e-01,4.962723270190889102e-01,2.626012119716767401e+00
5.218629017739638831e-01,4.185588140986244987e-01,1.881088351005215653e+00
5.579995261090584524e-01,5.275366406670352060e-01,1.938081910234533689e+00
4.855895660132684144e-01,2.932945334264049353e-01,1.680451220228502685e+00
4.132650907855398015e-01,5.199057915957013831e-01,1.910682819972761015e+00
4.938607780807310332e-01,1.043338539901310785e-01,2.271581190682026907e+00
4.918796202295675490e-01,9.925350639800831209e-02,2.071792067870654730e+00
7.240483444684058245e-01,5.115427094949654974e-01,1.822968173228246558e+00
5.269493603286599104e-01,4.428908337405240148e-01,1.964746446131117041e+00
5.671033115816288550e-01,4.717193501201886741e-01,1.817401700291813027e+00
5.154102148526976679e-01,3.032038386589501200e-01,1.647919140042721775e+00
4.317301901149721566e-01,4.691582147983299200e-01,1.739853891436269340e+00
5.090383593895068115e-01,3.588440772669392320e-01,2.209752117925710468e+00
4.111570409157731532e-01,4.917198638913678477e-01,2.531601454911519333e+00
4.261389360077999511e-01,5.293449177206954737e-01,1.723333499984547323e+00
4.471782661516639501e-01,4.705776776282283302e-01,1.954144504724686371e+00
4.546099973270959493e-01,4.637401144405451925e-01,1.907901755372201080e+00
5.088019377056326453e-01,1.163653052489063977e-01,1.995495117931401774e+00
5.126173662057861291e-01,2.971796774693249432e-01,1.790851921694714965e+00
5.185937637432639358e-01,2.601085245112551569e-01,1.426943315365467591e+00
5.147017125908248669e-01,2.707862454750514791e-01,1.627781608908437372e+00
4.922242393742981559e-01,2.288973487694484221e-01,2.072586002728006083e+00
5.131466761291513246e-01,3.699582090685640812e-01,1.976970134307293181e+00
5.107092858251401912e-01,3.099272144545317520e-01,1.942347683269768366e+00
4.872001763131494911e-01,3.675442644235563106e-01,1.986787086222836507e+00
4.597635644130014243e-01,5.342768620501591181e-01,2.034785780887122808e+00
4.895274024189924522e-01,2.794627086226674773e-01,1.902465389479701674e+00
4.937763502218085465e-01,9.008291759193320924e-02,2.276488900899396040e+00
5.112388678219139670e-01,3.282008652529397330e-01,1.950942046800117069e+00
5.096990506341707583e-01,6.403976298838002235e-01,2.161022308873210562e+00
5.021141529026298400e-01,6.803238839453677744e-02,3.040341357906043207e+00
6.483390520293609294e-01,5.201690289974684189e-01,1.574681313328213372e+00
4.809617658143293673e-01,1.927495139465973117e-01,1.363616823167931313e+00
5.122823913673795193e-01,4.107438943494573502e-02,1.842204496745387665e+00
5.167272936325172372e-01,7.610045874069235050e-02,1.545119646491051046e+00
5.126432949224269953e-01,2.433994747736425990e-01,1.714237873467395756e+00
1.000000000000000000e+00,4.007969164099294823e-01,2.036774465236590448e-01
7.361202189830483578e-01,5.404919745067852110e-01,7.847593804649921623e-01
4.898863541290523482e-01,3.093128143533552810e-01,1.984067014672952212e+00
5.013963428957578516e-01,3.379648477817084190e-02,3.349143275771997441e+00
4.535170483793151686e-01,5.277958770660485799e-01,2.084859665055665889e+00
5.214648714484281244e-01,6.166081256293775015e-01,1.666126996293381124e+00
4.879855434462795905e-01,2.154670578132619474e-01,1.735232946116946895e+00
5.121632509499867147e-01,6.436310167725510789e-01,1.981126472194594257e+00
5.232512487633945719e-01,5.758881377542227620e-01,1.881520090263892886e+00
5.022115904456745383e-01,6.489855261174541923e-01,3.142737677751858971e+00
5.335888721480001873e-02,4.825586749498087524e-01,1.547415136700767135e+00
4.295245939274339175e-02,4.959345673889020700e-01,2.640367705899687500e+00
6.001157528326994672e-01,5.255199555651912657e-01,1.627557462522141174e+00
5.368413606329057730e-01,4.608814893148752700e-01,2.002912755904560083e+00
4.831389644036924169e-01,6.580926857660303331e-02,1.554005235636499727e+00
4.856691084731287189e-01,6.768515047595982104e-01,1.751897107377480278e+00
5.328968364461716956e-01,4.560902757208532554e-01,2.002516648144443412e+00
5.414720641548086411e-01,2.668210201759527722e-01,7.685704694489714495e-01
2.432180161659891204e-01,5.022923236189760221e-01,2.935732281488545592e+00
4.697559457647139114e-01,4.541096078093761479e-01,2.032525291856990268e+00
4.159266813579562960e-01,5.207316415857037306e-01,1.900301979826224397e+00
5.136148901534838274e-01,6.734922629516575387e-01,1.800399053010234285e+00
5.490024762844918360e-01,5.273777808915423027e-01,2.059205912925932136e+00
2.521925061434211468e-01,5.127880851729933465e-01,1.713928229362523536e+00
4.769072240889864478e-01,5.631023016844277640e-01,2.010731179485698572e+00
5.254022104091782275e-01,4.415935637101605638e-01,1.992979275114632465e+00
4.709269745276092323e-01,5.515240446608946634e-01,1.980314539186586176e+00
9.799770683362115653e-01,4.843674748407751918e-01,1.697417754324979100e+00
5.208097078332139113e-02,4.973954098425296677e-01,2.925583063797903005e+00
9.749611833798249583e-01,4.674508176903708900e-01,1.095107570876783232e+00
5.455148534746784295e-01,4.683315757480554509e-01,2.004815482164945539e+00
4.851247582266776659e-01,6.677656901500427233e-01,1.748338678650908085e+00
1.000000000000000000e+00,0.000000000000000000e+00,-3.754245436310821304e-01
4.618499220252250126e-01,3.151662095265360675e-01,9.391172345232468022e-01
6.478280284581872106e-02,4.979114088035672681e-01,3.052246397862512506e+00
5.637367085037799097e-02,5.510253449313944341e-01,6.488941523108926468e-01
4.806234034973124736e-01,4.364274231102014401e-01,2.134639247629925851e+00
5.068711433974742997e-01,6.832333586922116897e-01,2.285187025198127664e+00
9.872929037975716193e-01,4.970811853887702192e-01,2.915715046018110268e+00
4.845019667518010720e-01,3.929598219263375491e-01,1.967041222896085406e+00
4.075903714275692091e-01,4.817754232128063641e-01,1.936479667594367404e+00
4.076280977712677389e-01,5.164114773961927529e-01,2.015136614114020119e+00
9.985572913590456956e-01,5.351743912753532673e-01,1.087061256697715583e+00
4.992409917673688025e-01,6.980327984687199061e-01,3.686551408130505969e+00
5.926333930151811424e-01,5.232385641552598221e-01,1.750340920565895964e+00
7.313239051201553265e-02,5.275918454587336104e-01,1.142999498241278333e+00
4.903524044867323406e-01,2.187847411985547608e-01,1.905077440928719668e+00
5.094330721122376504e-01,9.972072514947116773e-02,1.959227454952312542e+00
4.860959231617130172e-01,7.401559857670944043e-01,1.657252593004119312e+00
3.778246083120152810e-02,4.880766068508886613e-01,1.870855706213870873e+00
5.012683919901915752e-01,7.438604767321952416e-01,3.323226561407754964e+00
4.445424869802611090e-01,1.255821629237216241e-01,4.819184710961876839e-01
5.164622033802849232e-01,6.994625182502008931e-01,1.590412558345946081e+00
4.014479838575628623e-01,4.967004114777809898e-01,3.088571722355912819e+00
5.097686765567858158e-01,3.243516655985546615e-01,2.045778441022817251e+00
3.800358200590880364e-01,5.042266429683257556e-01,2.824064629268057125e+00
3.705788566832071140e-01,5.105404407568840952e-01,2.143644359439519143e+00
5.143599095129195442e-01,7.645924929115329727e-01,1.607960522581093343e+00
5.429546180876394512e-01,4.389525030197433675e-01,1.567307013066595589e+00
4.793311629819169695e-01,5.746221742315229530e-01,1.980876161859193019e+00
3.687618045271636169e-01,5.119102604764640407e-01,2.045673192540585550e+00
4.038815076778549118e-01,1.446770872265024654e-01,-1.666765595945918221e-02
3.833314041754214974e-01,5.278920461319697166e-01,1.459945018987004461e+00
5.171452042740196653e-01,7.480667500740512121e-01,1.482524737483192911e+00
5.319383977157148280e-01,5.448494915343886635e-01,2.009032484660270068e+00
3.845295219048902036e-01,5.205608027296499962e-01,1.705501906578110738e+00
5.287727664164429964e-01,4.494339112605149067e-01,2.001033755960356153e+00
7.635044262135191884e-02,4.867474889478168310e-01,1.727530948896326413e+00
5.379414442390837436e-01,3.980533781883403566e-01,1.302465459590965713e+00
7.352116142530297493e-02,5.128595890412487313e-01,1.754786637829746088e+00
3.578311591268173303e-02,5.284295234257422313e-01,1.184567885318961178e+00
2.502132519443679426e-01,4.902424685192117715e-01,1.919442748734564441e+00
4.243755943878625425e-01,4.730071964779072879e-01,1.770900307527962791e+00
3.653750140605617203e-01,5.075947155030415825e-01,2.359836509025001750e+00
3.508522340023094155e-01,4.805498449727453325e-01,1.600268230151570270e+00
9.919851162479624840e-01,5.248940316046692978e-01,1.354833547682807726e+00
3.532913292421627771e-01,5.045660997954755089e-01,2.672114085879246925e+00
4.812060848412585967e-01,3.750452827583283105e-02,1.516904283118228891e+00
5.112360425440033440e-01,3.525709939733839143e-02,1.920636473986199189e+00
4.783806892033768965e-01,4.360923670680464936e-01,2.050836074736155368e+00
3.932072738788973121e-01,4.687728566072770220e-01,1.426909930116178060e+00
3.822143620438979705e-01,5.730729174231293799e-01,6.710694846976916761e-01
5.172786771392716698e-01,4.042915913296202257e-01,1.954389829063771788e+00
2.126079784051923549e-01,3.834409355314697954e-01,-1.843160581534353248e-01
3.424409302252201526e-01,5.171138395978328584e-01,1.671216711756058348e+00
4.884203649622849697e-01,1.595556343232016061e-01,1.761033457170806393e+00
5.072698819205900822e-01,7.694949195476649129e-01,2.123373789725127025e+00
4.751647463971540031e-01,5.593369989013081689e-01,1.998824081478520753e+00
9.607300857770069147e-01,4.223940174792605307e-01,3.177973408255285737e-01
5.105000004080275655e-01,6.880954692521773497e-01,1.961654295189567687e+00
5.108512976793603277e-01,3.436372619074857804e-01,2.022812900117851864e+00
3.478927852168900436e-02,5.096400322306103847e-01,2.036628612767230617e+00
4.425670409998342936e-01,4.762674382989685040e-01,2.054511587771330472e+00
4.649145034859955006e-01,5.770618596025541835e-01,1.556555889377811974e+00
5.649585584798755972e-02,3.447324316035225156e-01,-3.064893624231923575e-01
5.209513118075326243e-01,5.900811361465393423e-01,1.847514335125964857e+00
5.331861580834248437e-01,6.488662763883180640e-01,1.171952690081786708e+00
5.136507407949556514e-01,6.232449753583192420e-01,1.979138971803967584e+00
4.760233949893484251e-01,4.400425264979488382e-01,2.017693181451921447e+00
3.681725765542212536e-01,4.714789800868912084e-01,1.366830227261661701e+00
4.832163252604477210e-01,4.117996348867694612e-01,2.027591908886475558e+00
4.999803407137058953e-01,7.750923546427328503e-01,5.414247042626410433e+00
5.079601794148278504e-01,8.320982266475017708e-01,2.043275086586114675e+00
5.288514286954945076e-01,5.496724482061406958e-01,2.011477515237054536e+00
4.826863386126510891e-01,8.395499950287080848e-01,1.443695278324267361e+00
4.870164006803652801e-01,6.961344292711370008e-01,1.782392217522724698e+00
4.568588117926280501e-01,2.561322063139712668e-01,7.198644863462055898e-01
4.810666378542628463e-01,4.229093449254975323e-01,2.024705759905995883e+00
5.366214498825550017e-01,5.766708799581566902e-01,1.526910205248765973e+00
4.847598447511018427e-01,4.209868032547098987e-02,1.673554469343337958e+00
5.226367276211302260e-01,7.734496351350762522e-01,1.235241776695330529e+00
4.921658089534335367e-01,2.731958151661979459e-03,2.254015360412688906e+00
4.781442397793063126e-01,8.206957564186232457e-01,1.250626189604442384e+00
4.882462269230716800e-01,6.673700603119425701e-02,1.833771136121953305e+00
6.775492771319731322e-02,5.231653868838612720e-01,1.295328115629890142e+00
4.841038954013588413e-01,8.285420979994734259e-01,1.509274433814941085e+00
6.473573383560176087e-01,5.010273963758891114e-01,3.616379488665520725e+00
4.855161266050859736e-01,1.382673310467721732e-02,1.769983675399123824e+00
1.928684616272079988e-01,5.303444118856540657e-01,9.776177211530456823e-01
3.611463091825632965e-01,5.196803437635261202e-01,1.630813290320403119e+00
5.062735929186330530e-01,8.359766174150742302e-01,2.219538854321726262e+00
4.054986632295540794e-01,6.310767903227375575e-01,3.874424357596195634e-01
5.075654043287011197e-01,7.631591668181769705e-01,2.098353973223113567e+00
5.085472750511863538e-01,8.381585495391447038e-01,1.991580974418859507e+00
6.411415784283303054e-01,5.274642196190119092e-01,1.356734532055434705e+00
4.761934190068664585e-01,4.378120787061463570e-01,1.998112429506455623e+00
5.124770692657407700e-01,3.638567457360600832e-01,1.990833670629095220e+00
5.084654667933580230e-01,8.229173007047506649e-01,1.995856309419626884e+00
5.101776586068271779e-01,3.168205273466748739e-01,1.996489181520042511e+00
3.515976303855897767e-01,5.185131222238992255e-01,1.641705645381067447e+00
4.732520256808188663e-01,7.860224821232145720e-01,1.089880683625777946e+00
2.381374667977660675e-01,5.159552639985839351e-01,1.526769808916569326e+00
3.518734226660001907e-01,4.851692561848240937e-01,1.814402003192698842e+00
