# x1,x2,y
9.168911706561223562e-01,7.551053029209693623e-02,-6.966980784193621545e-01
6.111326410286880284e-01,2.774762688655907916e-01,-6.226323212067730317e-02
4.675866658296613521e-01,3.864916409957342980e-01,1.357641032210592513e+00
2.801743146460757283e-01,4.720907765726342076e-01,1.124360997632497527e+00
4.954475751936111561e-01,5.109652019479165030e-01,4.111350634869713083e+00
7.099808336780178974e-01,6.281063898539626100e-01,-1.505218939324870497e-01
7.218084925522555428e-02,2.383554477200117427e-01,-6.740118977037745651e-01
8.191786946396659719e-01,1.059689894177835850e-01,-7.794218238351335870e-01
1.474570805574961507e-01,9.909355449068931732e-01,-6.038773549608178470e-01
5.449111821064931416e-01,3.301852440016703749e-01,8.459294012570051091e-01
4.055399271276762252e-01,1.535969590315619526e-01,-6.140782492927154834e-03
5.847531784375936681e-01,9.438859497042602076e-01,2.061423912506266110e-01
2.189818836335642172e-01,8.352113535353478113e-01,-7.821251990235844609e-01
8.993450621712113513e-01,1.669516243030498281e-01,-7.777363253312596925e-01
8.440326815022822782e-01,5.219750643840983528e-01,1.251645015155297136e+00
2.725965799821564728e-01,7.021355998798742837e-01,-5.171415503081866483e-01
4.491617163455352557e-01,6.974957300347010003e-01,6.628927536442574819e-01
6.698128027413032815e-01,6.742404874849950991e-01,-2.502960912122642601e-01
3.162568234200524575e-01,9.133881227996133445e-01,-4.860809561653178790e-01
5.137217015837463041e-01,9.217650708005855620e-01,1.697903378828206078e+00
9.283226689518138397e-02,9.444036459033894326e-02,-7.330869146392937630e-01
9.221860981615909170e-01,6.438184011733318890e-01,-2.839552035480497061e-01
1.555404821147640324e-02,2.043579801826337916e-01,-5.967443385159221236e-01
7.919079849070476129e-01,1.871666756540993903e-01,-7.889423773226589276e-01
5.785198895898042704e-01,3.649395740198383420e-01,5.176700849625259782e-01
6.996987691540201837e-01,9.653876939055971995e-01,-4.442483723005252738e-01
2.263878273276072883e-01,7.272983192177256972e-01,-6.584640892202742180e-01
8.687423602530162103e-01,3.931498396086000047e-02,-6.732470338823315359e-01
3.331291066919391808e-01,6.014547442176869652e-01,1.691677643995903590e-01
1.801882554016193683e-01,5.430357332516895230e-01,6.778838122098673757e-01
2.406380733287978857e-01,3.015143489234453078e-01,-5.618440931623136514e-01
7.382642561397928516e-01,7.574486372469085849e-01,-6.613537833610361183e-01
5.227597210551652163e-01,4.248895140439598039e-01,1.904464134668313324e+00
3.600002406713896930e-01,4.139089090510694735e-01,4.177919044132172299e-01
9.930026103602627163e-01,5.736021003120927997e-01,4.421756134832055540e-01
6.428974197809265156e-01,7.912784521815743322e-01,-3.540644500494771751e-01
3.942446535582316836e-01,2.949315447398787593e-01,1.797942128622276314e-02
3.495976678299276830e-01,4.906898494834624480e-02,-2.660759845827820325e-01
9.593292408255478243e-01,4.750824400698246130e-03,-4.825605291469647895e-01
1.007007304820287524e-01,8.828605215417514307e-01,-7.630550175104744426e-01
8.225791614915708427e-01,5.913777050511311861e-01,1.662083735842201371e-02
6.367941702083214084e-01,7.647276032030564386e-01,-2.972442775966543937e-01
1.211702498376414916e-01,8.668052160569562625e-01,-7.909694463804539666e-01
7.445317575379886144e-01,4.450598536564301377e-01,5.095774940067832048e-01
3.648557065322736992e-02,4.813583499358882745e-01,1.525350345167880706e+00
5.945202227809786438e-02,8.435145972642635881e-01,-7.182748932302307487e-01
4.383710349629189595e-01,1.371412188517439901e-01,3.799666905365617353e-01
9.616380012003669098e-01,3.591114828986213259e-01,-1.899832151354630128e-01
7.627271670351847277e-01,8.090647866644720132e-01,-7.530507716719148092e-01
1.651255989865325902e-01,2.413016907408502831e-01,-7.513480573168251908e-01
5.449277256643459966e-01,6.239132798602718966e-01,1.036020345766928141e+00
4.818928382076685391e-01,8.990236429876281576e-01,1.450538449575923261e+00
8.954043535921679675e-01,4.786627080025759873e-01,1.313781289252244910e+00
1.000000000000000000e+00,1.000000000000000000e+00,-3.754245436310821304e-01
0.000000000000000000e+00,5.361075227428555579e-01,1.068981374793266381e+00
4.499191837323681664e-01,6.006880657526560974e-01,1.087946104247423662e+00
5.594634658892205792e-01,3.067260714589591444e-02,5.689349198400783791e-01
0.000000000000000000e+00,4.335317644191633013e-01,5.494713359665504004e-01
6.203499096869009577e-01,5.006055271427919395e-01,4.001564040620015916e+00
7.352463308746292059e-01,5.224884215917602326e-01,1.278724005507997363e+00
4.613858396342401802e-01,7.894038996502373839e-01,7.771120215270121978e-01
3.953795137241526425e-01,5.355188227156637559e-01,1.337867559047883903e+00
4.139101190812490838e-01,5.121582646698118468e-01,2.278579363565456095e+00
5.791153086463293187e-01,1.232607313799118781e-01,1.708004010961117203e-01
4.355297296281300801e-01,4.451617673149472210e-01,1.340572656373238969e+00
5.896866537679579245e-01,5.851918525833782470e-01,7.497597867167782315e-01
5.396819877217587935e-01,8.975362502660826358e-01,7.964170577913598503e-01
6.214262317175365258e-01,4.389951414225966020e-01,7.978352622137740990e-01
1.173381575694257134e-01,4.848226146185788399e-01,1.574941354724013198e+00
1.000000000000000000e+00,8.634120109768983475e-01,-5.764438667646931691e-01
0.000000000000000000e+00,6.145957853533188242e-01,8.085001817019432657e-02
4.778264611684125973e-01,9.290212711725134298e-01,1.326039951689669261e+00
3.972944287438921473e-01,5.022949407485025608e-01,3.296260626149387640e+00
7.183392170382291164e-01,4.813219468823215497e-01,1.454616025484395392e+00
3.984903286879389328e-01,3.631438916277156537e-01,2.999384267006910409e-01
6.079986143951963129e-01,5.334762656849665330e-01,1.364186905367646974e+00
5.243750413820718048e-01,4.169695013166867525e-01,1.785817557793373256e+00
5.526922703176557761e-01,3.987059031869463199e-01,1.042746289764892031e+00
7.018660573868467090e-01,5.151716999862905322e-01,1.649638136503803754e+00
7.279192791274677332e-02,5.003299295140690717e-01,4.130610467473481151e+00
5.975343319709325307e-01,4.736810430959362272e-01,1.620554434316895387e+00
7.200506887033299996e-01,5.024502092951538268e-01,2.929933688843382456e+00
2.548805501348961888e-01,5.090631852564019288e-01,1.979898156665795828e+00
7.406348103466670052e-01,5.103740603989223024e-01,1.882714098779127987e+00
8.013013334509555552e-01,4.909175158290182694e-01,1.943964228618410006e+00
5.553602492290192760e-01,4.220812276839653321e-01,1.192611260230730386e+00
5.031786595563972897e-01,4.324042042569010147e-01,3.315997652178617194e+00
4.932265723678977976e-01,5.259622186658579057e-01,3.400773169797528528e+00
5.320368995117417121e-01,4.783437631773501675e-01,2.515446957628619806e+00
3.329128323724475091e-01,5.077875100076973958e-01,2.235230017471000252e+00
7.173691563128794524e-01,4.863435345562596712e-01,1.703520636387506615e+00
1.071323595574047275e-04,5.184590655811941451e-01,1.612843224904589867e+00
8.084292606921699154e-01,4.696358595500794708e-01,9.769067020571431392e-01
4.235244562745710262e-01,8.910726581590562301e-01,2.155042684324448565e-01
2.319602960253602519e-01,5.098100586335114759e-01,1.900125203054443546e+00
6.986644345049509708e-01,3.236839091946192015e-01,-3.570548532824513455e-01
4.823860411089364031e-01,4.733967454330240132e-01,2.777608601181463577e+00
4.066265643072201064e-01,5.227992577809529307e-01,1.759808914837721616e+00
1.900807394433901287e-01,4.901657295735914466e-01,1.882503490745551789e+00
5.020991105612953032e-01,5.368190955670634201e-01,3.890285192704225903e+00
4.864354529351948564e-01,4.174415061207606970e-01,2.225492536850177672e+00
8.079562929399259907e-01,5.006481911171417609e-01,3.696126829873507269e+00
9.396351811307930291e-01,5.005862971450936172e-01,3.826481266340369114e+00
7.356050839479362502e-02,5.176055410358424425e-01,1.508052892199709394e+00
4.795825780824866102e-01,4.113497160194069524e-01,1.877414710972756806e+00
6.100651879868487226e-01,4.808173021390289015e-01,1.788300760342813600e+00
4.535276149771102494e-01,5.496362483634631424e-01,1.659744919444733346e+00
4.075292615302405497e-01,4.234651476500907452e-01,8.103886160292883556e-01
4.555281718793654511e-01,5.834533407070390254e-01,1.315128919565277110e+00
5.497515836360921115e-01,3.830254565720453419e-01,9.904959106684319003e-01
3.254672033529423247e-01,7.822573227308418087e-01,-4.997174160234640894e-01
7.360394030571429935e-01,5.207034188637507111e-01,1.345039062964882293e+00
5.715283433980024030e-01,5.450471653240976933e-01,1.415787672315238499e+00
4.208340412641357053e-01,3.341447625359250662e-01,3.792793467810140484e-01
6.137548244354278371e-01,5.240336532975122807e-01,1.593200808022862125e+00
9.747970410877818681e-01,4.863107426165008129e-01,1.789426284144077783e+00
5.010570242679954767e-01,4.640999915377570506e-01,4.274723331586415931e+00
4.762178935373383437e-01,5.702759754059306685e-01,1.916126621194416124e+00
3.898169964254117326e-01,4.823031062824980064e-01,1.849219747164706495e+00
7.784994688718838152e-01,5.119302086038310939e-01,1.743656346403135160e+00
1.000000000000000000e+00,2.561379351569482155e-01,-4.729775196187524511e-01
3.407179045659560757e-01,4.875476800878502659e-01,1.910083790491794442e+00
4.912197333749626638e-01,9.104736940290056868e-01,2.024331735712246783e+00
0.000000000000000000e+00,0.000000000000000000e+00,-3.754245436310821304e-01
4.371704086600238792e-01,3.976460675706471881e-01,8.933450662020725463e-01
4.823700480555558334e-01,9.083562303726007148e-01,1.482791695987270009e+00
9.678555723562698443e-01,5.138432903640240967e-01,1.767002485395493538e+00
1.818433868593252178e-01,4.907436718579433754e-01,1.928278074909457462e+00
2.839181036810430880e-01,5.091541102476185854e-01,2.010850038541230678e+00
9.618010799651563469e-02,4.683389533923164594e-01,9.961415224999259355e-01
5.942147399174363409e-01,4.526353277432720867e-01,1.179295019635060449e+00
5.006778326324468065e-01,1.199992022496080592e-02,3.811294342521801326e+00
3.847002510499022976e-01,1.632511100248852307e-02,3.072238924919701297e-02
9.919800092385244739e-01,4.893081377279620003e-01,2.013421816943300247e+00
2.262375593869548895e-01,4.918792203699197674e-01,2.038672719510608911e+00
4.701112856497712267e-01,9.176355616669745752e-01,1.062788130241661966e+00
5.796178000522866913e-01,9.197346164447567363e-01,2.187339542343846865e-01
9.979568676393358873e-01,4.898549764206407420e-01,2.065963169013590228e+00
3.978615297672355999e-01,4.839259597429394488e-01,1.968248374860116501e+00
4.104496666977107133e-01,5.020999378496339149e-01,3.420500870411753436e+00
4.539639876628683290e-01,5.697853062694225867e-01,1.416881808950889443e+00
5.829046640440710414e-01,4.797454508893166381e-01,1.926940229899690715e+00
2.752430167334796174e-01,4.912283581716587744e-01,2.029612551496554396e+00
3.055501074722594690e-01,5.096227698601166756e-01,2.013296943018817231e+00
8.608303422725496201e-01,5.434393875462885104e-01,6.846402255361161426e-01
7.910489826934637148e-02,4.122312050643252568e-01,1.350016756929550699e-01
1.416918622917933135e-01,5.121600291762944401e-01,1.731082943550997788e+00
1.000000000000000000e+00,4.739902366673003353e-01,1.339039901433716206e+00
2.581009706708763951e-01,5.087861847130457082e-01,2.006673231622202458e+00
8.724693008603682243e-01,4.875362271079515253e-01,1.721106650923981407e+00
4.338394777854131523e-01,4.536663030914981909e-01,1.450794214534649740e+00
5.149237412814787751e-01,5.763993971669064686e-01,2.205168554097823641e+00
5.819242492730645200e-01,4.589282106704024589e-01,1.390775937874517698e+00
3.175349039431202280e-01,5.002047046583864010e-01,4.423769954796387793e+00
4.913281726392505488e-01,4.127251689767723053e-01,2.509912433914317287e+00
6.495592004159848887e-02,5.458151943691882391e-01,7.266964747082993448e-01
0.000000000000000000e+00,4.704315184531388527e-01,1.234356470571115194e+00
4.437660679737933100e-01,4.655616034375371047e-03,6.810079632890986279e-01
4.977135452444772512e-01,4.191378064219300481e-01,3.421674376753026436e+00
8.985596108288350647e-01,4.934334829739290829e-01,2.225626052723175263e+00
3.095155814845465536e-01,4.735708965437225304e-01,1.229732926065161269e+00
6.895440055019093073e-01,4.336384078265713704e-01,4.545557550523360302e-01
3.381923411695166859e-01,4.200533204778158503e-01,3.860108923408922532e-01
4.860963789297471083e-01,4.816932268781174975e-01,3.167598590582789697e+00
4.818284869184998320e-01,5.144792052876817623e-01,3.146791846284409111e+00
4.885956259043902628e-01,9.115093762279671274e-01,1.827687924577883205e+00
4.238211458138778642e-01,4.836867469251912022e-01,2.142141550234966108e+00
3.891386691148938648e-01,5.391750586164941739e-01,1.220703608704420962e+00
9.025022465664912508e-01,5.066686919630224439e-01,2.218405592648758695e+00
4.210799439408516864e-01,4.857746137340000492e-01,2.219344194069285958e+00
6.509097401121285431e-01,5.401166694015459013e-01,1.007419078101925436e+00
5.018903512141078549e-01,5.192630040035942640e-01,4.283973467723490636e+00
3.125234470205099924e-01,4.903031562034462221e-01,2.022723350098960537e+00
9.187168232893705433e-01,4.913585051079482624e-01,2.046210652804167918e+00
4.712120249726519661e-01,5.431500309265920867e-01,2.111336742981542169e+00
6.153333823706514938e-01,1.552978524637390299e-02,3.256092633679097403e-02
3.739947352572740025e-01,4.857281787122205152e-01,1.933007894633883561e+00
7.126281331970819866e-02,5.083790791410977006e-01,2.082330123602490257e+00
6.431025968440299279e-01,5.166783383199986535e-01,1.742711133187699879e+00
4.534669291155098425e-01,4.375448261745914502e-01,1.489688809480876897e+00
5.097938114300926138e-01,5.440120390406629758e-01,2.846498679258133713e+00
6.051600582114664562e-01,4.822713825726724357e-01,1.876443436523309582e+00
2.168149701246795680e-01,4.916254091595035347e-01,2.010794116550992161e+00
4.221065073040838889e-01,4.324009480538599237e-01,1.036840881102859546e+00
1.540549725849949536e-01,4.915346404585150264e-01,2.001437997213343145e+00
4.676970225353181410e-01,5.453669525592436118e-01,1.992662687668896870e+00
6.510755864468825704e-01,5.138501451249353202e-01,1.856287746418152640e+00
6.012410956134922602e-01,5.231493189436062785e-01,1.695988040899951699e+00
9.125682565717124772e-01,5.075797051262881388e-01,2.135812603432517331e+00
5.929205276929357948e-01,4.907371651167749538e-01,2.426501851567875789e+00
2.252852752052634799e-01,5.072676102740981685e-01,2.120439104164938193e+00
5.079268255756981265e-01,6.175167095296713038e-01,2.402341078425496157e+00
4.615156140762781134e-01,5.738456291857989555e-01,1.514941662650390874e+00
4.250632615302088468e-01,4.202796237247198863e-01,9.392389473364870511e-01
3.487005919321546910e-01,4.882596699403692897e-01,1.980534934271435121e+00
5.505482113363595609e-01,4.485747593278764933e-01,1.570885697858401819e+00
4.844725215804070451e-01,6.198269871980651713e-01,1.898360292369299929e+00
8.860973729019896994e-02,4.778649341224376901e-01,1.302725569439460163e+00
6.805013323758285493e-01,4.885331745483740828e-01,1.913145473760350379e+00
5.271075644886117351e-01,6.117124135550978670e-01,1.509953205760119488e+00
3.299788364176803879e-01,5.099828172800958681e-01,2.044578312350232352e+00
5.455781690657506289e-01,5.687934815790930410e-01,1.435011407190082133e+00
4.060480953406052640e-01,4.774701170764962255e-01,1.764918573778705424e+00
3.774899925800399014e-01,5.110221394656578875e-01,2.141276311284519895e+00
3.831250463149757368e-01,4.861888711549059994e-01,2.001084716308834999e+00
8.254082532784726700e-01,4.894469122985335430e-01,1.829034393270377867e+00
9.692700269592487983e-01,5.102921667658139038e-01,1.995280321017497416e+00
2.538451153528932247e-01,4.851735061606463617e-01,1.599931585394989142e+00
5.357988831002721275e-01,4.580138902703011494e-01,1.973025514064946639e+00
9.409209065713555198e-01,5.106612740851945720e-01,1.919684654345670261e+00
4.861457571187568494e-01,9.236645664683221790e-01,1.693014796210682293e+00
2.882871909283104550e-01,4.907666866532602867e-01,2.011611285404871552e+00
7.711343012746720849e-01,5.087019354910840008e-01,1.988567589099159427e+00
5.818685402111152261e-01,4.318443460583813454e-01,9.929310245792122291e-01
4.417857895992596262e-01,3.808427241707476596e-01,8.491577955223816865e-01
4.629957576324100765e-01,1.244164177785040196e-02,1.017081146089979793e+00
7.990860089455928961e-01,5.310319662865822243e-01,9.602638983630251701e-01
5.172721989478401561e-01,9.073623769358829527e-01,1.497964041335454466e+00
4.121156783304120719e-01,4.728040076687003435e-01,1.663943928532600758e+00
5.342083479647180555e-01,4.388605190054089555e-01,1.738800628460567266e+00
5.107002456860955109e-01,3.913671794337868493e-01,2.231620602697379496e+00
4.386058386215161975e-01,4.574940684674503322e-01,1.571180519012641552e+00
8.613999843086852515e-01,4.708212368565568018e-01,1.025022068478460557e+00
4.057322330252626230e-01,4.651791388053201914e-01,1.423640885223983465e+00
2.370094352171011332e-01,4.911997067148544671e-01,1.985796449521726181e+00
4.282619979400388299e-01,4.794655996638592654e-01,2.011802093803870317e+00
8.594278841059291851e-01,4.919324320946203977e-01,2.043726285365980999e+00
5.539461980763109583e-01,6.171916756075196409e-01,9.229329736462088540e-01
6.406612598107025436e-01,4.840381753861939806e-01,1.786011363136883467e+00
4.988670762995923158e-01,6.098525962186940319e-01,3.687722346457483535e+00
2.578548254730229916e-02,4.926406221170207544e-01,2.251926988725006851e+00
3.592315796943941764e-01,4.722684001100363460e-01,1.350470551861867596e+00
2.090304429037998304e-02,5.034172236864410399e-01,2.795797054677560123e+00
1.111780291383820674e-01,4.874442434917339861e-01,1.729122062311707619e+00
5.276506543678686212e-01,3.171666107611579005e-03,1.281242866616602027e+00
6.740182404412389250e-01,4.762346392717368149e-01,1.359745969344163807e+00
5.985256839942442175e-01,5.197264207889215060e-01,1.836005016803970991e+00
5.913546982468003144e-01,4.639798665648947051e-01,1.418291816729456700e+00
4.760498357599975416e-01,3.962990466588659499e-01,1.654301001908237145e+00
3.891812322571621130e-01,6.076944674659945367e-01,4.075818890318050336e-01
5.227364127259167548e-01,3.891921758899369865e-01,1.652887686828983238e+00
5.399260437635204912e-01,5.732422784957891260e-01,1.492293715208786731e+00
7.484567550501928235e-01,4.929718233081523682e-01,2.165241976530327683e+00
1.935051466841663237e-01,4.819205697804749278e-01,1.405513393428459157e+00
5.400832923030540050e-02,4.824125380429628573e-01,1.539685431816371075e+00
1.874807360982456983e-01,5.048132352008339874e-01,2.407395651789971946e+00
1.928440078994722306e-01,5.086987975920742588e-01,1.975580046057071604e+00
5.326643408926782230e-01,3.935615132607975242e-01,1.393305123290465852e+00
6.720251457993875466e-01,5.208861370724913176e-01,1.469248905118050175e+00
6.556929547450356388e-01,5.117897024944872975e-01,1.962809081846609294e+00
3.806156446351325329e-01,5.491887942639488429e-01,9.861816204071938152e-01
5.644505292052034440e-01,4.807344159941429051e-01,2.129738805427484394e+00
3.184057602998963676e-01,5.102843028253355451e-01,1.992486089883417355e+00
7.377953971022443991e-01,4.901875390601246330e-01,1.928271822374036937e+00
9.620658791291081258e-01,4.892457029402614843e-01,1.948823908759497181e+00
1.274556839641755313e-01,4.948532748081552191e-01,2.379223478402294756e+00
4.171940136298978863e-01,5.188541627649467802e-01,1.981356752456554515e+00
4.416383722205247109e-01,4.600241917813839287e-01,1.654380787699450961e+00
4.969433626928256853e-01,4.919674829379275804e-01,4.478278947123351728e+00
5.043470665021045907e-01,4.568670295749995280e-01,3.376321881507940770e+00
3.703480220016532320e-01,5.108994018949096771e-01,2.118031365944641475e+00
5.274310988970216663e-01,4.388880777267964439e-01,1.904801886368555630e+00
1.503518397160130693e-01,4.913071335555577179e-01,1.983060031579932936e+00
4.961176779902549128e-01,9.033348612380056597e-01,2.602605850539305710e+00
4.537407309034794944e-01,4.650891960240574607e-01,1.922103064789913995e+00
4.725887831231199709e-01,7.181096854942901064e-01,1.142271124108767966e+00
9.998929757688297393e-01,4.967751467921492914e-01,2.874677690114740614e+00
5.563590567404443910e-01,4.745589814219238201e-01,2.016342014877423594e+00
5.033918160813659615e-01,7.082688893412477649e-01,2.730320404712781368e+00
2.296672823020529941e-01,4.912597309855798455e-01,1.985779734331658553e+00
4.783529125383702008e-01,5.879179664876095224e-01,1.838485275206088732e+00
5.357183763490472872e-01,7.088961443253303241e-01,9.381911380374774456e-01
5.166756026515517686e-01,7.016675787205861603e-01,1.575712225614073203e+00
3.613034182522214532e-01,5.122803624081380125e-01,1.992652656763274077e+00
4.914050321550248457e-01,8.975062315077148023e-01,2.026173963626972441e+00
1.599132270124440647e-01,5.091905227084648766e-01,1.937527266780769697e+00
4.601782729984451592e-01,4.705558261340233028e-01,2.151207752608866652e+00
5.148129566881129993e-01,7.153499967905511125e-01,1.643418833193326378e+00
5.133414080022722370e-01,2.788426729616775082e-02,1.803830180104585290e+00
5.457628591129893847e-01,5.447835978111847943e-01,1.746922729533469942e+00
5.656444386045940131e-01,5.349137037976431364e-01,1.673035118335213234e+00
5.614989482952141842e-01,5.305381700231743825e-01,1.820125916491217577e+00
2.076184654223863640e-02,5.150773856966811559e-01,1.723962369869613820e+00
5.178530172490816152e-01,5.680215567676111244e-01,2.149788775514105410e+00
7.029345019513693060e-01,4.644246542761334973e-01,9.540712703352161039e-01
5.898236147810549390e-01,4.149001407377255202e-01,7.494311320005153654e-01
2.957871195686957461e-03,4.965050875711795597e-01,2.815330115048787274e+00
2.362560095988668341e-01,5.307756020462636171e-01,9.867551964766108075e-01
5.080781825689736353e-01,1.692745868828541937e-03,2.234081187085383835e+00
1.501633222049601479e-01,4.787983269289904364e-01,1.283550023668140749e+00
3.188584224220668006e-01,4.606946594233716219e-01,9.241662048271814811e-01
5.165940567859317323e-01,5.925206279397763343e-01,2.005883270750306924e+00
2.278175035044346930e-01,4.697301162480415626e-01,9.941525048356403271e-01
6.404308825068483202e-01,4.642485162680056177e-01,1.145259448832873783e+00
4.854555096619131427e-01,7.001096002948608010e-01,1.686175260084743499e+00
9.658203989142083445e-01,4.704734306537656785e-01,1.156531758523899889e+00
4.897929120771910005e-01,7.153807554761487664e-01,1.930091723276197158e+00
6.052227999202752784e-01,5.577423205580490650e-01,9.419744249246753132e-01
5.211822174846522104e-01,5.643918385215950240e-01,2.060812754999939767e+00
