# x1,x2,y
9.910568914630089044e-01,3.021655210395326335e-02,-4.721051582579705030e-01
2.877594251511129686e-01,2.644391576786436215e-01,-5.626158570955741567e-01
5.785893908695309562e-02,3.369150174258636055e-01,-3.474409554010293721e-01
6.251170620927672117e-02,8.110655546361531520e-01,-7.134691353673128233e-01
3.380566821707680081e-01,7.413393884786565469e-01,-3.947680594704316981e-01
2.056705016354263837e-01,4.890924415104389023e-01,1.806200644312847547e+00
5.938218584371152131e-01,1.091366644878942194e-01,3.547905067121326361e-02
1.329828809522952127e-01,7.295017722126886373e-01,-6.801226877147747985e-01
1.005975242175713436e-01,6.414485756276373796e-02,-6.990337463112261673e-01
2.508929803606368969e-01,3.134476735182562535e-01,-5.066265137553682685e-01
7.519332754920372563e-01,9.348950464684872008e-01,-6.442353631279384985e-01
5.496717106470317971e-01,9.096047991217082185e-01,6.175909953205926950e-01
8.025858772921771189e-01,7.820020868916288670e-01,-7.743474582921838767e-01
6.994320521234713706e-01,1.255697456529595024e-01,-5.882987970457276283e-01
5.041082068920997861e-01,6.314558773973775185e-01,2.796903460981086109e+00
3.730682180504707457e-01,3.711568152477690008e-01,1.703192946795328844e-01
8.237562964984775915e-01,4.093788049739833790e-01,2.399616427035344834e-02
8.102934406601659811e-02,1.883020239402014018e-01,-7.442078317463263204e-01
9.145263899685607267e-01,3.845010900967966716e-01,-1.130674218856297930e-01
8.741436120161579781e-01,9.673188116970521389e-01,-6.561389114773530373e-01
7.830372199401708366e-01,4.656697572486441783e-01,8.808007817247520688e-01
7.138295502189465624e-01,6.489029009852707031e-01,-2.765576881614173477e-01
9.532065181279922861e-01,3.418443401774344803e-01,-3.008901054702317612e-01
6.612305786165988408e-01,5.472435242477566852e-01,8.323118441715626759e-01
2.288090743534147986e-01,4.572106782589385743e-01,6.993346265297772923e-01
3.195199084494586561e-01,8.508203934671954016e-01,-5.345025870626129993e-01
3.872312952612515513e-01,2.556062952902273255e-01,-1.125037164661302214e-01
4.253847115650212229e-01,8.652777334190502323e-01,2.129110716972293371e-01
2.581809477825888766e-02,2.138627583662599252e-01,-6.127839584626082470e-01
7.614512427564447128e-01,2.987276729972085931e-01,-5.733748615854272757e-01
4.717250580893564416e-01,5.217445873756161312e-01,2.596293226616936956e+00
1.101595805149151001e-02,5.792586177866876351e-02,-5.301525540216256438e-01
6.267969732791363047e-01,7.639795205259415356e-01,-2.348539344830902209e-01
4.491537279864595833e-01,6.648535084436868470e-01,7.576352587719115128e-01
9.368420637175329801e-01,1.518172563483270177e-01,-7.247402298909966234e-01
9.726733112757515176e-01,6.133626960947053952e-01,1.734622106941863251e-02
6.074720024829785014e-01,1.416295645236209655e-02,9.619275427677487222e-02
4.081303983275249569e-01,5.937836082750982403e-01,6.571571704710632567e-01
4.855595501324720398e-01,9.582795053401187424e-01,1.716240778423402391e+00
5.302807011963488470e-01,8.881619687301273158e-02,1.043046868670040039e+00
1.604796376475433051e-01,8.390420248606241804e-01,-8.129937363086181534e-01
7.344787827887496734e-01,8.967838611559993955e-01,-6.642380353281129857e-01
5.741537324363134021e-01,9.839276115340027662e-01,4.120558865227763601e-01
1.535250980396026255e-01,6.846116840871014908e-01,-5.524076016143242285e-01
8.985345136850745318e-01,5.040275742208614185e-01,2.572557318404170346e+00
2.661272706475236172e-01,1.711770817598176342e-01,-7.033466406910338087e-01
6.465161431612974630e-01,5.749349244620400867e-01,5.026131220138063682e-01
1.851850489381492992e-01,4.258358554845086408e-01,2.001863096889455740e-01
3.475598808265777939e-01,7.130095371642748425e-01,-2.921725690734156000e-01
8.536322355761485348e-01,2.231373547694992521e-01,-7.732738622556944996e-01
4.406030049305362795e-01,5.143418142774409674e-01,2.395202732882391050e+00
8.443908769214487631e-01,5.319611329922849796e-01,9.390202727238561309e-01
5.572796459154629733e-01,5.708977766429821354e-01,1.236085720900960139e+00
5.312249204517114354e-01,6.700840997227396345e-01,1.148496827622138561e+00
9.208729960463756248e-01,5.403867088732164925e-01,8.124023287611314981e-01
5.744922801960092862e-01,5.225113964121657073e-01,1.918208925773933204e+00
4.313848918515094111e-01,9.501899541352506473e-01,4.034577562756358482e-01
5.628506708434011241e-01,6.119144295708229819e-01,8.297804399162156397e-01
5.448042789674261144e-01,5.009742582426482960e-01,4.208055877170950865e+00
8.807090377151577387e-01,4.629668694079214220e-01,8.379663595167341494e-01
5.164887891507886630e-01,4.372640747462233635e-01,2.260272912934913947e+00
2.007280006815605200e-01,5.071622581665095053e-01,2.121627088490716240e+00
2.136122281834165193e-01,5.108384154381920839e-01,1.813914738108579616e+00
5.499692563947822244e-01,4.280597352269198130e-01,1.331162968093076993e+00
4.212827866583442882e-01,5.169404336590446292e-01,2.093370989447110642e+00
5.451449339766697433e-01,5.553027254483980935e-01,1.601879562828913972e+00
4.727902609291646518e-01,6.652497991441065628e-02,1.164904508410639083e+00
4.919722487247386034e-01,6.551636060131801331e-01,2.248274474702227632e+00
1.712380552928291222e-01,5.229381306944808072e-01,1.211877398435047271e+00
5.127312805879684632e-01,4.195043041480182866e-02,1.813119577364322721e+00
4.557272529700392427e-01,4.578972732425804493e-01,1.816476948861011076e+00
5.071868818663384237e-01,5.847777712984256748e-01,2.656743626448304418e+00
4.399494897866026433e-01,5.469420041252801568e-01,1.511853681040793429e+00
4.471810441250209101e-01,4.711135877603956357e-01,1.967728318986120550e+00
4.995690390601163489e-01,2.565281932045914565e-02,4.042716660377420723e+00
4.554239023621318716e-01,6.119390059526331749e-01,1.109626352709293107e+00
4.260586804347200607e-01,2.125954554108896652e-02,4.016299666022671300e-01
4.209932988614870086e-01,4.937851194808982047e-01,2.796147724990950323e+00
7.283151062940249609e-01,5.022435404040409557e-01,2.977212771363739741e+00
5.265358369065089583e-01,2.802216419537060382e-02,1.257451896680581438e+00
5.266635670857483520e-01,1.337378865170921471e-01,1.103843218174689333e+00
5.206821620818460339e-01,6.508193941052718978e-01,1.545776656910815561e+00
5.037368261532688685e-01,9.557282497331750504e-01,2.695855424159656621e+00
1.897341043281523809e-01,5.111978698787319475e-01,1.783022902435321688e+00
6.986263440540584346e-01,4.931986602948386644e-01,2.260215229199765474e+00
4.673371888470789215e-01,5.601620949182828380e-01,1.785008322312376938e+00
7.194552599498500456e-01,4.602341176769049191e-01,8.270211852092645977e-01
3.961925808097749302e-01,4.728641749629912683e-01,1.556161800986329835e+00
4.579431648582276693e-01,4.713434824887824948e-01,2.132527556547914038e+00
5.173283804421419108e-01,4.304898668015233465e-01,2.157391642449129954e+00
5.256189915835107751e-01,4.271411245433536230e-01,1.835777748968396850e+00
7.492265756193517978e-01,5.348663103884642167e-01,8.955635454649213401e-01
4.892115650517678827e-01,6.625035250485313831e-01,2.008180272773366415e+00
4.730918668711951436e-01,5.549261997457535234e-01,1.992813455841409009e+00
4.039502350458125113e-01,5.070849053576984566e-01,2.594347784395259815e+00
2.094271252289583995e-01,5.076493637311932927e-01,2.075379045822683732e+00
5.077640986022722291e-01,6.533926022230761577e-01,2.278016221856069556e+00
4.807889801370360816e-01,6.473283316544314880e-01,1.616690764593009533e+00
4.816800640009789580e-01,6.244319601129795227e-01,1.749841840530348414e+00
8.752097046266553715e-01,5.057622699622287277e-01,2.300208813437649713e+00
5.821228366677588806e-01,4.888392885398749610e-01,2.368821965775491645e+00
5.336891613256741218e-01,9.666012697131201037e-01,1.048299420688227901e+00
4.865065166914395167e-01,4.282790842767524309e-01,2.317925718643907285e+00
7.016213050660653483e-01,4.838687113280588648e-01,1.601977882576965939e+00
8.675911166541883102e-01,5.038304987124571088e-01,2.583318082766181689e+00
4.735973314678198487e-01,4.286706998625283704e-01,1.827426984719306979e+00
4.403191482126015965e-01,1.750641075182289008e-01,3.923254594777436655e-01
9.168469855195467977e-01,4.854209499523673421e-01,1.643988478111079177e+00
4.916117807553432861e-01,5.221711519505543020e-01,3.363839027883850363e+00
4.670687349338662475e-01,6.948585810206591162e-01,1.037157998649610446e+00
5.048064060981266588e-01,6.491209642004845959e-01,2.629261697835621803e+00
4.919151589932162505e-01,4.116624391467447186e-01,2.551544653192980849e+00
6.791328400571051693e-01,5.175384262968177884e-01,1.588240553226050178e+00
4.400366020040911708e-01,4.728799124098811424e-01,1.926388462920571865e+00
5.435568073592692562e-01,4.451814211428369306e-01,1.635247581056523680e+00
5.254335479812467513e-01,6.160931154416612321e-01,1.536036959843458671e+00
7.035785392547595496e-01,5.336414000166100902e-01,9.996660344265606568e-01
4.761051916035978770e-01,4.184602913424787518e-01,1.813002158988042956e+00
5.620460006474571335e-01,4.604375545013946192e-01,1.618129073528822293e+00
2.103520122166337158e-01,4.948483707016044231e-01,2.363353335739522887e+00
3.830909553308174398e-01,4.927263558373065067e-01,2.465892328424175162e+00
5.010084515098637281e-01,1.110451916340726847e-01,3.460881061429557981e+00
8.895466712004767018e-01,4.834838111784021675e-01,1.514226336225635849e+00
5.217533907227558387e-01,5.982777189628858405e-01,1.762869712295462854e+00
4.583028851577212182e-01,3.456171242737712812e-02,8.657409979811769851e-01
4.871336760492968598e-01,1.400159944934717127e-01,1.688116452562332670e+00
7.444526051260215160e-01,4.818082108715003309e-01,1.439067692942458399e+00
4.288906374125490695e-01,4.760553352390339277e-01,1.903076516387510742e+00
5.848986561680696861e-01,5.103121681635712781e-01,2.404670988700280176e+00
5.904135476728427090e-01,5.164409014691647704e-01,2.027274202475307430e+00
4.493798198441508185e-01,5.292829331387328695e-01,1.987397255779328464e+00
5.106821047052445550e-01,9.279456666373586682e-01,1.899028011324156440e+00
2.153550447612845031e-01,5.078348963592964616e-01,2.059848154556322974e+00
3.669072067340559684e-01,4.940346783217738347e-01,2.535924853913041677e+00
8.282925974231907240e-01,4.876184937611813264e-01,1.706065525307709496e+00
5.120205608815897591e-01,8.754546732597910663e-02,1.788408508740099156e+00
2.397668738856108817e-01,4.856939834686747060e-01,1.614445786420980467e+00
4.665756199895784717e-01,4.528211748899968470e-01,1.939976220830743614e+00
5.977519122880179392e-01,5.133933290965504437e-01,2.130478354711394573e+00
5.068491394582316234e-01,3.910995701985671147e-01,2.547003006428905980e+00
5.000226714960556151e-01,3.761878046643692963e-01,5.532519752359457144e+00
4.990034025441333898e-01,9.310720493269691866e-01,3.507301796402867211e+00
4.792338311240690873e-01,4.168157629224480409e-01,1.905987088306025923e+00
9.238514977337602962e-01,4.953612549953696487e-01,2.501876655487405010e+00
4.779102596878262998e-01,8.638564738553730638e-02,1.307294498827945572e+00
7.505667666360488210e-01,5.125656403490880253e-01,1.724735014096581143e+00
3.598707004416727417e-01,4.799657699721689430e-01,1.611676996251337757e+00
4.947544671815366502e-01,6.665841147216096108e-01,2.517882130081175784e+00
4.417241785961299461e-01,3.680443746840857400e-01,7.800840190113078609e-01
4.773067383145448428e-01,1.003056363783278032e-01,1.268163741495900165e+00
4.865079912243516214e-01,4.628937040712864381e-01,2.740488281877432097e+00
5.217231800704290601e-01,1.250322868817565491e-01,1.279842152220496132e+00
2.335822991883830246e-01,5.028732798264480275e-01,2.779038698130793517e+00
9.412260095861568754e-01,5.129340062414068369e-01,1.772431803641009163e+00
4.604204294879981618e-01,9.168074952101074038e-01,8.237391548154349152e-01
7.348740783609640781e-01,5.211920387061830251e-01,1.327647538422648266e+00
5.208711627732452998e-01,1.049417295582967952e-01,1.331403372567638854e+00
5.040357565913626825e-01,8.561965172835563076e-02,2.587530853011973164e+00
5.320460088224271411e-01,5.558416846556716306e-01,1.851801100343630768e+00
4.596452033283548455e-01,4.926674042362114148e-01,3.088212506032614879e+00
2.505844545789886468e-01,5.026647541556966692e-01,2.842184158804398120e+00
5.272466781435488636e-01,4.415860110613146206e-01,1.941009584492288109e+00
2.643276233662934516e-01,5.257529461987956454e-01,1.166646848016734683e+00
4.839209014033811207e-01,5.985005603502154825e-01,1.990368830978153092e+00
5.095395924301682200e-01,9.657338797526151541e-01,2.045399515947052826e+00
8.408323696425932248e-01,5.081224059077047439e-01,2.030557933955428940e+00
5.303148962433475999e-01,4.511754468589693756e-01,1.987310034208362719e+00
7.769794677186397935e-01,5.092523834209377043e-01,1.938933973209550077e+00
5.420167171095602310e-01,4.584566404109430837e-01,1.864328828673607052e+00
5.333625319781607477e-01,3.660004756557349026e-01,1.230134939018088236e+00
3.535062245028373629e-01,5.122028147865322900e-01,1.968275067381791699e+00
6.096297050681409591e-01,5.019321208717613114e-01,3.370025468200548158e+00
4.518389768816244989e-01,4.325443499117616608e-01,1.406845138564393194e+00
4.445266092525397283e-01,5.266036398322139211e-01,1.994347404699476911e+00
5.937416533164935339e-01,5.818273673056562068e-01,7.475705215827632699e-01
4.913275388697554424e-01,1.373310385958273205e-01,1.991514220710862704e+00
6.043473130733381105e-01,4.651167509005106337e-01,1.354019961190039423e+00
4.954014760093033987e-01,9.074835025909868680e-01,2.489151972274761260e+00
4.865715425995065235e-01,6.044814646581401218e-01,2.088333895777299887e+00
6.154804472317616515e-01,5.225466520427570760e-01,1.633795636341591750e+00
8.353791651655099182e-01,4.975488864344901341e-01,2.872356357204437494e+00
4.197646920876715870e-01,5.187732036338209562e-01,2.004998475037121697e+00
4.591305038980361686e-01,3.885240914222116149e-01,1.182802719434559169e+00
4.161437139640841165e-01,4.785180146747247676e-01,1.875168373471660654e+00
4.726839975224798041e-01,9.397059486482868262e-01,1.171957765353200953e+00
7.742220137038405836e-01,5.148937717535482239e-01,1.572455852314870173e+00
2.030774081505609396e-01,4.932291001808111197e-01,2.163498753448260814e+00
4.780729068252049241e-01,5.671691903355282616e-01,2.007006051168416239e+00
9.108159975779768214e-01,4.901811665441594967e-01,1.940753568515352079e+00
5.273587734208609046e-01,5.541669968113777101e-01,1.990218337303727436e+00
6.485534134286815577e-01,5.019348070384576088e-01,3.228422764625816566e+00
4.003125509073041099e-01,5.214351111132570216e-01,1.765097400051278687e+00
5.011052908553552676e-01,6.967736498027617964e-01,3.465943059531580772e+00
4.689879599589747983e-01,7.147970746735160703e-03,1.177125924399050616e+00
3.787530788340028876e-01,5.174610859804392726e-01,1.802034249592762150e+00
5.271629917976312640e-01,6.859767729407281189e-01,1.218483989604175477e+00
4.220758652990461712e-01,6.364850140480587948e-01,5.168786712064565858e-01
4.652609502061600399e-01,5.402792941512667424e-01,2.024372271005028256e+00
8.760257520957711597e-01,5.133332207445654438e-01,1.671271013193431632e+00
3.487148757232778618e-01,5.011113330498271345e-01,3.559249867095672926e+00
4.790097887933654208e-01,9.037290890549958267e-01,1.336537717372155987e+00
4.861802197904196432e-01,6.223395828421975917e-01,1.974139139189896586e+00
6.683387575416045445e-01,4.844126940888397459e-01,1.710439503536062000e+00
5.427559196525316709e-01,5.417576555039768094e-01,1.847888710919908251e+00
4.995423778630920242e-01,7.216686967755667759e-01,3.942969186400258952e+00
3.370603863842514536e-01,4.751748301984303757e-01,1.358321623621486784e+00
5.144766716568345277e-01,6.063417639985809737e-01,2.021962695533019438e+00
3.174404767663227545e-01,4.872304583345883344e-01,1.826109102520767635e+00
4.721132337194071660e-01,3.354371540877945645e-01,1.258667752616552393e+00
4.753437224549468820e-01,7.388378884412871717e-01,1.198383535313093384e+00
4.778700932537042756e-01,4.052503539834390600e-01,1.773180068163392464e+00
5.726191306474042175e-01,4.765327822478530040e-01,1.904055113314209180e+00
8.247663185029202593e-01,5.078522828694750357e-01,2.052230568071375938e+00
7.915415630961599724e-01,5.050622740578075698e-01,2.375208580633310973e+00
9.403695903885513907e-01,4.938512748860393597e-01,2.324577297961037736e+00
1.908694517230234422e-01,5.064099912476964782e-01,2.201536246269932828e+00
5.014178043901736936e-01,9.009688755646996228e-01,3.261411991224822948e+00
4.995188820759703940e-01,8.668277765332721430e-01,3.878802732229869932e+00
5.411359016294147173e-01,8.669454811921533111e-01,7.360845462609444390e-01
2.483665544435897654e-01,4.223419502379138768e-01,1.983139093980179624e-01
5.178314424033267915e-01,3.420063272468066851e-01,1.637687122074938939e+00
6.331055804350035343e-01,4.718740638436504375e-01,1.372234638933982342e+00
4.948656245504886586e-01,8.420714241552681445e-01,2.365681374239825274e+00
5.155405270259832973e-01,1.141535275485422163e-01,1.559094884858129859e+00
5.332949260224219001e-01,5.446143998726233892e-01,1.982478947401422609e+00
5.209685519253602903e-01,8.324063224668011227e-03,1.492115113002686622e+00
6.058065735127450280e-01,6.261703547507379009e-01,3.250285386677009836e-01
5.064535124074790451e-01,1.349248015187797523e-01,2.211476358763000416e+00
7.852385329583247975e-01,4.902846728487402772e-01,1.897931021259005036e+00
5.259485069273479585e-01,8.639373963366417941e-01,1.124888389092252305e+00
5.362470421768522622e-01,4.587825879986827116e-01,1.977228869406922884e+00
9.443269363671975558e-01,4.867864729765168930e-01,1.760919819778018480e+00
5.171620548220218216e-01,6.799804924743810819e-01,1.603106254957706867e+00
6.944962720337355400e-01,5.132551850056202847e-01,1.769930883323362902e+00
4.741858619652774554e-01,8.422552246682905031e-01,1.117759630142149962e+00
4.810290200318744769e-01,5.803454675759263104e-01,1.996306453318188456e+00
4.774842890453068756e-01,8.886352427738760662e-01,1.262813894670579140e+00
1.726507466494260068e-01,5.019723137074283414e-01,3.013423588778041395e+00
4.788989794183637905e-01,8.746398376257953355e-01,1.303334182492658089e+00
5.302235745306157488e-01,7.124632213155710492e-01,1.071360172240696240e+00
8.156285353325558596e-01,5.020830250580794463e-01,2.977124316993358999e+00
5.143071550272414472e-01,8.532340812284677778e-01,1.601209875574428620e+00
5.159360506402593805e-01,7.393319337576008676e-01,1.550805614829858792e+00
7.827607755720630278e-01,4.936769343905794138e-01,2.218389079757271176e+00
3.223156351581981660e-01,5.118135033791846311e-01,1.897673686486012201e+00
5.147859358406091657e-01,9.420633859940114041e-01,1.669849082480735492e+00
7.744998820015781549e-01,4.886490312169334271e-01,1.784377009092237287e+00
1.460017304718352893e-01,4.912996049826107714e-01,1.984413864321612486e+00
4.718267669417199328e-01,5.519929241270150611e-01,1.997094554108976849e+00
7.527565695118457745e-01,4.970123456400422635e-01,2.762743583184057439e+00
8.493238228028452408e-01,5.637230664899902655e-01,3.422829282575190479e-01
7.674816509420149258e-01,4.340804031817266373e-01,3.252809950721358145e-01
5.250563352114535620e-01,9.048943917616841803e-01,1.192769812912313210e+00
5.588742472427482566e-01,5.288538269464404529e-01,1.892961702456824602e+00
5.776395292834305417e-01,4.393157674340966712e-01,1.123433548857738495e+00
5.135042370278635193e-01,4.157018036459507737e-01,2.215703464279028534e+00
5.316508293739498070e-01,4.544270486767477135e-01,2.004320204433210684e+00
5.114294175026382616e-01,1.349582504590552956e-01,1.783035149595750823e+00
5.132376245971453921e-01,9.468827629609481988e-01,1.763728369396343476e+00
5.227630790980826170e-01,4.630267411061884109e-01,2.384271728657618716e+00
1.584783164347082496e-01,5.149333757883971519e-01,1.562357627468783372e+00
4.947236227329855907e-01,5.559074003225461524e-01,3.105062240341283086e+00
1.536151188636448173e-01,4.793696379546277808e-01,1.304320239994568587e+00
4.100016736207715562e-01,5.182607859554245744e-01,1.951798292258221101e+00
5.884093422816020214e-01,4.792079012992894738e-01,1.865417174913294174e+00
2.684089394388019523e-01,4.999852998173785479e-01,5.552467987642333291e+00
2.753842908261911471e-01,4.628076293876758895e-01,8.750288934419470088e-01
4.736156062159421753e-01,7.169062756944840631e-01,1.175978123893589578e+00
5.009017302600109467e-01,6.539548197425910925e-02,3.570973223217461801e+00
5.889121501639319467e-01,4.072758116631318148e-01,6.911565680948927870e-01
3.760628641140284500e-01,5.276961188434508600e-03,-1.149388720755872839e-05
3.115407071481466339e-01,4.887116765629958559e-01,1.906134639029608557e+00
1.444733305975691717e-01,4.970295887482915065e-01,2.750685342239511666e+00
6.036497164987867370e-01,5.157738302045657974e-01,1.973384837020298876e+00
5.113404030475394713e-01,7.380490807987457602e-01,1.817723004919307161e+00
5.781970002412847309e-01,8.872541646699660944e-01,1.916393999510068724e-01
5.039126191655681763e-01,9.700177532276735848e-01,2.688170805439615840e+00
4.764488401948573371e-01,5.318848516281331207e-02,1.306090179528516249e+00
7.019863708397884317e-01,5.123574647072933752e-01,1.808481348041481862e+00
7.420791399801426325e-01,5.116821179084233284e-01,1.790170897085173740e+00
5.084050221811996506e-01,9.931471607133119939e-01,2.193837901895040243e+00
4.370119330376278644e-01,4.526969673201146072e-01,1.470918962323506385e+00
5.746101194626652697e-01,5.488241804712226113e-01,1.322575234424518964e+00
5.007633922648232483e-01,1.408244757134649028e-01,3.609626287731636296e+00
4.358733700790851096e-01,4.758562081311188963e-01,1.966835761168251873e+00
4.832728436200227073e-01,1.747563132427845112e-01,1.468037420803626203e+00
5.604989813624335904e-01,4.707537905931671318e-01,1.863945455989969302e+00
4.779336705704068655e-01,6.959663344621523917e-01,1.363931417969376225e+00
2.533163131847277483e-01,4.803848165197883158e-01,1.375804440054022582e+00
4.384113158412151212e-01,5.239540847877611762e-01,2.000124024668543665e+00
4.535415169397400970e-01,5.770934704288345207e-01,1.337614215791705918e+00
5.164309532657836987e-01,4.135133580688195032e-01,2.055782251613127443e+00
5.713587917705226227e-01,9.462638617814330688e-01,3.614029847951183427e-01
2.916934285880065647e-01,5.234105193894705854e-01,1.290121849702182688e+00
4.956733144240434985e-01,3.380452995245848968e-01,2.663409678575698880e+00
1.599840772910942621e-01,4.846083061725250385e-01,1.537862312091610173e+00
6.502285262320900427e-01,4.823431928363562382e-01,1.672068380125990572e+00
4.947980927365533965e-01,8.360832105626916366e-01,2.354636468759454537e+00
4.868648297532513491e-01,6.202637269377468954e-01,2.021989494221827499e+00
