# x1,x2,y
5.154170817428045392e-01,4.160499377052573888e-01,2.121593415130641258e+00
1.288261844579190740e-01,7.987859870392970407e-01,-7.864713355339936207e-01
6.385336523048774637e-01,8.375442457322503087e-02,-2.629167360059425640e-01
3.339968722825311653e-01,7.037733547158622205e-01,-3.301414168603744592e-01
6.127071241116378575e-01,9.489321565584463158e-01,-3.086053831233503963e-02
6.909271669708162422e-01,5.913216399218550468e-01,1.783928462050199393e-01
2.992045343057138651e-01,7.248858173391581339e-01,-5.075960920201905147e-01
2.119985839324997623e-01,6.959228544171200959e-01,-5.833017925024619466e-01
2.256937176128272771e-01,6.418840546435464756e-01,-3.359549197327238446e-01
7.531815712960630849e-02,4.679788960780570384e-01,1.015243745538972897e+00
4.051819519282221504e-01,3.837221815875843656e-02,1.452432319685514894e-01
9.760095284150114292e-01,7.698683010379352432e-01,-5.863173508995789263e-01
5.792983058505272176e-01,4.909291299594495395e-01,2.535909794603631084e+00
7.916699948744011506e-01,2.428832860130684113e-01,-7.338875194010618941e-01
3.600328434543209055e-01,8.476681813213422512e-01,-3.400629125544885056e-01
2.465512789537746829e-01,6.607101806352065898e-01,-4.078574352597108543e-01
9.171941377397638817e-01,1.454817292398445094e-01,-7.547261508752800552e-01
5.205822312734543766e-01,9.022222149908073474e-01,1.350723329585894472e+00
4.374096617400296538e-01,3.703094522381078502e-01,7.323102009356741160e-01
3.404586618487816518e-01,1.231661973542530208e-01,-4.243879875129286106e-01
9.502947593400136173e-01,5.223487725805291138e-02,-6.059070793524723442e-01
8.593601003152444295e-02,4.493897674351515770e-01,6.075320330654421230e-01
1.575987406240255684e-01,8.269205630351190717e-01,-8.117234423039265678e-01
9.914523729761559601e-01,5.450249022338109484e-01,8.610366325910212559e-01
5.963332040523071642e-01,3.355902917111105999e-01,2.209541449232232946e-01
7.727775536412073709e-01,7.036835975745886484e-02,-6.882025907410715959e-01
8.874302523065601411e-01,2.250717641154757476e-01,-7.477238129144114787e-01
1.925757581775896787e-01,8.802473882320072107e-01,-7.859737158133395241e-01
2.633122572240253478e-01,1.915967562037909078e-01,-7.054204859878443479e-01
8.368710993222044925e-01,8.792220616393026100e-01,-7.970151593465346629e-01
4.962746495517383338e-01,9.369996006477239181e-01,2.670557898976522182e+00
6.672209683692762461e-01,2.792786105813588882e-01,-3.774210322742266310e-01
3.927959035226171736e-01,6.382525352740756608e-01,2.494933870281634825e-01
4.400442842506488983e-01,9.604078275689629240e-01,5.422200306115743107e-01
8.420165454572529073e-01,2.837682931119187013e-01,-6.573987451427054651e-01
7.559017494584205910e-01,1.659215986546729582e-01,-7.467250963018545740e-01
4.796293747521201967e-01,5.726353210547548978e-01,2.009516973281001206e+00
2.413438310678852824e-02,1.741464612354752875e-02,-4.797506778308480158e-01
5.422290762475604486e-01,9.882276723155875020e-01,9.073627370827686001e-01
8.188708016403176693e-01,3.515532571625951119e-01,-3.929047987242384465e-01
4.976822377589658342e-02,7.470418987153273349e-01,-6.047737009475495640e-01
4.439863421794789690e-03,5.096986214997691889e-01,2.093918543349631012e+00
7.273095553582432649e-01,4.384549922789133802e-01,4.366588354987666065e-01
8.702070959467849143e-01,5.217305137680441351e-01,1.275852756333795135e+00
7.010228560620269667e-01,3.997124880560837812e-01,7.247982420535592496e-02
1.016148253752975072e-01,3.040911109275989954e-01,-5.514042706852051445e-01
9.295667808797357656e-01,1.147688059239793945e-01,-7.215216567245841262e-01
3.004861312325897149e-01,2.053163823507101471e-01,-5.995222951426204538e-01
6.564962144087704843e-01,8.022338485436715239e-01,-4.304576016920480530e-01
1.682847003816210218e-01,6.162380478236082482e-01,-1.903218435006159837e-01
4.789352692679303969e-01,4.949320753860148581e-01,3.693518876582720711e+00
4.206785095812489716e-01,5.261752331306828179e-01,1.762054973319946427e+00
1.441481950149574656e-02,5.306114664779691958e-01,1.170342137651444459e+00
5.849924935142104543e-01,4.482788728067280681e-01,1.182744737327562357e+00
5.128272063744900855e-01,5.774602139177964499e-01,2.305673471082164472e+00
9.022165264732522338e-01,5.733668928431582268e-01,2.656527984053569380e-01
5.351085250079757882e-01,4.260842579405518804e-01,1.585208929089825247e+00
4.569665064704263591e-01,4.092122956495218844e-01,1.281717114210093600e+00
5.929402786260760116e-01,5.535744159901030415e-01,1.090443537139762498e+00
8.218763936183622887e-01,4.991831442465965996e-01,3.560222017983983633e+00
7.690140041000217419e-01,4.702940782363050909e-01,1.012303371858620515e+00
8.031496824485332420e-01,5.605678734204881941e-01,3.803691928900321262e-01
5.626381373470599190e-01,5.481289119573746760e-01,1.461789986399274488e+00
4.246092534886522496e-01,4.871608098961358047e-01,2.321987555720911089e+00
8.579703744353002204e-01,4.578832879083385432e-01,7.095853700980192524e-01
5.563574102080318662e-01,4.612365139212724063e-01,1.702789659095579333e+00
4.750444775279983878e-01,9.180584504711428728e-01,1.213266496502712899e+00
5.518448333590766364e-01,5.319913963572042714e-01,1.905456360300705754e+00
5.336794421433204150e-01,5.793928160687047413e-01,1.567524605217184286e+00
5.139752274810897026e-01,4.053204326625968745e-01,2.118741624959022740e+00
8.468799909879565213e-01,4.763098862689373880e-01,1.190914821883121144e+00
4.631201684151108333e-01,5.532260013240807295e-01,1.781174746343724413e+00
2.881454005949974853e-07,4.811112851682645131e-01,1.594986721358232495e+00
4.624526056975156729e-01,5.440120305345609308e-01,1.904524178879852814e+00
4.718090828041969220e-01,4.332919610758267370e-01,1.823869690260385701e+00
6.085062866261151671e-01,4.863799961509339687e-01,2.055263984154370505e+00
5.311236476434864073e-01,4.597585549264485150e-01,2.104114051509513583e+00
4.903914391897005176e-01,4.066104308535533063e-01,2.397591376821333942e+00
6.062964658895541037e-01,5.107272352857433750e-01,2.242450701426575765e+00
0.000000000000000000e+00,5.141795513682860808e-01,1.817983791768380541e+00
5.771998316510823512e-01,5.269626958694513252e-01,1.757763778571543867e+00
5.351342637909322075e-01,9.567251631005569967e-01,9.929101711124033169e-01
7.895225342682359315e-01,4.783085517016633093e-01,1.261802051577248784e+00
7.910388621769642858e-01,4.896723959671339665e-01,1.849131155529731840e+00
5.162766214490835948e-01,5.866715767419022898e-01,2.061414380667748514e+00
4.532982424127415810e-01,4.547091878092017203e-01,1.723698446548976859e+00
9.853557881363723681e-01,4.907222810107174649e-01,2.104661318731516406e+00
4.473994085850032110e-01,5.320239106961553999e-01,1.894490138885532859e+00
9.970062455509564048e-01,4.955171308603799063e-01,2.646769519605067789e+00
3.576362972298028492e-02,5.076959342473967851e-01,2.201001478407003109e+00
1.000000000000000000e+00,4.714164696227642337e-01,1.262125766613380051e+00
4.098169420199836432e-01,4.937726058782521688e-01,2.718577544607982954e+00
9.771217383927415234e-01,5.114037525297215891e-01,1.933496207385700938e+00
3.693484312925247037e-01,4.828360222859787165e-01,1.771696789509021874e+00
4.613739673993636492e-01,4.563688167457429778e-01,1.890104606370036633e+00
3.828174744723808476e-01,5.155950830305819910e-01,1.908200503710911766e+00
3.777898785887300742e-02,4.863145851079412885e-01,1.765124095611864119e+00
6.220757256411015845e-01,5.069115761820867094e-01,2.478320593640666036e+00
6.440205249054877790e-01,5.272000642158150008e-01,1.352831991657429400e+00
6.205530498438351916e-01,4.856309220019394135e-01,1.953353975718687963e+00
5.729020451819697435e-01,8.865762012009456017e-01,2.527720100279828852e-01
4.785205305907221929e-01,3.962010839120441164e-01,1.737909442793351689e+00
4.991498005287032802e-01,9.598108756289531751e-01,3.637767714959148080e+00
9.032196556226659290e-01,4.133184387222431644e-01,1.201587658240210743e-01
5.608039356147951349e-01,5.233368981134300935e-01,2.028103619128876822e+00
3.985434396851678662e-01,5.198039094138110494e-01,1.814542011821446144e+00
5.054528879980464406e-01,3.930520222278405806e-01,2.713450989303363148e+00
4.350601060040151097e-02,5.122134983278248122e-01,1.842154859938263112e+00
4.167680392220008412e-01,4.691696006207073943e-01,1.603578263355022182e+00
4.733359324399781243e-01,4.512768622699459553e-01,2.082388562890416850e+00
4.832031457471867575e-01,5.808262631292471223e-01,2.082661773941820726e+00
4.552890202586772350e-01,5.337807842445866369e-01,1.970388811569904197e+00
8.330671587966314018e-01,5.382823862320139652e-01,7.810351015663996588e-01
5.021736325608091578e-01,3.592688739057789404e-01,3.179045201857283232e+00
1.136090670206226089e-01,4.972424227531002661e-01,2.819754372944974552e+00
4.073004605437255399e-01,5.178078712070364187e-01,1.951865968192258993e+00
3.704008446295734003e-01,4.985653887806316686e-01,3.472592421623735603e+00
9.583954929229787645e-01,4.519615259145127739e-01,7.298151736388525102e-01
1.490063468929932189e-01,5.150378355188586221e-01,1.560746889160489204e+00
5.636878366107068716e-01,5.329061086912084688e-01,1.739317843638205074e+00
9.838893313888534831e-01,9.360569008337661367e-01,-5.527313551689005955e-01
3.508274281231869574e-01,3.604543180818325920e-01,-5.711707592609416295e-03
0.000000000000000000e+00,5.337790315587460643e-01,1.124459443595871022e+00
2.628244712141308281e-01,5.782118672983550534e-01,2.120761253688130399e-01
4.707562351992813365e-01,5.164969096772772383e-01,2.759638647545195944e+00
5.590229935138562034e-01,4.921317365504092045e-01,2.811744689167834377e+00
8.619134205608989241e-01,5.003742805068979171e-01,4.015993018403303694e+00
4.667921337095907175e-01,3.525724971003822428e-01,1.177044519223559016e+00
7.818365925508532488e-01,5.096622638538238492e-01,1.903625495195275796e+00
8.755558474625300125e-01,3.574403381849953765e-01,-3.361684621384908311e-01
9.221866290003837285e-01,5.720877562005888262e-01,3.099575395679143863e-01
4.243266344752787966e-01,5.120294384817949407e-01,2.366105358105961010e+00
1.859793208560834299e-01,4.820972650019381134e-01,1.412838308733417314e+00
7.764326990077449198e-01,9.376006222894418540e-01,-6.791839721157200138e-01
4.809758425635043411e-01,5.572946574357301452e-01,2.217042730809731577e+00
2.776914027811233296e-02,5.127493896712614907e-01,1.838864147367900159e+00
6.469775124005296973e-01,4.906269432376048623e-01,2.162387333515960464e+00
7.905593938497280648e-01,5.154548985512840131e-01,1.535104749097516708e+00
3.645527671563658645e-02,4.897927186471069949e-01,1.990799995392520394e+00
6.757004386451889166e-01,4.969976019277642654e-01,2.874831068549513535e+00
8.992952912162915924e-01,5.103706607560436481e-01,1.886454003979646243e+00
1.614320912399999641e-01,4.949345790098366726e-01,2.374264093488906990e+00
0.000000000000000000e+00,4.447646976926600826e-01,7.089056358045120465e-01
5.206876657103844952e-01,4.032246377047767893e-01,1.811129112237682692e+00
3.213863656655667200e-01,4.955153802575913424e-01,2.596822236328450995e+00
5.297542131521474351e-01,4.512342116677754977e-01,2.001817767802799075e+00
5.209805279868877648e-01,4.311128196687431524e-01,2.022810383179246330e+00
9.949401436324775139e-01,4.851674157932913123e-01,1.771438651242192019e+00
5.850796627879745193e-01,5.229860344393738592e-01,1.814364604561812255e+00
7.797068709123191610e-01,5.074629351873775063e-01,2.098196509821684597e+00
7.233573942043997063e-01,5.142336170600646517e-01,1.661745272658228245e+00
5.523118656009592398e-01,4.686485030923582817e-01,1.914066468763164774e+00
2.991325118583277876e-01,4.948387780809578307e-01,2.453045454698452588e+00
6.383047161154147275e-01,5.179969975290485973e-01,1.702731276742325273e+00
1.781549097286714567e-01,4.990538176637033807e-01,3.472277365766554880e+00
2.522979085448264214e-01,5.233952816042124478e-01,1.230917468539965975e+00
7.444495949718482608e-01,4.875835488505563808e-01,1.740428743027832015e+00
1.618382020920993425e-01,5.145199827327500142e-01,1.583466145099096112e+00
2.857816478392837256e-01,4.851890608115009829e-01,1.645463044167255751e+00
5.834054629433502726e-01,5.182222602459887195e-01,2.002118074126047809e+00
5.560706522800969998e-01,3.539074361525888501e-01,7.472396798054037337e-01
4.694921195522942514e-01,9.342195397977127724e-01,1.070872650697252126e+00
5.352267347628985039e-01,5.399428848559996164e-01,2.020297272313680281e+00
4.799410731386440365e-01,8.927666273020287147e-01,1.361240444956717255e+00
4.786617018028552217e-01,3.553247870278842258e-01,1.544064573424920317e+00
4.777135167937016091e-01,4.268401469779510293e-01,1.937766559309376246e+00
8.285189187603237970e-01,4.836806484825112440e-01,1.488295331848132896e+00
5.282283255427744351e-01,5.593211774210785636e-01,1.904034257816809017e+00
6.540101386375606340e-01,4.867233035244638018e-01,1.878507478674126263e+00
5.447424567442686882e-01,3.644574398281643646e-01,9.820987142852144469e-01
4.274500448539029773e-01,5.211489737373873332e-01,1.982427059113561763e+00
2.984529395653686690e-01,5.144378035722196874e-01,1.689005103508431915e+00
2.768212596691687621e-01,4.912936919198336305e-01,2.037462965680368665e+00
4.425052922152595825e-01,5.259074887076282678e-01,1.989241847646572303e+00
9.666548641960033272e-01,5.010929219703050830e-01,3.498681522677605571e+00
4.815196892597543021e-01,4.329534440053456334e-01,2.134057705328020749e+00
4.840007626154517739e-01,9.824525158754178200e-01,1.684665083270583397e+00
5.191294483763487788e-01,9.733316826331761540e-01,1.524558338253504397e+00
6.788255682811096259e-01,5.166157428292511566e-01,1.631534676080289570e+00
1.088046795815369450e-01,5.161941735476652804e-01,1.531520845936233943e+00
5.448473567223997005e-01,5.318910673750877338e-01,2.010144731544568408e+00
1.415062202585881113e-01,4.930088907282897948e-01,2.149194660774075061e+00
8.143065787003913591e-01,6.139736150158773276e-01,-1.744865474353962664e-01
2.897106083731257331e-01,5.098712714105620991e-01,1.963916734821179455e+00
4.996138225514135112e-01,5.919429221278126318e-01,4.356133027941651470e+00
4.919776704098586806e-01,8.756175194241521131e-01,2.058387560352816781e+00
2.134873095045435876e-01,5.158269281478528034e-01,1.517793296861116303e+00
4.823851495708095793e-01,8.765044232300316374e-01,1.451043173301166389e+00
0.000000000000000000e+00,1.000000000000000000e+00,-3.754245436310821304e-01
4.695881483723494121e-01,6.244759385590309408e-01,1.350377112703156079e+00
5.336565420869605614e-01,6.143850425905440504e-01,1.322505269255962457e+00
6.733142917308825304e-01,4.862717358529030087e-01,1.794512159041471433e+00
5.373878503373952231e-01,5.712122259115099965e-01,1.562989805708243640e+00
4.636012337184524101e-01,5.392062652138285284e-01,2.010012127513709501e+00
5.408166924625218419e-01,5.360945197461540745e-01,1.987271078535983726e+00
5.255204195154858926e-01,5.553347058502912104e-01,2.026652327779299156e+00
7.427028089015125234e-02,5.101432334173499061e-01,1.935181539306517484e+00
1.018522356380649474e-01,4.834810395583011844e-01,1.522951810662385164e+00
4.037733458696063371e-01,5.162713666507100507e-01,1.995981596301414918e+00
2.021675890527598052e-01,4.847693089798558730e-01,1.544443563822661680e+00
4.319737549713899005e-01,4.768526903395520766e-01,1.958255593947793027e+00
5.315440410806330229e-01,5.474825744970061026e-01,1.977831090417784266e+00
5.357607234734833579e-01,8.700061650097299371e-01,8.587045890930555814e-01
5.575058270518903347e-01,4.734248498582378506e-01,1.970309588948380153e+00
4.509538531892993141e-01,4.695969495539862315e-01,1.982003570469363929e+00
4.896501188470417376e-01,0.000000000000000000e+00,2.055790610236546190e+00
6.158609935894274745e-01,5.147855732640198578e-01,1.955082265361025584e+00
4.999853004604412621e-01,1.000000000000000000e+00,5.635674094302944859e+00
4.868656800774907034e-01,3.689096789666859028e-03,1.867863345265680097e+00
4.996923387095966174e-01,8.873278450032546782e-01,4.135856957025918490e+00
4.818788928816897799e-01,0.000000000000000000e+00,1.627627096324385514e+00
4.120033164477703291e-01,4.830772861843946053e-01,2.022925023973008773e+00
5.506019735920825164e-01,5.287952701069728034e-01,1.999965695264658283e+00
4.725536585852547766e-01,5.534185862582400306e-01,1.997511600805331744e+00
5.444050227429874100e-01,4.664297329619945254e-01,1.979821089178858129e+00
9.426214432504513852e-01,5.117420068667218880e-01,1.848906130532603775e+00
9.985255697497996685e-01,5.094393719350139849e-01,2.120613406359469266e+00
5.302597563090492017e-01,9.406368738985090294e-01,1.088469418576937242e+00
5.314254307337834549e-01,5.459053281954970860e-01,2.004401806309817680e+00
3.912228156884232644e-01,5.408319644460879427e-01,1.199896324301484851e+00
3.591047232492144969e-01,5.141266275804174946e-01,1.878450058817622281e+00
3.217752705310939626e-02,5.550749323474805097e-01,6.319943058965882265e-01
5.277211966581990543e-01,5.522814721545582506e-01,2.005122504137358597e+00
5.702272684355097487e-01,5.213763505905038009e-01,1.996119019490379953e+00
6.002270771552200568e-01,4.841584185541077390e-01,1.990768956341306684e+00
5.743870525827841078e-01,4.793776862035106223e-01,1.984639145562088203e+00
1.000000000000000000e+00,5.662354251764742941e-01,5.525023304918474931e-01
5.450323703656482222e-01,3.264751269606300048e-05,8.830568671180327733e-01
5.212483689960797362e-01,0.000000000000000000e+00,1.501681799825629327e+00
4.958356925301922735e-01,6.413465819890322439e-03,2.690079349990350810e+00
3.761071954079260315e-01,4.842944652022275753e-01,1.870253842875471140e+00
5.233836275739373045e-01,3.015495477917072217e-02,1.356061617712385203e+00
2.141856582145881538e-01,5.119147522479758905e-01,1.741132226340749156e+00
5.301812570821565762e-01,3.701313472251053782e-01,1.330383062664622917e+00
4.437699638992993467e-01,5.921305633562550241e-01,1.058077239348271803e+00
8.866838000125334407e-01,4.804383764261904166e-01,1.375531314555208384e+00
4.498847823692238013e-01,9.947430650543068742e-01,7.781989548901646625e-01
4.900034153429810857e-01,3.507166678933610338e-01,2.107080854375068313e+00
4.576423060035303969e-01,5.340475601867017419e-01,2.003108116218189405e+00
6.479969387728051755e-01,5.493232374406522567e-01,8.466947214202036331e-01
2.895359524783566729e-01,3.785116576030851665e-02,-4.862806079929404834e-01
5.286453849779166880e-01,4.498719460054760866e-01,2.010352961694932272e+00
4.957946692721570958e-01,6.209532090481654221e-01,2.823228127869907844e+00
9.164339192573515147e-01,5.071204522043957219e-01,2.186266110974720345e+00
5.234999239551763051e-01,9.598211657478702419e-01,1.331929215360360130e+00
5.320901168790137525e-01,3.493745305712578908e-01,1.192727552151211512e+00
4.820112656172171883e-01,3.775590947171231226e-01,1.773397914453163082e+00
5.309537164645330432e-01,1.382671203033636505e-02,1.162535659845237435e+00
3.289169921401779995e-01,4.841073106208751975e-01,1.687451032078828295e+00
7.175445057635732038e-01,4.932401536385332963e-01,2.232105782563876595e+00
2.687564977908298847e-01,5.038456187448450141e-01,2.612520619941081979e+00
6.075330551379738431e-01,5.145646261347676109e-01,2.010748712720976439e+00
5.236357402627170865e-01,6.164651001648000506e-01,1.591668780409127848e+00
4.654660529743003261e-01,4.597474248594862201e-01,2.029114340746192902e+00
5.476412721263944627e-01,4.693796562293715002e-01,1.997210477163604558e+00
1.370711035051300208e-01,4.895819895525607146e-01,1.852820838916372503e+00
5.100135903462815756e-01,4.523663659393524772e-01,2.782449424526268533e+00
4.362644553130849423e-01,3.344908405185295641e-01,5.638917606976534547e-01
5.832258490250156191e-01,5.887134672288478754e-01,7.762172179493986857e-01
3.189853404727772679e-01,4.873492917382697964e-01,1.837085368844042499e+00
5.912677384064586317e-01,4.682508435256667045e-01,1.518168326360889164e+00
4.959744071071108817e-01,5.376810422698300451e-01,3.499876517699274103e+00
5.078377839437886454e-01,2.696935024041429915e-02,2.203896875667764377e+00
1.000000000000000000e+00,4.864365243712636677e-01,1.851980372139380160e+00
2.463579094415322412e-01,5.112721038783811789e-01,1.805665892355725610e+00
0.000000000000000000e+00,1.625221839033713922e-01,-5.776841250037167974e-01
7.174530941354839708e-01,4.890710288855735777e-01,1.874881661532881161e+00
9.149585274546974123e-01,4.873104207296805046e-01,1.749705463736180855e+00
5.107605671145746262e-01,2.868636617727584118e-02,1.965772204599239847e+00
4.137752435616540714e-01,4.469912210696531107e-01,1.152862243021192112e+00
5.905273418798984153e-01,4.828477552143985441e-01,1.994931408067158740e+00
5.258293506204100298e-01,5.961660601374233481e-01,1.644376987252684774e+00
8.188303995674858227e-01,5.213184296511323979e-01,1.270940560899593841e+00
6.012494407084942871e-01,0.000000000000000000e+00,1.861837091615792250e-01
4.233586281544592794e-02,4.221991052038545633e-01,3.090002811104430869e-01
0.000000000000000000e+00,5.844270335698943386e-01,3.426146332929358440e-01
6.248926787098588731e-01,4.868972147925271221e-01,2.002244174059550907e+00
4.553644456182268652e-01,6.072701365371105942e-01,1.137304768211553352e+00
4.980448705555637345e-01,3.456659673007394518e-01,3.205504754724999295e+00
5.073786406073136357e-01,6.249925264130645752e-01,2.419592359032610496e+00
3.241259263918515598e-01,5.130567466651378972e-01,1.826110113141584668e+00
5.223443893611063871e-01,9.831867544684010918e-01,1.421629679400953084e+00
5.166592741305437997e-01,2.436148274969355404e-02,1.638561150660038379e+00
5.085690074041293585e-01,3.190668904362967823e-02,2.129249749552152071e+00
4.762898378075752226e-01,4.071300666474148011e-02,1.323649957536476851e+00
3.432762525936833287e-01,4.842571427668331263e-01,1.738828191734275164e+00
5.156699752473450360e-01,6.263132462163824021e-01,1.860794988398755123e+00
4.295854588216658776e-01,5.488883067097550805e-01,1.363819706716306035e+00
5.153192362298458784e-01,6.209352549768247798e-01,1.903198843282621899e+00
1.226507575333024708e-01,4.070660666417986184e-01,2.973719126717289107e-02
4.723930301506575891e-01,5.632389507627301173e-01,1.876416472053682449e+00
7.963435125789916080e-01,4.911779570847504828e-01,1.967035495864396522e+00
5.013465606123624907e-01,4.339532316083655195e-02,3.357290013599337541e+00
5.267445489428643768e-01,4.742429691698495375e-01,2.518849292615628954e+00
5.905371126321358188e-01,3.704572408456467403e-01,4.302179330847677452e-01
5.150553144594104404e-01,6.943021240872046529e-02,1.637874540897594766e+00
5.125731077914408296e-01,6.321513744200598639e-01,2.001441654266252534e+00
5.229776944838481212e-01,6.380398391499643440e-02,1.308258445007897119e+00
4.664865589040028127e-01,9.572951657150250426e-01,1.033732818832019396e+00
