# x1,x2,y
8.914721987560207950e-01,4.548715353026819286e-01,6.785699199319872310e-01
6.974408757190634356e-01,4.331841078475204276e-01,4.280243676446648937e-01
2.059545143660354294e-01,7.738579376823301326e-01,-7.593288757918248422e-01
1.372808420709242250e-01,8.497535465893709672e-01,-8.061242280975000618e-01
8.490747492388440731e-01,1.530483723093130910e-01,-8.110786182000540023e-01
9.946422408706926399e-01,9.416030267572806922e-01,-5.160619828051760116e-01
7.771704933775506197e-01,5.005831399303961593e-01,3.764658103345547069e+00
6.116154965017345235e-01,4.013595745652725477e-01,4.701024045209056812e-01
8.078125832377733295e-02,8.049074478091950979e-01,-7.393209761934604884e-01
1.189136637363681498e-01,7.535097288600884902e-01,-7.199328045937325449e-01
5.893300053742194476e-03,3.431791748913455287e-01,-1.924623657803326005e-01
6.239488755502734518e-01,7.870656250356123929e-01,-2.356045649490978722e-01
2.279209487209405416e-01,3.216467949842496399e-01,-5.056885069221817020e-01
7.054762638583557122e-01,2.858463470900827752e-01,-4.956726847308245976e-01
3.313598223944926313e-01,1.061173511210588248e-02,-2.614983753423716362e-01
2.483696877069175302e-01,2.135800716382582620e-02,-5.479907913287518362e-01
7.262103968729077819e-01,6.190867573111384914e-01,-1.266791312176129836e-01
2.630181338884135522e-01,9.113965009178969234e-01,-6.509574266826634314e-01
4.159453545999061697e-01,9.964723997404002498e-01,3.365746532812485814e-01
5.165860952781685667e-01,2.357740141935779909e-01,1.493961471228806293e+00
4.543755216644886907e-01,7.047276225276520867e-01,7.389304428642995415e-01
9.774209398812991889e-01,3.623694452975815272e-01,-1.329282750190463602e-01
9.397601332314285960e-01,4.967598302439065194e-01,2.768921765144608305e+00
1.710350273726974901e-01,9.742617281797484319e-01,-6.442140761766723678e-01
5.504127012702266786e-01,8.992069158804809614e-01,5.912766033057348380e-01
4.777547270377127120e-01,2.428780784155065431e-01,1.262602090447436654e+00
6.759118929470705472e-01,4.626789133515158969e-01,9.827044519638850062e-01
5.813140464383617090e-01,1.719502650647810049e-01,1.198129725866270423e-01
3.508999714786144031e-01,5.796876706198894613e-01,4.401365285256619853e-01
4.392157551293355833e-01,5.312667043551710933e-02,5.028380043756086604e-01
7.416547097850680892e-01,7.151205787506068057e-02,-6.345541337459170705e-01
9.103136116039508563e-01,3.166272784462104140e-01,-4.891469018427929694e-01
8.728174965888898518e-01,9.366574187013813058e-01,-7.177095291182178372e-01
5.573970919999826634e-02,1.856597632171398116e-01,-7.028625926059528517e-01
1.896705724862000342e-01,1.375458105229606098e-01,-7.993590579499576521e-01
3.888999213224013651e-01,5.498574534833137184e-01,1.023621607786150411e+00
7.275041792087272308e-02,1.012008936063077125e-01,-7.133441544769358877e-01
2.943607438740729054e-01,6.403139238590188631e-01,-2.110060236148425528e-01
8.044038413808748400e-01,5.915856815548813374e-01,1.618220026784467080e-02
4.955394916121115823e-01,8.715627208967098583e-02,2.516295850620516639e+00
2.383041573894989842e-02,8.621233770472667146e-01,-6.401119587317660731e-01
7.957016738252786769e-01,7.343128651783694671e-01,-6.936148302100120233e-01
6.576772843546647707e-01,8.212825554580441834e-01,-4.401444000669629819e-01
5.278074898255317171e-01,6.753638087885662777e-01,1.228057425370920885e+00
1.410238733124090926e-01,3.977596486831440070e-01,-6.819357350094756853e-02
5.626085856441723765e-01,6.983222017277911364e-01,4.818415245846852102e-01
3.735352477140592153e-01,5.287450398433608534e-01,1.385819300784578711e+00
8.345482503114846073e-01,6.216665080126081433e-01,-2.283607709284340981e-01
3.039754774440068807e-01,2.611048270043164754e-01,-5.212628276890352019e-01
9.499628736420799857e-01,2.112301781065272221e-01,-6.703304665201303969e-01
5.553674856308903340e-01,5.038392831016750284e-01,3.310564508811970619e+00
4.050521230394498184e-01,5.010086009260548146e-01,3.822626040079993626e+00
1.592115142468631950e-01,4.941509552486065826e-01,2.271715060678016762e+00
4.698760598597762628e-01,2.301836965619462605e-01,9.999382213441321277e-01
5.617467461093691439e-01,5.239850812393277435e-01,1.997424901773234840e+00
3.664616715991033113e-01,4.706262877758701779e-01,1.335352605284665373e+00
5.453521160633867382e-01,4.764838330080694018e-01,2.222271988116094388e+00
3.135583192380752560e-01,6.829620088009251688e-01,-3.428589110188540179e-01
4.855540518617928458e-01,5.223434248773767274e-01,3.018684626205336841e+00
5.179356295146619882e-01,4.734081683733507573e-01,2.765885514988648541e+00
1.246125727012740020e-01,4.856888579971787578e-01,1.615252576768257953e+00
4.519640707410779723e-01,4.585391397829370330e-01,1.768359157357572986e+00
7.713550447373517249e-01,5.324908783015156466e-01,9.349017060672082380e-01
3.266432449633350221e-01,5.138164313644274506e-01,1.789473498951315023e+00
5.464050717645411170e-01,9.462342249784770898e-01,7.357217843631802534e-01
1.967271763386699013e-01,4.859206099751863239e-01,1.605428438775007294e+00
1.094508984806762675e-01,4.949047326746703335e-01,2.400377930083996691e+00
3.362502881376386310e-02,5.002903975307435580e-01,4.243247731689825386e+00
6.340012007845597930e-01,4.894199498315680019e-01,2.121962557953650297e+00
1.262729952307375947e-01,5.327349957507105938e-01,9.369607039430749573e-01
4.928276816444824848e-01,7.423682798251612924e-02,2.192757834747734780e+00
3.021784464910636792e-01,4.946576009516064909e-01,2.434366315364711042e+00
1.945011492579104273e-01,5.120962766064695026e-01,1.723831099951445012e+00
6.922670617182065111e-01,4.798632049793055132e-01,1.446016959497866683e+00
9.309697974254419472e-01,5.181026032911020263e-01,1.492551808241099343e+00
5.466532318199759377e-01,7.706717491698358846e-02,6.913391591789652679e-01
2.068532209262449462e-01,4.912387733114654265e-01,1.973155317863624081e+00
9.973775018259269931e-01,4.934263491325401318e-01,2.380208752094385982e+00
2.109584537665065707e-02,5.312056321488755062e-01,1.138987988855610922e+00
5.532263245186683776e-01,6.539628562667052503e-01,7.589481545792564621e-01
5.383820629958269155e-01,4.621182985344754468e-01,1.996506016943444539e+00
4.099461123522152306e-01,1.008906039671005755e-01,8.133207516827778427e-02
4.289734177921525338e-01,8.439021393990518705e-02,3.128737551247584570e-01
5.085488879517992000e-01,1.014013692943477318e-01,2.031296608574917339e+00
5.244846581680256969e-01,5.304750464975972468e-01,2.464873083772128659e+00
6.755026101020884521e-01,5.101379625050964650e-01,2.018478729701973506e+00
5.450319327551699233e-01,5.324879149721323257e-01,1.993747284615098314e+00
9.340992000729952949e-01,4.748373837587516189e-01,1.230475600632101596e+00
7.003238780498135529e-01,4.885418316056125421e-01,1.869553425390025891e+00
3.243022585797362689e-01,5.106114052614709742e-01,1.983792982017532625e+00
5.469719294656367747e-01,2.518100525959324765e-01,6.410615526900798056e-01
8.829690436988280045e-01,5.145555346844635780e-01,1.608233668447048847e+00
1.966651266542730203e-01,5.070951225860419465e-01,2.127795524790183634e+00
4.607804394567395767e-01,8.645345233726400291e-01,7.754514621144126263e-01
5.988596198344466881e-01,4.831461186714339773e-01,1.952857158559571094e+00
4.676898635512630187e-01,5.418631685746376769e-01,2.049324658532134524e+00
8.685378050795218297e-01,4.791041763277218424e-01,1.306647795127687806e+00
4.660949658930748501e-02,4.738806973482944107e-01,1.233282061857327028e+00
4.824289026333535846e-01,1.000440930293814146e-01,1.475660048213485176e+00
6.253566328005808472e-01,4.857702473147650912e-01,1.938182592064428000e+00
5.337668007969869066e-01,1.041237912897286927e-01,9.322993477026986220e-01
9.376337846374682705e-01,5.051820129533576287e-01,2.442334009397706396e+00
6.297609848905748597e-01,2.391289358538338794e-01,-2.502507095185713126e-01
4.097715882879181537e-01,4.728290236871834917e-01,1.647126851164769645e+00
4.467682423223384158e-01,4.612926103536784117e-01,1.745004566307144511e+00
6.459590370894561229e-01,8.614852330751038290e-02,-3.090387352314416525e-01
5.175152841756811561e-01,5.424849146109487208e-01,2.474031868722339489e+00
6.351170344160043113e-01,9.310105448739921519e-01,-2.177941282411388624e-01
1.807818507948558140e-02,4.786443389821050109e-01,1.455146657129275933e+00
5.014384918550367498e-01,4.517906206444803896e-01,3.960201068562372306e+00
4.716032485863888568e-01,4.286035834903850206e-01,1.771642683273965124e+00
6.467650471710340021e-01,4.883022254481505509e-01,1.999013143835329798e+00
4.805319500028321644e-01,5.490895756725098220e-01,2.303612849632934445e+00
9.973752414558167967e-01,4.833332761142291600e-01,1.686750091596926904e+00
9.580280738351294456e-01,5.135229941210249782e-01,1.766631104872442570e+00
4.797851641275114321e-01,4.279679520967858419e-01,2.020724293421525264e+00
4.882163193171070170e-01,5.641505415622397601e-01,2.484242065732126026e+00
4.712319626054036759e-01,9.197345158624720129e-01,1.097715412571267368e+00
4.622428237577426713e-01,9.488468444080039310e-01,9.169081346099161589e-01
8.472870467868415245e-01,5.107824286734552466e-01,1.818506422388396215e+00
5.285936303190247321e-01,5.711149734227952690e-01,1.769109918320149744e+00
5.319927270625445237e-01,2.155506378336996542e-01,9.399949684970587693e-01
4.936862499849913322e-01,7.061054398789359809e-02,2.290097060981516108e+00
4.830072744393810180e-01,5.763666696667951728e-01,2.110645605756952037e+00
5.454906314508444209e-01,4.541111688166084015e-01,1.733369397721601368e+00
2.775900599110240341e-01,5.059548018124137014e-01,2.316533436763209330e+00
6.225415196397109385e-01,5.150626747384079440e-01,1.908304346436858756e+00
4.966845400460346283e-01,5.778279160550769955e-01,3.212439011415698431e+00
5.317005721628214054e-01,5.445905036296626589e-01,2.018554222071753390e+00
5.204730971493500835e-01,6.071427531603919292e-02,1.406897797831727637e+00
1.340655513609946281e-01,4.914332035740484050e-01,2.002706410812308047e+00
6.250171927872510969e-02,4.802323721816090241e-01,1.432233292837342686e+00
9.764637687843145120e-01,5.109343968632275024e-01,1.963874517842725265e+00
4.876336972925126023e-01,6.600655022392453164e-01,1.912885240689274902e+00
7.928676580814534303e-01,4.709801108959649207e-01,1.018741792111209632e+00
4.827934155060108479e-01,5.945199615595390119e-01,1.965364856856819387e+00
4.397515859908749936e-01,4.690018829897836250e-01,1.823278515102423336e+00
6.587961570751807994e-01,5.119632354449622502e-01,1.941897630114151063e+00
5.201847122661595879e-01,6.052627864862725193e-01,1.776897338430941664e+00
4.903543971433840243e-01,6.525977849225977900e-01,2.122354322506837310e+00
7.034502828879140024e-01,5.135878006766046999e-01,1.732398764832298044e+00
7.020936874991930976e-01,4.918827448886686216e-01,2.124458924832302920e+00
5.243070484323840708e-01,8.617566291419102020e-01,1.177701937243846864e+00
5.057958253372202284e-01,6.481406448038400381e-01,2.502675373914922119e+00
4.160424547484850022e-01,5.311293393323763823e-01,1.590178132097437302e+00
4.498039369095755968e-01,4.681685327863177037e-01,1.931964651462515503e+00
5.099456020559289815e-01,6.630537984531957862e-01,2.067162182229592471e+00
5.038569309220032322e-01,6.293342617026641550e-01,2.847100278796799167e+00
4.511954221942206522e-01,4.708862693477962602e-01,2.017170469935743782e+00
4.609547232634848141e-02,4.819335777918866137e-01,1.532235903212235684e+00
8.258093559726042976e-01,5.156493446714626172e-01,1.521304334463700059e+00
5.070500715759658217e-01,9.761487672624916678e-01,2.286657301230948569e+00
5.654479520129925829e-01,4.782233605513189212e-01,2.029506738302130131e+00
8.418677621494617680e-02,5.251149072550995722e-01,1.204925869623186818e+00
5.056801372053744137e-01,8.378272156475752297e-01,2.291993100546099171e+00
6.037070962213287872e-01,5.157575113038048720e-01,1.973822482772302767e+00
5.265607743672331420e-01,8.412203960468914721e-01,1.093588834297520851e+00
5.218937320920569167e-01,9.855454822865223896e-01,1.443346571721033644e+00
5.387686247368469461e-01,4.326023070538508319e-01,1.574285978090963489e+00
4.825738888707457597e-01,8.274831756217528034e-02,1.503436063357709296e+00
3.351998494993426170e-01,5.100258725954783801e-01,2.056086769298797190e+00
4.757406669542875721e-01,8.221492502941434299e-01,1.164651492203087058e+00
4.858636062499233632e-01,6.061584589749161034e-02,1.700602312029770857e+00
4.786750495304067377e-01,9.738619175185762034e-01,1.438838078997760617e+00
3.058352192362949196e-01,4.826854681374846967e-01,1.561953342076215501e+00
1.641170394491171247e-01,5.106064768067994919e-01,1.827245567707059815e+00
4.809456623655108398e-01,6.477585305263146020e-01,1.621515252006144880e+00
7.300991392021417559e-01,5.151583919063602579e-01,1.602474557354586215e+00
5.191009952834668706e-01,4.276460043974765757e-01,2.059699758789782287e+00
5.398422730534042924e-02,4.471255417148542466e-01,6.225076893611813933e-01
4.881937313305653170e-01,6.057123689767933694e-01,2.175960312415690101e+00
2.696584362840740989e-01,5.121434051105366869e-01,1.775012246020897244e+00
3.266739140638135752e-01,4.889076259088921961e-01,1.956709541835056632e+00
8.611854664172922946e-02,5.161365566331186372e-01,1.560150766455765670e+00
4.988757676846815592e-01,8.280763379594294760e-01,3.368066166975887121e+00
5.122298662969940741e-01,4.247157602351646077e-01,2.357566657828507939e+00
3.410418209177780158e-01,5.120126815328762682e-01,1.938276653911269465e+00
6.935849678612878710e-01,3.804528052218067447e-01,-5.187428034455376924e-02
5.305329419558099113e-01,6.421002450277609741e-01,1.267078438532003304e+00
2.654728771086735106e-01,5.078250480194124172e-01,2.101493731532753984e+00
7.315349740757387531e-01,5.106723374004374927e-01,1.872392535646818512e+00
5.035985733113262919e-01,4.069362443895268577e-01,3.063366188738076978e+00
8.965763324700050108e-01,4.970043509174870699e-01,2.772806695585787740e+00
4.151476179625006036e-01,4.488785068483594487e-01,1.193163296675625595e+00
6.661508734013208421e-01,4.909090783204254071e-01,2.124669001913404021e+00
4.995621925461157797e-01,3.860907454066075939e-01,4.199717732719117969e+00
5.530640814219031087e-01,3.905544601323141518e-01,9.831662119848338932e-01
6.821615566210904591e-01,5.105207961311102327e-01,1.974045939831429175e+00
4.660226613497998049e-01,4.125724932085568231e-01,1.494263725480405869e+00
5.013673771012334690e-01,2.587956194733442294e-01,3.279062498924046665e+00
4.588067056653861164e-01,3.665872965382508397e-01,1.060234469557350678e+00
5.272121949769029703e-01,5.519954164318219281e-01,2.022520307082054103e+00
4.993352012886019820e-01,6.659105997941328070e-01,3.822294129388061901e+00
7.725714633987290636e-01,4.115520972832262259e-01,6.342212092995125339e-02
4.967757589090086023e-01,2.850324549818634701e-01,2.754297058954102706e+00
5.151435045803993695e-01,2.927373546962414586e-01,1.640600093172259744e+00
6.113312627953209066e-01,5.139100029659700031e-01,2.024336564567955410e+00
4.992617575178828759e-01,3.556152290944622485e-01,3.815751826852382678e+00
8.747321756766395229e-01,4.970196423233346761e-01,2.759183567330199871e+00
5.108090713736029853e-01,7.083313798468149347e-01,1.898768406209452309e+00
1.422670118636293890e-01,5.109836701712460183e-01,1.809317824842084921e+00
8.942594559733613169e-01,5.690334098325583456e-01,3.094837845236930729e-01
4.812292832883582894e-01,5.646429356256430498e-01,2.146755195147932227e+00
5.231222326473756734e-01,7.102980628071819957e-01,1.296403335274763924e+00
6.198576054042851391e-01,4.964497933974999500e-01,2.939906207121159909e+00
5.303677855344158809e-01,4.040252851570395598e-01,1.519344626634666628e+00
4.624280351394815525e-01,4.527428644030773164e-01,1.852860514024934346e+00
2.592776115766550760e-01,4.856878931200802052e-01,1.633906999852500208e+00
1.722868034601471310e-01,4.888481509142758030e-01,1.786965867032833666e+00
5.075010847999618102e-01,9.598672071408215212e-01,2.212010010737593735e+00
4.392549241195730647e-01,4.747842170817299645e-01,1.971534609449039355e+00
5.035333242111332819e-01,2.416503324604602765e-01,2.644293916239320641e+00
4.833088675657463695e-01,8.190407284293568235e-01,1.469208503356163042e+00
3.848746313138595720e-01,5.231118780567455273e-01,1.616362978190877264e+00
5.066746245180062669e-01,3.308640397993912741e-01,2.340824496887009332e+00
1.045401815381707816e-01,4.862253878270961782e-01,1.663475555750215662e+00
2.173367087434885936e-01,4.943610904583078391e-01,2.301311533880092686e+00
4.388353358618174438e-01,9.054782709406986596e-01,4.300485190646241573e-01
6.127361764140060174e-02,5.206956248919800689e-01,1.397258403062712206e+00
4.752412560309081657e-01,3.425295673140323904e-01,1.378741120455986291e+00
5.387188001772792445e-01,4.528839581699379835e-01,1.832874904711486730e+00
3.518889582992190124e-01,5.448602894830953947e-01,9.254740978160891363e-01
4.774001708139151701e-01,2.645438449721057017e-01,1.274398426127913986e+00
6.819817332831165091e-01,5.228093244371706527e-01,1.371068529526293656e+00
5.262670598673429012e-01,2.678321207495897305e-01,1.155200277882699744e+00
5.678164727948490365e-01,4.784982228641157520e-01,2.015094483797250646e+00
6.920856541189734923e-01,5.094198579718470787e-01,2.034212251786677861e+00
5.243278915825211328e-01,3.328733900095556808e-01,1.361393686591005903e+00
9.523887471139352856e-02,5.114288290150450500e-01,1.818170379124258718e+00
5.895212841280594862e-01,4.841550597073244200e-01,2.060903506663975815e+00
4.946902485014033624e-01,9.578747743124469416e-01,2.456124025502481878e+00
3.967792570639689376e-01,4.776311778523073537e-01,1.710157642839319481e+00
4.996843989722922763e-01,3.089086625544679721e-01,4.185240673277497159e+00
7.976031817921741540e-01,2.599111040641925996e-01,-7.070346913288805268e-01
5.211091887755755492e-01,6.239769090634691429e-01,1.642082706966574435e+00
4.374279218218238841e-01,2.423508837228270096e-01,3.804762411105500064e-01
8.140940196235788573e-01,2.574051881289964872e-01,-7.196722617446238424e-01
4.611244041063599641e-01,3.072745981308291907e-01,9.029103401541438423e-01
8.087485690510074487e-01,4.923392846345270857e-01,2.070372411470780882e+00
1.375900490145228194e-01,3.307701932157696145e-01,-4.807471610300551035e-01
4.919252152385514831e-01,8.848165895861399843e-02,2.087862536968615235e+00
9.770887591662988925e-01,4.865964286098642955e-01,1.810329287047878211e+00
8.517945395500482464e-01,4.973827778150149426e-01,2.833977854629293525e+00
1.736996565527922642e-01,5.054094654499049488e-01,2.324748474680842225e+00
5.342918770975395582e-01,3.856248452076414535e-01,1.307537238246025968e+00
4.968267892342513870e-01,5.851883713510833140e-02,2.785330440863825530e+00
5.178081310298952022e-01,6.402636647979356166e-01,1.703040473501541419e+00
3.552140126493389394e-01,4.969219388345539890e-01,2.942131617688506839e+00
4.446544316003696040e-01,5.226194972607263178e-01,2.114792836715344571e+00
7.584503573135442656e-01,5.189287773844289964e-01,1.392742839501094343e+00
4.846057910982211614e-01,2.684772079600852290e-01,1.588328105335177209e+00
4.599015872296757790e-01,4.948038311955163526e-01,3.308690118624264542e+00
4.881331829239898279e-01,4.914599159636141162e-02,1.854373810001328504e+00
5.391555147683708693e-01,4.561288357746174915e-01,1.876198089553732240e+00
4.659088857214666035e-01,1.181883322954521975e-01,9.096198910718289454e-01
6.165426980424992126e-02,5.083783524977724122e-01,2.096154595238313156e+00
5.907250347078725206e-01,5.175573228171180817e-01,1.976111148270394136e+00
4.984691425522263519e-01,8.102969210756902907e-01,3.175117145383263839e+00
4.927869097417610367e-01,7.995594897582121163e-01,2.116347534060130098e+00
2.786600572094388023e-02,5.254786098717936227e-01,1.291045675586146579e+00
4.853065976738048515e-01,8.249593917130904064e-01,1.571216755069821946e+00
4.382608271224207597e-01,4.757970751362087802e-01,1.990818638628296666e+00
5.075202590378489198e-01,4.397979029364231657e-02,2.203580947645062960e+00
6.683951339486089438e-01,4.869855196718412271e-01,1.849175073501063693e+00
5.177705513528034764e-01,3.068078279319407242e-01,1.543547275276896391e+00
8.319328182384571058e-01,5.041907367762651360e-01,2.506476763457306856e+00
5.647357599217563973e-01,4.334626502813967996e-01,1.189749061166875954e+00
8.351341825621988457e-01,4.806211535939262647e-01,1.351345112647903690e+00
7.495774137566906248e-01,4.796745773753582909e-01,1.343811186328282004e+00
4.854882966193057592e-01,2.496407467787124246e-01,1.612396536348180698e+00
4.971365327417082147e-01,7.099424365317003049e-01,2.841370171141669232e+00
7.585500995103430233e-01,4.841939782437426620e-01,1.537069976665818016e+00
5.074084460368351035e-01,9.207012140456204419e-01,2.162511453434619035e+00
4.483128597743110122e-01,8.175813683272338261e-01,5.181361209227519637e-01
4.209935150316783670e-01,4.767114450928688907e-01,1.853466335350679728e+00
5.262609865275681420e-01,3.534593827950766043e-01,1.371216881106999130e+00
9.616152894990224187e-01,4.876825594522362639e-01,1.844928829331146103e+00
5.269570422392990672e-01,4.382565943961344579e-01,1.910710448634191927e+00
4.965019547633719443e-01,3.987450005066665859e-02,2.747587157227247889e+00
4.874998361022321314e-01,9.346242753747827647e-01,1.788519670323497346e+00
5.234813059849438011e-01,8.349852501327338639e-02,1.261188648516274879e+00
4.962530787341754568e-01,1.009870594964220741e-01,2.622858301203556675e+00
5.160358128486244311e-01,5.012864647095670589e-01,4.569895053379755545e+00
4.955114885308725681e-01,9.286935038561875411e-01,2.530997054249792821e+00
8.179394908831779665e-01,5.091412417523201173e-01,1.937731004327606366e+00
6.727354050889922110e-01,5.109923203078770015e-01,1.965113224668425529e+00
8.903347153390369639e-01,4.791901840890730457e-01,1.328892866436404141e+00
5.006684566142040049e-01,9.108755796207843591e-01,3.721789475223953314e+00
5.114262770259835333e-01,8.764695592432205640e-01,1.791360839733457944e+00
4.881483678148713645e-01,2.774983762169114243e-01,1.805014607315185149e+00
6.102508547789667892e-01,4.837320560422558313e-01,1.912683188213535335e+00
7.399635625861382682e-01,4.959432092699718742e-01,2.565736365395673069e+00
2.344101819444543711e-01,5.112889103723131656e-01,1.794540597000517934e+00
2.219019020719149582e-01,5.104459891870397614e-01,1.846110663433910837e+00
5.156751348984612848e-01,6.342585517788481564e-01,1.825832210870318439e+00
5.160904809846484920e-01,8.841544289144509516e-01,1.529941636492584411e+00
3.801868085021192778e-01,4.839533934202058796e-01,1.873487172902436049e+00
3.361902310127284355e-01,4.835211506175043916e-01,1.680753621325474789e+00
4.682311099495410356e-01,3.807809985038458356e-01,1.342379026930263786e+00
