"Umag","Ts","Ta","theta","phi","alphan","sigmat","Y"
6281.23297456652,135.770819049329,1526.82004206907,0.0268346943452954,0.0365641543412581,0.0512028225581162,0.817830976708792,4.41381847805261
7077.52629588358,201.725823919289,560.49496182194,0.000687937105726451,0.00650711418958382,0.457671371742617,0.390047664453741,3.6543120838118
8884.14382766001,339.622309042141,1598.71990757482,0.0355575222955551,-0.0577787085366435,0.243336055150721,0.12578284267569,2.92845999210958
5597.31092520989,300.206381292082,1851.13645918202,0.0165289022485726,0.0405014663826674,0.760507711647078,0.557149662123993,3.41470182747852
7391.90777827054,197.133908838965,1348.9377882937,0.0300518372251187,-0.020348811457213,0.283487408088986,0.305423360101413,3.59810714580395
7964.3784345407,441.085488393903,1265.69415677572,0.00562897928897291,-0.0234329302615486,0.508355179498903,0.981214714962989,4.07395388085657
7447.03232499771,141.986740879714,1908.24027946033,0.0321307583800983,-0.00344572238819674,0.794420097856782,0.831922976963688,3.89694504976215
6717.39602488466,264.900533611886,1819.29973307811,0.0488690564790275,0.0513325739823282,0.491582197744865,0.48866808582563,3.29089061189038
8708.24582423083,456.711798732169,274.968040634412,0.00213916138638742,0.00327261722534895,0.668759189890698,0.297084243837744,3.20477877996156
6159.09852843732,131.28111997433,1064.29901979398,0.0509976666607428,-0.00883812619708478,0.384284753808752,0.0202839293284342,3.10874433769889
9490.13330802321,164.834535901435,1369.99019729299,0.0503443495159037,-0.0303450419618748,0.277309328839183,0.70472487921128,3.63460766324774
8814.50042747892,256.661660489626,1831.1677026609,0.0553753988369834,-0.0366526299194433,0.160456392089836,0.161776617520954,3.18103682386199
5662.31728271581,295.777640934102,206.169382537249,0.0525107703424059,-0.0268497055976652,0.542372648536693,0.755161239143927,3.19885200445857
6572.26167310961,489.393058937974,1727.45637415349,0.0180206632567104,0.0215651965750381,0.95745110136224,0.0927325524180196,2.33319201618871
8647.08424406126,413.391789872199,649.046369389165,0.0242031742649619,-0.0107619441552088,0.633535857975949,0.903871235877741,3.57917935160884
5634.27788640372,399.83987442404,1664.90728768706,0.0207278025726322,0.0395103881710209,0.319168595271185,0.492427329928614,3.79762861026595
6088.68363355286,181.395784143358,929.97710031271,0.0430457834478468,-0.0398163620176725,0.088696572650224,0.600358651343267,3.8023501208392
9428.8009761367,309.467892838642,1609.50253595645,0.0568366982745007,0.0296396745194681,0.379100609268062,0.368456026096828,3.18698047391779
8851.14178560674,477.60337371286,858.382483859546,0.0024458156676963,0.00464756982084363,0.599562857355922,0.145055310798343,3.280188686599
7376.9746545516,184.538054130971,1644.29726605723,0.0404939775732346,0.0125688721161336,0.844349941590335,0.380392489600927,2.94367724351548
8765.77324060723,242.862268800847,1250.33000098309,0.0401679340492934,0.0440917278086767,0.650507859203499,0.199803647808731,2.67958249054599
7828.71289810166,244.144784008153,456.692669577897,0.0466322494715452,-0.00450252698259428,0.262349157915451,0.720210118428804,3.73473505765114
6190.58482510969,474.767206477933,1388.62404904002,0.0468376716777217,0.0352772473102436,0.61490028424887,0.716310487475712,3.57163113366561
9328.93617249094,484.307063169777,1323.58602944994,0.00478423601151444,0.0225765669400804,0.362237677229568,0.344897423058283,3.48943588024342
7660.45360771939,305.034409187734,1990.18277789373,0.0130445860129315,0.00958879201412201,0.113322049460839,0.259447914054617,4.03562325177784
7498.47413679585,451.597109998576,1468.8688850319,0.0232709612867329,-0.0146362571435049,0.256777676236816,0.285812775786035,3.73179881315081
8553.22672349401,312.005258626305,1425.18443535455,0.0336515711504035,0.0420157316601835,0.303357456242666,0.171192643165123,3.09601397056701
7763.74381781556,392.149250702932,884.172292253468,0.0288969576755539,-0.0182017212141305,0.557668427543249,0.102727803164162,3.03556074184343
8147.52653195523,464.903047339059,1677.11546661612,0.0144359401445836,-0.0478222129555419,0.730729878859129,0.0404288589186035,2.43797066250929
8040.89845089242,283.15692595765,1706.50556026632,0.0540399456284009,-0.0395784507041797,0.154421584233642,0.571576020831708,3.67503388396396
6408.75440463424,342.815767330118,1097.93407348776,0.0085951566091273,-0.0540349421200342,0.999848202662542,0.450391847176943,2.19807972687122
8135.74285152368,351.289596605115,231.036404470913,0.032573352082679,-0.0125976616744883,0.294283470013179,0.696100160160568,3.57955503591723
9297.04452696256,120.960493030958,1446.8938730103,0.0418410021878779,-0.00509814495239407,0.409305919208564,0.614627302747686,3.74854823613069
5974.4276470691,369.248145678081,545.744702241849,0.0533524964803364,-0.029936715738941,0.914111554310657,0.244563412151765,2.32779343293322
6316.63440990262,438.681413806975,447.624273440801,0.0551469907886814,0.0201839425030164,0.480936498525552,0.531779060813133,3.23783503789757
5765.68858320825,367.497131975368,1200.6616403074,0.00615745931533165,0.0454605027168989,0.171876893462613,0.794888669822831,4.07491456303836
6220.3928194847,333.441736172885,1413.95891043637,0.016875437532831,0.0595492374571972,0.333024313317146,0.462396372281946,3.28391534106318
8314.34519054368,127.571641650051,811.831290771253,0.0250394527184777,-0.0372086542940699,0.705397893621121,0.00433801761828363,2.53930545210107
8538.58694696799,320.593278572895,345.196875004098,0.0594145508928224,-0.0136650921097957,0.786966087480541,0.0880114188720472,2.4730304814147
7585.50921135582,144.639139290899,1189.79900467349,0.021839187417319,0.047025494179409,0.644777282411233,0.68544234022731,3.20214639609711
9113.12631922774,255.999722374603,1631.50007304782,0.0150802407049108,-0.0438737519186921,0.926207939398009,0.992029124121182,3.05573442063063
6785.36679090932,287.107335992157,481.447097276337,0.00136928177797236,0.0242295113473199,0.0426553671993315,0.875308087929152,4.12962127431132
8447.3944361601,173.533133574761,1765.18978397036,0.00907101394836791,0.00724692006641998,0.895045050329063,0.805784825552255,3.55389681824462
7333.57215631753,102.617779901251,433.001510118134,0.0279069945777766,-0.00709809472896158,0.909947705094237,0.274014441198669,2.55488135202482
9095.82585186698,163.507433648221,619.336726363283,0.0408795551458374,0.0459190930891782,0.680057275427971,0.928196018214803,3.08347784805876
7706.98646715842,159.372322208248,1121.00081900135,0.0442584116610233,0.0162227257048711,0.802726853033528,0.213432031357661,2.6774672348468
8208.20301360451,290.366141204722,1576.44882267714,0.0380018259633332,0.0575614049144089,0.0264584188372828,0.671963011692278,3.65754221049089
7114.28721540608,406.052072328515,665.893941329326,0.0174916005391628,0.00507655391693115,0.10162988578435,0.786143468590453,4.36183722172679
7240.0654577557,228.752475552261,1953.33886734676,0.0375494328281376,-0.0500292851219885,0.834809656401631,0.84939394792309,3.34568365665047
7861.84162192978,178.139446918853,1377.96789408056,0.0239438192817383,0.0142572508580983,0.4116324111633,0.767521907656919,4.06128042393008
6436.11948808655,482.227810773998,687.443047074601,0.0312699411554262,-0.0216897689265199,0.448788442406803,0.641632076269016,3.64736109244193
6521.2625560537,495.719168673269,871.86288788775,0.0258964767785277,-0.0480603504985571,0.774623570486437,0.66220770887332,3.0043071443369
5820.08076930419,222.476770413108,585.245106598362,0.0437400195663795,0.0258070583813824,0.237264870810322,0.0502748661488295,3.13065583513152
7515.17652852461,297.546978648752,908.080773055088,0.00501865911078639,-0.0172334928363562,0.320329143274575,0.0669619258842431,3.39177025827045
7012.62256698683,430.029691413976,760.026667266153,0.0521437939806841,0.0340960067437962,0.124737557878252,0.157137141800486,3.18480476421642
6949.67484842055,277.198562510312,788.680618786719,0.0214630049688276,-0.0431833915913478,0.605513139534742,0.886524611904752,3.4326895534425
6497.2664283216,218.761566820554,942.567808502819,0.0386466230220627,0.0481474693357944,0.0913196655572392,0.476401180082466,3.52530287929817
9193.85693728924,497.69102641847,1944.90935984766,0.0446303335385397,-0.0285256978427991,0.756902786858845,0.580098579174373,3.11483643966006
5567.44523577392,195.166698384099,1019.13488279702,0.0187848457493819,0.0524846547327004,0.88304715243401,0.507747087017633,2.70326031734032
9384.48454551399,455.190974799916,1486.83802101202,0.0346997509048786,-0.000289892214071004,0.869021465608384,0.772784400130622,3.29647759171045
8917.82771399245,189.088062942959,1051.93852986163,0.00771816039229743,0.0325318295440637,0.354022568997461,0.864060750936624,3.7555165422421
6877.45917019434,212.708000385202,1914.78314360185,0.0453957300080918,0.00217926660580561,0.534211843446828,0.181600643042475,3.29551751515103
7791.54440509155,111.208516033366,1102.95642227307,0.0562738756410778,-0.0161709420360625,0.6932003500266,0.562751770878676,3.16185002925728
6132.0759215299,236.41609772481,1781.0862007984,0.0534475577241741,-0.00153892311947421,0.588646178266499,0.119785582080949,3.11688609818066
9229.96504830196,384.099442761391,492.01360817533,0.00787321529975161,0.054462287309859,0.820843304744922,0.202825818997808,2.26591179785366
5522.66329835169,273.31416920945,540.982544289436,0.0224263821083587,-0.0408560212651268,0.142732528676279,0.976873301560991,4.06896360898091
7545.47967217863,355.240843086503,1167.72688445635,0.0368654429003131,0.0557480108334683,0.0768045508884825,0.320743979089893,3.2585900263366
6645.86516300216,151.159656446427,1536.01969712088,0.0360245663942769,0.0532615780360065,0.0634409215394408,0.624463686922099,3.79270243295386
5715.4733267799,207.673271661624,743.132315781899,0.00368992233742028,0.0151358390746638,0.560172433319967,0.43066110484302,3.56069711248957
7211.15356165916,379.742624508217,815.729674512055,0.0591860058941413,0.026797655490227,0.429554215909448,0.968171891570091,3.69460340008058
8689.61104572751,232.890823907219,1028.82304489706,0.0254199159475509,-0.0459103283699602,0.729335062499158,0.416732099498622,2.76462992943379
8488.05428429507,435.390501631424,1310.71081978967,0.0137152846557554,-0.0510652266106568,0.966766349920072,0.311278247826267,2.1541619304773
5889.44686140865,136.268980593421,673.054401254281,0.0122469706102274,0.0191321099965833,0.0197734253318049,0.0703886658512056,3.63646800629177
6763.50911108777,344.120046708733,372.175061750691,0.0270589363384992,0.011556348946318,0.208185018345248,0.953500416630413,4.04668861698639
7145.35934699699,420.323773513548,1880.30797965731,0.0479977630707901,-0.0245604374270886,0.473358973804861,0.513142346434761,3.61425088544261
8595.30488241464,248.074185631238,1784.65770410374,0.0161271079764236,-0.0535175231714733,0.854693810741883,0.634023365101311,2.8280407512857
7928.08360409923,117.596657861024,731.035249808803,0.0114221842504106,0.0279575708817691,0.199628419817891,0.739350969046354,3.8217535931545
5818.44396709464,383.170381456614,717.585989471059,3.95799780730158e-05,-0.0598373942649923,0.931235993755981,0.747625438608229,2.67657877383976
8376.13862863742,261.610636360943,1229.28613414057,0.0482247391314246,-0.0521925495872274,0.519135026789736,0.890766451810487,3.43778435398172
5984.38982095569,171.017068889923,241.482777962461,0.0352342857938725,-0.0261212039653212,0.673934588669799,0.375078793969005,2.88604563019441
9017.59667461738,416.231500682421,1285.48578268196,0.0331445544264279,-0.0451377558778971,0.137629833556712,0.548646469986998,3.55505777533665
6927.16444860213,326.707050821744,976.970945349429,0.00348172045759857,-0.0339456078822725,0.529287030890118,0.850074946049135,3.7303497909756
7043.85326613672,469.466982723214,303.355408796575,0.0298572524343152,0.0495128675510176,0.872549358813558,0.656788408099674,2.51898374554287
6679.41922649741,461.514338120818,1496.99986368837,0.0107394155390561,0.0309620679765008,0.7148101305007,0.260321287591942,2.97656454159459
9040.48027249053,357.492405088618,1216.9742903267,0.0422395594420843,0.0228251363335177,0.00524289028486237,0.441603988497518,3.71901205613505
9148.20456940681,363.900906862691,343.394387752283,0.0310560421933886,0.0372916446385905,0.435158238760196,0.136003051945008,2.89556282240763
6837.48096363619,268.006569044665,603.839927325957,0.0579005782613531,-0.0327964743526652,0.0369485710677691,0.237825103143696,3.32421650015857
6585.56091382168,408.652982708998,1563.67177238269,0.051266222170461,-0.0208443974034861,0.461045128603,0.408355488972738,3.49632546003817
8073.35797447711,328.798076754436,842.501818576362,0.0390995272576343,-0.0359112433154136,0.570382361884695,0.528460202165879,3.1422577681485
7274.94192789309,403.522842789069,507.625719904434,0.0584975444467273,-0.0314948127167299,0.186058908130508,0.945284127965569,3.70192921641619
8296.40826730989,319.942915615626,1861.03536611563,0.010874095016811,0.00980925485277549,0.948813352547586,0.331246282721404,2.7664576385151
6351.95875618607,372.658938559704,993.306971800979,0.057143048389256,0.0416599999263883,0.746450209917966,0.590758749665692,2.96942525283689
7986.90835688263,388.582681431435,1143.0542213181,0.0493390470596496,-0.0569263442125171,0.345835201865993,0.820987593382597,3.49009747394227
8946.35666165501,107.688261616044,971.470094943419,0.00714431925206445,-0.011861677252315,0.210355392340571,0.935857543875463,4.34646125585121
8232.56673059426,446.22755709663,314.380917478353,0.0192859609869774,0.0318805625553243,0.62334098657826,0.351204011905938,2.87689430989883
7630.23417296819,209.413541265763,394.963758728001,0.0460699343499262,0.0179281826488674,0.818391990317032,0.0314898501918651,2.41581117188854
6043.62704340369,427.295850402676,409.373936576303,0.0284819579768926,-0.0080895109157078,0.980245803508442,0.223288081276696,2.30352724676039
8388.99413937703,115.509327357635,266.197775612585,0.0141155599821825,0.0582692239967175,0.972474716734141,0.420072967708111,1.97068456316601
5937.95625740662,226.876600554213,1735.02784180269,0.0202462697136216,0.00104489808110521,0.223803701251745,0.017194475159049,3.65212917562574
9349.58426841535,154.591059496626,1981.56207369315,0.00982679928475991,-0.0558430270456709,0.398122962957714,0.914944081131835,3.64837391506729
7274.94192789309,403.522842789069,507.625719904434,0.0584975444467273,-0.0314948127167299,0.186058908130508,0.945284127965569,3.71264602223678
9328.93617249094,484.307063169777,1323.58602944994,0.00478423601151444,0.0225765669400804,0.362237677229568,0.344897423058283,3.48879165561601
7391.90777827054,197.133908838965,1348.9377882937,0.0300518372251187,-0.020348811457213,0.283487408088986,0.305423360101413,3.59145609413198
9095.82585186698,163.507433648221,619.336726363283,0.0408795551458374,0.0459190930891782,0.680057275427971,0.928196018214803,3.09002605996079
8488.05428429507,435.390501631424,1310.71081978967,0.0137152846557554,-0.0510652266106568,0.966766349920072,0.311278247826267,2.16018397330986
8553.22672349401,312.005258626305,1425.18443535455,0.0336515711504035,0.0420157316601835,0.303357456242666,0.171192643165123,3.1011993159016
6408.75440463424,342.815767330118,1097.93407348776,0.0085951566091273,-0.0540349421200342,0.999848202662542,0.450391847176943,2.19687489448852
7012.62256698683,430.029691413976,760.026667266153,0.0521437939806841,0.0340960067437962,0.124737557878252,0.157137141800486,3.19924593876574
7376.9746545516,184.538054130971,1644.29726605723,0.0404939775732346,0.0125688721161336,0.844349941590335,0.380392489600927,2.95045856199353
8689.61104572751,232.890823907219,1028.82304489706,0.0254199159475509,-0.0459103283699602,0.729335062499158,0.416732099498622,2.75706517375179
6040.89623130858,488.218174967915,433.512202370912,0.0543089515110478,0.0352248129900545,0.848615070339292,0.066457771230489,2.23968734115335
9340.52049834281,198.591988440603,382.832837849855,0.0560490190470591,-0.0590498275402933,0.880949046928436,0.130368405720219,2.03788860096524
6147.50875346363,146.060263924301,1950.678870501,0.059328310447745,-0.0385279264301062,0.986397688742727,0.293391680810601,2.26803574855839
8873.7679226324,497.863837238401,1989.51310086995,0.0274673785362393,-0.0163736729230732,0.980228496715426,0.00936270551756024,2.07910190985452
5550.34769233316,152.024259511381,205.667081428692,0.0326799884950742,-0.0507368951663375,0.799356206785887,0.13123999722302,2.31024546964765
9481.28689453006,104.991609044373,666.813529469073,0.00282799401786178,-0.0303044629935175,0.997855202527717,0.914168689167127,2.42663627055704
9091.48205723614,425.014479923993,895.253994781524,0.0578917143680155,0.0530413963738829,0.999247753527015,0.042741941055283,1.62497422848398
6764.56816587597,206.231956090778,1581.98744803667,0.0541366233536974,0.0485131405200809,0.946148039307445,0.929239181801677,3.08234371593085
6458.73375516385,441.660264600068,428.77829791978,2.13833665475249e-05,0.00499712563119829,0.96603361913003,0.00807416182942688,2.32842455942968
7576.56421046704,465.575159527361,549.657906126231,0.00557248600758612,-0.0357150109391659,0.963224023813382,0.0302061855327338,2.01296017872845
9359.66494679451,110.383346304297,970.051073655486,0.0598760515172034,0.0582499648164958,0.954321135533974,0.00417642062529922,1.7639114685084
8818.72503180057,488.298697583377,329.483602475375,0.0112340514175594,-0.0550819134525955,0.130995212355629,0.0137406217399985,2.89900922216888
5591.49119164795,324.409382138401,283.18916731514,0.0574011961044744,0.0575409340951592,0.44524384313263,0.0347717341501266,2.54547474458062
5900.20559262484,128.013692703098,1685.05027792417,0.00171278280671686,0.0504642280284315,0.756870357319713,0.183406995842233,2.61446199748873
8526.17352176458,410.171436704695,1961.36678317562,0.00248275578953326,-0.0563277874141931,0.958676972193643,0.00809133634902537,1.85231547982324
9439.93991985917,108.032809384167,1828.6621900741,0.0441013783961534,0.041970490179956,0.998611161950976,0.927297768183053,2.62556636557253
9439.65482246131,143.094349093735,229.408572800457,0.0509125882387161,0.0594234671071172,0.00930347759276628,0.519651783397421,3.20325439415056
7095.76800744981,496.467116475105,205.311901634559,0.0595845038909465,-0.0490350396931171,0.875186494085938,0.210131434490904,2.15574338501191
5879.60269395262,481.109429802746,1905.29034179635,0.0153429316962138,0.0187057844828814,0.898300605593249,0.950432991841808,4.17242611563115
5625.55222399533,121.412055660039,735.865773446858,0.0486270726285875,-0.0547424960229546,0.868119206512347,0.0445998902432621,2.10576154071473
5705.43339289725,462.70971018821,292.311708861962,0.052250828021206,0.0526398686226457,0.998669290915132,0.812369998544455,2.29227921811507
9438.93302232027,119.639969803393,311.908440897241,0.0296709757251665,-0.0583830498810858,0.224142664344981,0.891112436074764,3.30626288852075
8804.72178943455,179.429560992867,1820.61582580209,0.00627078460995108,0.0573932535666972,0.889802017714828,0.754045491572469,2.80626748091493
6250.74451323599,474.914078786969,1767.20954990014,0.000665814341045916,-0.0494503802340478,0.124976792372763,0.140565084060654,3.28070390232242
7329.34220787138,393.622028827667,1995.96859039739,0.0437041319534183,0.0588940425217152,0.933440510183573,0.0621099646668881,1.98579476219792
9358.02851058543,136.23530883342,1203.22648654692,0.00033679619897157,0.0438833514880389,0.938468026695773,0.59541378216818,2.50208159638102
5670.30409537256,489.659735001624,1838.39603513479,0.0381801633769646,-0.0235427356045693,0.959749881643802,0.0582965016365051,2.24464671706661
9043.0991705507,337.947348318994,1872.79219948687,0.00547132794745266,0.0300760118756443,0.0344960768707097,0.946185886627063,4.41949999606045
7058.47562011331,100.194552447647,1405.92719339766,0.0300771735794842,-0.0394046312291175,0.982346443459392,0.949431449174881,3.02507084373776
9341.66309516877,144.097112864256,1641.95742215961,0.00248039949685335,-0.0256385227013379,0.917433180147782,0.0311983171850443,2.30564331218987
6245.2862598002,497.651415318251,1912.07893528044,0.0594049825938418,-0.0540498654451221,0.974502496654168,0.704706517746672,2.83919285056351
5546.78404517472,402.498239651322,865.926441876218,0.05555938096717,-0.0525987492408603,0.209276495035738,0.148195953806862,3.02514807174961
8875.03135669976,333.393364399672,1993.98936699145,0.00432305856607854,-0.0265937320142984,0.110837257932872,0.956033503171057,4.54947701524627
8872.72679433227,123.421524651349,236.796894809231,0.0442189067881554,-0.0432734539266676,0.981693749781698,0.962069069501013,2.31559576396353
8824.19085782021,433.908918127418,1916.28029132262,0.0022137883817777,0.0509845223743468,0.47097561112605,0.143053384963423,2.80734470798799
6253.94584052265,298.897682968527,1734.29421177134,0.00382229459937662,-0.0496301232185215,0.376354682724923,0.941830051830038,4.18441552213351
7726.91683098674,354.63323071599,1944.21736695804,0.0537404588330537,-0.0468104615528136,0.0969697753898799,0.969114446779713,4.21646293571207
5855.19018676132,163.710143789649,286.992290755734,0.00345551386009902,0.0597889166045934,0.99083161004819,0.873923035571352,2.2841017746587
5729.47371006012,269.486675597727,1690.42639625259,0.00203735789749771,-0.0561946769803762,0.90339481481351,0.999723228625953,3.56074325020453
5607.30349645019,462.590064480901,1984.10756750964,0.00395914366934448,-0.0516539386287332,0.208013119874522,0.845502734417096,4.42747238912196
9182.30629060417,457.097072154284,208.466695761308,0.00785133586730808,-0.00816685147583485,0.0174104212783277,0.0240661695133895,3.76089778721223
7508.07550083846,326.340905949473,1969.35967467725,0.00180795597843826,0.0483009552676231,0.825108106946573,0.986415553139523,3.50481088097341
5762.59720604867,400.679031480104,1848.19476366974,0.0437973719788715,0.0592378666251898,0.914326895494014,0.950164765352383,3.45518844092827
9264.65618424118,124.293793272227,1923.56285005808,0.030328874993138,-0.0505609385948628,0.955266172997653,0.948495519114658,2.90449270527448
9202.36450340599,473.670752998441,1023.59016542323,0.00052666587755084,-0.0548562383651733,0.936385855078697,0.310772660421208,2.15857331803464
7767.55660306662,106.792744901031,1113.9040782582,0.0522932771639898,-0.0295487479493022,0.985492602689192,0.0134623846970499,1.84052644377243
5986.14612966776,233.384161815047,520.683035627007,0.0575936691183597,-0.0283583800401539,0.905866249231622,0.036967066116631,2.13607364945057
8231.2505049631,463.070753403008,406.473294598982,0.0463676019664854,-0.0595300531201065,0.988291904563084,0.0337311686016619,1.68158854658459
7768.54211091995,102.327943779528,235.399909829721,0.0571934982575476,0.0372062750905752,0.857954377541319,0.871799560729414,2.63166998941244
5699.68659244478,389.164226036519,759.89457340911,0.0053839802602306,0.0566745507158339,0.729337909026071,0.884839936159551,3.23673296205918
9444.1945925355,295.394295547158,261.489895218983,0.0145644670212641,0.0541635034885257,0.993638146203011,0.957152440678328,2.18709066032321
7968.93187146634,202.803144603968,459.953496791422,0.00767497382126749,-0.0574751939345151,0.403164716437459,0.211142997024581,2.78554317761879
9148.7279208377,478.154580760747,200.756386714056,0.0526167552312836,0.0555826868489385,0.837854606332257,0.731719200965017,2.50370424516925
9093.64041686058,149.186691362411,265.646781073883,0.0585741303954273,-0.0536588431242853,0.981428353814408,0.656875043641776,2.0820109014333
6105.88140133768,284.7168575041,1867.52778301015,0.0185439661005512,0.0411333471816033,0.122313691768795,0.975774946156889,4.68096923799956
9420.66863272339,118.217139411718,948.05046543479,0.0287824234273285,0.0432924460340291,0.95774388499558,0.0418525154236704,1.94310774323069
9270.12605220079,200.400469917804,1937.4700778164,0.00973033213522285,-0.019211436426267,0.0375529362354428,0.0411658727098256,3.63672248266657
8505.85475191474,249.478502385318,1254.06937864609,0.00646486891899258,0.0583087851293385,0.901173552963883,0.0579903160687536,2.01055556840258
6375.23199710995,488.205842580646,547.84829178825,0.0149945219093934,0.0572992523107678,0.0778320585377514,0.00961151579394937,2.91521453549444
5784.74132157862,167.662218958139,1024.91754791699,0.0540106704644859,0.0387069988064468,0.0262251449748874,0.0617342311888933,3.17230939946342
6497.37972579896,341.617497149855,293.456231337041,0.00941143525298685,0.0587888623215258,0.966099305078387,0.0700128534808755,1.81159627616919
6187.85792309791,448.39871013537,1616.97676195763,0.0510588291473687,0.059662334388122,0.275659874314442,0.939941285643727,4.04469363316696
6295.73203530163,205.95642356202,1897.52486809157,0.00204028334934264,-0.00090543667785823,0.950902513694018,0.931233790470287,4.20529428721233
8036.13211214542,184.434359613806,254.552510380745,0.0589855413464829,-0.0401198771875352,0.405174146639183,0.0213702681940049,2.70467484608372
9280.03226127476,299.036031682044,201.466632727534,0.0119008807512,0.0311914608534425,0.439165773335844,0.0405166412238032,2.92249851582447
9054.8788504675,286.798577662557,492.691041342914,0.0454308076389134,0.0596949281729758,0.712299522710964,0.0371646259445697,2.26238273198005
5522.95878808945,247.653359919786,1867.70753334276,0.0562815325660631,-0.000541505981236694,0.315743492450565,0.984926622593775,5.0741622693644
9043.80493052304,486.93080265075,1794.07189330086,0.00288609572220594,0.0585194072686136,0.849301622016355,0.0813974796328694,2.15038097239725
5548.10549039394,357.109705358744,1824.21695669182,0.000572534529492259,0.0431768541131169,0.181024211691692,0.0196755051147193,3.15048110494738
5525.60652606189,161.580587178469,1758.84290891699,0.00514072311110795,-0.0575492531619966,0.980338787660003,0.0438889756333083,1.86179681941241
9017.20611285418,429.017014056444,1981.0356754344,0.0582946280669421,0.0595816487073898,0.852932894136757,0.541222588857636,2.60548968514295
7607.29650314897,113.198256585747,491.229232400656,0.00593330594245344,0.0534087087213993,0.0388863363768905,0.786159901414067,3.5430284130388
6161.80532798171,371.034420840442,1956.61717061885,0.00647649900522083,-0.0368290675710887,0.990628060419112,0.0725439437665045,2.04081713976236
7229.55845948309,495.645531080663,1965.32364832237,0.00185190277174115,0.0464121069945395,0.977585159707814,0.0739476776216179,1.96062410550556
6250.99172163755,167.430370673537,1867.9887344595,0.0582643195940182,0.0592391453962773,0.781711474526674,0.121513454942033,2.35323079756616
5870.65081764013,104.502721596509,870.345946168527,0.00734933752566576,-0.0568616266082972,0.240221699466929,0.913901038700715,3.81407798770891
8092.24312473089,112.80861152336,1782.32624228112,0.0482789834914729,0.0577572235744447,0.183024366153404,0.833446242148057,3.77495093602051
9124.37966093421,124.412678647786,284.737964067608,0.0331201187102124,-0.00227243676781654,0.851922030560672,0.236683221999556,2.63065763313984
9121.95009365678,131.043320707977,344.753332482651,0.0552875558612868,-0.0208168618194759,0.881175421876833,0.0546532154548913,2.22838969475672
5715.7544773072,297.427926957607,1989.42386084236,0.059627336198464,-0.0208024914935231,0.981390562606975,0.918366252910346,3.58246064689877
7998.31805750728,169.974116235971,1207.80950249173,0.00217374354600906,0.0576474855467677,0.975923215504736,0.0192032258491963,1.76017342026114
5951.54920872301,499.916504323483,390.955101931468,0.0495023825950921,0.0068515930697322,0.172642125282437,0.0604601949453354,3.32551083496618
5554.54780720174,237.107402924448,1858.23568729684,9.35413269326091e-05,0.0526146024372429,0.200877973577008,0.641537175513804,4.00630533471027
5676.51082668453,195.870675798506,1188.55655756779,0.00016665784176439,-0.0202121288795024,0.179714040830731,0.201580385444686,3.76157557287126
9319.69655770808,104.174233507365,870.551230292767,0.00356733293272555,0.0198543448280543,0.964608361013234,0.0620333338156343,2.16095769101885
5652.00195275247,424.938238784671,1911.83492173441,0.00300362189300358,0.059998131506145,0.241352740908042,0.910921376431361,4.27289449282121
8492.82160680741,168.640106916428,442.232701741159,0.000377315757796168,-0.0578961305133998,0.502775855129585,0.909044308820739,3.13795265141743
6373.6376920715,468.646481540054,1973.8175756298,0.0583449185080826,0.0389554645959288,0.963324299547821,0.101552692940459,2.0623641970057
6181.2585266307,441.521456278861,1975.79386159778,0.00719924725592136,0.0583309436403215,0.050181495025754,0.898168043699116,4.32981016486354
7295.08691746742,425.974352099001,1678.81979597732,0.0416478038113564,0.0458107865229249,0.0145792718976736,0.982725967885926,4.34207265431722
8677.17604152858,275.92998566106,1888.80512225442,0.0531169310538098,-0.0450782889593393,0.920556828612462,0.94856342044659,3.05764735601341
9389.78774286807,279.426529817283,1699.81416175142,0.016623128070496,0.0571209823619574,0.325903310440481,0.0539073410909623,2.75613826277142
8980.29300849885,455.620414577425,1938.39918915182,0.00185360749717802,-0.0576079972553998,0.628165629692376,0.940124566899613,3.44107630620339
5779.34837993234,215.736532583833,1907.96592743136,0.0302881056116894,-0.0057764963619411,0.0372827434912324,0.964638265315443,5.48839307979272
9258.29305313528,451.095793489367,213.719030143693,0.0374580148095265,0.00228904388844967,0.861754525452852,0.00601487280800939,2.45013413473861
5590.78564587981,183.503858279437,1472.5414745044,0.000777581110596657,-0.0242252635303885,0.789010058389977,0.810358647024259,3.97471358491897
9412.96810749918,207.755826506764,1601.43494363874,0.041585445846431,-0.0589645261131227,0.98226800118573,0.969142192509025,2.65085171617394
5540.07714334875,159.377381019294,253.997059678659,0.0544990204973146,-0.0119305393192917,0.754611828597263,0.995412831194699,3.24551207051623
8491.68037250638,391.601763851941,1583.16703159362,0.0590599460760131,-0.054568039169535,0.997114571509883,0.111209749244153,1.7277565809305
9072.76385556906,496.280935127288,203.876406420022,0.0546880568191409,0.0337157761026174,0.0982949971221387,0.899290881352499,3.48548308812743
5545.32207921147,498.188087996095,1940.93238972127,0.0151091592572629,0.0148747078422457,0.0921214635018259,0.00387349049560726,3.65663411835811
5964.02090135962,228.48362037912,1771.45630316809,0.00756107744760811,0.0595973214413971,0.95043348078616,0.190601162845269,2.15048728810024
5833.91062356532,131.017909664661,1925.96820816398,0.00962255421560258,-0.0341792076732963,0.993445035535842,0.544442173792049,2.85030123812455
6577.34177354723,133.041506819427,1833.21067257784,0.0181169152446091,0.0451187346596271,0.919355839025229,0.982071441365406,3.47244286804824
6221.28035034984,464.159992150962,491.363271605223,0.054826847766526,-0.0533717547543347,0.991453856695443,0.897718579741195,2.47888177808356
7697.91498407722,136.796252988279,307.325683534145,0.0517526127118617,0.0535421976540238,0.910567054990679,0.974092589924112,2.5884932866164
5785.60625296086,157.657276559621,1927.53333202563,0.0107626630179584,0.0342497273348272,0.990033746929839,0.580601824680343,2.91470950274394
7719.5491772145,439.986243844032,1740.27715851553,0.0554281456209719,0.058838742300868,0.370680783875287,0.0727012953720987,2.71984164355571
5625.74581895024,469.194596260786,1915.99397012033,0.00369328448083252,0.0542160679679364,0.981650026747957,0.970606015063822,3.41227423615345
8782.89301134646,220.82556989044,1669.12958626635,0.00109420445747673,-0.0355042443796992,0.56348347873427,0.0138087943196297,2.79608078453718
8030.39400279522,151.783959008753,1928.99474282749,0.0562257717177272,0.0341014635656029,0.902168461121619,0.0258639936801046,2.12691554619319
7001.10400374979,486.746211908758,335.978884249926,0.00326418457087129,-0.0587350047379732,0.284858185099438,0.908402945380658,3.35929721135017
7443.34287475795,446.49355635047,649.716890743002,0.0469229185441509,0.056954131918028,0.97989926347509,0.0183796933852136,1.74141906838875
5640.25785028934,489.5393576473,870.294203003868,0.0599435212975368,0.0309916282910854,0.950784690445289,0.0948868989944458,2.08369499486429
9100.92545114458,446.118904929608,300.990880001336,0.033820935934782,0.0260302910394967,0.972123798215762,0.0324500198476017,1.98484814031856
7877.31385976076,369.384704902768,453.619573358446,0.0218856251752004,0.0482862339634448,0.00289969285950065,0.0518065541982651,3.09495896408842
8415.21949134767,138.98983169347,1748.46695768647,0.0547939154086634,-0.0517918258253485,0.117203679867089,0.0247351333964616,2.95036320628551
9237.76627145708,496.770049538463,289.439835818484,0.00216207951307297,0.0282063384633511,0.0129059611354023,0.832834718516096,3.77845307165586
7286.68726887554,425.726107507944,1969.09727333114,0.0532959099300206,-0.0562218911200762,0.567025796277449,0.199505765689537,2.76334233533324
9256.73569459468,135.371751151979,751.533273793757,0.00378300829790533,0.0402762939501554,0.273440357996151,0.0118616304825991,2.97227532824201
9391.10491797328,289.555464591831,226.342698093504,0.0486411559721455,-0.0452001721970737,0.801506859948859,0.584136474179104,2.53442738620971
5962.23713550717,201.030320487916,1498.71146222576,0.0491712107788771,0.0531415145192295,0.981629515066743,0.0615712576545775,1.84602249642771
5668.19351539016,129.762058891356,483.753768773749,0.0592476169997826,-0.0575444061029702,0.905327934073284,0.6067758386489,2.4882440383121
8719.16218847036,363.274749368429,640.148282330483,0.0489401633664966,-0.0588607154320925,0.126659548608586,0.479484517825767,3.20781910429728
8873.31318855286,125.158941745758,1974.28093142807,0.00224923378787935,0.0138790996000171,0.556864271173254,0.0234288482461125,3.12503491594553
8454.41167894751,362.517934292555,329.994092648849,0.0574750142684206,-0.0537163877114654,0.0233338696416467,0.0158612169325352,2.92503164481852
8984.94865465909,461.922700610012,1952.05744630657,0.0562942250724882,-0.00880889534018934,0.749613302759826,0.908601740840822,3.62916260402445
5510.20283717662,491.407773364335,230.696963937953,0.0439934520469978,-0.057997556598857,0.987394203664735,0.23268796177581,1.886823896689
8370.65573036671,388.137776590884,1261.58336047083,0.0563050147192553,0.0599854996148497,0.138571585528553,0.852016875753179,3.62505229013366
6229.80958130211,149.505545012653,652.625330677256,0.0228344498388469,-0.0586024020798504,0.227729793637991,0.0651540528051555,2.85162037694721
8767.40329060704,124.647743534297,1453.98231940344,0.0574795536557212,0.0569267679657787,0.0990642996039242,0.153810383053496,2.99561758229269
6498.95445723087,430.7532065548,558.597355475649,0.000703556430526078,0.0260459788329899,0.0191381371114403,0.0214204911608249,3.44956416713149
5590.04388190806,321.239828597754,1615.35631041043,0.0587485113507137,-0.0512382314633578,0.254044985631481,0.0117250068578869,2.84980291938226
9202.9496114701,395.987910311669,287.879575137049,0.0313855428434908,0.0557419802527875,0.963560111587867,0.0846762552391738,1.83063795751284
5534.68165080994,296.361356414855,1421.72111254185,0.052900657276623,0.0521706897765398,0.608025444904342,0.00191585905849934,2.47802531140514
8931.83478433639,459.309119544923,1812.79425495304,0.00307252089958638,-0.0238083468284458,0.970369637943804,0.139321006601676,2.27077207676333
8429.14685979486,104.656678810716,1195.17894000746,0.0597134923981503,-0.018883073553443,0.9917036392726,0.268476812168956,2.08410611779232
5870.4051123932,445.442808326334,1207.37261297181,0.004324064059183,-0.0362857286073267,0.000563164008781314,0.0198959312401712,3.36693176034823
8352.27131098509,485.009392444044,680.403058370575,0.00431193538941443,0.0464151300117373,0.976554986555129,0.800834837602451,2.44036757566475
8389.20430932194,124.992772843689,270.234034070745,0.0552101688785478,0.0297249165829271,0.977994680637494,0.00789456721395254,1.8284096343932
5928.4917069599,100.574668869376,1714.62632198818,0.0589795173564926,-0.0273380181379616,0.0306882036384195,0.488744360860437,4.0049868430725
6787.79391944408,294.049205817282,221.358559885994,0.0307343124412,-0.0559091024938971,0.588799228426069,0.001982243033126,2.44293904458864
8971.35353647172,493.277080357075,377.620189683512,0.00295396492816508,-0.000490692593157288,0.614893201505765,0.803721014875919,3.64301058608018
9079.77909315377,109.903427120298,1978.55059537105,0.00558444980531931,0.0166184038482606,0.909026868641376,0.934035648126155,3.5198725177052
9474.51657615602,140.669141802937,1926.10262623057,0.0300817092647776,0.0594368501007557,0.635379526065663,0.663171009393409,3.05007933338909
5688.98247648031,443.945868313313,1004.58650710061,0.0243239225121215,-0.0585869206767529,0.0940950496587902,0.679834771901369,3.73939440129787
5662.12808620185,422.849758062512,1704.9627487082,0.000580235500819981,0.0310852099489421,0.985149331390858,0.0647194690536708,2.11289343052904
5652.498845011,206.184874847531,668.813589029014,0.00482021050527692,0.0280841247271746,0.9775331588462,0.992092272266746,3.0828297669382
9491.89926870167,361.843361333013,216.389054385945,0.0498931489186361,-0.0174804695695639,0.982471402967349,0.918050517328084,2.34438368073719
6474.2078287527,297.612059302628,254.463974852115,0.00618928127456456,-0.0572397673968226,0.94101006933488,0.0747239487245679,1.90876394163641
8501.36638432741,248.635721858591,320.541967544705,0.00145660516340286,-0.0578708323370665,0.933953440515324,0.117718355497345,1.94466320662151
9162.38497663289,157.011929526925,215.73715521954,0.0489111565751955,0.04075823684223,0.939612130401656,0.723653139313683,2.31218146434905
8516.92486647516,172.71826043725,426.15948417224,0.000294443196617067,0.0581622940767556,0.78883145051077,0.47434742259793,2.46322692973189
7637.40795012563,143.185668531805,1512.98989136703,0.00150099755264819,-0.0511747958790511,0.0473954570479691,0.754174057627097,3.91068326486342
6051.37394461781,304.983754549176,1956.53535444289,0.00623731358908117,-0.0196037893183529,0.835783428978175,0.120462765917182,2.82383827532368
5955.69022372365,173.074504174292,1963.05604428053,0.0270056222844869,-0.0567801339458674,0.784198554931208,0.929742270382121,3.72920095765503
9378.49511764944,186.372664757073,1929.15523531847,0.0598728346265852,-0.000885443380102519,0.999007431790233,0.415309586329386,2.29861157429924
8592.00257621706,481.60768346861,228.686498245224,0.0556058209994808,-0.0590443376172334,0.812205574708059,0.750591936288401,2.55947772011514
9312.29188665748,297.476441785693,202.614312665537,0.0586160235945135,-0.051977472435683,0.561166253639385,0.679839786840603,2.84235391837892
6266.04724116623,467.188932187855,1469.93903690018,0.000840834584087133,0.0208620867691934,0.0333882544655353,0.972264662617818,5.00292556257328
5790.30317161232,226.134427078068,205.161006841809,0.0560451570013538,0.0488094642665237,0.97229300159961,0.945718444185331,2.41646316107118
9054.42108400166,470.385461393744,398.465195391327,0.000821351325139403,0.0597979754302651,0.404195236973464,0.121483702911064,2.65385403221475
5513.32389377058,495.339210145175,303.480297280475,0.0413750846358016,-0.00516673970036208,0.990481801098213,0.0349308692384511,2.0635773864336
5747.76950571686,402.514758333564,1147.96020723879,0.0540572459483519,-0.0580316183622926,0.0172154025640339,0.763997262110934,3.95071334240439
8857.15455003083,350.629572384059,787.381727760658,0.00979289988521487,-0.0595398807898164,0.981816414743662,0.8564248313196,2.37413960004444
6155.27903195471,108.687743637711,1893.48955377936,0.0597840432822704,-0.059719552276656,0.740371308056638,0.704794402001426,3.2836843332196
8397.74414803833,459.953556768596,1274.88176911138,0.0520567791815847,-0.0598073359485716,0.989607368363068,0.00266517861746252,1.659986414392
5600.81826895475,207.323997467756,1822.69586799666,0.033122032773681,-0.0254550029709935,0.933118656743318,0.968692562542856,3.94938566508301
9423.50524011999,111.028475593776,1556.12353347242,0.00163291904143989,0.0416766709182411,0.0124036266934127,0.186880345689133,3.35750797152536
9331.12753555179,484.98994987458,284.448489174247,0.0573571677971631,0.0436983647849411,0.368495674571022,0.881077537778765,3.2090496768207
5850.4850352183,142.734020762146,422.774697747082,0.0569490171968937,0.0366900469455868,0.0959685461129993,0.461828877450898,3.39486069702695
9454.30251490325,126.172695308924,517.394066927955,0.0429029750777408,0.0586004628706723,0.684874706668779,0.938384209992364,2.93305562527392
7263.49042821676,493.967405892909,742.235550889745,0.0507313423231244,-0.054330511232838,0.813220115145668,0.173254410037771,2.30640677180175
6319.73905302584,495.409452542663,1420.33404922113,0.0232285972405225,0.0534581339266151,0.0333683467470109,0.208672285545617,3.28979280466466
5614.47288561612,198.705962859094,1724.76780163124,0.000199621310457587,0.0478027686942369,0.35861349129118,0.86515314062126,4.25211657525827
6294.7123972699,160.69604344666,419.881332246587,0.0478643636405468,0.00917124479077756,0.0189504642039537,0.0163539326749742,3.41802898781063
7243.67644730955,395.00292474404,407.696728501469,0.0532009315816686,-0.0592762179672718,0.958639023825526,0.973191335098818,2.50938470604475
6406.75205923617,242.731016874313,297.394841955975,0.00175831496715546,-0.0552534883003682,0.294769028900191,0.0924055916257203,2.81788348085405
8329.14974261075,160.486668068916,855.122174555436,0.0544895053468645,-0.0555734695494175,0.0466267743613571,0.797663574805483,3.60433141293047
5982.99728427082,179.197021387517,1877.20498694107,0.0592301615327597,0.0119780009239912,0.962707567494363,0.0452544617000967,2.13177093419976
5812.5270511955,450.970440078527,1256.5892951563,0.00281448244582862,-0.0552869091276079,0.0231885639950633,0.915931098163128,4.24533389044349
5607.3711803183,171.786046680063,237.666051229462,0.0228379843616858,-0.0427534439507872,0.0507046568673104,0.190143994987011,3.25818223491908
8525.68867895752,143.035684619099,1634.61124855094,0.000925889499485493,-0.0588185291737318,0.939643857767805,0.65602665906772,2.56769397433915
5616.2975449115,117.671194858849,1930.38810556754,0.0447235216386616,0.0297050026059151,0.98680998175405,0.921870624413714,3.51165439915714
7865.41759595275,373.177528008819,290.33300136216,0.0451262834435329,0.0498821577429771,0.024760858155787,0.137393188895658,3.0771049397754
7047.31392953545,395.899539347738,234.107823949307,0.0567431974271312,0.0451435043290257,0.0508034778758883,0.0835478231310844,3.01254596026575
9393.36158148944,490.396087151021,391.602493310347,0.00509173126425594,-0.0369479977805167,0.95835098088719,0.0367303756065667,2.00950834598299
8201.34463626891,413.048930279911,1082.51036903821,0.0593760398542508,0.028247163919732,0.861358721973374,0.968107452383265,3.09897409169921
9468.32511201501,397.831819206476,300.269450014457,0.0120762330153957,0.0476033459231257,0.181593713583425,0.0588837137911469,2.95607335234437
5753.58804408461,167.968516610563,1978.25095322914,0.0515589063288644,0.0551750549208373,0.0862687129992992,0.919712720904499,4.46201203133489
5550.58158747852,400.80707827583,545.075441710651,0.0107494875043631,0.00986303284764289,0.817047608550638,0.980296760797501,3.73330535689975
5723.35215006024,424.276752956212,921.57780257985,0.0182983148284256,-0.0548900618590415,0.615506612230092,0.0219096362125129,2.51746759200621
9412.80954889953,314.473233837634,239.279236504808,0.0582829357031733,-0.00112850069068372,0.422933890484273,0.925444984342903,3.46089306296467
7759.25286207348,437.175238505006,295.025138789788,0.0252702790265903,0.0595904376357794,0.301926662446931,0.688368809176609,3.11836308451211
6554.83712628484,124.617192149162,380.034052906558,0.0107392692519352,-0.0543268997222185,0.984534013550729,0.0121230015065521,1.71573043095052
7838.96499313414,497.710214741528,1992.20319306478,0.0186138123599812,0.00762963015586138,0.976318712579086,0.924213532125577,3.52332976403758
8566.26814417541,213.39816711843,1974.06664597802,0.0477891099220142,0.0178557514864951,0.362472313921899,0.0303862974978983,3.05944825342387
7522.03167416155,481.865176931024,220.634001772851,0.00075329810846597,-0.0316830436326563,0.76227236026898,0.995544065954164,3.03326311019474
9436.48761510849,376.843820791692,1315.48057910986,0.0392403272772208,-0.0471184217557311,0.90473639825359,0.00226314202882349,2.06069998079748
8937.55909428,173.274460621178,1732.42459977046,0.00538744177669287,0.0569087115302682,0.771790952654555,0.000257001724094152,2.20681958267052
5755.12356311083,462.383728008717,1828.77136268653,0.012547372081317,-0.0415939794480801,0.958104823250324,0.977879646699876,3.65262352905445
5748.21936432272,311.596946511418,746.699787303805,0.0336739366594702,0.0527910067979246,0.970516893547028,0.0738715371116996,1.89082702974226
9029.97223101556,445.083390083164,204.54156617634,0.0566214732080698,0.0395438257511705,0.974341253750026,0.424244226654992,2.0164667933659
8583.66475440562,138.036867324263,298.399413889274,0.0313459375686944,0.041502226665616,0.0559837308246642,0.969777840888128,3.67091745885108
5649.18158017099,487.671134527773,1643.37082100101,0.0539097915776074,0.0469594849739224,0.00107863359153271,0.413748607039452,3.72940681230974
8022.42963947356,104.762294888496,1045.31172164716,0.00152429598849267,-0.00949038337916136,0.0607985390815884,0.00279234978370368,3.72262969479571
6565.02088252455,154.458987619728,1726.2597787194,0.0375021607149392,0.0555881252791733,0.990346872713417,0.0366735863499343,1.74964368331125
5566.8828394264,236.037946026772,1652.41731437854,0.0480827804049477,-0.0573144375812262,0.416997835505754,0.948438469786197,4.15848338414845
9403.77060230821,212.09777649492,891.244339151308,0.0541448055300862,0.0455444863066077,0.719468248542398,0.0570974992588162,2.35590882665274
5626.51786115021,438.009637314826,629.382489621639,0.0545310106314719,0.0388070812448859,0.15192246180959,0.918091740692034,3.90547466967592
6517.17588026077,379.502396099269,470.713756605983,0.0570847792876884,-0.0598660287726671,0.983228344935924,0.0771021672990173,1.73669076598524
8927.86012869328,167.902842909098,1032.8837799374,0.00125210143625736,0.0599145752191544,0.968364075990394,0.37736773933284,2.06514239334833
5994.56731975079,135.631462559104,385.005257837474,0.047344567081891,0.0595256333425641,0.919082202482969,0.98755800537765,2.70320276065458
5567.68237985671,182.429652009159,540.174752892926,0.00389663418754935,-0.0431039529852569,0.95800519734621,0.774891807464883,2.70930853344606
5758.28818418086,429.667880479246,1603.90675766394,0.00955198823008686,-0.0451204750500619,0.678627551300451,0.869372721528634,3.86505383337295
5800.43956171721,419.417168665677,1597.35276191495,0.0503329050494358,-0.0267975640576333,0.0209807346109301,0.992419068934396,4.8554653873498
6268.60319729894,488.394626881927,1992.61754783802,0.00903015067800879,0.040021326513961,0.798114076955244,0.239004740957171,2.77980672951134
6696.6459993273,153.787090070546,1590.07195751183,0.0168915094994009,-0.0594958163425326,0.948842933401465,0.963197933742777,3.0859539132766
5579.20544967055,175.520000327379,688.362337183207,0.0520464153215289,-0.0571305076405406,0.986243730410933,0.826525951968506,2.57864812442339
9499.07832313329,108.91030067578,1637.25252160802,0.0371523704566061,-0.0475907019898295,0.958937324117869,0.0168612285051495,1.90196175795352
7329.1873941198,445.653155166656,309.867226611823,0.00013386701233685,-0.0354330441355705,0.455174003029242,0.11256209295243,2.93720594106246
9465.72666615248,454.0636501275,730.761915259063,0.0472131279716268,-0.0559720227029175,0.937283274251968,0.970862979535013,2.60596041501617
8508.88562574983,105.061827041209,747.216720227152,0.0581640966190025,-0.0556963294185698,0.284757463959977,0.576486606150866,3.16434524701566
8712.81820163131,359.098939877003,344.39237085171,0.0301036472059786,-0.0325453083403408,0.0254219009075314,0.781169663183391,3.72531861526746
6561.63960229605,168.316290248185,1949.14470813237,0.00129784419201314,-0.0356226230040193,0.939021507278085,0.984400384826586,3.63072617642935
8345.40162980556,196.802482008934,441.352090192959,0.00338923900388181,0.0562110025808215,0.0277078249491751,0.097820500144735,3.00589976498373
8961.77186910063,249.106860440224,1829.67599928379,0.052419653297402,0.0570905745495111,0.141401174711064,0.00241444795392454,2.83406113044332
7512.65614014119,102.33278432861,1378.20550710894,0.0535828648461029,-0.0302421129774302,0.410381631692871,0.985493805026636,3.95422165228679
6996.42551224679,467.791692912579,706.074333330616,0.0577435201685876,0.0479664384853095,0.0411761030554771,0.0179509874433279,2.95820889202814
9114.2443055287,495.383638236672,1815.2735854499,0.00857282774057239,-0.00402639440260828,0.982087943702936,0.0136689692735672,2.24664312909272
6704.62263468653,481.642433069646,264.120546309277,0.0041735009662807,-0.0435615949239582,0.0461941270623356,0.980050455313176,3.74334706963594
7373.1687515974,259.343903139234,389.631894044578,0.0551122674811631,-0.0578282979782671,0.654899331973866,0.00957234296947718,2.32193736657601
8367.84537322819,374.023585487157,1608.30458803102,0.000713691925629973,-0.0560062024835497,0.0468062264844775,0.0405084744561464,3.03651196310568
9385.55601611733,365.534320287406,1458.83647231385,0.00293574564624578,0.049960141768679,0.72357130330056,0.898372875293717,3.18511663880035
9450.08794870228,171.159529685974,573.203778965399,0.0120264218235388,0.0561039440520108,0.446498202392831,0.977990416577086,3.26167942127611
5606.78973421454,239.388792682439,1999.15638491511,0.000141880321316421,0.055871317377314,0.9691009640228,0.068140083225444,1.96382427039348
9467.72374399006,403.353726491332,1711.48192854598,0.0342405331274495,-0.0332895885687321,0.245722649153322,0.968865924980491,4.09002242655485
5694.89601440728,496.620241738856,285.69654324092,0.028645856087096,0.0442944788653404,0.484467977890745,0.0131363519467413,2.71469475350812
7338.24153244495,321.018875390291,249.605275597423,0.059922982826829,0.0144341672491282,0.0494224063586444,0.192208767402917,3.32735401237713
9024.60747491568,261.608405131847,211.91404890269,0.0526728053670377,0.056737648928538,0.987825653515756,0.180571304168552,1.74958232165999
9029.83882836998,164.659825339913,249.367032153532,0.00448889337480068,0.0102791901770979,0.674821227788925,0.771794060710818,3.27600261961831
5704.75969556719,142.711826600134,1877.94508007355,0.0415643849875778,0.055275769578293,0.975939655909315,0.858401325298473,3.18344603025235
9124.60666336119,118.225091230124,272.543638153002,0.00214557208120823,-0.0433882401231676,0.995970667107031,0.961337150773033,2.2226707242039
5548.9760953933,280.099905934185,1967.21030869521,0.0538879555184394,0.0519160512462258,0.955813391832635,0.205339395208284,2.2441449065946
9334.57422908396,289.503463730216,1986.40736895613,0.0025974124437198,-0.057370021333918,0.969468283466995,0.865451585734263,2.70219498047591
5926.80762149394,411.963106598705,1965.98660531454,0.00658494828734547,-0.0350256990920752,0.89465346140787,0.440389009891078,3.04603494318295
9487.7248601988,114.486365485936,325.258591864258,0.00596844220999628,-0.037333389474079,0.148255149833858,0.00377854448743165,3.12985230128383
5589.01514112949,477.544453553855,1723.86246765964,0.0546060826722532,0.00999451174400746,0.279007847886533,0.264403508510441,3.64385617110095
5539.99617975205,130.223760381341,283.589277043939,0.00290395183023065,0.0135255484096706,0.948548704152927,0.834884223295376,2.9224263610793
7025.93528758734,430.593040212989,354.344865400344,0.058647076911293,0.0529704095330089,0.818824811838567,0.153188961092383,2.20580695981171
6428.6039005965,157.186330948025,245.973028149456,0.0518424281291664,-0.0431273851823062,0.958808931754902,0.027693557087332,1.8745408622004
5710.72382573038,396.478069014847,1872.84826645628,1.09252240508795e-05,-0.0510891421325505,0.989920790772885,0.947973795235157,3.35737144030585
9464.09233473241,108.746866509318,222.468645311892,0.0168340888945386,0.00949607877060771,0.133343282388523,0.128625866724178,3.57714912020196
6185.51016505808,261.148220486939,1979.59735761397,0.0590816977154464,-0.00400998990051448,0.139819962438196,0.0675971189048141,3.47217750128008
5579.67260759324,144.252178631723,521.369598153979,0.048218816514127,-0.0548798958119005,0.988267668988556,0.957137671997771,2.61280807763764
8591.53953567147,158.296251483262,1825.42641293257,0.0142049867659807,0.0599343520123512,0.0274512553587556,0.191423267358914,3.13879659330029
8536.6431940347,237.323027011007,1407.47632794082,0.0548127356311306,-0.057112438576296,0.0825572148896754,0.521626765606925,3.3975964431605
6277.16387156397,448.535765521228,276.622958714142,0.00218738825060427,0.0598534406349063,0.716628880938515,0.34192299679853,2.48451052006599
5512.90125958622,132.267729751766,244.770652102306,0.0571165005583316,-0.0472622327785939,0.69279400119558,0.0361393827479333,2.36425473293255
5793.36336627603,224.447505921125,384.542759088799,0.00346511010546237,-0.0545060125552118,0.456306625157595,0.762994026998058,3.23858002613345
8965.9447139129,162.694725673646,1914.92165648378,0.0599921824084595,-0.0581242347601801,0.743348076939583,0.01027014805004,2.23396641143354
5697.01167847961,277.846267260611,1697.82850733027,0.00493094549048692,-0.0589402871020138,0.130975912790745,0.985142088029534,4.42242120922754
8890.52426908165,259.288581460714,1989.33630222455,0.00466251657810062,0.0574271045532078,0.052654676605016,0.923199688550085,3.9625246565059
6988.56817185879,471.416567917913,401.332642370835,0.0549607959017158,-0.0585173245333135,0.0818682229146361,0.991362464148551,3.60390140507161
6863.33801969886,492.919781524688,1673.89862262644,0.0565572514012456,-0.0140471542719752,0.938387374626473,0.900505461730063,3.40104356684898
7056.86151143163,487.664282880723,1985.28144299053,0.0597950427699834,-0.0137947619799525,0.652243416989222,0.12975185085088,2.88211816224847
9155.66082950681,197.610803786665,411.223297333345,0.00543621939606965,-0.0518958988599479,0.0395809593610466,0.717908481601626,3.45802185492025
6074.57635365427,170.711635611951,621.657687844709,0.00102131186518818,0.0545844328869134,0.0684553487226367,0.312640495831147,3.23518244542392
6006.905910559,152.200198732316,907.816497888416,0.039430122426711,0.0101934956386685,0.00758710480295122,0.94274181034416,4.63546196959129
8234.1672508046,470.637230481952,1959.36906803399,0.00462671878281981,-0.0409296187665313,0.614112384151667,0.0144522145856172,2.66882180271855
6212.55674958229,407.8384376131,245.384546881542,0.00672671710141003,0.0106017589196563,0.986794986529276,0.924496817169711,2.74492246049494
6505.99532201886,223.590547032654,375.306928995997,0.0574725408386439,-0.0576097491011024,0.982240479439497,0.00111876497976482,1.67534934289334
8092.17348136008,104.617936629802,321.431765658781,0.0341200952930376,-0.0582765612658113,0.105880761053413,0.0514949110802263,2.89222032495011
6069.27953567356,465.130330249667,357.770023681223,0.000944315143860876,0.0207372997887433,0.229989312123507,0.243170216912404,3.50267382086556
6477.56733559072,432.123162504286,1699.27909038961,0.000283546862192452,-0.0594372943975031,0.639606134500355,0.299623578088358,2.84766223556203
8903.30251213163,463.020896911621,910.98484932445,0.00160393947735429,0.0585827398952097,0.89886780991219,0.678986316313967,2.50348171027205
9451.2891350314,224.315732438117,1576.49630485103,0.0582061556261033,0.0589878322463483,0.802463242085651,0.986122829141095,3.06490791010719
9467.56247989833,111.949067562819,219.007783895358,0.0577714945189655,0.0359491858072579,0.913256520638242,0.675560981268063,2.36334890063488
8984.73086860031,149.570781644434,303.622571704909,0.0522623737715185,-0.00798177444376051,0.0087723103351891,0.219738377258182,3.49923788393585
6909.44529231638,381.261725816876,1715.11071678251,0.0144672400457785,-0.0469357706978917,0.103524578968063,0.969053808134049,4.38368004727399
6720.13631463051,464.98120771721,977.720655035228,0.0412339175445959,-0.0562187368422747,0.92028861423023,0.750733334571123,2.75107148573792
6329.06587421894,146.025851927698,551.81642388925,0.000617674486711621,0.0198882151767611,0.987073234282434,0.0116836817469448,2.02122762891133
7713.44863343984,233.023264165968,254.645026894286,0.0429139863140881,-0.0455059768538922,0.0380783772561699,0.806739734485745,3.54013425771527
8675.25725718588,170.966039132327,1694.32719652541,0.00236828151158988,0.000258478950709101,0.945596176665276,0.32870691572316,2.87755504790117
5954.22742050141,289.380742702633,363.022850919515,0.0477154214819893,0.0580758755095303,0.0519250496290624,0.995906664291397,3.70232029511961
8611.3052284345,351.922622788697,1352.72053796798,0.0338201987184584,0.0407595936767757,0.948965856805444,0.176170474849641,2.15808302496721
7808.62966459244,476.316936034709,221.803703485057,0.0167530868109316,-0.0598698914609849,0.965420014224946,0.15272063924931,1.84891452902555
6521.39373216778,132.809561118484,387.769960705191,0.00374644939787686,0.0307483914960176,0.440575522370636,0.0102845469955355,2.94628432934722
7950.25187637657,488.035322446376,282.164949877188,0.00177491107955575,-0.0437059067934751,0.873765266966075,0.244843610562384,2.30273926486971
5545.5269375816,311.899920273572,1948.24424027465,0.0124461044976488,0.00254780218005181,0.979354512412101,0.911659662611783,4.17082512865821
9209.4313595444,498.450079094619,756.707731075585,0.0599597127735615,-0.0315797931980342,0.830850041704252,0.979818197898567,2.96410999096264
9421.91184312105,489.417460747063,1995.61777338386,0.00215840054210275,-0.0274382090102881,0.249414727557451,0.472434340976179,3.77555922322936
5609.65050756931,119.974074978381,256.798580475152,0.0472717378567904,-0.0582446468062699,0.573368849698454,0.962477963650599,3.16402098373171
9407.52820018679,257.61048803106,255.809407355264,0.0269830288784578,-0.0596755193173885,0.873516703490168,0.989048717543483,2.58086897797318
6348.3297964558,131.783175840974,1715.36458660848,0.0436485306266695,-0.0597359875403345,0.933723432244733,0.95431210543029,3.22979937577809
5868.65432653576,131.38965992257,594.110237015411,0.0550111641408876,-0.0357648646272719,0.326372143113986,0.957606927026063,3.78458086336958
8503.34807951003,471.612384915352,752.784651704133,0.0482545328931883,0.053127602096647,0.889667142182589,0.242884298786521,2.2028052006537
7014.88941349089,489.749856106937,1673.41018021107,0.0599842345900834,-0.0272310723457485,0.867059490876272,0.195992163848132,2.49265434676847
8745.0694013387,442.533997725695,1873.37350626476,0.00143913758452982,0.057415804322809,0.58032174478285,0.993396922713146,3.54937445237163
8907.5120287016,121.128100249916,1792.69226179458,0.00903654905967414,0.0598082326445729,0.736523448489606,0.0818567534442991,2.31909293641351
5977.05343365669,177.743672486395,1932.97715601511,0.00169826016761363,0.0179247746989131,0.979544312693179,0.0486479226965457,2.23104060844391
5820.27328573167,303.432455006987,848.335641343147,0.00192321733105928,0.00533554670400918,0.553236375330016,0.0037469353992492,3.24895238440211
5577.67634745687,463.037515152246,203.420045319945,0.00253954442683607,-0.0452786283474415,0.109946017386392,0.0112520828843117,3.06897819488787
6884.66042280197,489.91142809391,219.411554839462,0.0520289318449795,0.0333174659963697,0.98458552849479,0.107386570423841,1.87535697475863
9300.67558307201,126.235821656883,980.772883165628,0.000898941890336573,-0.0487407128233463,0.0173876460175961,0.026370185893029,3.12246029427593
5966.623111628,449.848233256489,1816.53908393346,0.0576008489727974,-0.0236451742239296,0.686026902636513,0.986748847411945,4.19484753036021
8646.78838569671,134.240819327533,1844.3053137511,0.00923369022086263,0.0548684766981751,0.984725629445165,0.000655257608741522,1.72188666070213
6632.12503865361,396.382945496589,1994.53645967878,0.0569097886187956,-0.0597906432766467,0.915706391213462,0.440696256700903,2.57340109801401
7008.39440897107,287.729539070278,314.058982441202,0.00252031988929957,0.033337917085737,0.858653796836734,0.758409945294261,2.76450880148539
7118.35452262312,413.284517172724,1912.46881992556,0.0589625219302252,-0.0563044249266386,0.908828564919531,0.0751469845417887,2.0570169005701
8692.26117897779,138.511898182333,286.552134389058,0.057362064756453,0.0552339731622487,0.611341912532225,0.501943710492924,2.67835096992095
5622.85008095205,110.700831282884,1406.1671199277,0.0127774983784184,0.051833483017981,0.0233398333657533,0.0342185006011277,3.12743630114319
9255.65313361585,271.069772075862,274.427297804505,0.0589915325073525,0.052143979864195,0.0374568372499198,0.60575237753801,3.26499467149064
5607.09094535559,128.565974067897,1950.93166157603,0.0382518301159143,-0.0539060183241963,0.111170557327569,0.352466374635696,3.62729693389356
7270.17264068127,166.376524232328,467.620442900807,0.00558815751224756,0.0203847564943135,0.8764740859624,0.025466930354014,2.41666586160082
9085.91633569449,255.062625929713,384.415687341243,0.0102012952230871,-0.0023854142613709,0.953174585709348,0.992093895329162,2.90692067716937
9286.34038101882,170.89115595445,953.178497031331,0.0586531917471439,-0.0187671729270369,0.0159611143171787,0.715798504650593,3.84712987301826
5622.05608189106,493.99863416329,330.893353931606,0.0582460451871157,-0.0521986637357622,0.721921214135364,0.718086428940296,2.83835216065589
7769.05382983387,353.215414658189,1996.85491002165,0.0591678696591407,-0.019372361144051,0.126182441599667,0.0663741480093449,3.29816639349234
8686.24578602612,170.607728231698,802.971138944849,0.0297352621564642,0.02347406915389,0.994482565205544,0.0987355520483106,1.9367486342883
6660.04003770649,451.992086600512,274.258478311822,0.00101725973188877,0.0160118674021214,0.780611125053838,0.992285163607448,3.29142293737564
9307.57300183177,135.206145606935,1036.92263811827,0.0310837305849418,-0.0461324063781649,0.998530934564769,0.0111958645284176,1.66658196950249
9204.88812681288,170.258876867592,487.41003498435,0.0116482738824561,-0.0173083310946822,0.989822168834507,0.119814777979627,2.09019587350865
6330.25777153671,474.832867644727,283.268948365003,5.50350453704596e-05,-0.0269996907189488,0.879388920264319,0.49388987896964,2.68501417689711
7550.14941375703,311.357354093343,1700.60053514317,0.0321448900317773,-0.0590889922063798,0.110250730067492,0.949758855858818,4.01864989636348
9002.14583147317,280.139819625765,990.558776073158,0.0597029893286526,0.00212261416018009,0.913875415688381,0.0703883757814765,2.27692874656769
9260.60952059925,104.132156725973,1883.61018588766,0.0578329391218722,0.0299165672902018,0.911170862847939,0.016676572849974,2.08788520184281
6062.38691415638,485.536173824221,261.389954853803,0.0287253443989903,0.0434213646221906,0.860473144100979,0.994559419574216,2.86216394864941
8304.95472997427,236.104852054268,268.28316161409,0.0581626164587215,-0.0595031796768308,0.717197200050578,0.0317501267418265,2.22372653032912
9396.96601871401,475.395573303103,496.855710633099,0.00307441558688879,-0.0391062209196389,0.992165244882926,0.620795813156292,2.1843096114346
8384.09549277276,203.917438909411,364.381602685899,0.0583940916694701,0.0534072746057063,0.96859131497331,0.155893001705408,1.83183360978258
6134.28764604032,492.091570887715,1945.67949525081,0.0260263309953734,-0.0598138816840947,0.945824290858582,0.0100201156456023,1.91591495124714
6069.52490936965,497.717023361474,309.092372050509,0.0575006028776988,-0.00439221820794046,0.589624075219035,0.96256713825278,3.50836602386983
5711.07442863286,219.211067538708,615.239365771413,0.0573667729552835,0.0578901477623731,0.557942110579461,0.986303814919665,3.40100931897088
5559.21085365117,461.668926756829,1562.5011890661,0.0582136833295226,-0.0562410430982709,0.90194389782846,0.0333942864090204,2.05289761526381
8147.86878880113,370.897654443979,1909.23757487908,0.00474731370806694,-0.0547360428515822,0.081408781465143,0.60515229892917,3.69802774509901
9364.65442553163,443.919329717755,1252.43388200179,0.0327698056725785,0.0545893536228687,0.204447612864897,0.906736894510686,3.63773036633237
8354.35004718602,127.940515615046,540.760962245986,0.0558536519994959,-0.0577558751776814,0.621857947669923,0.822634699987248,2.97094573509879
8766.51752460748,224.077020585537,531.245837500319,0.0444057470094413,0.059602983109653,0.95518282847479,0.82864391990006,2.38238297080614
9142.97666493803,360.966365318745,1014.76047122851,0.00228687064256519,0.0511886768974364,0.991171651985496,0.0124384353403002,1.71117619419342
5747.56142124534,255.938469991088,1772.02488705516,0.0549629079736769,0.0456918277032673,0.776053756708279,0.78972495906055,3.53127256262802
8113.30382712185,498.405482526869,241.247449861839,0.0136832283390686,0.0564832327701151,0.341391513356939,0.998350538313389,3.2832211452704
9352.43715532124,126.244343724102,1993.32483378239,0.0561752864811569,-0.044621778074652,0.995006636949256,0.0330551299266517,1.7002011118057
9296.99300322682,426.765375770628,775.327692693099,0.0541587269771844,-0.00855690884403884,0.0264677701052278,0.00133300083689392,3.35143503476022
7319.6262428537,192.104860208929,804.165046755224,0.0215035152900964,0.0533550473861396,0.88103157794103,0.99183364957571,2.93970432195859
7328.27497273684,493.501234613359,281.757299788296,0.0549696694733575,-0.0116545585636049,0.02104981103912,0.168848965549842,3.43587432786058
9103.56252174824,178.48810646683,315.968189295381,0.0572913392912596,0.00887534720823169,0.506054068217054,0.0162723220419139,2.84391651254229
5757.72307440639,215.088457614183,963.086747284979,0.0244931189110503,-0.0560193066671491,0.816581284394488,0.910367347998545,3.24780237576773
7077.04662624747,103.098340146244,248.001961689442,0.00518210893962532,-0.0425230744108558,0.821322405943647,0.0279511609114707,2.28416173162855
5753.90024110675,156.225398741663,1311.89148756675,0.000723146921955049,0.0167827669624239,0.995359180495143,0.626462652115151,2.99030467938055
8625.97871478647,158.148271404207,530.53727876395,0.0490020939521491,0.0552354445494711,0.995693524368107,0.642703575547785,2.06483429845903
5511.79146021605,368.353917449713,217.921912949532,0.0286612818064168,0.0379084230680019,0.408977527171373,0.944207892986014,3.49498085792922
8125.8337199688,172.376928292215,362.275039730594,0.0550453102821484,0.0596162804123014,0.973949374631047,0.108825338073075,1.76421962548048
6486.80430557579,124.988836795092,455.33447638154,0.0536700351862237,0.0552859333343804,0.949247511569411,0.0346498114522547,1.84387817936822
7643.27953383327,116.724715381861,1760.23171986453,0.0168252650974318,0.0429940310306847,0.831352167297155,0.039927362697199,2.31911527380001
5726.52924526483,267.165940906852,1971.47582946345,0.0553266563080251,0.033462499435991,0.349913169164211,0.98984056385234,4.59243831208286
5738.29980194569,131.823105551302,1878.14965047874,0.00467483547516167,-0.0329436947219074,0.0969869468826801,0.261297434801236,3.82675577826799
5808.79836343229,371.470197569579,1540.62855071388,0.0587718825694174,0.0592371872719377,0.197598369326442,0.295574724441394,3.20204636491559
5699.05972015113,128.571521490812,1893.16990738735,0.0455849189311266,0.00614975270815193,0.76508145336993,0.0483594152610749,2.75910989728527
9006.67077861726,384.472998604178,206.353532057256,0.0439169963775203,0.0323317314404994,0.553758491529152,0.00815827562473714,2.67636655077369
8944.22195106745,192.625448200852,1874.79130476713,0.00761650610715151,-0.0597381218802184,0.62102396832779,0.0498814980965108,2.46523497790673
8700.86813997477,384.175970125943,238.313271617517,0.0139251798111945,0.03121013735421,0.981251389486715,0.222676153993234,2.02786267339085
9271.05860225856,104.042546823621,1971.48434212431,0.000928422622382641,0.0529880246892571,0.971500762738287,0.789756257086992,2.63881159736273
9207.67843630165,114.065389800817,1721.59249573015,0.0557940983679146,-0.0432360005099326,0.984382443595678,0.927667334675789,2.70206482662346
5774.78514704853,121.1455963552,1153.54958088137,0.00384884415194392,0.0592059103958309,0.00330760050565004,0.745103678200394,3.89924824555896
8850.13740137219,200.630731973797,1999.92931541055,0.0553232400259003,0.0543494174815714,0.997407492948696,0.040035848505795,1.64456509477815
8277.21151802689,188.429719768465,1668.56171316467,0.0181871690461412,-0.0584405482839793,0.0182960100937635,0.0632051732391119,3.0346085182223
5933.51065926254,163.193574268371,1135.99685556255,0.0320882690465078,0.0595498549193144,0.992375940782949,0.718472108012065,2.52944996697402
5673.14237356186,167.73412078619,1721.95292427205,0.00497005261480808,0.0529524901416153,0.708442967152223,0.035435549216345,2.44394103776956
5702.74001825601,491.488443128765,1833.68719047867,0.0230346731934696,0.0019688107073307,0.989894991274923,0.226481578079984,2.63983675710573
6013.4150730446,403.190777357668,1983.9033734519,0.00191752111539245,-0.00652024422772229,0.300400418462232,0.974757814547047,5.49556724346568
8805.85522670299,270.88827714324,616.582201980054,0.0346995554957539,-0.0156607436668128,0.905680973781273,0.740865189582109,2.81599672809496
9498.63178934902,462.953289039433,1670.37308183499,0.055016287076287,-0.0585559671185911,0.0621732114814222,0.0379909663461149,2.92309138525584
6294.1144797951,149.268124252558,1235.60302671976,0.00432035224512219,-0.0156761114671826,0.979326418368146,0.0033342910464853,2.15866322056172
6044.19107362628,480.993483867496,1278.01869092509,0.000626249480992556,-0.0589204007014632,0.986840250901878,0.412911960622296,2.27964151340179
8315.98493736237,287.165350373834,968.022687872872,0.0164701853273436,-0.0594665702618659,0.995919981505722,0.124849616317078,1.71990935875842
5574.93692077696,332.764008268714,625.443266285583,0.0598894530208781,-0.00212351063266396,0.96168493735604,0.158577079186216,2.25809638532972
6035.18543206155,193.773321807384,234.252207679674,0.00113471127580851,-0.0414889055583626,0.995735452743247,0.374622134724632,2.00901840479165
8852.85303555429,345.389790274203,1389.59872717969,0.0563442497234792,-0.05932362947613,0.859649833990261,0.978799613192677,2.9801647364611
5776.19415428489,163.835366070271,1852.81571820378,0.000583286709152162,-0.0114664076082408,0.833060898818076,0.152235120767727,3.01044089569915
8583.42953585088,266.691885143518,1757.97868734226,0.00887663584202528,0.0594523500837386,0.979358901968226,0.969790454953909,2.76318175488013
5730.88135104626,459.869544859976,1349.18432533741,0.0377914734464139,-0.0576053410023451,0.639716898556799,0.98811499751173,3.78197690036313
5696.54886983335,254.780435189605,443.582254787907,0.00248496292624623,-0.0468969804514199,0.906565049197525,0.0653966295067221,2.12447096565688
7979.11336924881,138.543694932014,1958.77842674963,0.000392105458304286,-0.047817099429667,0.978279038798064,0.00664337398484349,1.83434899062008
9384.63364727795,392.104829661548,290.695287752897,0.0582890816917643,0.0552067498024553,0.897602926241234,0.677249623462558,2.34626658281138
8426.68126244098,174.51860550791,381.230601435527,0.000799876525998116,0.0144823079835624,0.425832621520385,0.440083650639281,3.45889689134234
5826.47395692766,165.057420916855,356.683769263327,0.0254440432554111,-0.0500931931380183,0.858337902463973,0.414866717997938,2.45332832396505
6049.99632108957,175.429007597268,779.799038637429,0.0507099982816726,0.0567013577464968,0.961633416591212,0.309462320059538,2.11310047782688
9495.33014558256,498.690699692816,542.442926904187,0.0104507115343586,-0.0354311646334827,0.196666389703751,0.915997493779287,3.69354295843985
