"Umag","Ts","Ta","theta","phi","alphan","sigmat","Y"
6281.23297456652,135.770819049329,1526.82004206907,0.0268346943452954,0.0365641543412581,0.0512028225581162,0.817830976708792,4.41381847805261
7077.52629588358,201.725823919289,560.49496182194,0.000687937105726451,0.00650711418958382,0.457671371742617,0.390047664453741,3.6543120838118
8884.14382766001,339.622309042141,1598.71990757482,0.0355575222955551,-0.0577787085366435,0.243336055150721,0.12578284267569,2.92845999210958
5597.31092520989,300.206381292082,1851.13645918202,0.0165289022485726,0.0405014663826674,0.760507711647078,0.557149662123993,3.41470182747852
7391.90777827054,197.133908838965,1348.9377882937,0.0300518372251187,-0.020348811457213,0.283487408088986,0.305423360101413,3.59810714580395
7964.3784345407,441.085488393903,1265.69415677572,0.00562897928897291,-0.0234329302615486,0.508355179498903,0.981214714962989,4.07395388085657
7447.03232499771,141.986740879714,1908.24027946033,0.0321307583800983,-0.00344572238819674,0.794420097856782,0.831922976963688,3.89694504976215
6717.39602488466,264.900533611886,1819.29973307811,0.0488690564790275,0.0513325739823282,0.491582197744865,0.48866808582563,3.29089061189038
8708.24582423083,456.711798732169,274.968040634412,0.00213916138638742,0.00327261722534895,0.668759189890698,0.297084243837744,3.20477877996156
6159.09852843732,131.28111997433,1064.29901979398,0.0509976666607428,-0.00883812619708478,0.384284753808752,0.0202839293284342,3.10874433769889
9490.13330802321,164.834535901435,1369.99019729299,0.0503443495159037,-0.0303450419618748,0.277309328839183,0.70472487921128,3.63460766324774
8814.50042747892,256.661660489626,1831.1677026609,0.0553753988369834,-0.0366526299194433,0.160456392089836,0.161776617520954,3.18103682386199
5662.31728271581,295.777640934102,206.169382537249,0.0525107703424059,-0.0268497055976652,0.542372648536693,0.755161239143927,3.19885200445857
6572.26167310961,489.393058937974,1727.45637415349,0.0180206632567104,0.0215651965750381,0.95745110136224,0.0927325524180196,2.33319201618871
8647.08424406126,413.391789872199,649.046369389165,0.0242031742649619,-0.0107619441552088,0.633535857975949,0.903871235877741,3.57917935160884
5634.27788640372,399.83987442404,1664.90728768706,0.0207278025726322,0.0395103881710209,0.319168595271185,0.492427329928614,3.79762861026595
6088.68363355286,181.395784143358,929.97710031271,0.0430457834478468,-0.0398163620176725,0.088696572650224,0.600358651343267,3.8023501208392
9428.8009761367,309.467892838642,1609.50253595645,0.0568366982745007,0.0296396745194681,0.379100609268062,0.368456026096828,3.18698047391779
8851.14178560674,477.60337371286,858.382483859546,0.0024458156676963,0.00464756982084363,0.599562857355922,0.145055310798343,3.280188686599
7376.9746545516,184.538054130971,1644.29726605723,0.0404939775732346,0.0125688721161336,0.844349941590335,0.380392489600927,2.94367724351548
8765.77324060723,242.862268800847,1250.33000098309,0.0401679340492934,0.0440917278086767,0.650507859203499,0.199803647808731,2.67958249054599
7828.71289810166,244.144784008153,456.692669577897,0.0466322494715452,-0.00450252698259428,0.262349157915451,0.720210118428804,3.73473505765114
6190.58482510969,474.767206477933,1388.62404904002,0.0468376716777217,0.0352772473102436,0.61490028424887,0.716310487475712,3.57163113366561
9328.93617249094,484.307063169777,1323.58602944994,0.00478423601151444,0.0225765669400804,0.362237677229568,0.344897423058283,3.48943588024342
7660.45360771939,305.034409187734,1990.18277789373,0.0130445860129315,0.00958879201412201,0.113322049460839,0.259447914054617,4.03562325177784
7498.47413679585,451.597109998576,1468.8688850319,0.0232709612867329,-0.0146362571435049,0.256777676236816,0.285812775786035,3.73179881315081
8553.22672349401,312.005258626305,1425.18443535455,0.0336515711504035,0.0420157316601835,0.303357456242666,0.171192643165123,3.09601397056701
7763.74381781556,392.149250702932,884.172292253468,0.0288969576755539,-0.0182017212141305,0.557668427543249,0.102727803164162,3.03556074184343
8147.52653195523,464.903047339059,1677.11546661612,0.0144359401445836,-0.0478222129555419,0.730729878859129,0.0404288589186035,2.43797066250929
8040.89845089242,283.15692595765,1706.50556026632,0.0540399456284009,-0.0395784507041797,0.154421584233642,0.571576020831708,3.67503388396396
6408.75440463424,342.815767330118,1097.93407348776,0.0085951566091273,-0.0540349421200342,0.999848202662542,0.450391847176943,2.19807972687122
8135.74285152368,351.289596605115,231.036404470913,0.032573352082679,-0.0125976616744883,0.294283470013179,0.696100160160568,3.57955503591723
9297.04452696256,120.960493030958,1446.8938730103,0.0418410021878779,-0.00509814495239407,0.409305919208564,0.614627302747686,3.74854823613069
5974.4276470691,369.248145678081,545.744702241849,0.0533524964803364,-0.029936715738941,0.914111554310657,0.244563412151765,2.32779343293322
6316.63440990262,438.681413806975,447.624273440801,0.0551469907886814,0.0201839425030164,0.480936498525552,0.531779060813133,3.23783503789757
5765.68858320825,367.497131975368,1200.6616403074,0.00615745931533165,0.0454605027168989,0.171876893462613,0.794888669822831,4.07491456303836
6220.3928194847,333.441736172885,1413.95891043637,0.016875437532831,0.0595492374571972,0.333024313317146,0.462396372281946,3.28391534106318
8314.34519054368,127.571641650051,811.831290771253,0.0250394527184777,-0.0372086542940699,0.705397893621121,0.00433801761828363,2.53930545210107
8538.58694696799,320.593278572895,345.196875004098,0.0594145508928224,-0.0136650921097957,0.786966087480541,0.0880114188720472,2.4730304814147
7585.50921135582,144.639139290899,1189.79900467349,0.021839187417319,0.047025494179409,0.644777282411233,0.68544234022731,3.20214639609711
9113.12631922774,255.999722374603,1631.50007304782,0.0150802407049108,-0.0438737519186921,0.926207939398009,0.992029124121182,3.05573442063063
6785.36679090932,287.107335992157,481.447097276337,0.00136928177797236,0.0242295113473199,0.0426553671993315,0.875308087929152,4.12962127431132
8447.3944361601,173.533133574761,1765.18978397036,0.00907101394836791,0.00724692006641998,0.895045050329063,0.805784825552255,3.55389681824462
7333.57215631753,102.617779901251,433.001510118134,0.0279069945777766,-0.00709809472896158,0.909947705094237,0.274014441198669,2.55488135202482
9095.82585186698,163.507433648221,619.336726363283,0.0408795551458374,0.0459190930891782,0.680057275427971,0.928196018214803,3.08347784805876
7706.98646715842,159.372322208248,1121.00081900135,0.0442584116610233,0.0162227257048711,0.802726853033528,0.213432031357661,2.6774672348468
8208.20301360451,290.366141204722,1576.44882267714,0.0380018259633332,0.0575614049144089,0.0264584188372828,0.671963011692278,3.65754221049089
7114.28721540608,406.052072328515,665.893941329326,0.0174916005391628,0.00507655391693115,0.10162988578435,0.786143468590453,4.36183722172679
7240.0654577557,228.752475552261,1953.33886734676,0.0375494328281376,-0.0500292851219885,0.834809656401631,0.84939394792309,3.34568365665047
7861.84162192978,178.139446918853,1377.96789408056,0.0239438192817383,0.0142572508580983,0.4116324111633,0.767521907656919,4.06128042393008
6436.11948808655,482.227810773998,687.443047074601,0.0312699411554262,-0.0216897689265199,0.448788442406803,0.641632076269016,3.64736109244193
6521.2625560537,495.719168673269,871.86288788775,0.0258964767785277,-0.0480603504985571,0.774623570486437,0.66220770887332,3.0043071443369
5820.08076930419,222.476770413108,585.245106598362,0.0437400195663795,0.0258070583813824,0.237264870810322,0.0502748661488295,3.13065583513152
7515.17652852461,297.546978648752,908.080773055088,0.00501865911078639,-0.0172334928363562,0.320329143274575,0.0669619258842431,3.39177025827045
7012.62256698683,430.029691413976,760.026667266153,0.0521437939806841,0.0340960067437962,0.124737557878252,0.157137141800486,3.18480476421642
6949.67484842055,277.198562510312,788.680618786719,0.0214630049688276,-0.0431833915913478,0.605513139534742,0.886524611904752,3.4326895534425
6497.2664283216,218.761566820554,942.567808502819,0.0386466230220627,0.0481474693357944,0.0913196655572392,0.476401180082466,3.52530287929817
9193.85693728924,497.69102641847,1944.90935984766,0.0446303335385397,-0.0285256978427991,0.756902786858845,0.580098579174373,3.11483643966006
5567.44523577392,195.166698384099,1019.13488279702,0.0187848457493819,0.0524846547327004,0.88304715243401,0.507747087017633,2.70326031734032
9384.48454551399,455.190974799916,1486.83802101202,0.0346997509048786,-0.000289892214071004,0.869021465608384,0.772784400130622,3.29647759171045
8917.82771399245,189.088062942959,1051.93852986163,0.00771816039229743,0.0325318295440637,0.354022568997461,0.864060750936624,3.7555165422421
6877.45917019434,212.708000385202,1914.78314360185,0.0453957300080918,0.00217926660580561,0.534211843446828,0.181600643042475,3.29551751515103
7791.54440509155,111.208516033366,1102.95642227307,0.0562738756410778,-0.0161709420360625,0.6932003500266,0.562751770878676,3.16185002925728
6132.0759215299,236.41609772481,1781.0862007984,0.0534475577241741,-0.00153892311947421,0.588646178266499,0.119785582080949,3.11688609818066
9229.96504830196,384.099442761391,492.01360817533,0.00787321529975161,0.054462287309859,0.820843304744922,0.202825818997808,2.26591179785366
5522.66329835169,273.31416920945,540.982544289436,0.0224263821083587,-0.0408560212651268,0.142732528676279,0.976873301560991,4.06896360898091
7545.47967217863,355.240843086503,1167.72688445635,0.0368654429003131,0.0557480108334683,0.0768045508884825,0.320743979089893,3.2585900263366
6645.86516300216,151.159656446427,1536.01969712088,0.0360245663942769,0.0532615780360065,0.0634409215394408,0.624463686922099,3.79270243295386
5715.4733267799,207.673271661624,743.132315781899,0.00368992233742028,0.0151358390746638,0.560172433319967,0.43066110484302,3.56069711248957
7211.15356165916,379.742624508217,815.729674512055,0.0591860058941413,0.026797655490227,0.429554215909448,0.968171891570091,3.69460340008058
8689.61104572751,232.890823907219,1028.82304489706,0.0254199159475509,-0.0459103283699602,0.729335062499158,0.416732099498622,2.76462992943379
8488.05428429507,435.390501631424,1310.71081978967,0.0137152846557554,-0.0510652266106568,0.966766349920072,0.311278247826267,2.1541619304773
5889.44686140865,136.268980593421,673.054401254281,0.0122469706102274,0.0191321099965833,0.0197734253318049,0.0703886658512056,3.63646800629177
6763.50911108777,344.120046708733,372.175061750691,0.0270589363384992,0.011556348946318,0.208185018345248,0.953500416630413,4.04668861698639
7145.35934699699,420.323773513548,1880.30797965731,0.0479977630707901,-0.0245604374270886,0.473358973804861,0.513142346434761,3.61425088544261
8595.30488241464,248.074185631238,1784.65770410374,0.0161271079764236,-0.0535175231714733,0.854693810741883,0.634023365101311,2.8280407512857
7928.08360409923,117.596657861024,731.035249808803,0.0114221842504106,0.0279575708817691,0.199628419817891,0.739350969046354,3.8217535931545
5818.44396709464,383.170381456614,717.585989471059,3.95799780730158e-05,-0.0598373942649923,0.931235993755981,0.747625438608229,2.67657877383976
8376.13862863742,261.610636360943,1229.28613414057,0.0482247391314246,-0.0521925495872274,0.519135026789736,0.890766451810487,3.43778435398172
5984.38982095569,171.017068889923,241.482777962461,0.0352342857938725,-0.0261212039653212,0.673934588669799,0.375078793969005,2.88604563019441
9017.59667461738,416.231500682421,1285.48578268196,0.0331445544264279,-0.0451377558778971,0.137629833556712,0.548646469986998,3.55505777533665
6927.16444860213,326.707050821744,976.970945349429,0.00348172045759857,-0.0339456078822725,0.529287030890118,0.850074946049135,3.7303497909756
7043.85326613672,469.466982723214,303.355408796575,0.0298572524343152,0.0495128675510176,0.872549358813558,0.656788408099674,2.51898374554287
6679.41922649741,461.514338120818,1496.99986368837,0.0107394155390561,0.0309620679765008,0.7148101305007,0.260321287591942,2.97656454159459
9040.48027249053,357.492405088618,1216.9742903267,0.0422395594420843,0.0228251363335177,0.00524289028486237,0.441603988497518,3.71901205613505
9148.20456940681,363.900906862691,343.394387752283,0.0310560421933886,0.0372916446385905,0.435158238760196,0.136003051945008,2.89556282240763
6837.48096363619,268.006569044665,603.839927325957,0.0579005782613531,-0.0327964743526652,0.0369485710677691,0.237825103143696,3.32421650015857
6585.56091382168,408.652982708998,1563.67177238269,0.051266222170461,-0.0208443974034861,0.461045128603,0.408355488972738,3.49632546003817
8073.35797447711,328.798076754436,842.501818576362,0.0390995272576343,-0.0359112433154136,0.570382361884695,0.528460202165879,3.1422577681485
7274.94192789309,403.522842789069,507.625719904434,0.0584975444467273,-0.0314948127167299,0.186058908130508,0.945284127965569,3.70192921641619
8296.40826730989,319.942915615626,1861.03536611563,0.010874095016811,0.00980925485277549,0.948813352547586,0.331246282721404,2.7664576385151
6351.95875618607,372.658938559704,993.306971800979,0.057143048389256,0.0416599999263883,0.746450209917966,0.590758749665692,2.96942525283689
7986.90835688263,388.582681431435,1143.0542213181,0.0493390470596496,-0.0569263442125171,0.345835201865993,0.820987593382597,3.49009747394227
8946.35666165501,107.688261616044,971.470094943419,0.00714431925206445,-0.011861677252315,0.210355392340571,0.935857543875463,4.34646125585121
8232.56673059426,446.22755709663,314.380917478353,0.0192859609869774,0.0318805625553243,0.62334098657826,0.351204011905938,2.87689430989883
7630.23417296819,209.413541265763,394.963758728001,0.0460699343499262,0.0179281826488674,0.818391990317032,0.0314898501918651,2.41581117188854
6043.62704340369,427.295850402676,409.373936576303,0.0284819579768926,-0.0080895109157078,0.980245803508442,0.223288081276696,2.30352724676039
8388.99413937703,115.509327357635,266.197775612585,0.0141155599821825,0.0582692239967175,0.972474716734141,0.420072967708111,1.97068456316601
5937.95625740662,226.876600554213,1735.02784180269,0.0202462697136216,0.00104489808110521,0.223803701251745,0.017194475159049,3.65212917562574
9349.58426841535,154.591059496626,1981.56207369315,0.00982679928475991,-0.0558430270456709,0.398122962957714,0.914944081131835,3.64837391506729
7274.94192789309,403.522842789069,507.625719904434,0.0584975444467273,-0.0314948127167299,0.186058908130508,0.945284127965569,3.71264602223678
9328.93617249094,484.307063169777,1323.58602944994,0.00478423601151444,0.0225765669400804,0.362237677229568,0.344897423058283,3.48879165561601
7391.90777827054,197.133908838965,1348.9377882937,0.0300518372251187,-0.020348811457213,0.283487408088986,0.305423360101413,3.59145609413198
9095.82585186698,163.507433648221,619.336726363283,0.0408795551458374,0.0459190930891782,0.680057275427971,0.928196018214803,3.09002605996079
8488.05428429507,435.390501631424,1310.71081978967,0.0137152846557554,-0.0510652266106568,0.966766349920072,0.311278247826267,2.16018397330986
8553.22672349401,312.005258626305,1425.18443535455,0.0336515711504035,0.0420157316601835,0.303357456242666,0.171192643165123,3.1011993159016
6408.75440463424,342.815767330118,1097.93407348776,0.0085951566091273,-0.0540349421200342,0.999848202662542,0.450391847176943,2.19687489448852
7012.62256698683,430.029691413976,760.026667266153,0.0521437939806841,0.0340960067437962,0.124737557878252,0.157137141800486,3.19924593876574
7376.9746545516,184.538054130971,1644.29726605723,0.0404939775732346,0.0125688721161336,0.844349941590335,0.380392489600927,2.95045856199353
8689.61104572751,232.890823907219,1028.82304489706,0.0254199159475509,-0.0459103283699602,0.729335062499158,0.416732099498622,2.75706517375179
9305.9735186398,467.968221288174,1511.99105936103,0.000103921755217016,0.0541893765237182,0.941147910663858,0.982088210061193,2.83211668518952
6274.09496251494,113.282728567719,1662.9085327033,0.0565620139986277,-0.0460670191515237,0.962399346753955,0.414656163193285,2.46105437521096
9059.39802434295,113.152960501611,445.887466333807,0.000555780278518796,-0.0531208739150315,0.0435130959376693,0.33605158678256,3.19673954098139
9040.1020552963,161.942360829562,320.277915382758,0.0582566906511784,-0.0554062933847308,0.781500582117587,0.586738188983873,2.52351612486119
8635.49446314573,101.116164773703,705.230395961553,0.0592837821319699,0.0579805278964341,0.850434208288789,0.00263277487829328,2.01090302492975
9241.70289747417,411.690874025226,320.939537556842,0.0339971441728994,-0.0578430006746203,0.899578226031736,0.437973075313494,2.22129206780665
6281.19676373899,147.073632571846,206.350080389529,0.0585764573933557,-0.0552301339991391,0.761452214093879,0.858178964350373,2.75514095152162
5870.81555835903,407.739770412445,233.99458527565,0.00352173585444689,-0.0589131494890898,0.60552185587585,0.09590800316073,2.46903853849042
7766.63303002715,242.666277568787,1991.98177545331,0.0298953013541177,0.0492136237956583,0.937670620623976,0.40173101448454,2.46239357465541
6542.95156896114,492.727168463171,289.915859187022,0.0577819244284183,-0.0299590239208192,0.958529364317656,0.0214359813835472,1.94977948190326
9407.98800066113,297.633771877736,1625.41026244871,0.0581735608354211,0.0495941627305001,0.970244773896411,0.152084453264251,1.91574866617963
9421.68725095689,449.267805181444,414.744687825441,0.0062800465291366,0.0557712810952216,0.08804213674739,0.0215082000941038,2.91379228859982
5833.04527774453,427.894792240113,1947.69578427076,0.0581668135430664,0.0264217455871403,0.967094316612929,0.313615661812946,2.51727330503693
5724.93484150618,148.208565544337,1781.80592809804,0.050346498163417,0.0447501275874674,0.827392588136718,0.965444910805672,3.76110999930932
6004.91012632847,401.973280962557,1746.07043410651,0.0580706530250609,0.0264484706986696,0.0324626793153584,0.0636866157874465,3.31988326924174
8986.03001981974,125.749605800956,270.800574030727,0.0359255023766309,-0.0581103223375976,0.884261701954529,0.00546833081170917,1.9713378556261
5500.16253907233,429.097127169371,1996.58061936498,0.0256517228158191,0.00914417602121829,0.9528728146106,0.867211619392037,4.04933307518343
7817.88747385144,140.685031469911,1623.07217121124,0.00120220055803657,-0.0419966956973076,0.968966859159991,0.10811889427714,2.0437231564756
6404.76279612631,411.974015831947,884.194568917155,0.000270954198203981,0.0566352527495474,0.961487777763978,0.0557973633985966,1.87929217030206
7435.06828788668,358.346890937537,227.471244661137,0.055275946171023,0.0575491481088102,0.892197316279635,0.126488617155701,2.02403907540993
5697.13971111923,100.393914803863,1859.57137751393,0.00387282182928175,0.05222366547212,0.798690468305722,0.0119359970558435,2.29155921274543
5773.20583537221,459.630724228919,1934.15860245004,0.00247170084156096,-0.0496683254465461,0.586422555381432,0.0108387328218669,2.63579178063733
5932.51786753535,233.927016984671,1956.66645830497,0.0438207947602496,-0.0583058045525104,0.949040086008608,0.976101896492764,3.42363636386354
9470.43846827,398.398619890213,460.983799491078,0.0584346778783947,-0.0103955183643848,0.0794263435527682,0.23572691064328,3.39602619416174
5524.81581829488,228.952362015843,208.687485568225,0.0442712198523805,0.0526830782555044,0.883043907117099,0.976575282169506,2.72579267517221
6084.41803697497,484.896906651556,1097.49492574483,0.0594851401587948,-0.0591847805120051,0.983157959999517,0.257585631450638,2.02639122267316
7517.9315218702,465.191221516579,261.534149991348,0.0206883353646845,0.0574000619631261,0.343581427820027,0.0184977862518281,2.67379275732253
9293.7283013016,476.126714423299,642.137188091874,0.0570546565577388,-0.0082501035835594,0.875581111758947,0.986222052946687,2.97946490865859
5700.10615698993,134.091217722744,652.013908140361,0.0522410411853343,0.0576490753702819,0.891322081908584,0.00594806810840964,1.97403527530511
9423.69370069355,109.139907266945,469.073190586641,0.0570475426269695,0.0461731828004122,0.94423627643846,0.458073974354193,2.15585805180373
9313.97143937647,130.532489810139,590.62076061964,0.0552159917308018,0.0473302393779159,0.152761640027165,0.977445360971615,3.54872751028726
5551.81639548391,117.693799640983,1981.01257029921,0.0163743929145858,-0.0503027122467756,0.314397180452943,0.00849189446307719,2.92573351712116
6675.41211936623,447.101292200387,1944.39797224477,0.0590556629793718,-0.0411776918917894,0.166358964517713,0.879166409606114,4.2471157641221
9143.06873641908,489.457477536052,305.448167817667,0.00108407897874713,0.0412925351411104,0.190881024347618,0.775286187417805,3.44802783756476
9238.45433630049,496.41115674749,1926.19133358821,0.0101368874916807,-0.0498720353096724,0.998756548855454,0.0450103306211531,1.7419535774228
9473.97662326694,145.418629609048,1731.95841927081,0.0547177215898409,-0.021603463422507,0.976215585134923,0.938056264771149,2.88525422881565
9122.04075139016,371.992557309568,424.947017570958,0.0597212927509099,0.0567472545616329,0.904166643740609,0.857472250470892,2.47923513295544
5553.97971812636,438.176033739001,357.745614740998,0.00491153652314097,0.0586159860994667,0.864583879709244,0.336411311756819,2.30345195286234
6095.91045696288,159.949028585106,610.653917817399,0.00201153801754117,-0.0382240208052099,0.987237664870918,0.837480999296531,2.6503553340444
9415.19021801651,170.521907322109,1621.02372543886,0.0498630935512483,-0.0440508137550205,0.849115129327402,0.0179753801785409,2.17652796626809
7574.90707375109,496.542541962117,1880.16410428099,0.0396163542754948,0.0559660013392568,0.836263443110511,0.971036475384608,3.3384242245595
5956.59456215799,142.089359462261,323.108169343323,0.0171842868905514,-0.00273458261042833,0.959690067218617,0.108485948992893,2.36385920617411
9137.69948575646,116.526653897017,541.319700749591,0.000227743978612125,-0.0481187418010086,0.971031924476847,0.432810820871964,2.11539803667559
5565.87127316743,223.923434410244,1844.30399569683,0.0547922103479505,-0.052786030434072,0.876998984720558,0.0305199129506946,2.14564712269495
7027.98129990697,481.256250757724,510.737417591736,0.0537866445025429,-0.0451121956575662,0.114035959122702,0.150473220739514,3.08373308208554
9432.73478373885,159.565465711057,1848.11280416325,0.00326667082495987,0.0503568385820836,0.0104913976974785,0.748611642047763,3.8324528184761
9143.57998967171,191.998851671815,1389.98832767829,0.000702529968693852,-0.0525226213876158,0.975052970228717,0.998377483338118,2.73622815831351
6624.17632061988,380.468666553497,828.81583715789,0.00138785543851554,-0.0596616959106177,0.981142289703712,0.0729253387544304,1.79733135815439
9431.37208372355,481.832598056644,1426.55932810158,0.0522007598681375,-0.0265462134405971,0.981667325599119,0.0283252117224038,1.9026355659285
9233.552233316,462.68493309617,1879.78360736743,0.00387169037014246,0.0199392789043486,0.924302848754451,0.0262112834025174,2.31887255789673
8543.95363293588,111.331893783063,588.903075223789,0.0583506663842127,-0.050053405193612,0.0430525890551507,0.0275452195201069,2.95073872610846
9143.30009184778,118.090084008873,1507.71709089167,0.0182130956556648,0.00544389537535608,0.995407700771466,0.0535565800964832,2.08320017922506
9046.02321889251,492.598323896527,1956.99863564223,0.0545743556739762,-0.050602486403659,0.906380632892251,0.791207350092009,2.86808308288786
8610.8733555302,129.384048655629,1878.41109503061,0.0517107092868537,0.0599641354009509,0.743801498319954,0.987883931724355,3.32969008913226
6780.03422915936,332.834757305682,221.992105618119,0.0559565640427172,0.0524879462644458,0.0220583295449615,0.0141009916551411,2.92507767568065
8666.79007094353,111.198854353279,1838.97711685859,0.00300184518098831,0.0511176866479218,0.485166127094999,0.0192761367652565,2.65797320490597
5605.37237580866,113.972404506058,1938.48630730063,0.0493003099411726,0.0386508285440505,0.995257249567658,0.0244426331482828,1.79968244895896
6247.87188507617,141.219184361398,990.312944492325,0.00500047091860324,0.0518907863460481,0.971199376508594,0.976072901161388,2.89606306951832
8995.03376614302,496.879471465945,1790.9691688139,0.0556993396533653,-0.0548708141595125,0.211629744619131,0.195643792627379,3.02104088210716
9330.86727187037,406.991444993764,1825.46272752807,0.0584048279933631,0.0447243664506823,0.0221183786634356,0.755561760626733,3.78615997467515
9279.38171382993,437.069901265204,218.43926999718,0.00153731188271195,-0.0434099810756743,0.982356991851702,0.917520950548351,2.27655159284235
5934.7145203501,486.175753735006,1950.76549202204,0.0112771601462737,0.042875520279631,0.795790089061484,0.0360219636932015,2.44150819773592
6816.25125277787,399.227101355791,229.706847434863,0.0565304975956678,0.0479786214418709,0.896967625711113,0.915833798935637,2.56788763685591
5629.18790522963,176.99873642996,1996.01931683719,0.0482657874282449,0.046389773497358,0.277313836617395,0.912157819606364,4.45831708164599
8054.388910532,234.21228909865,1853.83874080144,0.000657519064843655,0.0597957503981888,0.980017110239714,0.0468974011018872,1.77008912335581
9499.41366165876,419.515693653375,1602.80211921781,0.0034849570132792,-0.0561981971561909,0.415609603514895,0.059469134779647,2.73219959628194
5861.3659767434,479.314003046602,437.292672041804,0.000341711291112006,0.0520189584698528,0.220381843391806,0.222104391781613,3.03994401498389
6629.3320003897,476.707088109106,399.93209131062,0.0229617884242907,0.0513848962448537,0.0348133181687444,0.670211331220344,3.5104380294238
6317.96867307276,446.382775064558,1844.20710802078,0.0104355203686282,-0.0560854753945023,0.855942217633128,0.934892216231674,3.47806372938755
9015.89392218739,483.976338244975,577.563757495955,0.0498073572479188,0.0570232487842441,0.64298702054657,0.0459169866517186,2.37492328316929
7614.64155651629,441.023865155876,221.945156063884,0.0553187430091202,-0.0520493523404002,0.972973571391776,0.013803391950205,1.75650019372613
9176.60084087402,118.466886132956,536.273975251243,0.0127293672133237,0.0308822155091912,0.15922883967869,0.0325150641147047,3.21326114775905
5658.79826527089,140.948872454464,543.179636681452,0.0558472060505301,-0.0577948832977563,0.838425100082532,0.220222705276683,2.27921657659863
6438.98956198245,181.19977908209,1942.60049490258,0.00270030678715557,0.00659384789876639,0.342053196160123,0.912603024626151,5.15116267677289
5620.31589634717,124.16181396693,1833.89357137494,0.000125001389533281,-0.0558862462453544,0.807930354261771,0.532667503226548,3.11212680614996
8884.10672266036,222.769192513078,1820.75948198326,0.0546114084776491,-0.0583601629827172,0.976063371403143,0.0145147673320025,1.73763726118197
9453.34051549435,439.148153923452,246.175617072731,0.0335976937087253,-0.0464888519793749,0.0958619185257703,0.930727126076818,3.52493959760458
6074.39842447639,474.074121657759,921.258133975789,0.000163881042972207,0.0585150322504342,0.99718574853614,0.761694862041622,2.50940774860353
9483.26315172017,424.943124316633,512.733933702111,0.00758662474807352,-0.0589091933704913,0.695015782723203,0.0484090519603342,2.31947027131427
5875.76166912913,173.476278502494,291.804759623483,0.00109487383626401,0.0230745641235262,0.973374763969332,0.0387233644723892,2.08892083621381
5579.44984268397,296.709490846843,248.990373732522,0.0577038484252989,0.0527960620634258,0.959935076069087,0.028432939434424,1.80426745451813
6059.69779100269,489.198471885175,285.494989482686,0.0486673084599897,-0.0064320008084178,0.505934986984357,0.0135855162516236,2.94934752547516
5677.35825944692,478.402694128454,560.945903137326,0.00971419111825526,-0.0500307931937277,0.424402891425416,0.885942491237074,3.56864310908223
6239.08909410238,485.611734353006,281.792733445764,0.0328301701275632,0.0596519013214856,0.0175571038853377,0.870569797931239,3.52543557216837
5535.71389149874,472.805445548147,1865.82954530604,0.059946430195123,-0.0556923027522862,0.630290553206578,0.131994534283876,2.65234720865998
5946.78278919309,103.360911086202,625.994686549529,0.0520227188710123,-0.0117210180032998,0.922689989907667,0.021762334741652,2.208691927583
5529.34422343969,256.083775963634,399.237242434174,0.0361205041967332,-0.0510090976953506,0.941529759205878,0.935231132432818,2.73938443671257
5561.07731070369,129.849183931947,1938.95202847198,0.00336059875320643,-0.0488683919794857,0.992899345932528,0.908449892187491,3.34224763680968
9439.89824037999,107.110164966434,255.316316755489,0.00286572878714651,0.0392695298697799,0.718543430324644,0.818139133043587,2.86143931033027
5776.45737491548,220.364571921527,1848.64191683009,0.0378583180624992,0.0584797676838934,0.990209572017193,0.387183251325041,2.31600777205298
9263.7243559584,245.293473545462,1961.05416081846,0.0432200053939596,0.0269911096896976,0.98680404573679,0.981143940938637,2.95165686958867
6234.63640641421,415.639233216643,312.649035267532,0.0143495472846553,-0.045666470490396,0.0253988332115114,0.0435415632091463,3.1451264543604
6349.97421875596,100.11241286993,1946.26117167063,0.0251701774774119,-0.0491289889533073,0.965317390859127,0.0584837475325912,1.98906771298888
9391.15764200687,108.249269612134,1825.30846949667,0.0521758029190823,-0.0105017718393356,0.189762333407998,0.984249643981457,4.32572828624773
5536.96660045534,104.392002895474,1841.94148043171,0.0592401170544326,-0.0313949422258884,0.405800904612988,0.865075526526198,4.35565376021762
7110.39228830487,480.603917036206,1901.16137228906,0.00963180887047201,-0.0566123353410512,0.276556828757748,0.631712867878377,3.64927425380652
5949.10223968327,461.511897388846,1956.660561217,0.0597249279683456,-0.0446170394215733,0.917743479833007,0.89484491199255,3.45042969911491
6879.17326856405,101.564247254282,316.941920854151,0.0545263572083786,-0.035561464894563,0.126018626615405,0.75775810261257,3.54629645293201
6216.80221986026,255.367563012987,270.107564982027,0.0121937434002757,-0.0548287268634886,0.731413333676755,0.93011719849892,2.93519876072055
9378.3206641674,158.580734860152,447.277210606262,0.0341956748720258,0.0379650911316276,0.992601833073422,0.0275801050011069,1.77814653356278
6813.32382932305,448.721281345934,1719.67540318146,0.0569882112974301,0.0558308257441968,0.787585773970932,0.318321394966915,2.5956533061003
9001.77825987339,128.250969666988,624.708800343797,0.0526812693011016,-0.0462247129250318,0.990589519031346,0.892248168122023,2.33430053261168
8407.89064019918,475.31190412119,274.495609896258,0.04143608934246,-0.0584211452677846,0.969949707156047,0.801607986912131,2.25469695227908
9445.92451956123,103.04120881483,643.981956131756,0.0577396465139463,0.0578669755440205,0.118007621262223,0.484419927699491,3.14735609294081
6147.83623535186,478.762579616159,485.636462410912,0.0001350217172876,-0.0191079592611641,0.934030920965597,0.834823649609461,3.05152030979749
5592.13996492326,486.079497821629,1009.44273034111,0.0573357116058469,-0.0529317346774042,0.105694699333981,0.0566573101095855,2.99871260799499
8848.73720631003,114.685746002942,299.591421103105,0.0529558576690033,-0.0573455721884966,0.934122380102053,0.0132699757814407,1.84956580801446
5853.10292523354,165.347611252218,272.267836658284,0.0216463687922806,-0.058438155837357,0.141393480589613,0.0243534240871668,2.85335564678443
9248.49081598222,428.684420324862,540.491868788376,0.00653673643246293,0.0420923849847168,0.967390306526795,0.0153574803844094,1.90009143289095
8753.26054636389,154.298582859337,1958.59745307826,0.0513897950202227,0.054180665910244,0.903150049503893,0.456097078742459,2.48148443980872
8826.86227746308,145.904283039272,243.452373193577,0.00152916894759983,0.0487513914797455,0.804075205698609,0.0225665199104697,2.22635298552281
9190.91415498406,328.917070105672,430.20563418977,0.0512793447962031,0.0599316175282001,0.988928577397019,0.0322476362343878,1.64650200324057
9258.21825768799,137.25668489933,250.929527031258,0.0501822900027037,0.0272814448457211,0.989951063180342,0.850234657060355,2.21241562337044
5511.52357831597,123.829174321145,1795.31559674069,0.00456280305515975,-0.0107257611583918,0.980035607935861,0.376324535347521,2.98052437194058
5952.66705658287,112.992928177118,1430.93461743556,0.00574856555555016,0.0593700521718711,0.967838471988216,0.475439065834507,2.4269214700744
9246.7686990276,446.324491966516,1995.25158731267,0.0133156092837453,-0.0213387772254646,0.038562063826248,0.294724175939336,3.88848417143045
5724.88648071885,118.030371982604,1814.05156222172,0.0589993096981198,-0.0331164025235921,0.860473037930205,0.994068924104795,3.85111285953191
6869.62642241269,492.382756713778,1961.53582981788,0.00214659563731402,0.0411069978307933,0.259606882464141,0.305141766555607,3.46482871635153
7053.99150121957,114.787975698709,496.74871773459,0.0498312661936507,0.0549188132397831,0.961122803622857,0.983627700945362,2.57827989505964
7161.3260563463,496.101515274495,267.638467531651,0.0597789192153141,-0.0355170864611864,0.998063359875232,0.829483044333756,2.24410706349981
9389.00745287538,102.75104129687,1713.64717446268,0.00102558801881969,0.042428315738216,0.917520242743194,0.432023167842999,2.49495454308414
7985.69780495018,173.773035872728,1522.9218846187,0.0500578548805788,-0.0523482614289969,0.0354694407433271,0.939221064560115,4.02971221763857
8861.81333940476,476.745064742863,1223.06577367708,0.00370785510633141,-0.0493105827178806,0.872814643662423,0.97426570742391,3.01300329787938
9179.71086222678,451.612280588597,1969.88960416056,0.0573728520702571,0.0531837374344468,0.10463458718732,0.0455269194208086,2.91532161729858
6429.37006615102,499.753854237497,291.603441815823,0.00792564378585666,-0.00385204109363258,0.983364901971072,0.995299769099802,2.92289391530798
5548.39585628361,419.577589724213,1889.46370850317,0.00439074147026986,0.0481202773936093,0.316463745664805,0.94370764773339,4.50471410174552
6817.08670593798,256.806956138462,479.635220486671,0.00339566338341683,0.0540549810882658,0.0167595027014613,0.943725859746337,3.72758308000779
8823.55097681284,113.049081433564,1831.33989884518,0.050427805124782,-0.0352467996440828,0.0510394209995866,0.207931022159755,3.37296755817806
5662.13578544557,364.233948197216,304.947708686814,0.0150748810730875,-0.0564301012828946,0.0482004382647574,0.946962885092944,3.67257128691113
5879.42710891366,138.503332715482,1850.29504816048,0.0353510516602546,-0.059015489006415,0.996719383401796,0.0131192244589329,1.67115467362342
9319.67830657959,405.517117585987,232.120718201622,0.0265122707001865,0.0575581579003483,0.965144772548229,0.980638488428667,2.33447790100732
7074.83500055969,177.303714584559,1978.47903277725,0.00133759775664657,0.0211795259267092,0.963044438278303,0.900930405361578,3.53305975612831
5704.75007314235,488.268743082881,1202.15696869418,0.0512550266040489,0.0544313964899629,0.0439747115597129,0.968381123617291,4.2351192767155
8841.3357976824,495.096421614289,1943.99246415123,0.0591638453677297,0.015923119476065,0.826785471988842,0.0210453697945923,2.37194822171053
5557.89771582931,470.684740692377,1998.86438203976,0.0268896160181612,-0.0434897723793983,0.981641155201942,0.372047376586124,2.60794734070963
5867.35692899674,117.460451740772,244.505217345431,0.00792342340573668,0.0505861541815102,0.89804500201717,0.249359527835622,2.1876972184069
9356.28583654761,437.441056594253,237.303239712492,0.0371535316854715,-0.00598140059038996,0.958621727768332,0.0132692491170019,2.14911566733415
9103.24858408421,475.51226913929,1659.010214312,0.0141621554223821,0.0470313585642725,0.957916352665052,0.230672143399715,2.13949073444643
5812.68068682402,104.844984784722,305.152139533311,0.0503126134397462,-0.0096155031491071,0.97325368062593,0.831863697385415,2.62930485871299
6008.86499788612,495.393964089453,1987.74868720211,0.00887754276394844,0.0448827890027314,0.947695781011134,0.378879793919623,2.63350103797904
6544.48885004967,309.592168033123,1075.8266415447,0.0464536233292893,0.0589057360868901,0.877248512580991,0.0141921523027122,2.02179754250746
6143.83209496737,460.869385208935,1940.84401093423,0.0053329962445423,-0.0551264280639589,0.0868910425342619,0.996198340319097,4.53243163809952
9403.36252190173,392.687254585326,1989.60603480227,0.0166094588348642,0.0560719021316618,0.998444794677198,0.991662203567103,2.66723038804727
9084.10318940878,458.457312174141,464.387488365173,0.0558562678517774,-0.0541840631794184,0.984710897086188,0.0324231279082596,1.69728184730566
8827.98024546355,473.607595637441,432.306719152257,0.00516875853762031,-0.0499365500919521,0.978487602667883,0.0363302058540285,1.81016567820029
5537.72660065442,123.567119520158,1428.47728650086,0.00153731523547322,-0.0365106157120317,0.771725099068135,0.871462973766029,3.85419880588969
9217.60050486773,484.954489022493,1503.13384318724,0.0197193190874532,-0.052199261393398,0.665273834019899,0.867424417752773,3.25075606948332
5879.74832486361,471.396786626428,261.174744460732,0.0339313177624717,-0.0151778179127723,0.0379500377457589,0.00153700984083116,3.45036671182945
6135.96527650952,470.195857714862,215.806749323383,0.0217801017081365,0.0548606880940497,0.971803024876863,0.177626684308052,1.89097196872287
5740.99892191589,499.658824596554,1450.03821654245,0.000654111304320395,-0.0236335945129395,0.149588141124696,0.0502107955981046,3.52717151156284
5912.90055494756,488.739532232285,1132.95684740879,0.0408036141609773,-0.0294660536013544,0.968698537908494,0.00545786553993821,2.02470680396325
9404.21888325363,462.162285391241,1933.21436345577,0.0545528188347816,-0.0467225199379027,0.0461201735306531,0.653210065793246,3.71060944644298
9251.16159114987,180.321521870792,1992.58974422701,0.0371977613400668,-0.00625327281653881,0.987919889390469,0.0773962954990566,2.10900251309823
9170.84989883006,211.90938083455,677.125051105395,0.000614448292180896,0.0581561715714633,0.958863576641306,8.85033514350653e-05,1.78920120868346
6532.95837063342,252.570298314095,1625.068913633,0.0206666797539219,0.0594313298072666,0.774430064717308,0.977598908357322,3.49036106245504
5645.63699252903,372.121742274612,242.6075540483,0.00737840025220066,-0.0492559902649373,0.918658836046234,0.0364705475512892,2.03312240642867
5887.75621447712,298.557155299932,578.618586063385,0.0593772290507331,0.057669673897326,0.995446669636294,0.492103056516498,2.08696220232169
5519.37906630337,487.331352569163,977.108558593318,0.0589231115626171,0.0556867917347699,0.979409995721653,0.411559887463227,2.25508054999825
9058.27365908772,461.145037598908,1864.62796176784,0.00176557546947151,-0.0589123037550598,0.993903991300613,0.554897897643968,2.25360857324223
9356.13770317286,258.791701402515,1995.47475841828,0.00104995889123529,-0.00917205188423395,0.0466005133930594,0.48128954321146,4.36038048136669
7920.09148094803,478.154557943344,256.377633335069,0.0434754982916638,0.0289342999365181,0.0822424187790602,0.933501011459157,3.68423164347433
7319.79365646839,112.74389680475,1195.6410523504,0.0296479068277404,0.0581629462447017,0.0288356905803084,0.98633588058874,3.97369763900927
5848.88599999249,128.427730128169,897.213062644005,0.057662527570501,0.0587680449429899,0.0390598953235894,0.376558907562867,3.29465061046833
8723.31303544343,132.567357830703,1370.19011941738,0.00274518560618162,0.0585505124833435,0.956429660087451,0.801057144301012,2.56438864149029
6452.24135089666,258.374624326825,1856.52382690459,0.0550111145479605,0.0588830573949963,0.0280373685527593,0.65183929214254,3.86282150888678
5673.89353085309,386.208905931562,1838.4445022326,0.00321832708083093,0.00797670350410044,0.900490755913779,0.106731712818146,2.79883700433864
7600.52062943578,493.968749605119,287.798740901053,0.0564547523204237,0.00890577960759402,0.986827408429235,0.00488207209855318,1.92123875606562
8000.72455406189,464.726979937404,1850.903897034,0.00197022752836347,-0.037111732615158,0.148870974779129,0.982145475922152,4.39117538247898
5573.62803723663,108.444401342422,264.333569444716,0.00704107958357781,-0.0581891037896275,0.751701929140836,0.713307807920501,2.74930593223846
7683.9485866949,469.765356741846,1997.84253207035,0.0378242304548621,-0.05854446971789,0.932766505284235,0.215316706104204,2.18020114199645
9230.84280919284,452.970158495009,427.663180418313,0.0199909249367192,-0.059854378849268,0.891205716645345,0.982617661124095,2.59911880769425
6682.68094118685,402.958847396076,260.299958754331,0.0526358289783821,0.0552863207738847,0.999361059628427,0.952169755939394,2.2760812079278
7420.08214164525,126.700561773032,213.650697097182,0.00858372422866523,0.0373818217311054,0.996552543714643,0.855286830803379,2.21055356117677
5597.98388183117,200.822273083031,1817.23651695065,0.0537335338443518,-0.0593470351584256,0.304173059994355,0.0335863514337689,2.82256484809229
5614.61300216615,274.946046900004,1076.21537954547,0.0432453348627314,-0.0182491784915328,0.838793867034838,0.79516624007374,3.52349991646004
5949.62969888002,467.853242065758,770.060312794521,0.0471851110691205,0.0594602021388709,0.689028357621282,0.0811220163013786,2.39255087822429
9219.42232549191,434.806509595364,1919.46241254918,0.0585206849360839,-0.00202334473840892,0.0165083270985633,0.13988675409928,3.58486130125526
9332.66171254218,363.528771605343,357.996703870595,0.0592715258756652,-0.0599583094753325,0.312185145681724,0.0496362412814051,2.64552655601961
5627.96336039901,389.098292402923,429.121918231249,0.00127114823553711,-0.0510498069226742,0.989744692808017,0.931225716834888,2.57833390246319
6284.89663824439,295.774090755731,222.578571457416,0.000843609441071749,0.00227643566206098,0.259953446919098,0.022515466902405,3.62396462434849
5725.50818137825,109.535564761609,1403.06424750015,0.00387489664368331,-0.0430359129980206,0.340007683262229,0.929736531572416,4.30355114435335
5618.15472785383,274.03519237414,1988.00263707526,0.0566345456242561,-0.0582845864910632,0.911985471379012,0.367012784583494,2.60356050003733
8962.3292889446,106.773796398193,983.786416659132,0.055987966354005,-0.055962761733681,0.351332400226966,0.983886506641284,3.49699636585136
7343.78592949361,167.333277314901,1392.18244799413,8.72634071856737e-05,-0.0557910005562007,0.783125368412584,0.00171431014314294,2.24213152680289
8652.26001292467,142.812302708626,735.461310576648,0.0168419645586982,0.0591860120650381,0.709658087231219,0.0130646685138345,2.26238147926287
7130.20761590451,211.248652637005,583.480502711609,0.0425900187995285,0.0262983504496515,0.9142373977229,0.712391543434933,2.72074081224762
9373.93857352436,383.384230453521,1869.62716896087,0.00666467704810202,0.0321474321931601,0.129843744449317,0.0212556377518922,3.28224563938784
7985.13230122626,325.052624940872,1762.20188159496,0.0326517732767388,-0.0536617347970605,0.067331804195419,0.984748330665752,4.14261782897322
9110.87674461305,488.810693193227,1894.49294931255,0.0512181628961116,-0.0569919468741864,0.998820264358073,0.373859463492408,2.03804101452641
5724.8169388622,136.177947185934,804.105080943555,0.0171362686995417,-0.0378555534593761,0.0839797521475703,0.996631448157132,4.35615704742769
6939.43542800844,212.565334979445,802.476106677204,0.0195084915775806,0.032823203522712,0.979860095540062,0.884036523289979,2.7946766846858
7396.10572531819,113.364263158292,1262.83123181202,0.0339812682475895,0.0577639768458903,0.107433185912669,0.205244676442817,3.09207453015678
5577.32185255736,173.738888930529,286.129723768681,0.000124252047389746,0.0271870717965066,0.0303613780997694,0.699318419676274,3.91622036688206
9064.17608447373,409.400606807321,1776.18759246543,0.00436591998673975,0.0567629133258015,0.914801543112844,0.0239437923301011,1.97638164725989
5843.35420466959,479.393648914993,1725.21105050109,0.0131227286718786,0.0597776092775166,0.949143499135971,0.0534925330430269,1.96055938190035
9019.7919998318,458.740953821689,1723.33649443462,0.0407557520549744,0.0591020196955651,0.069762161700055,0.842437534593046,3.76570444405827
5597.1986381337,484.089287836105,1975.812272029,0.0110451512597501,0.0402062414120883,0.930465876124799,0.834377883933485,3.59952386731149
8393.97540781647,104.38561681658,1940.27113635093,0.0198269315762445,-0.0202250404749066,0.0857315466273576,0.361548941349611,3.97067863808628
9269.12934333086,116.183748096228,333.929254114628,0.0584340161690488,0.00508736391551792,0.938010917743668,0.161647239001468,2.20135168744055
5502.725943923,123.157071135938,1714.06364776194,0.0365158698521554,0.0525000366289169,0.174265634035692,0.234012643108144,3.32740785750298
9394.42974328995,107.480301614851,1521.6165096499,0.0591647342266515,0.0429813693556935,0.0223436765372753,0.0418619164265692,3.04432316169771
8818.58454272151,287.403602246195,1823.03642136976,0.00528988209553063,-0.0525244989339262,0.956467325100675,0.0698903484735638,1.95310545654656
5566.55223947018,306.992353405803,200.216020504013,0.0471377773722634,0.0152566170226783,0.175720716593787,0.888658155687153,3.76982323230318
5803.19510865957,407.761748228222,286.296238657087,3.68005083873868e-05,0.0483773889765143,0.900442860322073,0.722745501203462,2.57931558679754
5976.53304133564,106.283061765134,1975.09433520027,0.0153067755885422,0.0295529786590487,0.526698079425842,0.849362831562757,4.38638801388362
5525.7304655388,366.446940880269,1622.59203274734,0.0473286817828193,0.0561483194120228,0.983648533700034,0.957710454473272,3.2696763084067
5803.11909876764,489.597344398499,1827.95251696371,0.00230118095409125,0.0496049866173416,0.0739066151436418,0.0824236257467419,3.22809728721104
6639.01672698557,189.289358444512,1990.90487691574,0.0579578481568024,-0.0250227305386215,0.757306597428396,0.14437773800455,2.69297740222261
5529.68985773623,461.64830699563,1496.50819012895,0.0571407085983083,-0.0588996422477066,0.32041779300198,0.894832044374198,4.03298873749822
7511.3099841401,341.207660641521,1984.11606717855,0.0192530487757176,0.0594705609418452,0.130981435533613,0.00395832234062254,2.87637836041404
5667.93924383819,217.603017762303,1993.48608860746,0.0121851263847202,-0.0493854470271617,0.0539121651090682,0.884422694332898,4.64706466495846
6814.75280318409,107.200371101499,509.602527599782,0.022169858654961,0.0592338303476572,0.0185891764704138,0.160911831771955,3.03663567966138
8130.8963354677,461.984003148973,1727.28132065386,0.0218683463288471,0.0567798380088061,0.745110010495409,0.713172659045085,3.06128268476438
5508.73236078769,153.565599676222,945.450374344364,0.00585701901465654,0.0425154564902186,0.910805668216199,0.97989388788119,3.3194424594753
5558.70482884347,427.519782818854,634.303718293086,0.0593138157902285,-0.0381294499989599,0.925044938223436,0.971865338739008,3.01175471176135
5784.48932431638,136.49714384228,282.645459659398,0.0574291601730511,0.0140254266746342,0.135440646903589,0.973509249044582,3.87399512516497
9053.92007622868,105.301879532635,1645.15902502462,0.00223884094040841,-0.0557445817440748,0.546210040803999,0.450500566978008,2.98203279838925
6207.34484773129,124.580321647227,1925.95917875879,0.00761179722379893,0.0395145051553845,0.0111282609868795,0.11989648360759,3.46702563917596
7389.89103958011,133.365940954536,1762.74307132699,0.000729411919601262,0.04835837806575,0.00220227218233049,0.000676560681313276,3.10276368088783
5583.07500556111,464.312898460776,1903.59945166856,0.00422413703519851,-0.0122558634728193,0.991691240109503,0.147731378208846,2.50611276344814
5676.22383311391,180.543813295662,249.413153994828,2.72307777777314e-05,0.00993951237760485,0.207590973237529,0.986962568247691,4.24097814281738
6671.70645296574,141.029031854123,398.389725154266,0.0208726430498064,-0.0483181443437934,0.996403481578454,0.0545632087159902,1.71721485143933
7134.67227201909,104.973976314068,1987.11527097039,0.00172647451981902,-0.0186239286325872,0.985793346073478,0.0091231819242239,2.09399354577462
5508.43871757388,153.412199672312,1867.14952616021,0.0490901190647855,0.0544734394457191,0.904556670458987,0.776349012739956,3.30037427829403
7318.07967368513,379.61585149169,1113.57509945519,0.0267709245253354,0.048647177182138,0.915313568664715,0.0416777362115681,2.0576290014272
6254.07503265887,127.910752221942,1683.07127538137,0.0564009765163064,-0.0594783849734813,0.0981799862347543,0.0284797539934516,2.9374103300824
6561.77929975092,241.217813268304,1088.49648036994,0.0346336424024776,-0.0239691338595003,0.997240036493167,0.917899356689304,2.97604780225017
5556.69035576284,278.656838275492,1753.81249883212,0.0581500028818846,-0.0365216560754925,0.966999393654987,0.0055139793548733,1.93013750820386
6056.04743771255,492.213676124811,295.206765411422,0.0127792163612321,-0.0109557648003101,0.832701588049531,0.91795356804505,3.30090244537837
9156.60579781979,459.956765826792,1830.77637678944,0.0496476246183738,0.0594190934300423,0.995596267282963,0.251552006462589,1.89139195967983
5680.06297573447,234.6590093337,388.110602507368,0.0363127798307687,0.0439930286072195,0.892255242913961,0.126170552102849,2.19930386446664
9429.41037658602,271.847068145871,227.590574044734,0.0589407994458452,0.0142510363273323,0.370358900632709,0.998861170839518,3.41887596487286
8287.67087589949,495.064407028258,241.063761711121,0.000200878204777837,0.0277933827415109,0.968898698454723,0.958936599083245,2.50670590428687
5968.95687002689,102.771619241685,306.633005151525,0.055231453855522,-0.052590662855655,0.960956048453227,0.00689266412518919,1.79380152669132
7800.51419977099,474.791443068534,207.028604671359,0.0504823721945286,-0.0459116339776665,0.86094826948829,0.389349433127791,2.32679780950906
6602.31145378202,182.925499416888,228.048518905416,0.0504732683021575,-0.0508020387031138,0.0444287322461605,0.984595383517444,3.62277718398508
5581.04897942394,124.759268574417,707.015134068206,0.035699330479838,0.0507561368867755,0.431126553798094,0.949686006177217,3.71112784693009
5740.82665611058,490.119403600693,212.344807898626,0.0139481450803578,-0.0599671403691173,0.982005077879876,0.84196662530303,2.30842239704954
6052.78830137104,346.600918937474,1879.86130425707,0.00364419585093856,0.0564462816249579,0.981968055246398,0.948602593271062,3.20642864085085
9356.15523159504,192.124647647142,875.803504325449,0.00710576636251062,0.0227303376886994,0.978639139793813,0.258901049150154,2.22125300759805
5665.81313032657,195.390732958913,261.945218220353,0.0584612279618159,0.0598845893517137,0.223452054196969,0.627876019338146,3.1721125311475
8645.48693969846,135.757693182677,1690.81650804728,0.0567310201004148,-0.0564671774301678,0.995726657100022,0.845675619784743,2.50286781555002
5966.9620860368,261.092104017735,1971.04376247153,0.0105494029680267,0.059144046921283,0.0483898457605392,0.999762272462249,4.52292643652487
9348.27309008688,482.879457809031,832.643264345825,0.0583088989136741,0.0382424960285425,0.91623282362707,0.611483896849677,2.45365373644439
8810.58643013239,203.448731824756,299.76439550519,0.00425749955233186,-0.0243279238790274,0.943031816510484,0.906297686975449,2.6403909385014
9352.58926823735,304.021964874119,1854.07131472602,0.0376629225164652,0.0584687332157046,0.234227638458833,0.991180615266785,3.7852993506986
5653.78846228123,127.517593838274,201.652868138626,0.0598504420788959,0.0337539423722774,0.960103375837207,0.452283534454182,2.17692594350426
5617.71919485182,480.362931173295,235.70478730835,0.00140900063328445,-0.0071217646356672,0.6827763679903,0.192328017437831,3.13558698968995
7568.91476549208,109.952122997493,599.015232454985,0.00395823170430958,0.00878985771909356,0.998840325511992,0.0601505215745419,2.04722744891204
9007.26015493274,457.531219813973,1954.95252716355,0.0219157762359828,-0.00696967321448028,0.620557799236849,0.904296106658876,4.11560382071311
9499.63986035436,345.740418229252,982.31894322671,0.0324192097596824,0.0582322224508971,0.999712976859882,0.867413942934945,2.27318456870608
8071.96538988501,488.855242170393,1848.57731959783,0.0583079614397138,0.0493151345662773,0.970931240357459,0.426765979034826,2.28770959035624
6638.57544120401,145.910281874239,246.852402528748,0.00435277746990323,0.0571087194699794,0.314464145107195,0.190943463472649,2.82446185496823
5633.95764213055,116.790701355785,1916.12490550615,0.00960256688296795,0.0547630586475134,0.112895873608068,0.976418125908822,4.57558670048377
7026.58877242357,162.177125178277,1902.54419478588,0.0398357937019318,0.058013927936554,0.974080670857802,0.904440388316289,2.95571247455492
5652.79552154243,474.841083399951,215.543267130852,0.0579364774469286,0.00741300380788744,0.955819982569665,0.481602370971814,2.40370745340529
8134.90353710949,412.634730990976,343.31863229163,0.0586418173089623,0.0591917958576232,0.430666995467618,0.91193678160198,3.1373519144173
5616.79459363222,142.197993677109,565.481231920421,0.0131323511945084,0.0574514176882803,0.98907311912626,0.425454632611945,2.08505262142564
6124.32568799704,157.036711554974,1376.63596975617,0.0541732540447265,0.0473967108316719,0.988291265442967,0.939099781680852,2.96994814673808
9484.87166967243,110.178239829838,1719.21918625012,0.0598240149859339,-0.032877897368744,0.139808966778219,0.504363678162917,3.53895941270554
8076.89485512674,477.477561868727,1950.42763510719,0.0479330734536052,-0.0542886219453067,0.0305649309884757,0.0288671352900565,3.04282107283837
9394.9097590521,114.556098729372,1921.92893256433,0.03823869779706,0.0595331955235451,0.600500987842679,0.445230424869806,2.8655368352051
5554.8712098971,339.420072734356,1969.23272740096,0.0275948576722294,0.0470612807292491,0.0129787758924067,0.253180100349709,3.62060983142813
9437.12661787868,124.726851191372,1918.85027377866,0.0184949669893831,-0.0521379648987204,0.996242457302287,0.301695946371183,1.982270799343
9456.42713177949,353.573833405972,208.745879353955,0.0044759665383026,0.0317203147150576,0.060041066724807,0.959142175270244,3.69083383806954
5963.98555394262,477.412660885602,1793.31278498285,0.0212546880729496,-0.0239554383885115,0.857545847306028,0.998436046065763,4.19749214929162
8117.30210855603,101.131406892091,215.741857886314,0.0269531189231202,-0.0536798563040793,0.978983507025987,0.978418693644926,2.30888920854467
6082.31171499938,376.617178414017,1915.75351511128,0.00277208707295358,-0.0522755735367537,0.99602333526127,0.399988996563479,2.37773979890653
5594.44249980152,133.654365409166,338.735628500581,0.00490881940349937,-0.0366260095126927,0.952894533751532,0.141804861137643,2.12225562240771
5508.51068552583,466.651359852403,555.596252344549,0.00752998451236635,0.049515267284587,0.998818164225668,0.00584321469068527,1.74400918688465
7010.11518202722,129.78996085003,939.868790423498,0.0593758880859241,-0.00288192135281861,0.995651992736384,0.000123103149235249,1.86070776087325
6810.67345570773,106.429526861757,887.582990573719,0.0442524389829487,-0.0585002371575683,0.809742918936536,0.20047900872305,2.34247991385516
6173.13783988357,110.008209291846,952.09661629051,0.0102419352577999,0.0494050633627921,0.70932264928706,0.0483563835732639,2.45021916723438
9323.62434081733,233.124460186809,1196.19293068536,0.0250551591580734,-0.0565352674853057,0.0687049804255366,0.744263992877677,3.58075350997837
5788.73021807522,147.787623107433,222.10321361199,0.0434592512017116,-0.0513624240551144,0.952768378891051,0.700030910084024,2.35575615985858
5661.75161208957,163.501769956201,352.39875135012,0.0491686938051134,-0.0577770460769534,0.113770880037919,0.459683726308867,3.25334754137984
6924.67637732625,249.77922514081,1993.77217050642,0.0453076538443565,0.0326102614123374,0.0015613881405443,0.974807257065549,4.66275751244392
9164.61499687284,126.823534350842,228.985218377784,0.00951549304649234,-0.0275101158767939,0.804731373675168,0.872761462582275,2.87765322973038
5613.17740194499,107.204720098525,1108.26034210622,0.0536196306813508,-0.00113080943003297,0.0616190161090344,0.82989903492853,4.64341899546746
9311.53097096831,164.871839806437,234.202965674922,0.0598406057059765,-0.0473972647078335,0.986472654854879,0.891850210726261,2.19900841792439
5508.41047428548,482.933732494712,1877.95591745526,0.0418559268582612,-0.00247079341672361,0.498455576598644,0.0588089001830667,3.26227819214996
9461.73106133938,100.59730540961,1793.80949153565,0.0244103711564094,0.0596265847887844,0.0637829806655645,0.716279169777408,3.59692308386588
9320.84856647998,136.589177884161,263.866539858282,0.036033729147166,-0.024594219904393,0.443602024577558,0.375709004234523,3.1151976280596
9277.13210415095,137.415072042495,1995.33691885881,0.0599707180308178,-0.0579713549651205,0.329073668923229,0.726073571946472,3.44178259291878
5789.86367955804,215.070547536016,1980.16323372722,0.0557607624772936,0.0570721124298871,0.641706265276298,0.0663900771178305,2.51951597286035
6529.67483922839,325.261630769819,1603.68409324437,0.000694317212328315,0.0568570247199386,0.214594491524622,0.0239411634393036,2.87195180511342
7356.3341749832,136.29289502278,1794.5111955516,0.00800433208700269,-0.0511404084786773,0.0447012006770819,0.463184788357466,3.65239436158117
6038.21535874158,147.650613170117,294.584400299937,0.000227857944555581,0.058966687079519,0.998882114188746,0.362968846224248,1.8448907025393
9482.8467387706,105.010944418609,323.993184743449,0.0543054884858429,0.0496822242625058,0.983297939179465,0.73937022103928,2.1401423718917
8679.21827081591,473.176182340831,1896.26658307388,0.0457912360830232,-0.0283028641249984,0.992623513564467,0.986039382172748,2.99483696384395
8917.49767586589,397.334469482303,1970.02789801918,0.0584618946025148,-0.0206023971922696,0.54264799784869,0.949304140405729,3.85699907606783
9285.11468879879,105.022636242211,1855.98266692832,0.0501627707574517,0.0171104921400547,0.981669035041705,0.945401281118393,2.94922915534499
9393.90971977264,106.336989440024,1445.97806078382,0.0589922852581367,0.0420231162384152,0.852686072699726,0.0102600615937263,2.11588554585348
9009.07027348876,258.384288940579,332.337045809254,0.000927045741118491,-0.0285277307219803,0.346690190024674,0.991452078102157,3.61868991967546
6158.38781464845,392.459033988416,1958.29965788871,0.0403223397117108,-0.0517081538401544,0.132664525182918,0.321568304207176,3.51309253425773
8733.70743449777,368.348086345941,286.201505130157,0.00573992398101836,0.0584247905854136,0.774154097540304,0.930530884070322,2.73756697986404
5787.78422158211,455.283344909549,1307.9606784042,0.0136489690281451,0.00515381164848805,0.041427141521126,0.717116401996464,4.92392200565847
6325.19035972655,110.203652177006,244.614923465997,0.0013392707426101,0.0248085529357195,0.611270911991596,0.0286353188566864,2.82324940965397
8267.63102691621,390.503344684839,1036.27961496823,0.0383211424341425,-0.0445631745457649,0.999392808182165,0.860565745970234,2.50717140504414
9340.96325654536,175.758262444288,491.224021790549,0.000660959319211543,0.0527595346514136,0.959322836715728,0.845885192509741,2.36173348641345
8690.36076124758,479.117991868407,204.38084024936,0.0424146954528987,-0.0380455768760294,0.162816102616489,0.0848217136226594,3.06606484236047
9292.33539197594,126.011982280761,276.763863954693,0.0074797849310562,0.0423382309265435,0.990185995586216,0.915929510258138,2.23584400933433
6611.14573199302,499.639854393899,1061.75768706016,0.0424530741898343,-0.0200739620346576,0.0713672819547355,0.971471430035308,4.47538978493351
6982.83129744232,122.332335077226,898.390768235549,0.0321953129768372,-0.0398242613486946,0.944344434188679,0.996316883713007,3.03076274669247
6086.84284053743,456.616429891437,244.332447042689,0.000451377318240702,0.0575841859169304,0.600898943608627,0.906804661732167,3.03895018866581
5569.37183998525,122.983418218791,832.793641136959,0.00539352126885206,-0.0565204678103328,0.0863237085286528,0.20472166640684,3.20527739552993
8965.6999334693,191.52576494962,348.15625147894,0.0532396512106061,0.0580066110100597,0.300732266390696,0.995714983670041,3.3215973187184
8288.33227790892,106.264264322817,1270.33907976002,0.0255253984546289,6.87109027057917e-05,0.0106644930783659,0.00762477423995733,3.72389048624196
5708.79426784813,398.636269941926,252.315675467253,0.0587637497903779,-0.0431361586879939,0.975055143702775,0.889748624293134,2.44582510580084
6750.61883311719,158.113752212375,1315.10460968129,0.00108279181178659,0.0597565018292516,0.553860332351178,0.415209818864241,2.96145499620667
6751.15183647722,153.526389412582,603.967372747138,0.000133811119012535,0.0462524347007275,0.86373166856356,0.438663137378171,2.52877862603828
8086.05283033103,465.495114773512,1997.62159767561,0.0595788730401546,0.0265351210534573,0.848000163212419,0.938446561573073,3.41475365405865
9470.13565525413,220.204403996468,1706.05036853813,0.0586991660809144,0.0595016451179981,0.700608690036461,0.919610593467951,3.16407462400161
8276.1606760323,497.393274586648,219.088448397815,0.00558352624531835,-0.0321706766076386,0.849368738476187,0.314441425958648,2.48813901356878
8893.15962977707,488.632272277027,1484.54361427575,0.0568063725158572,-0.0511415526084602,0.682980841724202,0.0505265269894153,2.38613749910407
6364.51939027756,103.318475093693,722.459532041103,0.000468963459134102,0.0585832358524203,0.848294231807813,0.98543347674422,3.00665997955054
6298.17976523191,489.114996697754,1922.02085019089,0.051572631932795,0.0373622250929475,0.514237908879295,0.947934621246532,4.14473171433918
8779.88922037184,366.324439179152,240.932312933728,0.057217793148011,0.0593751652445644,0.0566210721153766,0.910204341402277,3.40184879677286
6505.25817088783,276.048755459487,367.115710349753,0.0356279436685145,-0.0505921651795506,0.997363389935344,0.344575571361929,1.93901556450541
5831.20189700276,368.205526657403,1272.08298039623,0.00148564376402646,0.00988129178993404,0.77754254383035,0.967772935051471,4.31888793460379
6046.11968249083,131.884537264705,1976.07619594783,0.0548143257200718,-0.00350500018335879,0.985970468027517,0.975457491120324,3.70203291514866
6487.43916582316,121.408729348332,206.218555336818,0.0149842012301087,0.0172910953871906,0.837521856883541,0.86881047161296,3.0159248283244
9341.38997178525,121.577294263989,1997.3806464579,0.0102536810562015,-0.0381135527975857,0.743003486888483,0.0286791909020394,2.50913703486709
8914.94411136955,468.795950524509,400.644980976358,0.00753274486865848,-0.0584429236873984,0.0074661816470325,0.225931327324361,3.08318720258492
9314.41674567759,451.469871401787,485.624537058175,0.00453249497339129,0.00670880740508437,0.994322713464499,0.0320911556482315,2.10373249743435
6310.31560152769,364.263124391437,1194.4281809032,0.0403944477438927,0.0480258365627378,0.964792620623484,0.925633691251278,3.00552764332769
9499.84727520496,480.374170001596,1054.09730398096,0.00913942825980484,0.021687650475651,0.544226191705093,0.91952114040032,3.73114150195467
5502.09753867239,111.272983066738,1992.86241633818,0.00104164788499475,-0.0349134028796107,0.0261214072816074,0.854871517047286,4.98158383653832
9421.87298089266,421.249986626208,1958.67678779177,0.0435880172252655,0.0510981772374362,0.978567763930187,0.0505282448139042,1.8339464194447
8208.58493912965,357.107745390385,391.994704352692,0.00141031466424465,-0.0590526427701116,0.98035530350171,0.434783830074593,1.99578444443777
7134.44690499455,135.949248448014,275.124202342704,0.0556408290239051,0.0195293831918389,0.260729274246842,0.0355038829147816,3.04073841948787
5711.29352692515,197.707749158144,1667.37387008034,0.00219359815120697,-0.0597720114234835,0.692590076941997,0.997699051396921,3.8708987747418
5597.83877898008,495.800745952874,1849.6678173542,0.00742314876057208,-0.0366281291563064,0.974411368602887,0.973418306093663,3.73197292365772
9439.04710654169,492.249019816518,289.225915400311,0.0385099791409448,0.0543699658848345,0.809798400150612,0.135726431617513,2.2219613349599
9324.40670393407,155.976399872452,1042.06047193147,0.000763445673510432,-0.0541945753712207,0.977781692519784,0.0931960141751915,1.83375795479762
6001.83782447129,163.860767614096,230.612958827987,0.00395935033913702,-0.0456259144563228,0.999908469617367,0.872058459790424,2.25971204374947
6315.84862805903,441.318548936397,1605.45812975615,0.011052516438067,-0.00565480448305607,0.883320526918396,0.713229265064001,3.76686155828889
5516.78878441453,105.746342707425,1814.6982784383,0.010215327674523,-0.00771383129060269,0.891484876628965,0.00833938736468554,2.62186423399071
5539.44391384721,248.134236223996,1735.20334274508,0.0479700163984671,0.0585123480856419,0.979654725641012,0.748571033123881,2.94341684347087
5532.92897809297,457.186940778047,1040.17754108645,0.0308657217537984,-0.0391644318960607,0.485515203326941,0.170018187025562,3.05184273012319
8278.28605473042,442.256625369191,1963.08473469689,0.0011062612105161,0.0367123753298074,0.665323179215193,0.996507764328271,3.82230137033193
7764.06578160822,339.295510947704,258.601880725473,0.000432157181203365,-0.0205061909370124,0.0252757598645985,0.018239741679281,3.54570291392214
9313.87965474278,346.050135139376,1675.12051132508,0.02182981624268,-0.0587709848117083,0.00446941191330552,0.00577342137694359,2.96506224171853
5691.23317673802,404.091422073543,252.128637908027,0.059062044150196,-0.0597176835592836,0.960812845733017,0.0581474264618009,1.80789586383616
8446.47032115608,465.415190439671,464.057196956128,0.000938157797791064,-0.0539590486977249,0.622099223081023,0.685475966194645,2.89556917958482
6273.9154053852,234.13929771632,1367.02528251335,0.050299100484699,0.0224905413575471,0.917189263505861,0.140175128821284,2.35783694670948
9482.30291903019,390.365042537451,1413.80593804643,0.000358600183390081,0.00880570342764259,0.953244011616334,0.982157246675342,3.3201762479158
9235.35993043333,188.609126582742,287.125931819901,0.0146250976715237,-0.0368243594840169,0.164941807975993,0.975089390994981,3.62383561819089
5632.59199913591,118.06832626462,825.548541964963,0.0114208152517676,0.0467796400096267,0.992866622982547,0.231007307069376,1.99722468997989
5610.90618930757,498.653422389179,655.810311390087,0.0341562841460109,0.054958227602765,0.23337018257007,0.00407741032540798,2.80642031668932
5586.84983942658,153.992880228907,277.05131880939,0.0372745175706223,-0.0254756944254041,0.0368403987959027,0.104900964768603,3.40176893742833
9133.47759190947,484.614165127277,1248.41549871489,0.0145943955425173,-0.0298544161487371,0.0218737348914146,0.808869725326076,4.13292501590052
5877.32367683202,118.418643157929,983.789277402684,0.0532008158694953,-0.0588302216492593,0.3428078815341,0.933983039809391,3.77839274920004
7091.09164215624,468.049817159772,1302.60947193019,0.0550689297867939,-0.0436338189616799,0.798230084124953,0.780187790747732,3.13737913070896
9217.47223846614,376.237207651138,1958.77363900654,0.00247288373764604,-0.00772268492728471,0.0840500032063574,0.0193415961693972,3.79033763501056
9256.40660151839,284.627093560994,283.051105216146,0.0358398822695017,0.0594675199594349,0.0235709710977972,0.0222317920997739,2.89473013729726
6087.74047251791,199.53888328746,1876.83620876633,0.0465002631302923,-0.0280036857817322,0.90823976136744,0.809334981255233,3.51075110226316
8752.30692420155,112.805799115449,1580.76629987918,0.0586618224391714,0.0571803816687316,0.406088831601664,0.0429988976102322,2.62357698639526
5549.79875124991,351.400363724679,1155.40921380743,0.0031154435640201,-0.0413579279836267,0.0266097383573651,0.349321148591116,3.72936060601685
6454.64541669935,489.449913613498,202.382661169395,0.0540948329307139,-0.0495653897244483,0.406002809759229,0.578956039855257,3.01644886108282
6367.83263366669,244.466072320938,916.481170011684,0.0291132778907195,0.0435694625135511,0.974289962789044,0.370011150138453,2.26433490053946
9464.01779539883,102.659943886101,1351.78307909518,0.0256302926223725,-0.0396536875516176,0.994447862030938,0.832442960003391,2.53917677610853
5785.10808572173,476.855430193245,1928.90989659354,0.0524081222293898,0.0506763224769384,0.915646637091413,0.0468667133245617,2.09669031609256
7898.94064795226,270.197234954685,622.316026408225,0.0463035578140989,-0.0528501950483769,0.976519136922434,0.199613794917241,1.93022037996999
9334.09308828413,499.450018350035,685.808455944061,0.0555362075055018,-0.0241349688638002,0.43968996964395,0.230008035199717,2.9835751728934
6001.20981503278,127.119665127248,212.073909817263,0.0326845131861046,0.051521894428879,0.0990875705610961,0.942570130107924,3.57411280835384
9442.76850204915,288.027938082814,234.892495814711,0.0360163266398013,0.00901904365047812,0.0235724800731987,0.780426321085542,3.82306492983826
6798.62891510129,273.61211720854,966.351538384333,0.0196372788911685,-0.0599445343762636,0.987351119751111,0.97270625969395,2.67775901752629
9262.37552799284,148.011296335608,1740.46844653785,0.0054491856135428,-0.0178671034891158,0.522173159522936,0.955066275084391,4.14960459685775
5785.16707383096,101.815718598664,1541.93603917956,0.00801354836672544,0.0437430715933442,0.976945967646316,0.801971426699311,3.08470707559777
5585.45505069196,108.81399391219,1948.72079379857,0.00305179734248668,0.0355566485971212,0.293575704097748,0.317671756958589,3.68556759787265
5503.21378838271,483.83839065209,1491.94402508438,0.0539702856168151,0.0221022020559758,0.40968824038282,0.732088770950213,4.09681818444427
8782.81480353326,414.036769792438,413.03070387803,0.00138440642505884,-0.029617229970172,0.998859622050077,0.0596571473870426,1.87005622385363
7515.13335295022,341.104694269598,1866.21018429287,0.00348150491248816,0.0546566368918866,0.7682622699067,0.22435422311537,2.54823966643312
9119.42065134645,140.063777379692,655.415903450921,0.012237562998198,0.0586146321985871,0.0652745610568672,0.955042195972055,3.56276548065511
5566.47337786853,399.748076405376,244.559851847589,0.024899380300194,0.0576475370954722,0.00828752713277936,0.2665748342406,3.13163270435348
5760.93292981386,121.856134664267,1973.91520929523,0.0139340999722481,0.0495894138235599,0.921369533520192,0.768504203530028,3.31683560758979
5744.72740385681,117.613931931555,238.903992529958,0.0556146804755554,0.0358573121577501,0.436687473207712,0.0599243205506355,2.73869791321282
5679.48052473366,150.38897274062,1997.99212557264,0.0073266283236444,0.059123193025589,0.974474580958486,0.0424840254709125,1.86074284008103
8383.4150088951,375.939662754536,1925.99152158946,0.0025616066576913,0.0374449490848929,0.261953188106418,0.957629750948399,4.20430846913384
5896.81864064187,490.422432031482,447.941040154546,0.00634021817240864,-0.0555925457831472,0.498623708961532,0.105489477515221,2.66646776269991
7376.14848464727,107.382788229734,1187.40025516599,0.055958752753213,0.0535590987280011,0.983264972921461,0.0330728960689157,1.73219756353781
9377.02797260135,468.68693921715,1780.72213125415,0.00918062302283943,0.0572810346353799,0.0845332657918334,0.0677931034006178,2.98183554017426
7387.29986455292,470.982428919524,1951.49522554129,0.0542319766245782,-0.046874439753592,0.99146501114592,0.0472989864647388,1.79700643792645
5868.99129208177,471.500811167061,712.523512961343,0.0288322631875053,0.0569156426098198,0.807034874800593,0.929915761575103,3.10451263123456
9186.67001649737,481.684696115553,605.262906523421,0.000293507343158126,-0.0320578329730779,0.150681830942631,0.738939460599795,3.70965035243151
6952.0168621093,108.985317591578,432.713914522901,0.00411192110739648,0.00649166255258024,0.997717058751732,0.99267987231724,2.81540876284797
5549.99549128115,144.86704338342,690.768756018952,0.047984591438435,-0.0588190154917538,0.161484244978055,0.988654259592295,3.89612605843552
8456.29010163248,493.966131191701,1859.08179851249,0.018498900225386,-0.0296662185061723,0.850492381723598,0.064786913106218,2.47193556618745
