"Umag","Ts","Ta","theta","phi","alphan","sigmat","Y"
6281.23297456652,135.770819049329,1526.82004206907,0.0268346943452954,0.0365641543412581,0.0512028225581162,0.817830976708792,4.41381847805261
7077.52629588358,201.725823919289,560.49496182194,0.000687937105726451,0.00650711418958382,0.457671371742617,0.390047664453741,3.6543120838118
8884.14382766001,339.622309042141,1598.71990757482,0.0355575222955551,-0.0577787085366435,0.243336055150721,0.12578284267569,2.92845999210958
5597.31092520989,300.206381292082,1851.13645918202,0.0165289022485726,0.0405014663826674,0.760507711647078,0.557149662123993,3.41470182747852
7391.90777827054,197.133908838965,1348.9377882937,0.0300518372251187,-0.020348811457213,0.283487408088986,0.305423360101413,3.59810714580395
7964.3784345407,441.085488393903,1265.69415677572,0.00562897928897291,-0.0234329302615486,0.508355179498903,0.981214714962989,4.07395388085657
7447.03232499771,141.986740879714,1908.24027946033,0.0321307583800983,-0.00344572238819674,0.794420097856782,0.831922976963688,3.89694504976215
6717.39602488466,264.900533611886,1819.29973307811,0.0488690564790275,0.0513325739823282,0.491582197744865,0.48866808582563,3.29089061189038
8708.24582423083,456.711798732169,274.968040634412,0.00213916138638742,0.00327261722534895,0.668759189890698,0.297084243837744,3.20477877996156
6159.09852843732,131.28111997433,1064.29901979398,0.0509976666607428,-0.00883812619708478,0.384284753808752,0.0202839293284342,3.10874433769889
9490.13330802321,164.834535901435,1369.99019729299,0.0503443495159037,-0.0303450419618748,0.277309328839183,0.70472487921128,3.63460766324774
8814.50042747892,256.661660489626,1831.1677026609,0.0553753988369834,-0.0366526299194433,0.160456392089836,0.161776617520954,3.18103682386199
5662.31728271581,295.777640934102,206.169382537249,0.0525107703424059,-0.0268497055976652,0.542372648536693,0.755161239143927,3.19885200445857
6572.26167310961,489.393058937974,1727.45637415349,0.0180206632567104,0.0215651965750381,0.95745110136224,0.0927325524180196,2.33319201618871
8647.08424406126,413.391789872199,649.046369389165,0.0242031742649619,-0.0107619441552088,0.633535857975949,0.903871235877741,3.57917935160884
5634.27788640372,399.83987442404,1664.90728768706,0.0207278025726322,0.0395103881710209,0.319168595271185,0.492427329928614,3.79762861026595
6088.68363355286,181.395784143358,929.97710031271,0.0430457834478468,-0.0398163620176725,0.088696572650224,0.600358651343267,3.8023501208392
9428.8009761367,309.467892838642,1609.50253595645,0.0568366982745007,0.0296396745194681,0.379100609268062,0.368456026096828,3.18698047391779
8851.14178560674,477.60337371286,858.382483859546,0.0024458156676963,0.00464756982084363,0.599562857355922,0.145055310798343,3.280188686599
7376.9746545516,184.538054130971,1644.29726605723,0.0404939775732346,0.0125688721161336,0.844349941590335,0.380392489600927,2.94367724351548
8765.77324060723,242.862268800847,1250.33000098309,0.0401679340492934,0.0440917278086767,0.650507859203499,0.199803647808731,2.67958249054599
7828.71289810166,244.144784008153,456.692669577897,0.0466322494715452,-0.00450252698259428,0.262349157915451,0.720210118428804,3.73473505765114
6190.58482510969,474.767206477933,1388.62404904002,0.0468376716777217,0.0352772473102436,0.61490028424887,0.716310487475712,3.57163113366561
9328.93617249094,484.307063169777,1323.58602944994,0.00478423601151444,0.0225765669400804,0.362237677229568,0.344897423058283,3.48943588024342
7660.45360771939,305.034409187734,1990.18277789373,0.0130445860129315,0.00958879201412201,0.113322049460839,0.259447914054617,4.03562325177784
7498.47413679585,451.597109998576,1468.8688850319,0.0232709612867329,-0.0146362571435049,0.256777676236816,0.285812775786035,3.73179881315081
8553.22672349401,312.005258626305,1425.18443535455,0.0336515711504035,0.0420157316601835,0.303357456242666,0.171192643165123,3.09601397056701
7763.74381781556,392.149250702932,884.172292253468,0.0288969576755539,-0.0182017212141305,0.557668427543249,0.102727803164162,3.03556074184343
8147.52653195523,464.903047339059,1677.11546661612,0.0144359401445836,-0.0478222129555419,0.730729878859129,0.0404288589186035,2.43797066250929
8040.89845089242,283.15692595765,1706.50556026632,0.0540399456284009,-0.0395784507041797,0.154421584233642,0.571576020831708,3.67503388396396
6408.75440463424,342.815767330118,1097.93407348776,0.0085951566091273,-0.0540349421200342,0.999848202662542,0.450391847176943,2.19807972687122
8135.74285152368,351.289596605115,231.036404470913,0.032573352082679,-0.0125976616744883,0.294283470013179,0.696100160160568,3.57955503591723
9297.04452696256,120.960493030958,1446.8938730103,0.0418410021878779,-0.00509814495239407,0.409305919208564,0.614627302747686,3.74854823613069
5974.4276470691,369.248145678081,545.744702241849,0.0533524964803364,-0.029936715738941,0.914111554310657,0.244563412151765,2.32779343293322
6316.63440990262,438.681413806975,447.624273440801,0.0551469907886814,0.0201839425030164,0.480936498525552,0.531779060813133,3.23783503789757
5765.68858320825,367.497131975368,1200.6616403074,0.00615745931533165,0.0454605027168989,0.171876893462613,0.794888669822831,4.07491456303836
6220.3928194847,333.441736172885,1413.95891043637,0.016875437532831,0.0595492374571972,0.333024313317146,0.462396372281946,3.28391534106318
8314.34519054368,127.571641650051,811.831290771253,0.0250394527184777,-0.0372086542940699,0.705397893621121,0.00433801761828363,2.53930545210107
8538.58694696799,320.593278572895,345.196875004098,0.0594145508928224,-0.0136650921097957,0.786966087480541,0.0880114188720472,2.4730304814147
7585.50921135582,144.639139290899,1189.79900467349,0.021839187417319,0.047025494179409,0.644777282411233,0.68544234022731,3.20214639609711
9113.12631922774,255.999722374603,1631.50007304782,0.0150802407049108,-0.0438737519186921,0.926207939398009,0.992029124121182,3.05573442063063
6785.36679090932,287.107335992157,481.447097276337,0.00136928177797236,0.0242295113473199,0.0426553671993315,0.875308087929152,4.12962127431132
8447.3944361601,173.533133574761,1765.18978397036,0.00907101394836791,0.00724692006641998,0.895045050329063,0.805784825552255,3.55389681824462
7333.57215631753,102.617779901251,433.001510118134,0.0279069945777766,-0.00709809472896158,0.909947705094237,0.274014441198669,2.55488135202482
9095.82585186698,163.507433648221,619.336726363283,0.0408795551458374,0.0459190930891782,0.680057275427971,0.928196018214803,3.08347784805876
7706.98646715842,159.372322208248,1121.00081900135,0.0442584116610233,0.0162227257048711,0.802726853033528,0.213432031357661,2.6774672348468
8208.20301360451,290.366141204722,1576.44882267714,0.0380018259633332,0.0575614049144089,0.0264584188372828,0.671963011692278,3.65754221049089
7114.28721540608,406.052072328515,665.893941329326,0.0174916005391628,0.00507655391693115,0.10162988578435,0.786143468590453,4.36183722172679
7240.0654577557,228.752475552261,1953.33886734676,0.0375494328281376,-0.0500292851219885,0.834809656401631,0.84939394792309,3.34568365665047
7861.84162192978,178.139446918853,1377.96789408056,0.0239438192817383,0.0142572508580983,0.4116324111633,0.767521907656919,4.06128042393008
6436.11948808655,482.227810773998,687.443047074601,0.0312699411554262,-0.0216897689265199,0.448788442406803,0.641632076269016,3.64736109244193
6521.2625560537,495.719168673269,871.86288788775,0.0258964767785277,-0.0480603504985571,0.774623570486437,0.66220770887332,3.0043071443369
5820.08076930419,222.476770413108,585.245106598362,0.0437400195663795,0.0258070583813824,0.237264870810322,0.0502748661488295,3.13065583513152
7515.17652852461,297.546978648752,908.080773055088,0.00501865911078639,-0.0172334928363562,0.320329143274575,0.0669619258842431,3.39177025827045
7012.62256698683,430.029691413976,760.026667266153,0.0521437939806841,0.0340960067437962,0.124737557878252,0.157137141800486,3.18480476421642
6949.67484842055,277.198562510312,788.680618786719,0.0214630049688276,-0.0431833915913478,0.605513139534742,0.886524611904752,3.4326895534425
6497.2664283216,218.761566820554,942.567808502819,0.0386466230220627,0.0481474693357944,0.0913196655572392,0.476401180082466,3.52530287929817
9193.85693728924,497.69102641847,1944.90935984766,0.0446303335385397,-0.0285256978427991,0.756902786858845,0.580098579174373,3.11483643966006
5567.44523577392,195.166698384099,1019.13488279702,0.0187848457493819,0.0524846547327004,0.88304715243401,0.507747087017633,2.70326031734032
9384.48454551399,455.190974799916,1486.83802101202,0.0346997509048786,-0.000289892214071004,0.869021465608384,0.772784400130622,3.29647759171045
8917.82771399245,189.088062942959,1051.93852986163,0.00771816039229743,0.0325318295440637,0.354022568997461,0.864060750936624,3.7555165422421
6877.45917019434,212.708000385202,1914.78314360185,0.0453957300080918,0.00217926660580561,0.534211843446828,0.181600643042475,3.29551751515103
7791.54440509155,111.208516033366,1102.95642227307,0.0562738756410778,-0.0161709420360625,0.6932003500266,0.562751770878676,3.16185002925728
6132.0759215299,236.41609772481,1781.0862007984,0.0534475577241741,-0.00153892311947421,0.588646178266499,0.119785582080949,3.11688609818066
9229.96504830196,384.099442761391,492.01360817533,0.00787321529975161,0.054462287309859,0.820843304744922,0.202825818997808,2.26591179785366
5522.66329835169,273.31416920945,540.982544289436,0.0224263821083587,-0.0408560212651268,0.142732528676279,0.976873301560991,4.06896360898091
7545.47967217863,355.240843086503,1167.72688445635,0.0368654429003131,0.0557480108334683,0.0768045508884825,0.320743979089893,3.2585900263366
6645.86516300216,151.159656446427,1536.01969712088,0.0360245663942769,0.0532615780360065,0.0634409215394408,0.624463686922099,3.79270243295386
5715.4733267799,207.673271661624,743.132315781899,0.00368992233742028,0.0151358390746638,0.560172433319967,0.43066110484302,3.56069711248957
7211.15356165916,379.742624508217,815.729674512055,0.0591860058941413,0.026797655490227,0.429554215909448,0.968171891570091,3.69460340008058
8689.61104572751,232.890823907219,1028.82304489706,0.0254199159475509,-0.0459103283699602,0.729335062499158,0.416732099498622,2.76462992943379
8488.05428429507,435.390501631424,1310.71081978967,0.0137152846557554,-0.0510652266106568,0.966766349920072,0.311278247826267,2.1541619304773
5889.44686140865,136.268980593421,673.054401254281,0.0122469706102274,0.0191321099965833,0.0197734253318049,0.0703886658512056,3.63646800629177
6763.50911108777,344.120046708733,372.175061750691,0.0270589363384992,0.011556348946318,0.208185018345248,0.953500416630413,4.04668861698639
7145.35934699699,420.323773513548,1880.30797965731,0.0479977630707901,-0.0245604374270886,0.473358973804861,0.513142346434761,3.61425088544261
8595.30488241464,248.074185631238,1784.65770410374,0.0161271079764236,-0.0535175231714733,0.854693810741883,0.634023365101311,2.8280407512857
7928.08360409923,117.596657861024,731.035249808803,0.0114221842504106,0.0279575708817691,0.199628419817891,0.739350969046354,3.8217535931545
5818.44396709464,383.170381456614,717.585989471059,3.95799780730158e-05,-0.0598373942649923,0.931235993755981,0.747625438608229,2.67657877383976
8376.13862863742,261.610636360943,1229.28613414057,0.0482247391314246,-0.0521925495872274,0.519135026789736,0.890766451810487,3.43778435398172
5984.38982095569,171.017068889923,241.482777962461,0.0352342857938725,-0.0261212039653212,0.673934588669799,0.375078793969005,2.88604563019441
9017.59667461738,416.231500682421,1285.48578268196,0.0331445544264279,-0.0451377558778971,0.137629833556712,0.548646469986998,3.55505777533665
6927.16444860213,326.707050821744,976.970945349429,0.00348172045759857,-0.0339456078822725,0.529287030890118,0.850074946049135,3.7303497909756
7043.85326613672,469.466982723214,303.355408796575,0.0298572524343152,0.0495128675510176,0.872549358813558,0.656788408099674,2.51898374554287
6679.41922649741,461.514338120818,1496.99986368837,0.0107394155390561,0.0309620679765008,0.7148101305007,0.260321287591942,2.97656454159459
9040.48027249053,357.492405088618,1216.9742903267,0.0422395594420843,0.0228251363335177,0.00524289028486237,0.441603988497518,3.71901205613505
9148.20456940681,363.900906862691,343.394387752283,0.0310560421933886,0.0372916446385905,0.435158238760196,0.136003051945008,2.89556282240763
6837.48096363619,268.006569044665,603.839927325957,0.0579005782613531,-0.0327964743526652,0.0369485710677691,0.237825103143696,3.32421650015857
6585.56091382168,408.652982708998,1563.67177238269,0.051266222170461,-0.0208443974034861,0.461045128603,0.408355488972738,3.49632546003817
8073.35797447711,328.798076754436,842.501818576362,0.0390995272576343,-0.0359112433154136,0.570382361884695,0.528460202165879,3.1422577681485
7274.94192789309,403.522842789069,507.625719904434,0.0584975444467273,-0.0314948127167299,0.186058908130508,0.945284127965569,3.70192921641619
8296.40826730989,319.942915615626,1861.03536611563,0.010874095016811,0.00980925485277549,0.948813352547586,0.331246282721404,2.7664576385151
6351.95875618607,372.658938559704,993.306971800979,0.057143048389256,0.0416599999263883,0.746450209917966,0.590758749665692,2.96942525283689
7986.90835688263,388.582681431435,1143.0542213181,0.0493390470596496,-0.0569263442125171,0.345835201865993,0.820987593382597,3.49009747394227
8946.35666165501,107.688261616044,971.470094943419,0.00714431925206445,-0.011861677252315,0.210355392340571,0.935857543875463,4.34646125585121
8232.56673059426,446.22755709663,314.380917478353,0.0192859609869774,0.0318805625553243,0.62334098657826,0.351204011905938,2.87689430989883
7630.23417296819,209.413541265763,394.963758728001,0.0460699343499262,0.0179281826488674,0.818391990317032,0.0314898501918651,2.41581117188854
6043.62704340369,427.295850402676,409.373936576303,0.0284819579768926,-0.0080895109157078,0.980245803508442,0.223288081276696,2.30352724676039
8388.99413937703,115.509327357635,266.197775612585,0.0141155599821825,0.0582692239967175,0.972474716734141,0.420072967708111,1.97068456316601
5937.95625740662,226.876600554213,1735.02784180269,0.0202462697136216,0.00104489808110521,0.223803701251745,0.017194475159049,3.65212917562574
9349.58426841535,154.591059496626,1981.56207369315,0.00982679928475991,-0.0558430270456709,0.398122962957714,0.914944081131835,3.64837391506729
7274.94192789309,403.522842789069,507.625719904434,0.0584975444467273,-0.0314948127167299,0.186058908130508,0.945284127965569,3.71264602223678
9328.93617249094,484.307063169777,1323.58602944994,0.00478423601151444,0.0225765669400804,0.362237677229568,0.344897423058283,3.48879165561601
7391.90777827054,197.133908838965,1348.9377882937,0.0300518372251187,-0.020348811457213,0.283487408088986,0.305423360101413,3.59145609413198
9095.82585186698,163.507433648221,619.336726363283,0.0408795551458374,0.0459190930891782,0.680057275427971,0.928196018214803,3.09002605996079
8488.05428429507,435.390501631424,1310.71081978967,0.0137152846557554,-0.0510652266106568,0.966766349920072,0.311278247826267,2.16018397330986
8553.22672349401,312.005258626305,1425.18443535455,0.0336515711504035,0.0420157316601835,0.303357456242666,0.171192643165123,3.1011993159016
6408.75440463424,342.815767330118,1097.93407348776,0.0085951566091273,-0.0540349421200342,0.999848202662542,0.450391847176943,2.19687489448852
7012.62256698683,430.029691413976,760.026667266153,0.0521437939806841,0.0340960067437962,0.124737557878252,0.157137141800486,3.19924593876574
7376.9746545516,184.538054130971,1644.29726605723,0.0404939775732346,0.0125688721161336,0.844349941590335,0.380392489600927,2.95045856199353
8689.61104572751,232.890823907219,1028.82304489706,0.0254199159475509,-0.0459103283699602,0.729335062499158,0.416732099498622,2.75706517375179
9141.31537545472,392.067064717412,1632.06889159046,0.0594376972736791,0.0566433169227093,0.940863874973729,0.162240028148517,1.9886246311912
7964.86602816731,156.834826804698,1698.33865929395,0.0533552570315078,0.0443986251298338,0.966877873986959,0.951628432609141,2.93147829430328
8241.59233272076,315.781420003623,210.211975639686,0.0545342777995393,-0.0210988494940102,0.979267125250772,0.518628598423675,2.16179788471413
9359.49539206922,309.512206725776,208.897940069437,0.0588443192001432,-0.0206585074681789,0.941796014783904,0.762447224929929,2.38986626424074
8475.39965156466,488.338773977011,1938.26923947781,0.0441704087052494,-0.0360676100570708,0.988477173261344,0.783460888080299,2.77054049647522
9042.13928990066,150.835479330271,1857.25930957124,0.0498120764410123,0.0324241484049708,0.93174061877653,0.285960149951279,2.34733211034643
5725.95234587789,101.482587307692,226.08411218971,0.00604901272337884,0.0387917160149664,0.273783940356225,0.908599255140871,3.58791631046173
9283.43011531979,469.621105398983,401.80843397975,0.0196333311544731,-0.0576438351161778,0.941846287576482,0.0446409466676414,1.87384993890878
6423.52461349219,215.477267373353,235.520399268717,0.0585289010731503,-0.0481100481189787,0.99876437895,0.389996419893578,1.87637559522613
8487.06248775125,344.629221316427,231.964141735807,0.0136577296955511,0.0543231607507914,0.0571035286411643,0.0668441858142614,2.96813610432172
8411.63008566946,301.583676412702,1528.53574976325,0.00163079851772636,-0.0581827776599675,0.978293114574626,0.0507557487580925,1.79414848531727
6074.69611335546,402.606424689293,1836.09650651924,0.0564727720292285,0.049214540021494,0.96870725043118,0.0838126337621361,1.96949367252059
8404.33296840638,114.15356323123,715.899989567697,0.0414611309068277,-0.0444599113706499,0.961594694294035,0.190965300891548,2.03299910332616
9192.31652002782,472.256310470402,1842.7580517251,0.00244293273892254,0.00876837923191488,0.645893793785945,0.97789407428354,4.20357730497019
5748.40793851763,452.972027193755,1861.07270587236,0.0403676792280748,-0.0575958709884435,0.29489875305444,0.0837776404805481,2.9534974982263
5541.46454669535,449.775455705822,292.801667982712,0.0557125595351681,-0.00922430740669369,0.856859046733007,0.12133659562096,2.44381532881624
5733.30743424594,414.509925525635,230.987195717171,0.0590454957727343,-0.0311133146099746,0.93152393004857,0.682382535655051,2.4838117970235
5588.32096401602,125.456283334643,216.334911482409,0.0138584565650672,0.00744197504594922,0.960331748006865,0.834353770362213,2.81706689039452
6320.18028665334,463.169775810093,352.902323100716,0.0585001491894945,-0.0502041588630527,0.960685893660411,0.798468520864844,2.42498289379329
5577.46100798249,405.48943746835,1618.97952929139,0.0420272282324731,0.0571572123561054,0.86631415435113,0.955440871184692,3.5338511070263
5881.8891979754,329.133391194046,1831.06994875707,0.00148849386256188,-0.0483380275871605,0.883126475848258,0.0122433893848211,2.17994779930332
8976.2904914096,489.901726692915,760.259347548708,0.016299974299036,-0.0531645711231977,0.999179617036134,0.111102753551677,1.73092586984134
6028.05675473064,100.417786743492,633.486894285306,0.000569004854187369,0.0132375725917518,0.950368475401774,0.896248989040032,3.22060202375642
9257.07641709596,130.209742113948,1455.37692056969,0.0572308626584709,0.000293084504082802,0.145119318505749,0.0414310123305768,3.35648344706921
6001.11844670027,409.358212258667,1857.90931526572,0.0497257881984115,0.0147206778544933,0.995894685154781,0.768169529503211,3.20892447563654
5618.06023027748,498.24120271951,625.451952870935,0.00290463879704475,0.0589411150105298,0.965144799556583,0.111610713414848,1.91092640586992
5609.50202308595,184.818389359862,518.554375041276,0.0433871780801564,-0.0359497171919793,0.948951054364443,0.998685561353341,2.95028450589015
5618.85432433337,220.942524448037,301.373966084793,0.0555672066193074,-0.0127428789809346,0.854443853022531,0.0200381635222584,2.3369270330108
8527.78653800488,468.507483694702,1065.00812666491,0.00154812569729984,0.047910415744409,0.224210988963023,0.0487250310834497,2.95617195833572
9477.34525799751,337.622860725969,1822.72787680849,0.0544288808433339,0.0573181162029505,0.916734684957191,0.970536936074495,2.90125850862933
7993.85026376694,105.082066915929,442.651484673843,0.00139822333585471,0.00104374587535858,0.976959744235501,0.201929843286052,2.41244731221899
9432.34419357032,317.256462294608,305.925394408405,0.00237682300619781,0.0338196255359799,0.995593385072425,0.60834974120371,2.09764772789167
6640.20149316639,361.4587421529,460.382903367281,0.0533314242074266,0.0495746824890375,0.98606905573979,0.262125838082284,1.92071328021218
7628.22122126818,491.694447956979,1664.04099110514,0.00477843489032239,-0.0356049351487309,0.893860880751163,0.650205343496054,3.0345480155379
6221.57189343125,477.487987745553,1780.80156948417,0.00471918000373989,0.0496733697038144,0.907511432422325,0.879328680690378,3.35631011874979
9013.78909964114,257.642161753029,1798.47485800274,0.0574086064333096,-0.0528548701945692,0.826225538505241,0.587194819701836,2.74908623846524
8669.46335788816,136.991191562265,211.283278418705,0.0529050476895645,-0.042089206147939,0.900896727340296,0.807162202429026,2.47154703517071
5704.51407879591,398.345135431737,602.303523896262,0.0049077216675505,0.0528700157348067,0.772551252506673,0.125894703436643,2.37714157052112
6296.47111706436,470.586272608489,1846.19984263554,0.0146647823089734,0.0591497021634132,0.949739903677255,0.748042206978425,2.94704043981404
7865.72018545121,409.749818313867,855.225388891995,0.0503357295552269,0.0557231738604605,0.976700163213536,0.00523868622258306,1.73496660150815
9300.52136257291,204.675123188645,1955.13698561117,0.0239697317685932,0.056544996695593,0.993365393253043,0.349433892173693,2.01494217826882
8352.10013017058,246.641452424228,488.355739135295,0.0458576742047444,-0.0544267823081464,0.956746511161327,0.00615599541924894,1.82807461924631
6283.82187522948,494.721607118845,1573.17636040971,0.0508284554025158,0.055254923813045,0.924109969288111,0.0722283986397088,2.04526820780317
6504.98293526471,478.018447570503,412.496660975739,0.0536743013234809,-0.045963731193915,0.826087587978691,0.738830497954041,2.7495813525991
9385.0421924144,151.614259928465,321.100008673966,0.0547296350682154,-0.00313467537984252,0.509007944026962,0.218824901385233,3.02863118911329
8046.44840862602,298.58996104449,1240.47975963913,0.03555510266684,0.0440562594495714,0.907398279756308,0.545648703351617,2.62401972038459
8675.72315130383,209.239938575774,1937.69778436981,0.00845014746766537,0.0183262275997549,0.514089401578531,0.0090168435126543,3.08506582857502
8923.07683080435,351.80479446426,220.662539219484,0.0011159065598622,-0.0304299510084093,0.646985561354086,0.122032740153372,2.7424916033973
9346.58493474126,495.813922211528,659.004497528076,0.0552053937781602,-0.0455168134532869,0.234771612333134,0.37061614333652,3.10191220052356
8846.48125898093,388.819365203381,617.967894859612,0.00935547976288944,-0.0507947812601924,0.750745378434658,0.341260957764462,2.54942011583363
6189.87725675106,495.710235461593,202.684191754088,0.052154058907181,-0.0505132369603962,0.978166599059477,0.0842768319416791,1.81849299255761
7879.18322812766,101.370465382934,1876.35937486775,0.0592298806970939,0.0236572332959622,0.979323080740869,0.192053473321721,2.11493030531017
7839.12345767021,494.982917699963,1850.16164053231,0.0550667436188087,0.056644682502374,0.968651972711086,0.309743973426521,2.13870109901198
8098.21322187781,273.094871081412,339.446280198172,0.0499405700247735,0.0277721210103482,0.94691497925669,0.0340942377224565,2.01048653883859
6081.60684257746,223.446709476411,654.724395181984,0.0471126248314977,-0.0291752875596285,0.999361025867984,0.277721335645765,2.04829148645195
8957.42516964674,376.968030631542,1989.72108438611,0.0145656731072813,0.00821293087676167,0.995080154854804,0.0473167325835675,2.122993324673
6479.43107411265,427.831906359643,1967.18164258637,0.00608537126798183,-0.0592211013380438,0.995631409110501,0.893886056961492,2.9961334307776
6134.97603405267,114.186524786055,1871.70419157483,0.0136297366255894,0.0549059165362269,0.897848407970741,0.972169223707169,3.48641884139735
8707.19234552234,120.008916873485,1626.77478138357,0.000743200513534248,-0.00569549250416457,0.979972533183172,0.0113628606777638,2.24201724590848
5514.31223843247,124.299626983702,1698.05990485474,0.00430346502922475,-0.0112507001683116,0.958078425377607,0.191867534536868,2.71643652997436
5683.97091887891,112.375795096159,1992.42106974125,0.0592770970473066,0.0206269178912044,0.636582168284804,0.119866114109755,2.89190637110717
8621.40766344965,202.508680522442,1513.16680149175,0.0201560847088695,-0.0152190319541842,0.91599089326337,0.15812648460269,2.53069457211775
8635.15239674598,109.683092683554,853.276691539213,0.00203256793320179,0.0499889075104147,0.859250584151596,0.0452020582742989,2.15211640297824
7913.10001909733,485.473437607288,1801.03533496149,0.00972616257146001,-0.0482858353760093,0.964782647090033,0.173739243065938,2.10537451136791
9244.01818402112,493.625289388001,1596.54487678781,0.0590539129637182,0.044161044890061,0.337483552517369,0.119870716007426,2.85190290589325
8515.26630949229,447.035995405167,621.919568255544,0.0221867901971564,-0.00665307766757905,0.983263067901134,0.956054682610556,2.82788093475069
8498.08981828392,475.899903848767,230.164951970801,0.00946910677012056,0.0400602877233177,0.831781052984297,0.993510151281953,2.78355648960754
8802.86874063313,120.304842106998,692.143653845415,0.0511370067950338,0.0597130468860269,0.566209668759257,0.940133166965097,3.14474525508439
5647.03345112503,294.166119024158,390.488304523751,0.00181793788913637,0.0593340045399964,0.0547120240516961,0.0850634672679007,2.96076246045413
5577.43596192449,199.289566837251,305.876700161025,0.0154282215982676,-0.010234171198681,0.27095800312236,0.324285563081503,3.67592606146934
6697.27418571711,471.20283190161,594.862152822316,0.0110300510236993,-0.0394641550071538,0.908898900030181,0.0430679975543171,2.17425185786759
6776.3952203095,410.913042631,305.111061921343,0.00275298727210611,-0.0451796536892652,0.944202517392114,0.168012965237722,2.07551000823611
6845.78576125205,191.516648232937,337.473432067782,0.00807077606208623,0.000721417441964148,0.910787039203569,0.730666251853108,3.02781726365094
6965.02213645726,194.922788254917,307.952823815867,0.00388094140682369,-0.00440696102567017,0.860817104112357,0.0491257472895086,2.70440324611327
6502.13641487062,101.803486607969,204.142917413265,0.000616574571467936,0.0168642041925341,0.952080253046006,0.043351550353691,2.22383838858412
6393.35140865296,353.249114006758,1401.89854102209,0.0168187482375652,-0.0442624615877867,0.872840595664456,0.965789343928918,3.46639270499422
5767.35423877835,255.57764461264,247.136230953038,0.0599334126524627,0.0502451973594725,0.0337598621845245,0.0314428973942995,2.93713034308027
6416.26828815788,182.510541565716,896.174108562991,0.040071652145125,-0.0313803481031209,0.804381425026804,0.882954699220136,3.35400669865613
9266.72011241317,494.568783417344,206.635468686,0.000611989698372781,0.0288441671524197,0.981276901671663,0.261190820951015,2.064272401598
5590.19188862294,265.982903819531,705.491446983069,0.0371335248090327,-0.0570897164102644,0.957835399080068,0.551034978590906,2.42468413713916
5542.66818333417,430.452755838633,1987.19797311351,0.0581875493796542,-0.0455138667393476,0.685951590305194,0.593471850501373,3.46117249331533
5681.73044919968,111.56614953652,1496.64056217298,0.0032947450177744,-0.0540799867920577,0.990972249303013,0.949803601950407,3.12158912348919
9097.29615040123,455.025030765682,261.770445900038,0.00240753195248544,0.0508950992301106,0.844403524650261,0.627321451203898,2.47640716789137
8858.97921398282,187.505806796253,734.795897267759,0.0122601237427443,0.0105456012580544,0.923591329716146,0.0397568221669644,2.40223846540708
8172.43436910212,323.785079084337,312.787710921839,0.0591153914993629,0.0234334433544427,0.0951821126509458,0.0154865900985897,3.12379234976609
8979.751130566,135.675324965268,618.139731837437,0.0591832199273631,-0.0172966152336448,0.0597896256949753,0.916342662181705,3.87049321674615
7715.37408325821,440.484731178731,1966.89758114517,0.0337466714903712,0.0524124740995467,0.985257341293618,0.024305465631187,1.78955089965112
5667.0182608068,116.787405591458,1991.38969038613,0.00831270821392536,0.0381451755389571,0.362178589217365,0.160569930449128,3.28942391695961
8831.58713486046,107.9306316562,1325.86378403939,0.0168135850830004,0.0202864499296993,0.981352690374479,0.501951650949195,2.54963995898667
7816.2985118106,380.585071165115,581.699433363974,0.00167812014464289,0.0128858975507319,0.940119378268719,0.279182050609961,2.53464175951499
9122.2336795181,210.434834007174,352.418940840289,0.0455298259807751,-0.0515593097638339,0.712720371084288,0.0329852739814669,2.33116161426016
9305.97625486553,157.600898761302,338.865283131599,0.00251948825083673,0.0124172679148614,0.992892005480826,0.0418607043102384,2.03515138308338
5726.94283816963,492.30615561828,295.247772615403,0.0115160066122189,-0.0351705197989941,0.70502938167192,0.0152057728264481,2.56762672210769
9400.57793259621,464.74840240553,250.787473889068,0.0094160748180002,0.0326571278739721,0.931118218228221,0.223569690948352,2.20509407342809
8323.85306246579,142.645248863846,626.851197192445,0.00535823323298246,0.0446044725459069,0.992986920755357,0.149027419043705,1.833684490253
9282.98165928572,498.025261051953,1962.65044733882,0.0407783297589049,-0.0435844924673438,0.781695601064712,0.955435309093446,3.37980458433685
8561.69312540442,452.029848843813,1093.54402055033,0.051730168601498,-0.0225564055424184,0.994583188090473,0.0382478826213628,1.85627148322989
6223.54994155467,381.418577022851,1933.83097480983,0.0597371531557292,-0.033872504895553,0.964525264920667,0.15682030771859,2.18580540607939
9134.70002263784,168.948840070516,1717.13160621002,0.0500839898223057,-0.0485575382318348,0.978247608058155,0.0455580498091877,1.82237609432224
5847.80511446297,378.66620272398,1732.99802881666,0.0553644187515602,-0.0168154835980386,0.819451045943424,0.171970973489806,2.72773281961797
5756.3806399703,499.328822828829,362.324685323983,2.76527367532253e-06,-0.00886525914072991,0.947966509731486,0.0229079846758395,2.37982212741553
7945.15768811107,149.477143585682,251.623375108466,0.046619734489359,-0.0131768292188644,0.868643111083657,0.100159050896764,2.37212403734164
7982.01402463019,126.816655229777,1866.89039291814,0.026199167878367,-0.0436320110131055,0.994068945059553,0.82032216200605,2.76669062152684
9187.46231961995,148.232712037861,1273.51959627122,0.0118857994303107,0.0532410469371825,0.989586826181039,0.112322113011032,1.78534490731067
7933.48715081811,190.312062948942,299.005354661494,0.0449264865322039,0.0564397685229778,0.618475718190894,0.0999776381067932,2.4532957692061
8943.59157513827,253.586028330028,335.569691890851,0.0098402088554576,0.0408460380882025,0.971628572791815,0.846287268213928,2.35169637733979
6769.59381438792,174.340348690748,244.909893535078,0.00397160653956234,-0.0526525062695146,0.941726569551975,0.0749313158448786,1.94028070168468
7843.76108646393,492.658756487072,367.173219425604,0.0541964202281088,0.045342619959265,0.567196287214756,0.0623906115069985,2.54047322441916
6468.10224931687,299.373430013657,249.135609483346,0.00479905080981553,-0.00752978570759296,0.930442240322009,0.980708205373958,3.06353281138504
6279.88927159458,188.326283730567,563.126945169643,0.0441683152969927,0.0552110139280558,0.992369813844562,0.26728804083541,1.9063782758536
9355.48354871571,110.528479516506,1697.78647334315,0.0578688388131559,-0.0227716191764921,0.99256989127025,0.977032925700769,2.81121043548941
5705.37435263395,483.948759082705,1945.45270400122,0.05829995542299,0.0188353360723704,0.347947215894237,0.698345992015675,4.23482283340178
6789.9481607601,405.840556696057,429.902286827564,0.0589259112998843,-0.0195824969094247,0.918703549308702,0.97266515227966,2.85317085263653
9378.97117435932,135.500158555806,574.55759672448,0.0188790198974311,-0.0504689940623939,0.925058054272085,0.864553335588425,2.54098681804414
8041.03246983141,111.444260552526,442.575287306681,0.0133170641586184,-0.0477134476974607,0.950878843199462,0.104466494172812,1.96278038807628
8873.24789445847,138.145216740668,299.375471845269,0.000224143294617534,-0.0329070345684886,0.993366331094876,0.60833862121217,2.14850448022277
5632.30895996094,378.326931688935,1067.13529108092,0.0548294409597293,-0.0405889214202762,0.981596789555624,0.993509707506746,3.10105900373664
8021.09855413437,257.733051385731,1540.01062968746,0.0266176321310923,0.0532407231722027,0.933144954731688,0.152932092780247,2.09380275611059
6355.30044697225,339.427951257676,1132.5362812262,0.0545247422112152,0.0580214037839323,0.963523760903627,0.90905727725476,2.83981761916507
8749.14873670787,401.802986022085,237.866299925372,0.0288736408296973,0.0293708812817931,0.989342398475856,0.984986508032307,2.37410600301625
9155.83670232445,378.781215380877,1770.00793502666,0.019110641903244,0.0579348668921739,0.849643282592297,0.889245629077777,2.98261360604788
9308.001418598,417.379286512733,403.754556830972,0.0234147496987134,-0.0515030488930643,0.998719265684485,0.782177784712985,2.12866847461467
8063.49520385265,310.542258247733,207.769810920581,0.014096567351371,-0.0597177619580179,0.932734047528356,0.704972433391958,2.27932363141021
6116.48585740477,129.929004143924,676.987579930574,0.0563097161985934,0.0577111538965255,0.92983362195082,0.0807395705487579,1.93768657047182
8789.80855830014,371.676990948617,283.902109786868,0.0559539687959477,0.0549752682354301,0.983560252469033,0.586837070062757,2.04094750355207
5730.24055827409,462.955254036933,351.853460771963,0.00199262175243348,-0.0254162231460214,0.926626052707434,0.950968330493197,3.01073790602578
6303.55002172291,217.658025119454,235.904023051262,0.0513219355791807,-0.00048410916700959,0.981138662202284,0.756015715422109,2.49934773740807
9038.61015010625,104.2629792355,274.641968403012,0.00934613335411996,-0.033560299705714,0.220998878823593,0.595974733820185,3.4328184093107
5524.1294298321,163.52450652048,1715.4325726442,0.029749372266233,-0.0559262564498931,0.918441000627354,0.328643661690876,2.53955061636903
5991.96789413691,368.027652706951,1893.59129499644,0.00628641104791313,-0.0459076555352658,0.470748478779569,0.962688174564391,4.32643121269638
6662.04080078751,150.750255584717,1872.25734186359,0.0570384760061279,-0.0588441368937492,0.369151347782463,0.0776590227615088,2.77192144850251
9267.33628194779,412.558852415532,236.87546257861,0.00147364202421159,-0.0430921276845038,0.891082807444036,0.406735184369609,2.32543351537295
9211.22728008777,460.513792466372,1735.23491653614,0.000257112700492144,0.00277886828407645,0.922043464379385,0.984425421105698,3.710727612715
9360.40323134512,218.78000702709,248.887117905542,0.049206991600804,-0.0381691762804985,0.970252835191786,0.92939337156713,2.34564209033777
9489.77708443999,100.72272522375,1965.1872030925,0.0012986493576318,0.0525505527388304,0.774026193190366,0.664545907871798,2.95024737739084
6882.07429926842,105.21762445569,1155.75828109868,0.0597435738611966,0.0476724870689213,0.918072080239654,0.780031569534913,2.79623296968682
6540.9420542419,433.933874312788,808.849990833551,0.000175676573999226,0.0038057376164943,0.388881570426747,0.0634374807123095,3.53927552507847
8781.97995573282,119.690314028412,336.801148951054,0.0529024335416034,-0.0499179353937507,0.0138610026333481,0.286900793667883,3.1614548380165
9489.88301679492,467.126289196312,295.456183608621,0.0118769463943318,-0.0532539690099657,0.202070159604773,0.743804142111912,3.28096514568778
6228.98684442043,241.173754073679,1931.68150112033,0.0579956775298342,0.0220365732908249,0.982414181577042,0.00645296415314078,1.91439467362874
9406.48986864835,153.308139368892,834.604604961351,0.0121257852623239,0.0349518963787705,0.638316534459591,0.805516159860417,3.24115222939173
5637.92025111616,424.880637228489,1933.59146905132,0.0359598633321002,0.00801267975009978,0.0106054544448853,0.167615596204996,3.94797184265533
6478.03481854498,112.835401110351,1807.22792525776,0.0256490326719359,-0.0465254275593907,0.965734297875315,0.973332130117342,3.31438550234979
9494.3185094744,117.465599253774,1222.03979897313,0.0017050367128104,0.0179674868937582,0.786241185385734,0.280375984031707,2.89457378652237
6087.3471647501,104.153885692358,1759.20921820216,0.0525453004846349,-0.058866020841524,0.956787589238957,0.791812126291916,2.98912615288302
5789.221316576,122.476605791599,1997.17523157597,0.0503803879301995,0.0447760324180126,0.978206957690418,0.139772825874388,2.06735967573011
8612.62986902148,220.918236766011,212.810803996399,0.00851898379158229,0.0545317239034921,0.102335468167439,0.0770322661846876,2.93265103007299
8716.602075845,310.248000361025,360.148391220719,0.00916956511326134,-0.0279265018645674,0.986243590479717,0.0705300520639867,1.97542849976026
5518.51564738899,159.438601322472,474.997858377174,0.0588898912025616,-0.0550002968497574,0.536789464764297,0.163558793952689,2.63467514301736
5857.97384008765,463.828248344362,505.271747428924,0.0318143914500251,0.0592600471246988,0.832378952298313,0.00370421353727579,2.07999342575508
6834.29439086467,180.034764204174,1171.75614912994,0.0478852305142209,-0.0568189260084182,0.956197457853705,0.756694886134937,2.68323506074557
6417.4212962389,123.204255104065,810.333538241684,0.0568280500592664,0.0598585464153439,0.235647267661989,0.0561240180395544,2.7626976361336
6597.61653281748,487.041670363396,303.8322056178,0.0047038056794554,0.0482744134403765,0.0437708680983633,0.714846134185791,3.53491472036957
5733.26139710844,460.882078763098,410.080980136991,0.0306795454351231,0.0457617414649576,0.996094218222424,0.848908768501133,2.48407661399185
7015.83128515631,176.506037265062,573.942000418901,0.000949746770784259,0.0514068039134145,0.935270542744547,0.00607948284596205,1.92595273962231
8033.42692553997,389.395804237574,1891.09462695196,0.000486361160874367,-0.0245838042162359,0.97056372393854,0.214612282812595,2.39658770950777
9430.40087819099,489.42348305136,1793.7997836154,0.0167373518133536,-0.0300219727680087,0.771607075817883,0.569120732368901,3.14477491112278
8954.99330293387,298.683320917189,1059.83395981602,0.0129077802272514,0.0475454373378307,0.99083625129424,0.786482131108642,2.40290032857715
9162.54418343306,476.041485834867,453.918731864542,0.0527229042956606,0.0456529389694333,0.913023347733542,0.525987711269408,2.30794157028803
9251.45347882062,464.523053262383,1825.91442242265,0.0094647261640057,0.0589977566711605,0.822498726658523,0.981069195782766,3.1206609244748
9348.2247358188,110.328848194331,1578.15558388829,0.0427656106743962,-0.0312705213390291,0.11709419451654,0.035022834315896,3.21709256579724
9463.41819968075,377.539142500609,1715.21068899892,0.00479410625528544,-0.0158733648899943,0.990805235924199,0.928701549768448,3.0803150975675
6244.83630526811,134.047498460859,1989.00440903381,0.00186901110224426,0.041375866625458,0.940208423184231,0.973215127596632,3.5892609225741
9454.89877462387,251.220007240772,320.131553104147,0.0596156863449141,0.0565685115382075,0.995891029713675,0.0114100007340312,1.56489149389926
7014.0912393108,155.516170989722,550.89301392436,0.000608087992295623,0.0197958711348474,0.997582548297942,0.650979740777984,2.46330252346728
5841.88910014927,106.980383489281,1937.72566928528,0.00551240438595414,-0.0329993527382612,0.621675008209422,0.15477094729431,3.06889402144854
6002.85577308387,499.333538580686,235.663298564032,0.0034823754010722,0.00780142265371979,0.991052341880277,0.690520846284926,2.63223515332398
9028.69812957942,451.46672418341,1185.89580287226,0.0597955826623365,-0.000836987318471073,0.993378210812807,0.966973754344508,2.81565200590618
6137.76809070259,438.851477112621,1821.03394446895,0.0296071719378233,-0.0104511108342558,0.98496006266214,0.0403215943370014,2.19149745859914
8150.83374641836,111.327080242336,381.878450047225,0.0149280331889167,0.0494182881060988,0.909239368280396,0.969904868397862,2.62199051802154
5538.53243589401,169.40072728321,1787.79047452845,0.0459993863711134,0.00865856654942036,0.979746114695445,0.981781879672781,3.84760541086664
8227.28503216058,107.669801358134,1508.4933037404,0.00175597239285707,-0.043471662690863,0.777752047870308,0.177170611452311,2.55569378873067
6632.63408653438,104.034296888858,1383.35776743479,0.0120641542458907,-0.0125442505627871,0.413813169347122,0.999373739119619,4.72178152755191
5634.07287374139,385.837688762695,323.961353627965,0.049711416978389,-0.0571507686004043,0.795482465066016,0.639235131908208,2.67004515865559
6957.07443915308,153.660704568028,1783.47669201903,0.00431428781244904,0.0157381211500615,0.00787871587090194,0.0865960547234863,3.81911527816551
8307.81457200646,119.454999268055,355.161770293489,0.0152659019362181,-0.0211809548456222,0.148635189980268,0.974881158908829,3.96875531297359
6225.84594972432,195.715197641402,1667.18407445587,0.0574809436127543,0.0171821118984371,0.836848068749532,0.795544615248218,3.54060321233419
8792.59905964136,243.245594203472,1757.66367153265,0.0562644331762567,0.0599529555626214,0.991141959792003,0.942130655515939,2.62821986655284
5917.39770118147,177.926861587912,469.629017217085,0.0069575911341235,-0.0174060343857855,0.907552966149524,0.016773572191596,2.40154532102308
5674.76828675717,347.177089098841,1520.55151215754,0.00703293168917298,-0.025084336688742,0.105149892857298,0.104814963182434,3.65091728937152
8459.91495903581,181.28654146567,1931.55011981726,0.0308654893515632,0.0222595985233784,0.978024397278205,0.728123161941767,2.89901762832815
8423.49547147751,166.147731430829,569.648114452139,0.00623315710108727,-0.0137181370239705,0.990104302531108,0.985358151840046,2.77118388980072
9146.1632149294,256.602471973747,574.222390167415,0.00291780513245612,-0.0443544506840408,0.718143937876448,0.922389015322551,3.04531103564775
7251.04233715683,479.325418174267,1993.48195842467,0.0061950171366334,0.029690157501027,0.976845262572169,0.0228766049258411,2.06048859050476
9175.19273795187,465.368202514946,1274.57263907418,0.0351840357016772,0.0564918167889118,0.310250864131376,0.853949578478932,3.49500005340494
7797.09917120636,124.757877551019,1391.88561881892,0.0525374910794199,-0.0126773044187576,0.0612970385700464,0.137145166518167,3.50711191511061
5514.59628064185,117.390758916736,1608.12956467271,0.0424194455053657,-0.0212172254361212,0.823975392850116,0.232809704728425,2.87464685203378
5626.55444815755,452.879466116428,1039.77631279267,0.00714378002565354,-0.00849817567504942,0.82346623390913,0.947544312570244,4.14524858733098
5994.46955136955,204.317910410464,850.946505693719,0.00307824314106256,-0.0428618604596704,0.732178836362436,0.0989416015800089,2.5580602907015
8745.7458358258,123.699968494475,739.4329266157,0.0585198550997302,0.0244965569861233,0.993556577712297,0.511049564462155,2.13731797153775
8576.26149524003,441.49394473061,1971.49710357189,0.00877517136745155,-0.0204331827163696,0.0422737700864673,0.0829734527505934,3.66651828312328
7141.59887377173,399.116086214781,1613.57886330225,0.0569647959340364,-0.0583957090415061,0.797619090415537,0.150240083457902,2.33999322277165
9477.56305430084,437.861808948219,879.844675492495,0.00874037171714008,-0.0409765014331788,0.764350944664329,0.0513817898463458,2.43370393807868
9446.95175904781,135.788457095623,1344.35191005468,0.0595346400467679,-0.0317723053134978,0.963901479495689,0.26619681972079,2.13139113397064
6355.39363138378,457.531734462827,428.830644162372,0.0206454410590231,-0.0484532742574811,0.650355738587677,0.949539508903399,3.22995597251451
6670.70783302188,487.375701218843,1874.57785080187,0.0157953847479075,-0.0555131438467652,0.519944866187871,0.447577316779643,3.22968440402936
7072.20816332847,459.154286049306,370.539489807561,0.00856304149143398,0.00654514160938562,0.0105272980872542,0.00789109198376536,3.76083942322504
5907.67142083496,489.463816955686,1939.61892412044,0.0598044302221388,0.0495350658707321,0.879370108945295,0.395399898989126,2.69432741772329
9235.65687891096,230.234313663095,958.1954034511,0.00233840425964445,0.033568378156051,0.999916807981208,0.718885481124744,2.33830569669259
9434.72726549953,274.913284555078,744.719988061115,0.0587499402975664,0.0289892813097685,0.522129647899419,0.929993061814457,3.33535702811875
5962.85541169345,110.296681150794,1315.66675584763,0.00947936323005706,-0.0494310984201729,0.686086884699762,0.814771641278639,3.53750233795721
8070.0027924031,484.223106876016,202.387951407582,0.00433974901679903,0.0284201311133802,0.212096350034699,0.987581525463611,3.65349617941884
6955.90117294341,178.644567821175,1186.62775885314,0.012883826745674,-0.0521019721403718,0.890505007700995,0.756953912787139,2.90259168694666
6005.37717156112,226.944011356682,324.002571217716,0.000837553809396923,-4.84835263341657e-05,0.301107260864228,0.987005200935528,4.42927911034868
5925.35160575062,102.563812863082,1671.60208718851,0.0569969302369282,-0.0203165333345532,0.26422090572305,0.957222474971786,4.62666670387876
9083.45121238381,453.06843072176,234.216139931232,0.00739087088964879,-0.0555131432879716,0.981946455081925,0.886401541065425,2.22179372093987
5641.72857254744,418.883876223117,1070.89884523302,0.0574006376881152,-0.0513299946114421,0.961358272470534,0.107600872404873,1.98517130957333
5530.34830931574,392.871624790132,367.819085298106,0.0178020267002285,0.0523439434077591,0.896326525369659,0.973682819399983,2.83035579367632
6521.19236346334,452.645652089268,762.244011647999,0.059766492289491,0.0450298749748617,0.298333734273911,0.472965557593852,3.21015718650442
7267.22343452275,106.137055717409,250.535120768473,0.0512366879219189,-0.0598321932088584,0.923328746110201,0.942148964619264,2.51013860253738
6763.98246642202,345.133073441684,359.11998199299,0.0380465593887493,-0.0055014583747834,0.0169322097208351,0.52786629809998,3.89901701560814
5847.74623345584,109.711442049593,1394.4623155985,0.00643072031904012,-0.0197908116225153,0.846059718169272,0.964907836401835,4.07033444941302
5641.7494835332,288.320036884397,1446.32271751761,0.00838385506533086,0.0021047915238887,0.985203390708193,0.970226281089708,3.97749579967979
5574.43912047893,486.579744424671,1899.70349739306,0.000706151244230568,-0.00487300110049545,0.957771640270948,0.169417050434276,2.81565753801622
9168.61593816429,387.465818878263,1504.622132238,0.00126321299001575,0.0589981685299426,0.930540090193972,0.954730172874406,2.78758619889419
5875.54994225502,489.187044091523,574.834141694009,0.00387620331253856,-0.0594030318036675,0.991370318923146,0.135328643489629,1.83636583674342
9463.1856456399,157.409303821623,279.997577890754,0.00111309349536896,-0.0361114222928882,0.591739697847515,0.989480300107971,3.19638848142132
5624.25334658474,165.727737359703,213.974039070308,0.0001958396891132,0.0266878168936819,0.284473838284612,0.133133908500895,3.2322967526844
6868.95401962101,267.357662413269,1651.50827267207,0.0058120057079941,0.0585946537647396,0.948026264784858,0.951937094563618,3.06195780329285
7781.03513363749,117.381824366748,231.314689666033,0.0527767974603921,0.0210263555310667,0.985952880932018,0.101052718004212,1.8914664027902
6673.21912292391,129.679609183222,1568.30056081526,0.00208550021052361,0.0568032662104815,0.919798264279962,0.00425980426371098,1.9542763108717
7486.01872939616,478.436890430748,355.590298445895,0.0590975619759411,-0.0580640067905188,0.521893099648878,0.00674564368091524,2.44188772676163
8892.04463176429,385.768524557352,230.694096488878,0.0551576351188123,0.0451434358768165,0.508866080781445,0.979758520610631,3.11379678037339
7034.99110322446,444.579521846026,541.48671310395,0.00819916333537549,-0.0565327336080372,0.991006391821429,0.812496470054612,2.35232998446946
5643.14692467451,125.04091206938,470.474733645096,0.00246084441896528,-0.0337078366521746,0.888320008525625,0.0532028945162892,2.28920383219589
6004.73200529814,182.117260992527,1955.28683769517,0.00205241091549397,0.0327028116490692,0.100482464302331,0.69307245220989,4.4898804819785
7002.88285687566,183.617636095732,277.287662494928,0.0483225685497746,-0.0110619318578392,0.499044464202598,0.0451709309127182,2.9446016107788
9290.44028930366,398.22018193081,1739.26942995749,0.00520369601435959,0.00267003156244755,0.976958035491407,0.0320477760396898,2.31939151802678
5539.70051463693,492.05698184669,1802.80919461511,0.00762503955513239,0.0440469581354409,0.955731136025861,0.0986011819913983,2.18442359413889
5986.06471903622,410.270369704813,1973.64418045618,0.0292725857533514,0.0165079683065414,0.941513131838292,0.321739242179319,2.83867433560417
6615.05766026676,199.102295283228,1666.34030975401,0.0150080631813034,-0.000172914136201144,0.914825961226597,0.850635401904583,3.87918426998748
8884.68223717064,121.703121624887,1837.19278359786,0.0404354350687936,0.0598538292199373,0.294827254256234,0.828319736290723,3.58384709884123
6154.26068473607,116.485476959497,1959.18142069131,0.0561459374288097,-0.0560527095291764,0.993515448644757,0.208714420674369,1.99496945486056
5522.52958156168,215.796393249184,1815.67357783206,0.0217188919801265,-0.0277154780365527,0.940725361928344,0.718465430894867,3.53253081352113
9282.86654036492,173.699524160475,356.419434631243,0.0465135045396164,0.0368805377930403,0.73850919585675,0.00632968521676958,2.38051177681749
7198.97900987417,448.803229536861,1823.38561397046,0.031141750831157,0.0508458106219769,0.993979898747057,0.991296318359673,3.02113229445951
6209.70577187836,467.535714805126,1766.16941061802,0.0352134680561721,-0.0518063337821513,0.900410311063752,0.819413938559592,3.27778870958457
9145.92230413109,354.35866098851,232.407696126029,0.0597560487315059,-0.0509644127916545,0.747746469452977,0.940697723068297,2.77436032669175
9208.83006323129,494.150302745402,685.149721754715,0.0567611649166793,0.0259047851432115,0.0550165600143373,0.929171422496438,3.7887998527533
6509.48318000883,135.37800014019,1846.60586621612,0.0441311101382598,-0.0297659653611481,0.932323542423546,0.000141258351504803,2.12477494983443
6039.00904394686,301.652157492936,1624.28263956681,0.00296256580855697,-0.00680884396657348,0.99701546668075,0.600980998249725,3.21479181354796
9035.32625734806,157.658725604415,1645.97909869626,0.0560837669949979,-0.0252780722826719,0.981144090183079,0.0082363651599735,1.86618681277648
9422.19075094908,178.427722863853,1993.44181539491,0.0517683729669079,0.0224353887420148,0.271364127285779,0.975094595691189,4.11638730811091
6125.68129692227,332.883438747376,1821.86165363528,0.00463008802849799,0.0120836966112256,0.977496220264584,0.906390366377309,3.81056936047944
9490.05006346852,482.512643653899,1910.50270791166,0.00324356972705573,-0.0270151058770716,0.558897207956761,0.0180980549193919,2.93465664311251
5793.96371357143,449.662112630904,213.407281180844,0.0210258145490661,-0.00501200881786645,0.985605166992173,0.0878140549175441,2.19791966096552
7204.92256805301,123.019951954484,586.386591941118,0.00514893681742251,-0.0556885217037052,0.0445276584941894,0.0287797637283802,3.00401951295416
6616.83709546924,478.740432020277,1789.99270349741,0.00150782230775803,-0.0247953373286873,0.94203511159867,0.756360413273796,3.41730003354789
9479.33757025748,395.030039735138,263.507014885545,0.0288275348301977,-0.0344962994288653,0.0130948808509856,0.897485507419333,3.74222283503926
9412.6630006358,408.084145747125,308.637128677219,0.0256370354583487,-0.0054581934493035,0.997573596192524,0.0207103206776083,1.97590034161709
9491.03757925332,138.831206876785,1910.24149763398,0.025474936729297,0.00169214679859579,0.976496334653348,0.369521775282919,2.59703575509925
5511.56318187714,463.451278582215,376.99957722798,0.0439015580434352,-0.00164778982289136,0.0681752129457891,0.0488120957743376,3.51826331412966
5596.01565543562,454.086073581129,1848.83607900701,0.0438069249736145,0.00387647707946598,0.891705114860088,0.910955076804385,4.11522325454962
5881.2023634091,462.620341777802,1482.86021128297,0.0591618526820093,-0.0350322963763028,0.0491880958434194,0.837720762006938,4.33373632191639
8869.33643557131,313.828256167471,1945.69763159379,0.050778462071903,-0.0571953615825623,0.98576576798223,0.691851736977696,2.46836975085776
6282.56579581648,453.149367962033,1403.62938977778,0.0585268631670624,-0.0384211127925664,0.0137780047953129,0.0327206617221236,3.16985685601201
8264.52856231481,190.674907062203,1968.92700460739,0.00603509353939444,0.0494118843320757,0.945478602778167,0.990695888409391,3.10953471958154
6192.26323161274,322.945075202733,1874.96375865303,0.0533051935164258,0.0576728789694607,0.156156345736235,0.928281862055883,4.23616085751768
5534.38908327371,385.638397093862,1641.38217465952,0.0206908995006233,-0.0441364114545286,0.267297136131674,0.583648375468329,3.95586193992042
5970.34044936299,308.380062039942,1435.89164689183,0.000653118593618274,-0.0562068133894354,0.483495267806575,0.21473869914189,2.92903103158537
8985.56957393885,162.867254856974,1522.21552822739,0.0514163219276816,0.0395693209022284,0.111794194439426,0.118117491016164,3.12828774931924
8338.80865667015,314.655256923288,1979.47891587391,0.0032334519457072,-0.0431467862986028,0.994282579515129,0.987018216634169,2.97692568836547
9499.60332550108,495.606615580618,1781.70720562339,0.0348572693299502,-0.0579918523225933,0.968056041514501,0.265825730282813,2.04645310491097
5640.06736781448,118.438610993326,1969.22540161759,0.0281350917275995,0.0274694391153753,0.196399327600375,0.934652702882886,4.99005310458304
9054.13834191859,421.040537953377,762.333255028352,0.00761411871761084,-0.00225205102935434,0.00278754089958966,0.459192093927413,4.21466029004053
5524.68593791127,467.84979486838,1656.13548471592,0.00548946392722428,0.0161035388242453,0.801286954432726,0.0526078366674483,2.81270219961748
8637.35353853554,128.580789268017,214.26277467981,0.0476810966525227,0.0578393456339836,0.885414762189612,0.0569413267076015,2.00663896924158
7705.29192499816,166.294961888343,1973.13996539451,0.00117121541406959,-0.0342084117885679,0.886762673733756,0.202040678355843,2.55039655122172
9224.43285677582,123.898617085069,1816.90502651036,0.0453188280249014,-0.0115354020986706,0.0475411175284535,0.556044595781714,4.0506983667225
8806.01685214788,208.062850963324,397.367519373074,0.0344134833058342,-0.0530601801071316,0.994139886228368,0.0705462654586881,1.6907726395394
6173.83640725166,164.973407704383,1860.47990918159,0.00537651926279068,0.0170164198055863,0.891736683668569,0.892610823269933,4.00420042745228
8978.94449997693,164.913614653051,1854.46068639867,0.0400531901791692,0.0554325104970485,0.730314428219572,0.00276150531135499,2.291427426126
9299.93228428066,100.524190440774,1690.79318414442,0.00521913710050285,-0.0469359709136188,0.987239547772333,0.169287387281656,1.94394069778839
8842.49404165894,441.060688905418,1894.82279396616,0.0339208473963663,-0.0253378100786358,0.971421719994396,0.911630779737607,3.08536721967266
9473.28977845609,481.142828892916,1044.20319860801,0.0481798578193411,0.0562895257864147,0.81775351241231,0.0218525710515678,2.13128833330428
9407.67394099385,474.087083432823,1889.34296006337,0.0548054317105562,0.0093826981075108,0.747831943212077,0.0358481754083186,2.59834374979265
5928.24030481279,213.999124523252,341.066510044038,0.0565035695163533,0.0565568933822215,0.349069587653503,0.685056353686377,3.16457314256857
9138.42509780079,101.555207371712,799.263401562348,0.0476398747880012,0.0336434893123806,0.0114482180215418,0.258758692070842,3.35755020472453
7017.36982818693,374.10802282393,227.688593277708,0.0536595916002989,-0.0458244070596993,0.0250551083590835,0.980087979696691,3.61876937366095
6760.3707332164,226.654305681586,1981.16043545306,0.0585917880618945,0.0387936589680612,0.0486034681089222,0.977524029323831,4.4754864711786
7612.81896848232,174.894252326339,1797.37131926231,0.0565143922017887,0.0283760987967253,0.885846339864656,0.0632967194542289,2.23980564270031
5982.91167337447,170.849594846368,558.57544769533,0.0524534162320197,0.0519620115123689,0.994043236132711,0.788194789085537,2.37422644612097
5717.305614613,128.681611642241,1168.62612185068,0.00648936606477946,-0.0469811891857535,0.986036664340645,0.429711545584723,2.38554953849005
5624.5297845453,274.763628374785,1480.32412775792,0.00606186271179467,-0.00525188793428242,0.0607442825566977,0.878367295255885,5.43374421012049
9214.64124694467,463.257413357496,781.708615971729,0.0422008430538699,-0.0467551016248763,0.0313737015239894,0.014020886272192,3.08472464949164
6127.91203241795,472.376262489706,1980.56229571812,0.00125590793788433,-0.0532445127423853,0.0570853664539754,0.197492064675316,3.38921996757333
8851.54360998422,474.948609434068,1918.1935403496,0.00335951512679458,-0.0385836298484355,0.557527585653588,0.922019551275298,3.78254245558386
6090.20970389247,468.929840903729,241.896332800388,0.0139069399656728,-0.0516057085990906,0.827174124773592,0.7335409745574,2.6617238987912
8521.25258278102,149.981647636741,1894.3055760581,0.0558444790402427,0.0336673930753022,0.678833150537685,0.9072985292878,3.52382181137655
5548.76087512821,350.765478610992,1995.35130765289,0.0196784589299932,-0.0590135544072837,0.012848662910983,0.97311321622692,4.67541307741965
9380.70288579911,186.884433962405,1516.50578333065,6.57444633543491e-05,-0.0585436744708568,0.536926504457369,0.469509986694902,2.95181516855275
9300.53054075688,239.472771156579,1784.58574227989,0.0552632926264778,-0.0515901497751474,0.597568606259301,0.925369604025036,3.40845891212143
5807.79536813498,244.643849413842,295.111865084618,0.0390553469443694,-0.0539406823273748,0.107637885725126,0.00168326194398105,2.92845394339066
6934.33499988168,307.639884762466,1770.45435141772,0.0562607382237911,-0.0361910345032811,0.905428669648245,0.943966145161539,3.36301647915367
9031.77285101265,399.744254816324,1955.1902459003,0.0591035639215261,-0.0599154892098159,0.0975303784944117,0.213479320518672,3.06893284420536
6137.63498701155,472.368236631155,1382.88310109638,0.0580638696625829,-0.0592258687969297,0.990920065669343,0.368246376281604,2.18098893598079
6079.57804854959,140.004567895085,952.58025797084,0.000238736146129668,0.00723851842805744,0.211075636325404,0.984462333610281,4.89727457677781
7384.24973655492,495.703030377626,1947.00314863585,0.0500565164163709,0.0250309593603015,0.263345307204872,0.933076893910766,4.33995687707087
5579.92247212678,242.26940497756,1700.73306602426,0.000264790928922594,-0.0529381759185344,0.908004457131028,0.266300953458995,2.49273639467572
5550.80078262836,379.924749862403,1769.44639068097,0.0135633223643526,-0.0598107132408768,0.871858984231949,0.936740711331367,3.57238267473974
6107.73753840476,460.608074814081,1981.18689837866,0.0217479334585369,-0.0589362939354032,0.914388956734911,0.0989073270466179,2.13646848002524
5659.05257407576,484.048090130091,1935.34310576506,0.00542790493927896,-0.0203167236316949,0.983017401071265,0.0111877899616957,2.19168408493945
9199.24892857671,396.961266640574,329.853583034128,0.00307822619564831,0.0387067574914545,0.662485821871087,0.722860230831429,2.93974639421107
8975.15252232552,335.737220942974,1888.19951172918,0.000218650549650192,0.0599816960748285,0.988892865134403,0.704769733827561,2.41716777932847
9483.70684869587,476.877058204263,1960.70640739053,0.0176378991594538,0.0507151583489031,0.961509886896238,0.176562648033723,2.03511499346792
6133.56529455632,120.782652404159,396.066218847409,0.050482588140294,0.0352690642420203,0.186171306297183,0.643609476508573,3.48095287817326
9173.61585330218,105.714916624129,1363.24585219845,0.0593525812542066,-0.0490582553576678,0.873183207353577,0.236524751642719,2.2516361519473
5900.39532538503,470.490956678987,1681.9477357436,0.0543484756350517,-0.024127172967419,0.980443207547069,0.838330800412223,3.28647786537327
9293.79867203534,247.029378730804,1875.51692486741,0.0533945705601946,0.0312835234310478,0.980958159081638,0.207154535455629,2.0638243227465
6808.7077755481,115.589764900506,313.02304668352,0.020907221166417,-0.0429606420267373,0.999651013873518,0.0172262620180845,1.69147063993963
5792.55460947752,100.460369605571,336.297508887947,0.0568038051249459,0.0230292886868119,0.0119098115246743,0.501803830498829,3.58397966623235
5723.62461127341,119.73911691457,1842.50584989786,0.0485490454360843,-0.0076203568931669,0.0182418136391789,0.279907379299402,4.01957736666663
5900.59281792492,432.197401579469,1926.39153786004,0.0128507144702598,0.0417980395630002,0.984393719350919,0.992647238075733,3.52477602929813
8787.76600956917,141.495352331549,1950.71082399227,0.0597761957952753,0.0186396726686507,0.0771567083429545,0.987046930007637,4.35552690290899
9170.57231068611,487.968247011304,1969.88598192111,0.0553385949879885,0.0379482625890523,0.966875179670751,0.071767128771171,1.93565655194281
7331.23826049268,137.688997108489,490.81574389711,0.0583760458650067,0.0368679186422378,0.994603037834167,0.00681117712520063,1.68012040597995
6088.40320818126,121.335124690086,1516.20355034247,0.00536137477029115,0.0478436919115484,0.988838366465643,0.00887176464311779,1.78409474687735
6794.09762006253,168.184069730341,1120.81511416472,0.000987145453691482,0.0132689177244902,0.90758577408269,0.0141041930764914,2.45372830734285
9022.95683789998,382.531143911183,282.688044337556,0.00456344603095204,-0.053725924026221,0.497370406519622,0.176201798021793,2.67960717766894
9065.65796025097,129.589523002505,256.69518802315,0.00139401841443032,0.044539777552709,0.062941741431132,0.665765689220279,3.42599004275745
5715.95496404916,268.54759529233,1828.83819201961,0.0577293495973572,0.0546833168249577,0.972045447211713,0.84998898091726,3.12197231677489
8795.05247436464,366.616637352854,434.494615485892,0.0556818918278441,0.00941558972932398,0.93517174362205,0.340270857792348,2.33383476725056
6466.56326204538,471.054532378912,1932.57332136855,0.00758202941156924,-0.0133708520326763,0.183785035274923,0.0784235957544297,3.73446553574548
5788.01578935236,378.486071620136,998.186846077442,0.0397722411202267,0.0528871760610491,0.770114010665566,0.891226208768785,3.34174131633962
7713.68252485991,191.238664090633,1261.68093085289,0.000346081643365324,0.0347933948691934,0.692553295986727,0.858279095962644,3.50132422218641
6033.48952438682,171.66354926303,1225.50051622093,0.0347126083401963,0.0370590499788523,0.965220258571208,0.899842593353242,3.14711394387006
6926.42869707197,452.847100608051,455.024686688557,0.0582356931036338,0.046606115475297,0.941078984877095,0.783659157110378,2.49088356447549
5793.42464730144,440.248325001448,1943.27456252649,0.0573446017736569,0.053610222665593,0.83595985150896,0.788885171059519,3.4070801629787
5850.05493089557,427.103463280946,1924.90164451301,0.00506452107802033,0.0179578041471541,0.420123402262107,0.603682879591361,4.35996706530814
5635.14582812786,225.484578404576,915.650461381301,0.0201306221354753,0.0184403609018773,0.783797610318288,0.961744500091299,3.88573207188535
5740.31029082835,470.117488969117,684.328600764275,0.00122448953334242,-0.0231217437051237,0.00973240099847317,0.837526131421328,4.46878243900487
9270.22156026214,428.270662389696,360.858931858093,0.0515080452756956,0.057121509835124,0.90868157427758,0.113387900171801,1.97976353080131
5878.73491179198,492.887164652348,1112.89510792121,0.0575595483044162,0.0382996136136353,0.969517699209973,0.223676918307319,2.16117756129206
9406.8911485374,485.984917730093,574.67312659137,0.00233281041495502,-0.00421725288033485,0.85314372042194,0.00467926589772105,2.67690967691012
6321.22258748859,407.746561989188,1077.26201941259,0.000517124142497778,-0.0539088585041463,0.996551123214886,0.0471696068998426,1.76721410156504
5833.99507310241,385.784022789448,217.66864201054,0.0205092397844419,-0.000239900657907126,0.819778581149876,0.955073297023773,3.31102679202509
9246.39481306076,339.527570363134,1056.6622229293,0.056231477712281,0.0512022388167679,0.989924430148676,0.0210942949634045,1.67794173175658
8814.73296228796,205.243844166398,1890.3785886243,0.00319962942972779,-0.0598201401997358,0.519369836663827,0.118550444021821,2.65661594856931
5628.2498864457,422.049305588007,234.419988654554,0.05723709623795,0.0207680770196021,0.250531692523509,0.0981269814074039,3.08571395573979
9481.17542732507,497.5032530725,1834.04115741141,0.0203711919346824,0.0333695315010846,0.877162671880797,0.460525172529742,2.74688072205587
6481.65058065206,423.331487271935,1279.12809741683,0.0390330939274281,-0.0570729145780206,0.97959177964367,0.970958051271737,2.93839915133288
8291.50980431587,203.082822263241,252.849443024024,0.00304220471531153,-0.0113561304006726,0.717002853518352,0.858874907484278,3.27614926829291
7051.11842323095,316.330479457974,1800.24132272229,0.00443293395917863,-0.0364046401251107,0.0167904808185995,0.642149145482108,4.20562995727781
6338.99987395853,201.98604138568,1848.57535362244,0.0163652577856556,-0.0575095468852669,0.96840246533975,0.467999218963087,2.4988898376133
8348.69255311787,422.442715894431,979.456519521773,0.0298051002854481,0.0219037852808833,0.85273173940368,0.580275488784537,2.92758405991087
6460.15447936952,100.003897119313,275.081657897681,0.0518144050240517,0.0392108293063939,0.225434655556455,0.997332791332155,3.57686378657683
6664.25739880651,131.588284671307,288.680627755821,0.00756896128412336,-0.0532204696722329,0.237258366076276,0.990875046467409,3.48510276935239
9380.25006279349,180.170830525458,1639.11177106202,0.00405638898722827,-0.0575311553198844,0.994833967648447,0.979670444270596,2.58145746650343
9461.31011284888,112.92822221294,1628.21910777129,0.00316621727775782,0.00959699065424502,0.185887233354151,0.842029148247093,4.50801722162232
9464.97983857989,122.936833649874,615.657802531496,0.0175603809859604,0.0127567524276674,0.450390597805381,0.939656833885238,3.77235976644526
5613.93947247416,110.143639985472,564.138365536928,0.00187532024458051,-0.0554012313857675,0.996533089317381,0.974715291056782,2.58231656775797
5500.54840743542,382.899596262723,1799.6357683558,0.0162429510522634,-0.0260725370049477,0.931274421745911,0.978781747166067,4.08938715629993
8774.07701406628,496.351883560419,791.905320622027,0.0415932164015248,0.00595440963283181,0.991209817817435,0.964844546513632,2.74485804843462
5695.4210838303,135.507075954229,469.374565267935,0.0491111148940399,0.00928570699878037,0.942163367988542,0.975527238799259,3.04962700954388
9319.55773569643,123.128917720169,760.024811839685,0.0026511039538309,-0.00418032123707235,0.028463821625337,0.547988852951676,4.2686024514228
9326.41439512372,128.361094277352,1807.50544252805,0.0174155334988609,0.0183272238448262,0.987109821522608,0.143382338108495,2.17631028909329
6837.03142777085,180.777250695974,1270.46959227882,0.0123006213270128,0.0522807733062655,0.879233527230099,0.939295877935365,3.14490657174527
6589.54364061356,124.097946565598,1651.24486465938,0.00413618557155132,0.0549371411092579,0.0854962598532438,0.946088461438194,4.22108043393826
5570.35164162517,450.376402121037,204.57544834353,0.0578229473624378,-0.0322866680379957,0.443305313121527,0.995968209346756,3.40048695878689
8241.12153425813,369.43102022633,264.728887658566,0.0438468343997374,-0.0362841781508177,0.894143140176311,0.0574932706076652,2.14764826727902
5684.00331772864,106.724144611508,1816.28149715252,0.022597584715113,0.0377633893210441,0.988159456755966,0.131755474023521,2.10143470196556
7038.83199486881,337.486700434238,1522.10779353045,0.00862377544865012,0.0431503609288484,0.86120576155372,0.596753539051861,2.95094086504571
8854.19235657901,430.703819263726,422.976174810901,0.0241308586159721,-0.0582804282568395,0.900998053140938,0.770067345583811,2.4623218816053
8530.30900470912,492.680445779115,1999.90482935682,0.0457597508188337,-0.0197540816757828,0.866369519382715,0.23022757191211,2.62652082437079
6218.03823579103,145.964333880693,235.576762957498,0.0518795431824401,-0.0599155989289284,0.0643654172308743,0.324064119718969,3.07567888459437
5637.20023911446,112.414098531008,384.767674468458,0.058820936079137,-0.0548989570699632,0.344321114709601,0.949896932346746,3.46013079567848
8422.14977927506,329.55110128969,664.308357145637,0.00147194862831384,0.0531745668221265,0.997829688712955,0.0440240653697401,1.66409594806597
8362.10569925606,131.98841707781,1869.37888609245,0.00561549844220281,-0.0186103523802012,0.321524103637785,0.973855952499434,4.57477005199591
6002.10587214679,482.335635367781,1477.9056398198,0.0589276775484905,0.0270572462584823,0.911880296654999,0.0882246380206198,2.26039104018788
9344.48197763413,335.232232883573,1720.58606804349,0.0597696499060839,-0.0235953155346215,0.987884270958602,0.546712728682905,2.39927731236789
9196.43818121403,267.750129103661,368.565918318927,0.00103257936425507,-0.0445108053926378,0.906667040195316,0.878201390616596,2.57967680781396
5661.42713371664,253.088592737913,979.899754561484,0.00353849843144417,0.0448012763634324,0.00168020441196859,0.125941234175116,3.32411481182412
6379.96352557093,206.477756425738,1476.42025132664,0.00189169566147029,0.0464865918271243,0.997059302870184,0.228609551675618,2.03580814077168
9350.01822374761,470.599571522325,1961.88751561567,0.00476042204070836,0.0416553494520485,0.983513494022191,0.284027458867058,2.14673461933092
5783.54011103511,101.385187264532,811.639949213713,0.0138528552185744,0.0591629233025014,0.802691218443215,0.104789996519685,2.25939922901909
5962.0120357722,114.685126487166,368.122434336692,0.00213202434126288,0.0426943332888186,0.989719512173906,0.102532373508438,1.85124694804526
9437.15923093259,484.204842709005,1710.47514295205,0.0537874741852283,-0.0236831801757216,0.439670557621866,0.152018647408113,3.02703427982815
9232.61364828795,402.1454625763,645.603062724695,0.0470786872319877,0.0168543482199311,0.322993248933926,0.0235958569683135,3.0632376775022
5689.25464525819,160.491325333714,401.81694412604,0.0519717270880938,0.0551324234157801,0.995809611398727,0.0493755801580846,1.66164192609181
8558.30018781126,259.649240784347,889.685915783048,0.0146882149530575,0.00182906144298613,0.115558600518852,0.00944188819266856,3.70046256096965
9009.71181411296,294.719899725169,1807.9677790869,0.059458792260848,-0.0199508246406913,0.522000522585586,0.0136146394070238,2.78667550828941
5701.20770484209,137.750785332173,204.525222722441,0.0121837869565934,-0.0525039362255484,0.970558343920857,0.225464001763612,1.95097442302058
6712.92353887111,116.610036510974,314.518758747727,0.00886571982409805,-0.0507891824282706,0.924783237045631,0.942389047006145,2.6082926754696
8895.10819688439,137.431483808905,979.463667608798,0.0595362946204841,0.0234352014865726,0.546988857677206,0.00333179975859821,2.67059905636299
5858.07060729712,148.887563217431,500.026855338365,0.0414272270863876,-0.0505261580832303,0.890171894337982,0.0576536117587239,2.10317918862374
5785.84940172732,166.40836475417,653.564496524632,0.00948003529105335,0.0597896896395832,0.983946893829852,0.817942587193102,2.49488861447532
5852.54621133208,127.157298102975,1376.78131824359,0.00394611212890595,-0.0599839594122022,0.992075725458562,0.12894589221105,1.85590784332821
6867.94232018292,499.391266424209,1848.05491119623,0.0296466799965128,0.0485205323249102,0.981338983401656,0.5295965236146,2.55968075453032
8822.03738670796,158.072872553021,269.871216267347,0.00285240438301116,0.0591450437810272,0.593187937512994,0.551928176544607,2.7249702724057
7116.06715712696,121.308282017708,435.763792786747,0.0504065180663019,-0.0599644371494651,0.93002335075289,0.0927323459181935,1.93469165085229
