"Umag","Ts","Ta","theta","phi","alphan","sigmat","Y"
6281.23297456652,135.770819049329,1526.82004206907,0.0268346943452954,0.0365641543412581,0.0512028225581162,0.817830976708792,4.41381847805261
7077.52629588358,201.725823919289,560.49496182194,0.000687937105726451,0.00650711418958382,0.457671371742617,0.390047664453741,3.6543120838118
8884.14382766001,339.622309042141,1598.71990757482,0.0355575222955551,-0.0577787085366435,0.243336055150721,0.12578284267569,2.92845999210958
5597.31092520989,300.206381292082,1851.13645918202,0.0165289022485726,0.0405014663826674,0.760507711647078,0.557149662123993,3.41470182747852
7391.90777827054,197.133908838965,1348.9377882937,0.0300518372251187,-0.020348811457213,0.283487408088986,0.305423360101413,3.59810714580395
7964.3784345407,441.085488393903,1265.69415677572,0.00562897928897291,-0.0234329302615486,0.508355179498903,0.981214714962989,4.07395388085657
7447.03232499771,141.986740879714,1908.24027946033,0.0321307583800983,-0.00344572238819674,0.794420097856782,0.831922976963688,3.89694504976215
6717.39602488466,264.900533611886,1819.29973307811,0.0488690564790275,0.0513325739823282,0.491582197744865,0.48866808582563,3.29089061189038
8708.24582423083,456.711798732169,274.968040634412,0.00213916138638742,0.00327261722534895,0.668759189890698,0.297084243837744,3.20477877996156
6159.09852843732,131.28111997433,1064.29901979398,0.0509976666607428,-0.00883812619708478,0.384284753808752,0.0202839293284342,3.10874433769889
9490.13330802321,164.834535901435,1369.99019729299,0.0503443495159037,-0.0303450419618748,0.277309328839183,0.70472487921128,3.63460766324774
8814.50042747892,256.661660489626,1831.1677026609,0.0553753988369834,-0.0366526299194433,0.160456392089836,0.161776617520954,3.18103682386199
5662.31728271581,295.777640934102,206.169382537249,0.0525107703424059,-0.0268497055976652,0.542372648536693,0.755161239143927,3.19885200445857
6572.26167310961,489.393058937974,1727.45637415349,0.0180206632567104,0.0215651965750381,0.95745110136224,0.0927325524180196,2.33319201618871
8647.08424406126,413.391789872199,649.046369389165,0.0242031742649619,-0.0107619441552088,0.633535857975949,0.903871235877741,3.57917935160884
5634.27788640372,399.83987442404,1664.90728768706,0.0207278025726322,0.0395103881710209,0.319168595271185,0.492427329928614,3.79762861026595
6088.68363355286,181.395784143358,929.97710031271,0.0430457834478468,-0.0398163620176725,0.088696572650224,0.600358651343267,3.8023501208392
9428.8009761367,309.467892838642,1609.50253595645,0.0568366982745007,0.0296396745194681,0.379100609268062,0.368456026096828,3.18698047391779
8851.14178560674,477.60337371286,858.382483859546,0.0024458156676963,0.00464756982084363,0.599562857355922,0.145055310798343,3.280188686599
7376.9746545516,184.538054130971,1644.29726605723,0.0404939775732346,0.0125688721161336,0.844349941590335,0.380392489600927,2.94367724351548
8765.77324060723,242.862268800847,1250.33000098309,0.0401679340492934,0.0440917278086767,0.650507859203499,0.199803647808731,2.67958249054599
7828.71289810166,244.144784008153,456.692669577897,0.0466322494715452,-0.00450252698259428,0.262349157915451,0.720210118428804,3.73473505765114
6190.58482510969,474.767206477933,1388.62404904002,0.0468376716777217,0.0352772473102436,0.61490028424887,0.716310487475712,3.57163113366561
9328.93617249094,484.307063169777,1323.58602944994,0.00478423601151444,0.0225765669400804,0.362237677229568,0.344897423058283,3.48943588024342
7660.45360771939,305.034409187734,1990.18277789373,0.0130445860129315,0.00958879201412201,0.113322049460839,0.259447914054617,4.03562325177784
7498.47413679585,451.597109998576,1468.8688850319,0.0232709612867329,-0.0146362571435049,0.256777676236816,0.285812775786035,3.73179881315081
8553.22672349401,312.005258626305,1425.18443535455,0.0336515711504035,0.0420157316601835,0.303357456242666,0.171192643165123,3.09601397056701
7763.74381781556,392.149250702932,884.172292253468,0.0288969576755539,-0.0182017212141305,0.557668427543249,0.102727803164162,3.03556074184343
8147.52653195523,464.903047339059,1677.11546661612,0.0144359401445836,-0.0478222129555419,0.730729878859129,0.0404288589186035,2.43797066250929
8040.89845089242,283.15692595765,1706.50556026632,0.0540399456284009,-0.0395784507041797,0.154421584233642,0.571576020831708,3.67503388396396
6408.75440463424,342.815767330118,1097.93407348776,0.0085951566091273,-0.0540349421200342,0.999848202662542,0.450391847176943,2.19807972687122
8135.74285152368,351.289596605115,231.036404470913,0.032573352082679,-0.0125976616744883,0.294283470013179,0.696100160160568,3.57955503591723
9297.04452696256,120.960493030958,1446.8938730103,0.0418410021878779,-0.00509814495239407,0.409305919208564,0.614627302747686,3.74854823613069
5974.4276470691,369.248145678081,545.744702241849,0.0533524964803364,-0.029936715738941,0.914111554310657,0.244563412151765,2.32779343293322
6316.63440990262,438.681413806975,447.624273440801,0.0551469907886814,0.0201839425030164,0.480936498525552,0.531779060813133,3.23783503789757
5765.68858320825,367.497131975368,1200.6616403074,0.00615745931533165,0.0454605027168989,0.171876893462613,0.794888669822831,4.07491456303836
6220.3928194847,333.441736172885,1413.95891043637,0.016875437532831,0.0595492374571972,0.333024313317146,0.462396372281946,3.28391534106318
8314.34519054368,127.571641650051,811.831290771253,0.0250394527184777,-0.0372086542940699,0.705397893621121,0.00433801761828363,2.53930545210107
8538.58694696799,320.593278572895,345.196875004098,0.0594145508928224,-0.0136650921097957,0.786966087480541,0.0880114188720472,2.4730304814147
7585.50921135582,144.639139290899,1189.79900467349,0.021839187417319,0.047025494179409,0.644777282411233,0.68544234022731,3.20214639609711
9113.12631922774,255.999722374603,1631.50007304782,0.0150802407049108,-0.0438737519186921,0.926207939398009,0.992029124121182,3.05573442063063
6785.36679090932,287.107335992157,481.447097276337,0.00136928177797236,0.0242295113473199,0.0426553671993315,0.875308087929152,4.12962127431132
8447.3944361601,173.533133574761,1765.18978397036,0.00907101394836791,0.00724692006641998,0.895045050329063,0.805784825552255,3.55389681824462
7333.57215631753,102.617779901251,433.001510118134,0.0279069945777766,-0.00709809472896158,0.909947705094237,0.274014441198669,2.55488135202482
9095.82585186698,163.507433648221,619.336726363283,0.0408795551458374,0.0459190930891782,0.680057275427971,0.928196018214803,3.08347784805876
7706.98646715842,159.372322208248,1121.00081900135,0.0442584116610233,0.0162227257048711,0.802726853033528,0.213432031357661,2.6774672348468
8208.20301360451,290.366141204722,1576.44882267714,0.0380018259633332,0.0575614049144089,0.0264584188372828,0.671963011692278,3.65754221049089
7114.28721540608,406.052072328515,665.893941329326,0.0174916005391628,0.00507655391693115,0.10162988578435,0.786143468590453,4.36183722172679
7240.0654577557,228.752475552261,1953.33886734676,0.0375494328281376,-0.0500292851219885,0.834809656401631,0.84939394792309,3.34568365665047
7861.84162192978,178.139446918853,1377.96789408056,0.0239438192817383,0.0142572508580983,0.4116324111633,0.767521907656919,4.06128042393008
6436.11948808655,482.227810773998,687.443047074601,0.0312699411554262,-0.0216897689265199,0.448788442406803,0.641632076269016,3.64736109244193
6521.2625560537,495.719168673269,871.86288788775,0.0258964767785277,-0.0480603504985571,0.774623570486437,0.66220770887332,3.0043071443369
5820.08076930419,222.476770413108,585.245106598362,0.0437400195663795,0.0258070583813824,0.237264870810322,0.0502748661488295,3.13065583513152
7515.17652852461,297.546978648752,908.080773055088,0.00501865911078639,-0.0172334928363562,0.320329143274575,0.0669619258842431,3.39177025827045
7012.62256698683,430.029691413976,760.026667266153,0.0521437939806841,0.0340960067437962,0.124737557878252,0.157137141800486,3.18480476421642
6949.67484842055,277.198562510312,788.680618786719,0.0214630049688276,-0.0431833915913478,0.605513139534742,0.886524611904752,3.4326895534425
6497.2664283216,218.761566820554,942.567808502819,0.0386466230220627,0.0481474693357944,0.0913196655572392,0.476401180082466,3.52530287929817
9193.85693728924,497.69102641847,1944.90935984766,0.0446303335385397,-0.0285256978427991,0.756902786858845,0.580098579174373,3.11483643966006
5567.44523577392,195.166698384099,1019.13488279702,0.0187848457493819,0.0524846547327004,0.88304715243401,0.507747087017633,2.70326031734032
9384.48454551399,455.190974799916,1486.83802101202,0.0346997509048786,-0.000289892214071004,0.869021465608384,0.772784400130622,3.29647759171045
8917.82771399245,189.088062942959,1051.93852986163,0.00771816039229743,0.0325318295440637,0.354022568997461,0.864060750936624,3.7555165422421
6877.45917019434,212.708000385202,1914.78314360185,0.0453957300080918,0.00217926660580561,0.534211843446828,0.181600643042475,3.29551751515103
7791.54440509155,111.208516033366,1102.95642227307,0.0562738756410778,-0.0161709420360625,0.6932003500266,0.562751770878676,3.16185002925728
6132.0759215299,236.41609772481,1781.0862007984,0.0534475577241741,-0.00153892311947421,0.588646178266499,0.119785582080949,3.11688609818066
9229.96504830196,384.099442761391,492.01360817533,0.00787321529975161,0.054462287309859,0.820843304744922,0.202825818997808,2.26591179785366
5522.66329835169,273.31416920945,540.982544289436,0.0224263821083587,-0.0408560212651268,0.142732528676279,0.976873301560991,4.06896360898091
7545.47967217863,355.240843086503,1167.72688445635,0.0368654429003131,0.0557480108334683,0.0768045508884825,0.320743979089893,3.2585900263366
6645.86516300216,151.159656446427,1536.01969712088,0.0360245663942769,0.0532615780360065,0.0634409215394408,0.624463686922099,3.79270243295386
5715.4733267799,207.673271661624,743.132315781899,0.00368992233742028,0.0151358390746638,0.560172433319967,0.43066110484302,3.56069711248957
7211.15356165916,379.742624508217,815.729674512055,0.0591860058941413,0.026797655490227,0.429554215909448,0.968171891570091,3.69460340008058
8689.61104572751,232.890823907219,1028.82304489706,0.0254199159475509,-0.0459103283699602,0.729335062499158,0.416732099498622,2.76462992943379
8488.05428429507,435.390501631424,1310.71081978967,0.0137152846557554,-0.0510652266106568,0.966766349920072,0.311278247826267,2.1541619304773
5889.44686140865,136.268980593421,673.054401254281,0.0122469706102274,0.0191321099965833,0.0197734253318049,0.0703886658512056,3.63646800629177
6763.50911108777,344.120046708733,372.175061750691,0.0270589363384992,0.011556348946318,0.208185018345248,0.953500416630413,4.04668861698639
7145.35934699699,420.323773513548,1880.30797965731,0.0479977630707901,-0.0245604374270886,0.473358973804861,0.513142346434761,3.61425088544261
8595.30488241464,248.074185631238,1784.65770410374,0.0161271079764236,-0.0535175231714733,0.854693810741883,0.634023365101311,2.8280407512857
7928.08360409923,117.596657861024,731.035249808803,0.0114221842504106,0.0279575708817691,0.199628419817891,0.739350969046354,3.8217535931545
5818.44396709464,383.170381456614,717.585989471059,3.95799780730158e-05,-0.0598373942649923,0.931235993755981,0.747625438608229,2.67657877383976
8376.13862863742,261.610636360943,1229.28613414057,0.0482247391314246,-0.0521925495872274,0.519135026789736,0.890766451810487,3.43778435398172
5984.38982095569,171.017068889923,241.482777962461,0.0352342857938725,-0.0261212039653212,0.673934588669799,0.375078793969005,2.88604563019441
9017.59667461738,416.231500682421,1285.48578268196,0.0331445544264279,-0.0451377558778971,0.137629833556712,0.548646469986998,3.55505777533665
6927.16444860213,326.707050821744,976.970945349429,0.00348172045759857,-0.0339456078822725,0.529287030890118,0.850074946049135,3.7303497909756
7043.85326613672,469.466982723214,303.355408796575,0.0298572524343152,0.0495128675510176,0.872549358813558,0.656788408099674,2.51898374554287
6679.41922649741,461.514338120818,1496.99986368837,0.0107394155390561,0.0309620679765008,0.7148101305007,0.260321287591942,2.97656454159459
9040.48027249053,357.492405088618,1216.9742903267,0.0422395594420843,0.0228251363335177,0.00524289028486237,0.441603988497518,3.71901205613505
9148.20456940681,363.900906862691,343.394387752283,0.0310560421933886,0.0372916446385905,0.435158238760196,0.136003051945008,2.89556282240763
6837.48096363619,268.006569044665,603.839927325957,0.0579005782613531,-0.0327964743526652,0.0369485710677691,0.237825103143696,3.32421650015857
6585.56091382168,408.652982708998,1563.67177238269,0.051266222170461,-0.0208443974034861,0.461045128603,0.408355488972738,3.49632546003817
8073.35797447711,328.798076754436,842.501818576362,0.0390995272576343,-0.0359112433154136,0.570382361884695,0.528460202165879,3.1422577681485
7274.94192789309,403.522842789069,507.625719904434,0.0584975444467273,-0.0314948127167299,0.186058908130508,0.945284127965569,3.70192921641619
8296.40826730989,319.942915615626,1861.03536611563,0.010874095016811,0.00980925485277549,0.948813352547586,0.331246282721404,2.7664576385151
6351.95875618607,372.658938559704,993.306971800979,0.057143048389256,0.0416599999263883,0.746450209917966,0.590758749665692,2.96942525283689
7986.90835688263,388.582681431435,1143.0542213181,0.0493390470596496,-0.0569263442125171,0.345835201865993,0.820987593382597,3.49009747394227
8946.35666165501,107.688261616044,971.470094943419,0.00714431925206445,-0.011861677252315,0.210355392340571,0.935857543875463,4.34646125585121
8232.56673059426,446.22755709663,314.380917478353,0.0192859609869774,0.0318805625553243,0.62334098657826,0.351204011905938,2.87689430989883
7630.23417296819,209.413541265763,394.963758728001,0.0460699343499262,0.0179281826488674,0.818391990317032,0.0314898501918651,2.41581117188854
6043.62704340369,427.295850402676,409.373936576303,0.0284819579768926,-0.0080895109157078,0.980245803508442,0.223288081276696,2.30352724676039
8388.99413937703,115.509327357635,266.197775612585,0.0141155599821825,0.0582692239967175,0.972474716734141,0.420072967708111,1.97068456316601
5937.95625740662,226.876600554213,1735.02784180269,0.0202462697136216,0.00104489808110521,0.223803701251745,0.017194475159049,3.65212917562574
9349.58426841535,154.591059496626,1981.56207369315,0.00982679928475991,-0.0558430270456709,0.398122962957714,0.914944081131835,3.64837391506729
7274.94192789309,403.522842789069,507.625719904434,0.0584975444467273,-0.0314948127167299,0.186058908130508,0.945284127965569,3.71264602223678
9328.93617249094,484.307063169777,1323.58602944994,0.00478423601151444,0.0225765669400804,0.362237677229568,0.344897423058283,3.48879165561601
7391.90777827054,197.133908838965,1348.9377882937,0.0300518372251187,-0.020348811457213,0.283487408088986,0.305423360101413,3.59145609413198
9095.82585186698,163.507433648221,619.336726363283,0.0408795551458374,0.0459190930891782,0.680057275427971,0.928196018214803,3.09002605996079
8488.05428429507,435.390501631424,1310.71081978967,0.0137152846557554,-0.0510652266106568,0.966766349920072,0.311278247826267,2.16018397330986
8553.22672349401,312.005258626305,1425.18443535455,0.0336515711504035,0.0420157316601835,0.303357456242666,0.171192643165123,3.1011993159016
6408.75440463424,342.815767330118,1097.93407348776,0.0085951566091273,-0.0540349421200342,0.999848202662542,0.450391847176943,2.19687489448852
7012.62256698683,430.029691413976,760.026667266153,0.0521437939806841,0.0340960067437962,0.124737557878252,0.157137141800486,3.19924593876574
7376.9746545516,184.538054130971,1644.29726605723,0.0404939775732346,0.0125688721161336,0.844349941590335,0.380392489600927,2.95045856199353
8689.61104572751,232.890823907219,1028.82304489706,0.0254199159475509,-0.0459103283699602,0.729335062499158,0.416732099498622,2.75706517375179
9011.89070474356,164.488986507058,1294.85015808605,0.0573414299357682,-0.0211077715270221,0.896516743581742,0.0448054994922131,2.2167554110588
9338.59322685748,498.596564214677,1971.14595924504,0.0518672339525074,0.0359779546782374,0.828902917448431,0.0612646909430623,2.30046770659019
6931.91402498633,402.694689761847,253.624622803181,0.0277446451038122,-0.0411900392174721,0.752858772873878,0.8934016963467,2.9501411545346
7500.68463198841,479.912895895541,1783.97205662914,0.0485538046946749,-0.0558385996799916,0.989451787434518,0.0813517605420202,1.81531434195
9284.19806715101,290.515389386564,536.640149587765,0.00439784401562065,-0.0463300660438836,0.9956796891056,0.870950960321352,2.2754832458369
5588.33164907992,245.139948558062,203.393356921151,0.00321883896365762,-0.0321630478743464,0.997772350674495,0.169837546767667,1.95343247047397
6498.58290329576,139.008278772235,266.523350868374,0.0505854583019391,0.0515360783971846,0.973016560310498,0.846902331802994,2.34638327659932
5877.91230808944,499.241019226611,405.831908434629,0.0564553450746462,-0.0565422571543604,0.790370990755036,0.86162467347458,2.88514576282851
5870.03952171654,276.362618524581,1041.34731446393,0.0591787001676857,0.0384301531780511,0.969072166131809,0.796855374239385,2.82672381430215
8172.05838114023,134.358641505241,389.753461815417,0.0392984105832875,0.0415025632549077,0.951115246629342,0.0854150832165033,1.98858027675415
8132.75066483766,149.293712805957,1788.25251688249,0.0573698404524475,-0.0520801106560975,0.964881954248995,0.0107116377912462,1.8068405932446
8397.53854647279,420.737240090966,1912.63542827219,0.00931428662035614,0.0422292201686651,0.974153233924881,0.278097493341193,2.22328285511625
5775.49552824348,376.278102118522,271.224215533584,0.0215167538635433,0.0477535896655172,0.944110985845327,0.13624986121431,2.0226114573654
8973.67305215448,421.27757081762,864.73819646053,0.00818818224593997,-0.0531557054445147,0.974584454204887,0.80657652951777,2.42544139211536
6001.10563263297,109.378572553396,295.459811715409,0.0539985057665035,0.054998720549047,0.417644833680242,0.0558792187366635,2.62335615035722
5815.20762480795,140.613152272999,1663.11202435754,0.019760142127052,0.0505030898563564,0.993948178132996,0.0251205877866596,1.77483562638818
5568.76508332789,282.533059082925,1250.08733342402,0.0035229368833825,0.0382258887123317,0.959841713542119,0.0658803235273808,2.11241479702656
7262.75776978582,262.28048959747,1817.88644511253,0.00518835534341633,0.0336177225317806,0.902984061045572,0.0505758705548942,2.29650167061937
6044.47831492871,132.630806230009,1883.63566854969,0.0308613319694996,-0.0247476973570883,0.949418673291802,0.312253492418677,2.71193646475096
6044.99315842986,115.644517727196,1731.7505707033,0.00125115883536637,-0.0445996411051601,0.874677566345781,0.0433214576914907,2.26813628956899
6647.54856936634,209.083540737629,1974.24006965011,0.000255338125862181,-0.0196107084397227,0.155564554966986,0.00606292649172246,3.52801633584844
6466.34277515113,141.857507824898,1252.80983215198,0.0217022961750627,-0.059914716174826,0.764132868731394,0.245884236181155,2.5158602129785
9214.2816260457,210.514487884939,1937.14923951775,0.00182349911425263,-0.0275398187432438,0.952468884177506,0.313508571358398,2.48953579105878
7054.32669259608,471.319050248712,1176.76217835397,0.055661783516407,0.0517671872768551,0.936481850454584,0.817562092561275,2.78341680239315
8622.4052105099,415.729612670839,234.142890898511,0.0593626372609287,-0.048295161863789,0.400737129384652,0.999394002370536,3.23095426938295
8120.7185331732,464.707106631249,1047.46060986072,0.0401396586326882,0.0496547501999885,0.626599087612703,0.982982944929972,3.39299802310336
9300.32060761005,135.25382000953,1122.2715549171,0.0126650037383661,0.0492295218911022,0.81820076983422,0.0378043008968234,2.24311026371919
6211.00361552089,249.497813265771,501.297845644876,0.00324604912195355,0.0587264973577112,0.285247806226835,0.0240537354256958,2.73965961328989
5812.26322241127,471.698234602809,1903.88862774707,0.0571161754662171,0.0580557796452194,0.833941245917231,0.706129762576893,3.23033052902362
5515.74650406837,301.985793281347,308.720945194364,3.98894771933556e-07,0.0527395353745669,0.490395310334861,0.0281207878142595,2.60901354825937
9427.2195789963,197.561520058662,1938.97980023175,0.054208628218621,0.0539648081548512,0.098628040170297,0.116658553248271,3.01648747424848
7425.75938627124,119.527217186987,1415.12207956985,0.057243181373924,-0.0442596924304962,0.995615634834394,0.989022645633668,2.78619294708709
9434.30264480412,191.899848170578,1305.56428516284,0.0560158352879807,0.0546529878024012,0.848712239181623,0.923625770723447,2.88527684645206
9410.98102647811,232.511183526367,410.60994444415,0.0596951385168359,0.0486225529946387,0.0545143957715482,0.401721733855084,3.16599465391651
7783.44111517072,489.669026527554,270.800161221996,0.0354000316048041,0.0238558159209788,0.145685519091785,0.0526436539366841,3.2408547954791
8926.75459105521,475.429448019713,1999.58848040551,0.0549668470909819,0.0569952650181949,0.799620172241703,0.058209267212078,2.20235776114033
6189.31927438825,484.183571487665,1860.01739408821,0.0506402055826038,0.0580163737479597,0.92920806328766,0.262831306317821,2.31989209273043
9293.82382053882,413.616859540343,1692.003366258,0.0566960734454915,0.0588504692539573,0.194157996913418,0.19477548962459,2.94390078671916
6167.17262193561,266.125347279012,701.661364827305,0.0577351288637146,-0.0323017827607691,0.963931554928422,0.632160450564697,2.5416269086939
8765.64676687121,129.370927531272,1260.57765446603,0.0584263802831992,0.0557096027769148,0.873006257927045,0.99274854362011,2.92070879343137
6935.46387646347,456.370646320283,1970.07465143688,0.011588285593316,0.0558511324133724,0.00871498975902796,0.497321751434356,3.69413809160286
6110.21899059415,470.189423020929,1909.03668035753,0.0475792632903904,0.0569791473448276,0.442319758003578,0.937104699201882,4.05021920508764
5725.52286740392,492.571192793548,352.203282015398,0.054472389598377,-0.0357275334466249,0.0359046605881304,0.620714291697368,3.60535985376707
6623.7305784598,458.276316616684,1758.40501775965,0.0560750294756144,0.0543172438535839,0.279947591247037,0.925727182300761,4.00180379997395
5760.25602500886,421.590426564217,1897.74390859529,0.0143567620916292,-0.0577865729201585,0.575506577268243,0.00585501710884273,2.55708396311659
5559.07566938549,443.679342139512,1595.01265399158,0.0191565940110013,0.0253270434401929,0.957711205352098,0.865160555578768,3.65373154556883
9012.74430193007,436.495917011052,1931.85593648814,0.0362203049613163,-0.0597860337048769,0.998386832652614,0.0096224769949913,1.61140069243227
8975.19562300295,463.685198500752,1759.67236990109,0.00035248551517725,0.0365506338514388,0.687705266522244,0.129331477219239,2.69781340072069
9392.36955717206,118.523108586669,539.41339738667,0.0124358165776357,-0.00527779055759311,0.970613179728389,0.014151381328702,2.22803760466654
9466.44056309015,152.829571254551,527.296829549596,0.0320236890949309,-0.0586356842145324,0.957343680085614,0.266799287870526,1.9699803931091
5966.22518263757,223.722096718848,349.753438634798,0.0397851954912767,-0.0529655037168413,0.733086332911626,0.0090303928591311,2.29925964884559
6358.34963154048,470.729672536254,678.560345992446,0.0572501843282953,-0.038044829852879,0.98442967585288,0.147821340709925,1.94771944320138
5550.88096112013,487.776072043926,625.996914040297,0.04326839488931,-0.0421301123779267,0.937508347444236,0.0469993683509529,2.07186443209682
9005.06263505667,174.370487499982,1929.8913856037,0.00109490178991109,0.0372015355154872,0.894338265061378,0.0678343817126006,2.26810306665781
7338.0254516378,473.88225775212,1801.1133289896,0.0280896051647142,-0.00830154251307249,0.952261543599889,0.0892324545420706,2.39174332839341
8907.0649035275,203.139153122902,1071.18626404554,0.0565415754262358,0.0549731528386474,0.636323437094688,0.0991558618843555,2.44187151864228
7237.81301174313,437.267384584993,755.693527497351,0.00149440218228847,-0.0289311726763844,0.931693771854043,0.0333672780543566,2.22083148584695
6836.12347580492,100.424685887992,336.685526045039,0.0511063183983788,-0.0416403521876782,0.905524542089552,0.0651189782656729,2.06784246260448
8553.81926801056,103.571114875376,315.030629839748,0.0504419081937522,0.0406131683662534,0.994194623781368,0.813964371336624,2.17012107934082
7672.5851809606,244.697476923466,692.601133091375,0.0582269772375002,0.034788457788527,0.960802811663598,0.0230002000462264,1.89082419543332
7899.49113316834,347.20458984375,215.198892448097,0.00455203240737319,0.0310563658643514,0.961853292072192,0.0718552800826728,2.04772934237932
6744.46860980242,265.977282077074,1670.94508889131,0.000865052780136466,0.0581579473335296,0.904217894887552,0.339606229914352,2.43245905669962
5877.16703303158,123.899911902845,1919.64979502372,0.00499525389634073,0.024583694441244,0.777353495592251,0.259706189390272,3.09200604521184
7790.38131516427,169.554849434644,654.142178967595,0.0521735211554915,-0.0491762946825474,0.0796785759739578,0.99134248169139,3.7494072252008
8893.66103988141,146.050686575472,1941.02724269032,0.0085480870725587,-0.00667387073859572,0.990938926115632,0.996356272837147,3.39274299812983
7689.15808107704,165.964467637241,1675.12378571555,0.058937407778576,-0.0301605254039168,0.987504823599011,0.799072958994657,2.77371773413375
8841.82353876531,493.636835366488,1807.57025266066,0.00111197494436055,-0.0488715375959873,0.906468186061829,0.849712875438854,2.98663922376426
5595.61727009714,440.957550983876,1828.39050702751,0.0535145187098533,0.0567453075852245,0.158715234603733,0.244347657077014,3.28430359610499
7646.99244592339,317.701758723706,1974.16950953193,0.00104475519619882,0.015154474619776,0.998359887627885,0.458771408302709,2.68350864461987
8028.94678059965,333.693868853152,1776.70565862209,0.00427413360681385,-0.0560655632894486,0.948540279176086,0.396617003483698,2.34317137837091
9121.59669306129,150.083580240607,1695.57269788347,0.0569450268382207,-0.0515170777123421,0.853720905957744,0.55612759036012,2.66027839210927
9486.31135001779,326.720443647355,225.903361896053,0.000546268383041024,-0.0303069955855608,0.371353748254478,0.389336180873215,3.19585910650344
9439.7592311725,275.231155753136,626.5758914873,0.0102295304602012,0.0398606741242111,0.991955253761262,0.851017577107996,2.34162088410827
7992.5794377923,112.07011975348,1415.61259063892,0.0362134857522324,-0.0484832329675555,0.768917610635981,0.682003498543054,3.04627139463111
5729.44348026067,124.360820371658,1535.36960678175,0.0564067210955545,0.0341834504250437,0.79128176253289,0.93732597772032,3.73673883978652
8353.01294084638,468.678507767618,1543.44699960202,0.00608466091565788,-0.00280132636427879,0.944055960746482,0.0259901636745781,2.46599666902892
6093.22698321193,320.155308302492,289.460391597822,0.0314717902522534,0.0252481410373002,0.89468072168529,0.0758870721329004,2.29786589122427
6219.28525064141,118.549520242959,1896.71217929572,0.00875153058674186,0.0446220909431577,0.954539723228663,0.583148691803217,2.86634970323868
5620.64157240093,220.730014052242,1999.54424826428,0.00398325596004724,0.0409100163169205,0.993468618253246,0.962549722986296,3.5296388532476
6406.11258335412,122.244660928845,1841.22268571518,0.0123471459327266,0.0293672381713986,0.907288911286741,0.952117406763136,3.74801868318606
8538.72680850327,284.108305070549,1749.7529390268,0.0138557953527197,-0.0567918250523508,0.985347898909822,0.821195489959791,2.61297911980907
6795.50065472722,242.584769800305,308.289325796068,0.0114398248074576,-0.0441611980833113,0.984780082013458,0.901770487893373,2.41073036030663
9433.45801159739,427.679278701544,216.321125766262,0.0595187269616872,0.021232815971598,0.0226157200522721,0.401564803440124,3.37741699130275
7822.34427519143,480.715038161725,591.765051335096,0.0547234727907926,0.0497668528184295,0.780514484737068,0.916940149851143,2.91635069383722
9162.20500320196,441.70467723161,310.426159994677,0.0541104425769299,0.0589633440971375,0.951171232154593,0.910814826143906,2.37612935329797
9357.44960606098,315.490842424333,428.601553337649,0.000952591840177774,-0.0564158585015684,0.982860712334514,0.944984715664759,2.3042502888825
6237.09821328521,233.430806919932,274.228223832324,0.00982132059987634,0.031373047856614,0.445682322140783,0.970774872694165,3.55919218835271
6365.22098723799,490.26850676164,390.652153547853,0.0193881309684366,-0.0522137131914496,0.991137118078768,0.833304675063118,2.37764079158753
9415.20664002746,157.620379701257,238.430532347411,0.0567781103588641,0.000186483990401026,0.889667502837256,0.756345090921968,2.66062885181741
7945.39272692055,486.034025717527,299.13494810462,0.00955378708429635,0.0552774311229587,0.950927816797048,0.302210946567357,2.02865246575903
8788.12591265887,367.746525071561,454.82493294403,0.0534559695236385,0.052502877311781,0.933271552901715,0.0800456560682505,1.91755460833222
9285.49526073039,485.188245493919,496.339081972837,0.00311080982442945,-0.0111556877475232,0.885601178742945,0.935892109293491,3.09835426969582
8528.07934582233,432.094018440694,250.632949313149,0.00386634889058769,0.035593083947897,0.541761375498027,0.41704858536832,2.94450835793331
9279.14377488196,169.216754566878,587.962023448199,0.0180598683329299,0.0440507120266557,0.99091324605979,0.0143130854703486,1.74509099084595
7128.54762468487,417.088286299258,251.008777925745,0.00849482516292483,0.010727160545066,0.237072792137042,0.0299229086376727,3.49915370240542
9332.0602234453,485.454061347991,405.806506657973,0.012142242626287,-0.00602638528682291,0.0758749928791076,0.107048928970471,3.73654339505718
9084.70059465617,429.681053571403,276.521611446515,0.0202686859387904,0.0316314978897572,0.031475986354053,0.188296498032287,3.38943936569267
8556.00465554744,133.203366026282,1637.86824070849,0.0560531924944371,-0.0358643598016351,0.995824402896687,0.271084998501465,1.99445803100439
7310.49773190171,100.483592320234,1204.92093395442,0.00790398050565273,-0.0551003793720156,0.996310973539948,0.848071821033955,2.53698847757184
8766.64610859007,301.478717848659,395.290777552873,0.0521669364022091,0.0516432595252991,0.964421126060188,0.0666084159165621,1.82028462116715
7631.30894768983,398.689194116741,286.23795802705,0.00102530123200268,0.0589727379195392,0.234905717195943,0.0851644503418356,2.79570953977185
9231.68662935495,129.115572012961,1379.43703248166,0.0258361155213788,0.0591449374426156,0.991429962683469,0.348233411088586,1.95130054087254
7662.82423585653,177.384668216109,308.880513999611,0.0485740532213822,0.0339380802121013,0.947519096778706,0.0147450566291809,1.95919168057751
7904.03102338314,335.586358699948,1942.27961846627,0.0120550317177549,0.0478981623519212,0.977208714699373,0.5981799736619,2.57218090102313
8738.28893341124,101.002921070904,569.223327562213,0.0500464297598228,-0.041315210647881,0.987695945426822,0.418145389296114,2.0305609426565
5711.19808219373,498.553571756929,1916.49236353114,0.0164080486446619,-0.0371273716539144,0.980360693531111,0.677153172902763,3.18648792711218
6005.57040423155,466.475716419518,1875.65756943077,0.00094525785651058,-0.0376127383578569,0.302054262487218,0.956778126768768,4.65019346164468
9135.50407532603,463.873576838523,1833.68632127531,0.00630079213064164,0.052841310845688,0.941942043136805,0.977942153811455,2.92679299764025
6058.77704825252,201.646611001343,593.714817799628,0.0587410491658375,-0.0583369209151715,0.132259507197887,0.0554428724572062,2.87190104628476
5805.40220532566,325.842385925353,456.182311335579,0.059426505365409,0.0573770552594215,0.640705520054325,0.0322300286497921,2.34074633830942
6866.84279888868,114.861673209816,1914.93191802874,0.0538745467783883,0.054944785349071,0.998419754207134,0.154834675369784,1.82793074227996
7848.23474194854,208.161375485361,1755.4480583407,0.059791316203773,0.0535168283991516,0.789402362890542,0.0463150255382061,2.21957624224807
8128.50277964026,191.340250521898,1009.114495432,0.0599647402949631,0.0321061806567013,0.929252280620858,0.172670527826995,2.14909474503844
5848.18490594625,191.042350418866,1771.13545648754,0.00249643655028194,0.0413318310119212,0.00429080543108284,0.299588503781706,3.72879139033506
6628.53753101081,130.2246613428,1942.39744078368,6.4912112429738e-06,-0.0223041324689984,0.305794588755816,0.976703788386658,4.89175184441055
6279.38128449023,342.087283078581,1982.21259480342,0.00666440520901233,-0.00191102860495448,0.259271704591811,0.818323297891766,5.19952762067075
9175.87067279965,493.626319430768,503.427588753402,0.0479878241289407,-0.016973211877048,0.985601322725415,0.227261713240296,2.0581424711502
5619.69330906868,144.441521819681,384.764814144,0.0141452726628631,0.0059584268834442,0.979889428475872,0.368745152140036,2.50470742097555
8358.22527483106,476.871478743851,390.534801455215,0.0561345058539882,-0.0135309273283929,0.951895402977243,0.0264030939433724,2.0568778572096
5702.53196172416,278.610314242542,1873.3170801308,0.0447108189482242,-0.027103168386966,0.991589517332613,0.910782096907496,3.49731762582145
9469.95107177645,122.703590802848,818.118740431964,0.00197446342092007,0.00173391195014119,0.56267132377252,0.338611324084923,3.52308520345674
9477.45086252689,122.915422357619,1445.26786422357,0.0157287800358608,0.0483509720675647,0.779464127263054,0.595787075348198,2.8273930273315
5845.41788045317,143.569422513247,1645.28957610019,0.00274954549502581,-0.0309974613692611,0.933870288310573,0.435945956967771,2.91580003511256
9290.1800358668,123.253850545734,1934.73632805981,0.00577448913361877,-0.0172524926997721,0.790788233978674,0.0138475489802659,2.68885686284896
5560.26561371982,230.621214676648,1429.16810410097,0.00685096153523773,-0.0552625647280365,0.828275168780237,0.247746139764786,2.5569478198204
9155.03160934895,206.890181172639,418.339130375534,0.0365719282720238,0.0287229673471302,0.942843351978809,0.0980667448602617,2.10703942268648
5504.52522002161,243.33921847865,1333.06122957729,0.00417613261844963,0.0487394983693957,0.978664245456457,0.0406709634698927,1.90188991947965
9306.83767050505,476.226264797151,1248.29566474073,0.057834423459135,-0.0124670171365142,0.0041035464964807,0.0365745418239385,3.3648986571812
6262.78434600681,467.665659729391,220.885781571269,0.0087843311810866,0.0576361129805446,0.886597169796005,0.754012230085209,2.49168178758355
8495.24985998869,464.545759372413,1588.11051463708,0.042700793822296,-0.0599757541436702,0.00609905598685145,0.872695172904059,3.85907789647958
5786.21275350451,233.65762270987,1292.05145947635,0.0131960023893043,-0.0595511301700026,0.997246613958851,0.741957092424855,2.64648040213982
9150.56987199932,445.118265040219,1758.76490650699,0.0495236988086253,-0.0589421355351806,0.89591821283102,0.420966033358127,2.41720992669135
6918.59025787562,138.038724195212,462.364804372191,6.39096787199378e-05,-0.0448848172836006,0.913406439125538,0.426602712133899,2.38096933985162
5885.67933812737,150.410884711891,496.214144257829,0.00153797496110201,-0.0493039254192263,0.983102184021845,0.390957725001499,2.12615506710233
6871.29143159837,494.531497731805,1063.44954697415,0.00553233599290252,0.0598005761671811,0.960555571364239,0.660860309144482,2.49565967769032
5592.31847058982,119.491110183299,1615.02383342013,0.0545531443180516,-0.0539849650114775,0.923423648346215,0.120766930514947,2.13486703656977
6231.11536260694,495.43092045933,1675.71371286176,0.0173238101508468,-0.0109476576000452,0.0455187754705548,0.955621434375644,5.26181135284912
9138.31302896142,143.786220997572,1799.12748136558,0.00537425063084811,0.0593589695077389,0.920938251772895,0.748905981425196,2.67160388696698
7754.90186549723,108.374371938407,1998.22117239237,0.00633731160778552,0.0509316775202751,0.97025084355846,0.0144610712304711,1.846889694591
9112.88393568248,141.549345944077,1766.94073388353,0.0171893211454153,0.0225775665510446,0.974752204725519,0.109208911424503,2.179890413451
8410.11546552181,179.569871351123,1574.65204978362,0.0516608338756487,0.0463809396140277,0.979145106626675,0.996395577909425,2.83145039374972
6075.3036569804,439.662693999708,991.937480540946,0.000308969398029149,-0.000601264731958512,0.958544008433819,0.936569773359224,3.75482813775465
5695.51844149828,450.193027593195,1844.08259610645,0.0412859713844955,0.0137074897997081,0.111970428843051,0.66332359937951,4.58726004172034
9080.96801862121,416.713033430278,304.528738837689,0.00921462890692055,0.0467245969176292,0.950427682837471,0.921963736880571,2.42457246904375
9405.8296000585,180.94167150557,623.505980055779,0.00638049953151494,-0.0505180946644396,0.712351023918018,0.567827129038051,2.74907073846496
8802.83640418202,229.083468206227,300.003912160173,0.00493009985424578,-0.0191644185315818,0.786774398526177,0.909450640203431,3.09485560322136
5600.9322879836,449.068615399301,1962.11963356473,0.000722850188612938,-0.0340463907737285,0.0138357311952859,0.791233415016904,4.86065566101673
9459.83425993472,105.226429738104,332.059163507074,0.0100917230313644,0.033915956877172,0.797724850708619,0.920297167496756,2.87922566641741
9464.20055348426,146.402087341994,381.133793387562,0.00124222230166197,0.0501784382946789,0.929952698759735,0.951390038477257,2.5032215737918
9038.79703767598,105.537907965481,222.375290608034,0.0414992670994252,-0.0172806472890079,0.988179500680417,0.0418720024172217,1.90910338267553
7704.21157311648,124.217267520726,264.903887966648,0.0105797976208851,-0.0446605686843395,0.929069214500487,0.0138388632331043,2.01698155765822
6815.9943362698,485.51039500162,301.002905517817,0.0513726616557688,-0.0599633528944105,0.521396090043709,0.144864101428539,2.57579059422246
8538.6406974867,117.198767513037,258.600493939593,0.00436649615876377,0.0107265378814191,0.779425210785121,0.0496732194442302,2.74995576504307
6061.99642363936,497.545813582838,817.026780033484,0.00831783626228571,-0.0347895849868655,0.978067300282419,0.352694530272856,2.37447482483979
9442.53125134856,119.099730625749,1303.28909005038,0.0592414594441652,0.0584827292896807,0.904345243936405,0.466122486628592,2.32156281311835
8864.58955612034,100.175169762224,278.927310695872,0.0532088547712192,-0.0486649139039218,0.987530736019835,0.146496283588931,1.77081948711719
7860.71386188269,480.653319880366,1884.92369758897,0.0164042900176719,-0.00738057243637741,0.826270451070741,0.930833610938862,3.99360355182242
5508.3542317152,464.724661037326,1599.45021164604,0.00194972652476281,-0.0260771138872951,0.567296329652891,0.223950761370361,3.34529842413147
7185.32684072852,240.733916964382,564.896385045722,0.0457961170189083,-0.0536866195499897,0.982904153876007,0.104490400059149,1.81649493875219
6410.56120116264,471.975715458393,981.488262675703,0.0565058748750016,0.0139121942035854,0.981684562284499,0.0153765394352376,1.97645474433957
6296.86588421464,475.740920845419,1812.79717772268,0.0594442485552281,-0.000467067947611213,0.933595961658284,0.032311276299879,2.28938000647604
7806.64048530161,392.900271527469,435.01691785641,0.00501768666319549,-0.055231282543391,0.878383281407878,0.970223777461797,2.7185235145115
5589.82588909566,383.962749224156,1827.9319666326,0.00326727059204131,0.0127993003930897,0.972467724001035,0.431104910094291,3.11314433927553
6636.09715271741,487.788033951074,1768.34250492975,0.0571558668930083,-0.0312990695703775,0.99146295292303,0.628267380408943,2.73206164907494
8352.79361344874,428.952025528997,311.432609474286,6.68481085449457e-05,-0.0250222168117762,0.85564974299632,0.982694814680144,2.95107109567368
7109.5865573734,330.513194110245,317.466791439801,0.00376061621122062,-0.0561936899274588,0.0809685266576707,0.0422553790267557,2.94587262280473
8420.87422963232,243.790940660983,805.502467835322,0.00168193604797125,-0.0546387221384794,0.888036717195064,0.24007576610893,2.22045015472512
6804.45145070553,351.478591840714,984.416497731581,0.000774513836950064,-0.0479571673460305,0.966075768927112,0.174127596896142,2.0755693208566
6151.9905179739,156.168434862047,1872.39055335522,0.0223481062520295,0.0571033477596939,0.998862300766632,0.0119359421078116,1.65394980194953
8607.75994881988,104.584159050137,242.228640057147,0.0229100196389481,-0.0508656215574592,0.985648563830182,0.862767317332327,2.20598229916403
8847.20120858401,114.858876075596,321.315761795267,0.0495183249888942,-0.044555006576702,0.721933904569596,0.989059099694714,2.94441099575826
5581.89129829407,153.940101712942,1929.15477138013,0.00689456835854798,-0.0280330980475992,0.981168712256476,0.134508175076917,2.30779082562179
9124.90081507713,123.247190006077,505.905936891213,0.00336122883483768,-0.0453698975499719,0.995766195235774,0.887205720413476,2.26705600155744
5942.86195188761,439.647923503071,382.664178451523,0.00640235718805343,-0.0249195400904864,0.0130538623780012,0.947831582510844,4.23576549625665
9133.04724451154,280.324467644095,220.759777678177,0.000869866604916751,-0.0429127037990838,0.622354913735762,0.674751810263842,2.90089753381241
9169.19312160462,220.062493812293,1494.07647848129,0.000345127433538437,0.00415193874388933,0.974991509690881,0.877182511612773,3.25717706976905
7937.73555383086,394.691492337734,1948.87154148892,0.0510505964281037,-0.0224935311824083,0.987383553059772,0.891792978160083,3.05227035366556
6181.44378624856,481.941984128207,598.050933890045,0.0561339091602713,-0.0590723869297653,0.880736978258938,0.53174735000357,2.48276533067329
6047.29002621025,399.968420341611,319.599456898868,0.0402063266700134,-0.0502564027905464,0.848730265628546,0.659025841392577,2.63407912985561
9318.79391614348,197.882395423949,448.123147059232,0.00221756475046277,-0.049498611940071,0.901000889251009,0.820977583294734,2.54699777506824
6217.55231358111,445.167270489037,408.20751413703,0.058792417589575,-0.0535935503616929,0.976954845245928,0.865543664665893,2.44651193829254
8958.81091989577,348.492161650211,202.187080774456,0.0051500243274495,0.0232681199535728,0.838687257608399,0.960573843447492,2.85853120168434
7898.30188080668,405.080822389573,1714.33369214647,0.0545217002369463,0.000327207036316397,0.563912659883499,0.484217072604224,3.54210220271219
6394.16114985943,133.769271057099,639.957223134115,0.00471658296883106,0.0274148539826274,0.85453129070811,0.772879530210048,3.11603226684128
8371.37949001044,137.989742774516,859.363710507751,0.00537584404461086,0.0443709330260754,0.937579926569015,0.948303453158587,2.77620914489491
6966.96092467755,135.519455280155,763.823998719454,0.00854583380743861,0.0488461677823216,0.836255985544994,0.919084184337407,3.02514610112297
6543.40149462223,474.576709978282,241.450203070417,0.0218719152454287,-0.0144955081678927,0.750183726893738,0.00765285920351744,2.70162324398071
5889.2495399341,472.44933526963,1737.64454019256,0.0153421357506886,0.00203691579401493,0.963631726801395,0.0836496823467314,2.5054713873188
9279.50134687126,220.480810757726,1963.34104365669,0.0592298693954945,-0.0168243775796145,0.598558042664081,0.0509574539028108,2.76836053023677
9137.80714198947,459.105510078371,1663.37946490385,0.0546448122477159,0.0193604208156467,0.910827338229865,0.614586933283135,2.79177410728678
8377.50168703496,439.224484097213,1972.7106237784,0.0495746773341671,0.0329520744737238,0.994514132849872,0.110602801898494,1.91365211879456
6426.90846230835,458.277585357428,1410.63517429866,0.00958419556729495,-0.0217129280325025,0.969660085160285,0.0176801905035973,2.18798273535738
6010.57268772274,111.430999264121,854.980643186718,0.0478343330835924,0.0560542421881109,0.932953668991104,0.904615512350574,2.87150458868259
7783.92779640853,372.096153069288,1981.05019330978,0.0452851956523955,0.00376477542333305,0.996289474889636,0.948934938991442,3.28427063781577
7851.20912082493,102.773149497807,279.340447997674,0.0555791688803583,0.0446984499134123,0.883895340142772,0.976592173799872,2.6386062918663
6075.20512957126,389.255521260202,397.755552455783,0.00103730041533709,-0.0436056152824312,0.943596287863329,0.0915528193581849,2.06586184750449
9477.49310266227,184.789298288524,610.198968229815,0.0556120393797755,-0.0551257192902267,0.545971965184435,0.0432120466139168,2.49797628686243
6928.43542154878,485.793309751898,286.062748171389,0.0426785212336108,-0.00919698488898575,0.99679657490924,0.0383023815229535,1.94935012700331
6204.52955458313,158.912636619061,1737.47408958152,0.0529048527404666,-0.0540222825296223,0.656897033564746,0.905848096590489,3.71210170114049
9045.20153533667,490.027710888535,700.56585050188,0.00344530006404966,0.0462192816473544,0.669942077482119,0.0515028729569167,2.49321450730033
6308.4017066285,186.58787952736,1862.00628099032,0.000346609116531908,0.055692518921569,0.730064377654344,0.820669252658263,3.51658489771991
7826.02499425411,271.431666053832,955.463760904968,0.0596839095884934,-0.05946652748622,0.969245740678161,0.247169741662219,1.95974290028163
8641.2901962176,358.701624069363,279.403632041067,0.0579052062286064,0.0395762709528208,0.949594288365915,0.912622705567628,2.42256794245052
9089.56290688366,297.626768425107,302.69655957818,0.0591972801787779,-0.0590658351313323,0.968121043406427,0.307549205375835,1.90682632748806
5861.88940145075,388.554553873837,949.337766924873,0.00143208746798337,-0.0545775052439421,0.731780340662226,0.034051556373015,2.37258954071741
9222.27578330785,447.393967118114,978.909882390872,0.0551640900084749,-0.0389148442447186,0.909948305459693,0.670441603288054,2.57676662284571
5811.91677134484,287.643450312316,1295.74794499204,0.00136196797247976,-0.0485656317695975,0.98364323633723,0.929742873646319,3.10390280073681
9348.20745326579,468.728046491742,1803.97242382169,0.00318433898035437,-0.0586555613949895,0.93725857976824,0.246093611465767,2.14024380227004
8256.80535752326,498.343926202506,1869.36403126456,0.0541116960067302,-0.0519783214665949,0.944003849290311,0.0772677005734295,1.97978375428982
6680.15804607421,317.108547687531,688.147399201989,0.00318830881733447,-0.0575869313534349,0.704030818073079,0.960418016649783,3.19445751161176
8968.95408909768,140.969692077488,374.185621459037,0.0563946622470394,-0.0515400187019259,0.867771607358009,0.485152855981141,2.33928213864365
8644.48883198202,171.391974203289,679.228379484266,0.0140025886148214,-0.0558309159614146,0.0273991376161575,0.442516538314521,3.29972171622203
8509.9896742031,212.128907348961,659.414146281779,0.0097126777516678,-0.0504205311555415,0.978385040070862,0.0109075971413404,1.78010583797734
9101.92987322807,450.302422232926,1206.28326185979,0.0468643249897286,-0.0599217235855758,0.656462187180296,0.0168788619339466,2.34359900142087
8961.6372436285,375.832973700017,1930.68367829546,0.0551773014804348,-0.0438825969491154,0.626619671471417,0.617249676957726,3.16382421647993
9306.82825297117,415.69515960291,1941.81001647376,0.0591304906178266,-0.0253600828908384,0.390074918512255,0.775299811735749,3.7244483406748
6015.26293344796,237.279588729143,567.451025685295,0.0550381364906207,-0.0510006583482027,0.99096478917636,0.0539629366248846,1.7314358893948
9312.27520760149,392.750455439091,1148.46515320241,0.0402137390105054,-0.0183889959845692,0.9944697546307,0.0398136898875237,1.9153698079384
8225.19030515105,364.81124414131,1397.68531997688,0.0415130821242928,-0.00245569475926459,0.979241807479411,0.765011873329058,2.94084943296851
9352.85424254835,338.806976564229,1707.21074035391,0.053382191802375,-0.0527916939463466,0.950067605823278,0.89676095568575,2.76890512928687
9011.86018250883,273.564874287695,1241.86355066486,0.0476916894782335,-0.0583211337123066,0.897749000694603,0.772790346527472,2.69626612123134
6228.78440003842,153.885843977332,1891.73947484232,0.0499214138835669,0.0424435331951827,0.874658184591681,0.879017613828182,3.48365095760264
9426.87134910375,276.137143746018,720.691148703918,0.0595570047525689,0.0204202917404473,0.848758206469938,0.101415237877518,2.31565603424258
8729.31482084095,214.163929130882,1737.50852788799,0.0393842937285081,0.0283579418342561,0.97240989934653,0.00240494357421994,1.95464366997452
9495.75938936323,348.40436456725,251.136062573642,0.0516313603380695,-0.00442437462508678,0.648608569288626,0.987283726921305,3.20770654868638
9414.23258837312,486.344337277114,1998.30833622254,0.0579232300864533,0.0140909815113991,0.168010144960135,0.81941488571465,4.08872401824099
8079.52355127782,424.841274786741,239.354496775195,0.00358660206198692,0.0373738182708621,0.9960516768042,0.0731359019409865,1.81779367053295
5508.36392026395,318.316391296685,1948.61188018695,0.0526681758463383,0.0444072065223008,0.894532746169716,0.904831206193194,3.66122131316964
5717.75452233851,475.209931004792,1705.50083252601,0.0263112621288747,-0.00652462631464004,0.858408447820693,0.961355906911194,4.31375472200764
5871.20921630412,153.058360051364,325.351867359132,0.00327238638885319,0.0422063248325139,0.889570990111679,0.9780737394467,2.86051807324099
6176.18762236089,149.975141882896,616.563551407307,0.00570980370976031,0.0107466385513544,0.994140240363777,0.900822011055425,2.98530130369987
7351.16658452898,379.987648222595,748.494222015142,0.0458548650378361,-0.0565798862557858,0.986808710265905,0.0334041323512793,1.74058021896342
5783.51615648717,112.031839415431,873.987031076103,0.0205268774041906,-0.00126951394602656,0.573376005049795,0.958447620738298,4.36628897313601
8622.1032096073,395.012755785137,230.808150721714,0.0139647296676412,-0.0402716315444559,0.855079163331538,0.179674916202202,2.31077838326055
8767.62898638844,484.390297159553,1537.07718402147,0.0531195425055921,0.028951142532751,0.969794180244207,0.0414499843027443,1.95490186363806
8711.21625229716,112.818466685712,841.121570719406,0.0568123718071729,0.0554282025340944,0.904949364252388,0.394163623452187,2.24293621556612
5561.38679292053,192.972739413381,1896.97429859079,0.0158574109710753,-0.00428099258802831,0.71452265791595,0.967127121984959,4.92265169568306
7305.08703738451,164.858993794769,1999.95855106972,0.0244153903098777,0.0497537441086024,0.959006454795599,0.97080652252771,3.18268010493465
6039.61915522814,347.38783268258,1814.95834332891,6.42483634874225e-05,-0.0151013884786516,0.772264634026214,0.82023162744008,4.25079256086579
6242.61500313878,226.715355925262,1853.99300260469,0.0197913560830057,-0.0518019424192607,0.889366100076586,0.0779211565386504,2.22498134624795
5951.63285732269,356.673724763095,1464.88693570718,0.00652365746442228,-0.0374797789379954,0.168054168345407,0.985134670278057,4.62494710998992
5697.3612960428,214.949100837111,1843.09883685783,0.0020237015420571,-0.0405172094609588,0.349500184645876,0.968971171649173,4.60457777474886
6288.82519248873,151.560863852501,1074.18607636355,0.0524428458278999,0.0321460858918726,0.0070229962002486,0.957186277024448,4.31418987335676
6645.05974762142,161.574797704816,1647.61459659785,0.0126942438399419,0.059661126723513,0.945310166338459,0.82435388956219,2.91815428665009
5941.02066196501,474.157777987421,1735.38064933382,0.0577041250560433,0.0327119394298643,0.17227795557119,0.0777802243828773,3.16246100463118
6106.00479226559,301.312338467687,243.564599752426,0.0461158447572961,0.0512095725350082,0.97966786287725,0.0162072349339724,1.76301815382418
8769.80846934021,235.170009359717,816.925847670063,0.00740162883885205,-0.0543947767373174,0.332220175303519,0.977240447420627,3.50975879812025
5684.80082415044,496.677843946964,1918.90197168104,0.0525103073241189,-0.0322061156854033,0.163520305883139,0.89373880927451,4.64904501692769
6569.7632804513,438.69058508426,1824.23472716473,0.00774373822845519,-0.0563195106200874,0.646725111175328,0.856459223199636,3.6334004616529
5764.08734451979,466.707077529281,1791.17134953849,0.00651165189687163,-0.0329753063432872,0.860948201268911,0.997774962801486,4.06923076607376
5970.63822392374,386.470088548958,1138.57642733492,0.0222563448082656,-0.0255684898048639,0.922091010957956,0.93961105379276,3.54814707597899
5652.08245441318,456.052590813488,1948.12226430513,0.0470211218716577,0.025006085280329,0.427433921955526,0.475894310511649,3.80180438799473
5839.25056830049,487.983337696642,1870.69172095507,0.00559856754262,0.0471428085677326,0.302321792813018,0.540235626045614,3.79181958398462
5818.75849887729,493.601549137384,1913.64143393002,0.0227410218212754,0.0133213085029274,0.332902290392667,0.373482084367424,4.02512746659683
5785.98764631897,124.672517925501,1900.3445725888,0.0368994861049578,-0.0136834156885743,0.964160212315619,0.863462817156687,3.71673228009672
5611.30449175835,161.015227716416,1971.57749398611,0.0328887884085998,0.0422266492713243,0.0263675069436431,0.982053214684129,4.9488831840214
5857.97030013055,233.072428870946,1989.60028984584,0.0517593000456691,0.0120242861565203,0.921256510540843,0.910800578072667,3.84676682173249
6194.21509094536,476.184326037765,1577.32980339788,0.0104400674812496,0.00815290611237288,0.0565269947983325,0.815045868745074,5.08097708354723
5947.17809185386,324.389394186437,1529.87012863159,0.0576251472719014,0.0572308910172433,0.405047312146053,0.978336123982444,3.96937753970457
6528.83864380419,486.365725751966,1714.0288867522,0.0548001363314688,0.0584004147816449,0.137218568008393,0.73375764512457,3.83504701558739
5941.82495865971,476.31248543039,1969.16923280805,0.0219133751420304,-0.0540764983277768,0.916589626576751,0.939966310514137,3.53395503422276
5954.93247173727,111.851772107184,868.414607318118,0.00926722676027566,-0.00808278607204557,0.106925175758079,0.78105599898845,4.70474644822043
6760.87349001318,262.581621203572,1941.42430643551,0.0527055473299697,0.00204430136829615,0.0455955644138157,0.900816773762926,4.88954151362907
5658.64109899849,453.765757288784,1563.50952363573,0.0561278637545183,0.013144516563043,0.661461582174525,0.944377823732793,4.22058347122405
5636.43036503345,414.365402422845,623.553419113159,0.00127577209845185,0.0324834100250155,0.64595081936568,0.895877028582618,3.61113474916933
8946.99904881418,148.540650121868,483.96678394638,0.0301099848467857,0.0120051525346935,0.499130605021492,0.66832039388828,3.42107259118777
9469.38161272556,175.595324393362,484.107761271298,0.0529044127184898,-0.00689990261569619,0.0273670707829297,0.932227472774684,3.95271663627936
9049.18007366359,498.094280436635,317.252379423007,0.0591589625459164,0.0573597008641809,0.960200977511704,0.425048543140292,2.02375460170757
8553.00294235349,152.602839563042,373.864564811811,0.0122284736344591,0.00608101023361086,0.338215709431097,0.904411983676255,3.92946661988136
5608.15998818725,430.15405703336,1896.83373239823,0.00692521325312555,-0.000840922873467209,0.977966457605362,0.915962049737573,4.25217000706864
5580.29113244265,443.37254697457,1999.00029753335,0.0100735190464184,-0.0552432791702449,0.890548262512311,0.769863825757056,3.41318720933182
6879.37249988317,368.156435526907,200.736843468621,0.0515081275999546,0.0469143217150122,0.883964204695076,0.0877877862658352,2.0873656507117
8645.67825663835,402.084283158183,1892.90454722941,0.0579939184337854,0.0587845750898123,0.996405998244882,0.000772267812862992,1.59845889805137
5571.30667753518,423.48012747243,456.317592319101,0.0594996143784374,0.0571270039211959,0.346225970191881,0.928504655137658,3.47340598387746
8301.58360395581,487.40957994014,316.902010003105,0.0063356242608279,-0.049870247785002,0.256772677181289,0.106828534044325,2.92327985090787
9411.7866223678,268.30482063815,1346.45272805355,0.0395272060018033,0.0539844123646617,0.0916294860653579,0.020961785921827,2.94686580718684
6032.59709104896,287.142332363874,1049.30595373735,0.0560422841878608,0.0235689114779234,0.0968667024280876,0.0441200064960867,3.23580501359141
9202.50259712338,382.207224611193,1155.59117067605,0.0268953484436497,0.00589131309650838,0.0880215126089752,0.00136300129815936,3.55474702590754
9473.56195934117,477.763674873859,399.060793733224,0.0285020695393905,-0.0453508315142244,0.124088061507791,0.166648980462924,3.12635958360383
5779.4734891504,377.855361904949,1468.4109300375,0.00624832644592971,0.020661261761561,0.796110118739307,0.889172747731209,4.06096989758876
6032.10854716599,261.832483671606,1760.13047527522,0.0528892222233117,0.0345949567761272,0.019805594580248,0.272344049997628,3.60881795462468
5527.91118528694,425.002926681191,1949.74474301562,0.00469751239288598,0.0509273052122444,0.588052972452715,0.988134627230465,4.25481796714572
5599.21644441783,476.109469402581,1139.08317415044,0.00271531764417887,0.00613765362650157,0.818250733194873,0.866599891101941,4.15288764721327
8998.73202387244,479.049813002348,1873.06089103222,0.00856099914293736,0.0353084454126656,0.208640663186088,0.0701033335644752,3.19201789420285
8453.20206880569,271.016461774707,268.330051656812,0.00771282071247697,0.0317105805035681,0.123904534382746,0.103687198832631,3.27265055729333
5576.88550557941,479.530010558665,898.335872218013,0.0037016060622409,0.0491471839696169,0.745566176949069,0.98137715109624,3.5176235117954
8911.27269156277,367.681755218655,312.440416403115,0.0556768937548622,-0.0275748842116445,0.299908184446394,0.0184790825005621,2.93036797870197
8816.39023404568,398.03319061175,971.977970935404,0.0566379757225513,-0.00397074398584664,0.474296935368329,0.00470454688183963,2.95917055940363
7705.91978821903,196.940391138196,404.240660695359,0.0539156753383577,0.0435543635487557,0.136722534429282,0.827378335176036,3.49278559761202
5647.20429573208,411.930039897561,213.256644550711,0.00844322373624891,0.0310152248572558,0.474783377954736,0.00463213282637298,2.88582592106824
9249.75159298629,305.679996591061,1866.65074005723,0.0166246658843011,-0.0208255872968584,0.563175317132846,0.0104921443853527,2.98378351609111
8019.37687769532,368.121640942991,307.80735630542,0.0501437706872821,0.0590598533302546,0.998547207098454,0.976322029950097,2.24966165412058
8391.61626342684,464.41379673779,1141.82314621285,0.000971357789821923,0.05372468451038,0.993684166809544,0.02189652598463,1.70634268283314
6100.55142920464,396.182825881988,884.145892271772,0.0432153134001419,-0.0454652926884592,0.347949148854241,0.00387045321986079,2.83413147495485
9199.98811278492,472.283115983009,1914.54927870072,0.0088284509209916,-0.00811254889704287,0.329946759855375,0.410715622128919,3.96538088897106
9285.62419023365,407.653638906777,1972.11642605253,0.00578966366127133,0.00265484305098652,0.478077827719972,0.158979678526521,3.56551101867391
5760.55225729942,457.512258272618,439.55214060843,0.058167748474516,0.0146500977594405,0.11265472904779,0.389254485489801,3.5380818055011
8287.54536435008,103.860326856375,321.344721270725,0.0554721749480814,0.00199789255857467,0.990011255024001,0.486640814226121,2.18741554475745
9498.95101506263,345.186336897314,1366.15022146143,0.006124561666511,0.0354244578257203,0.991578633198515,0.073967669159174,1.90157077416537
9140.09399805218,160.242948122323,1975.50674201921,0.00570901205297559,0.0287794766575098,0.0588183370418847,0.702039654366672,4.17192512022313
5870.710558258,443.061386607587,206.916349194944,0.0551044578384608,-0.0470229408424348,0.13650402915664,0.907097063725814,3.51587333915976
6141.83883462101,226.661598309875,1965.3627561871,0.00740912161767483,-0.000374184222891927,0.979858639650047,0.733558894135058,3.71704370028691
5520.05390636623,451.150586642325,1032.8665102832,0.0136848490219563,-0.0454909348301589,0.923183490755036,0.775173483416438,3.08491780541928
9436.24206352979,291.570953931659,350.556118180975,0.0118691555969417,0.0034672092832625,0.96462604100816,0.144318673759699,2.33511388494548
5504.51321620494,483.129245229065,454.610506258905,0.0221083050454035,-0.0594740706961602,0.836153303505853,0.777494869893417,2.79468007490838
6837.17315644026,160.400178749114,369.419776089489,8.32755351439118e-05,-0.0211159238498658,0.0518857708666474,0.0365854571573436,3.5302084635957
8829.51544784009,461.961862724274,1494.98268165626,0.055762756280601,-0.0161708810459822,0.748410501284525,0.0412513345945626,2.56274222898212
9236.19799409062,386.851732246578,1785.95508416183,0.000849071480333805,-0.0398231991101056,0.550595698645338,0.00366506725549698,2.73439618171227
8577.61374395341,286.542508378625,234.340757457539,0.000388480788096786,-0.0118132033757865,0.00536556285806,0.96983659430407,4.15173873671191
6144.57622915506,337.974237278104,1957.3644860182,0.00220740279648453,-0.0238967174850404,0.944222073769197,0.020810805959627,2.30051718483653
8287.95572929084,247.875909041613,847.985882963985,0.0515170625690371,-0.000590104227885607,0.9992683774326,0.958909743698314,2.71293112302228
5871.81883491576,401.576786767691,231.725068064407,0.0233759780460969,-0.0105669804476202,0.978862891206518,0.951024894136935,2.7517100991429
5738.39969187975,231.691716983914,1963.84704615921,0.0150952881295234,-0.0252308868058026,0.963881452567875,0.734092213446274,3.53026415374781
7397.26302213967,279.482035245746,969.018874550238,0.0410846211947501,0.00223745659925043,0.920128524303436,0.860925364308059,3.20699152819899
8903.50276231766,483.002172410488,1980.52712022327,0.00505577229894698,0.0158559625223279,0.91831988398917,0.818920229794458,3.39181423582277
9363.66844177246,152.096261736006,655.954190948978,0.0582841154839844,0.048046749914065,0.964424285339192,0.967847605468705,2.47974351610009
8753.51938419044,215.11092428118,1699.50470356271,0.00271566433366388,-0.0480206930916756,0.978594415355474,0.90631240606308,2.78048737818736
9339.18961137533,376.503031048924,696.371519751847,0.00203792008571327,0.0460784601978958,0.735118141165003,0.908996356185526,3.00816534925366
8645.09865641594,463.805415015668,1762.4074766878,0.00136306966189295,-0.0233448640443385,0.965608916478232,0.905225101392716,3.20435003250779
8987.13086452335,370.355208404362,436.858943337575,0.0234533498436213,0.0594420210365206,0.974251760169864,0.85390906711109,2.27740226025261
5937.45452724397,121.620327513665,1875.59171239845,0.00191998409572989,-0.0347032677568495,0.98923578648828,0.353177533252165,2.52488244834591
8859.90304406732,114.163311012089,1667.32294834219,0.0062717536278069,0.00991489053703845,0.995677810627967,0.213496394222602,2.29636164344099
9254.18780371547,188.881976343691,1461.76961623132,0.00794963695574552,-0.0165178249496967,0.00505959941074252,0.255193131044507,3.92065236044631
7435.99423393607,305.120461340994,1891.40898310579,0.0576776952669024,-0.059330256935209,0.874590159859508,0.603467399254441,2.77946195494045
6707.8391360119,266.993061732501,355.393580626696,0.0350480691622943,0.00815531328320503,0.968459876487032,0.929118477040902,2.77284266748236
9296.36850114912,467.09636868909,1563.00190258771,0.00365495171863586,-0.0110199347231537,0.656797900330275,0.186253454303369,3.18767029866205
7069.42880339921,384.228791389614,1984.74015435204,0.00192079593893141,-0.0434114092122763,0.99229294853285,0.877917190315202,3.05610562723154
8332.62871392071,124.108097981662,225.254661682993,0.00153406037483364,0.0414966911450028,0.0362496864981949,0.863243599422276,3.58845492943529
7192.83110555261,329.366071801633,1761.97681659833,0.000675603104755282,0.0566134313866496,0.0139893023297191,0.567030238686129,3.70431926910595
6270.57482860982,274.769846070558,1009.23691354692,0.051957357544452,-0.00735014665871859,0.884979069698602,0.98236523498781,3.52212123131473
6060.07249653339,463.821046985686,215.102842962369,0.0507735850755125,0.041889419015497,0.959824508521706,0.949630924500525,2.49869676599061
9456.99251908809,133.565787691623,324.624838260934,0.0534224547352642,0.00577367330901325,0.979639502940699,0.899063513381407,2.43493796893545
9193.13040282577,161.100222729146,317.624442884699,0.0563918195245788,-0.0513870612066239,0.963205065112561,0.787459508981556,2.26605564355096
5570.79054042697,359.659890457988,1480.35457502119,0.0548629730567336,0.0583861695136875,0.955664429580793,0.895010301610455,3.13482857191622
5761.13486289978,146.796209365129,1402.54971138202,0.00159430537372828,-0.00274665794335305,0.734276734059677,0.933616857277229,4.64459611794174
6657.54467528313,220.301668159664,1711.31553854793,0.0176187740592286,0.00843328191898764,0.551117019494995,0.998501225374639,4.69155225977067
5753.13919223845,210.653504915535,1472.76507979259,0.00390244216192514,-0.0329632100835443,0.9942222754471,0.822602508822456,3.17941011740221
5523.65565579385,345.396750699729,288.466122280806,0.0414494656445459,-0.0143162246514112,0.999328740406781,0.927363198017702,2.61886384291927
5584.97884124517,216.231689881533,1294.85824787989,0.00148918314836919,-0.0585204588063061,0.551683066645637,0.792386429384351,3.61419305242197
5635.61597280204,151.40811605379,408.260471001267,0.0159503537882119,0.0309590768348426,0.961700953310356,0.970457838615403,2.87545951737957
7670.69562058896,155.538731720299,620.079948380589,0.033736001313664,0.0549335621763021,0.94049403606914,0.774084987351671,2.49505635888774
7603.99304330349,223.162185680121,534.106599492952,0.0461643750127405,-0.037537621865049,0.993024673778564,0.936311792582273,2.45265802719038
5543.25033910573,430.565236508846,233.838661340997,0.0560903069609776,0.0142207621224225,0.917641926789656,0.793401698349044,2.71833119956811
8213.62831629813,150.26618083939,1372.36101557501,0.0596143835317343,-0.0416749973595142,0.997342959512025,0.971580395009369,2.65290291109171
5513.3912935853,190.871580503881,1860.95640780404,0.000167956310324371,-0.00320581904612482,0.934379669371992,0.95451050857082,4.53290855454475
5941.19041599333,110.010545048863,945.194914890453,0.000341993495821953,0.0225902409665286,0.737287817988545,0.945155757945031,3.86900262736236
5525.07086470723,388.420756906271,1264.3724270165,0.0523948146868497,0.0506588878948241,0.961237880168483,0.932112446520478,3.15637644122119
8412.5435622409,403.146843146533,1853.85399921797,0.0589176910975948,-0.0527984813041985,0.996906505664811,0.56585274473764,2.28246420319231
6332.09079317749,412.21768995747,1301.28946760669,0.0485489260358736,-0.0401710635703057,0.990933884168044,0.858702816069126,2.90796898244946
7045.87520845234,394.014115165919,226.420676195994,0.0455559759959578,0.0587236952595413,0.68477851850912,0.983689579647034,2.93426953666264
8352.72200871259,485.982163064182,1036.01170545444,0.0554929878981784,-0.024561558701098,0.847626992268488,0.997508697677404,3.19100316758555
9269.21387761831,110.959502216429,597.510159481317,0.00100283207371831,-0.00751573174260557,0.999935978092253,0.311760552460328,2.19952426564051
8959.56359151751,418.888727854937,1712.55714609288,0.0334993039397523,0.00589013365097343,0.989959070459008,0.812307063257322,2.95522459723116
9335.12320742011,117.474703025073,870.143027417362,0.000970114110969007,0.0343218579143286,0.892313177930191,0.219179597683251,2.37250920614476
9320.59616968036,129.643506743014,1797.87999684922,0.0100948615791276,-0.0596030978579074,0.529291149228811,0.0177396622020751,2.52896837687578
7795.90337723494,383.108665980399,414.350384660065,0.0444924966199324,-0.0454319730307907,0.878713609883562,0.806257413467392,2.65933006354085
8482.10360761732,398.234785255045,805.986530706286,0.0574826623359695,-0.0365016179904342,0.951550557278097,0.951825969154015,2.70319064376914
6704.63405456394,102.392974216491,1021.41022561118,0.0217926291329786,-0.0599557772744447,0.969693410908803,0.166152803925797,1.93740572899381
9240.51153380424,488.961953204125,1438.68655562401,0.0336392851453274,-0.0403835752978921,0.996828403323889,0.219007527688518,1.98283665127573
5686.82622071356,494.2293420434,529.062245693058,0.0263659197511151,-0.0365582092199475,0.744758003391325,0.198653540108353,2.69384038811729
9178.0428532511,360.437810234725,1395.02432136796,0.0567725329007953,-0.0596548971533775,0.981996458256617,0.792568825185299,2.44568967398262
5921.91247362643,198.490922152996,301.764127332717,0.0271804696507752,-0.00609457430429756,0.947345626074821,0.0324829844757915,2.27410050306423
8568.18977370858,465.414160303771,399.347778782248,0.0420300271036103,0.0574872416350991,0.471988635836169,0.918987471377477,3.1625674934726
5972.54918050021,235.1043863222,935.244048526511,0.00203555433545262,-0.0567469451855868,0.99506776034832,0.0179606166202575,1.6903428565142
5658.46301428974,100.072245392948,415.038302959874,0.0269355462072417,0.0525971565395594,0.0717808839399368,0.0792217494454235,3.03061667640818
7127.61735450476,344.401984103024,346.052403422073,0.0487044506287202,0.0580655775312334,0.00685759005136788,0.0126311196945608,2.9277138644482
5505.74665144086,427.580068912357,598.974071443081,0.00596812846139073,0.0551607650332153,0.0608217862900347,0.937685978598893,3.87425772676847
5562.03234568238,148.127281945199,893.095470312983,0.0251580204209313,-0.0477541705872864,0.697422563796863,0.367446989985183,2.88612230098945
9114.61765039712,379.852821677923,1766.38385280967,0.00507201512809843,-0.0178660394623876,0.986461427994072,0.181040212512016,2.28924609726424
5891.73074252903,108.360339701176,872.498414712027,0.029040450816974,-0.00877597055397928,0.96246893145144,0.155923896003515,2.37910828416197
5575.29482059181,315.432019904256,1431.59977761097,0.00209193601738662,0.0520016089081764,0.960387541214004,0.906738598598167,3.21072576548484
5505.08831720799,200.984604004771,374.18685820885,0.049206413095817,-0.0554817415215075,0.80909010162577,0.391614148160443,2.48795185443095
9334.86464526504,290.211642254144,1029.79860715568,0.00114991896785796,-0.0104495779518038,0.93572310032323,0.195848773466423,2.53937733249229
8547.86270577461,471.955274790525,1302.27758837864,0.0510585740720853,-0.0195238606072962,0.99592266837135,0.891225093742833,2.73996983027852
5506.68471027166,207.039940264076,227.937457431108,0.0289305272977799,0.0406024217884988,0.0319696362130344,0.091286453185603,3.21322516558029
5601.84846818447,138.648035284132,530.880088545382,0.0221021755132824,-0.00240326684899628,0.724235664354637,0.555684169987217,3.43900867997369
8084.51913576573,459.309786651284,1829.80906115845,0.0507202767021954,0.0399447636958212,0.631724431645125,0.294690125621855,2.87380104061221
5969.98130436987,114.573643915355,1075.95067401417,0.00742396651301533,0.0330903918575495,0.970149365253747,0.383181675570086,2.47496516302646
7573.02223797888,468.592299055308,201.49393635802,0.0386463151546195,-0.0511812802311033,0.988416238687932,0.835214844672009,2.23275251454561
8521.91192656755,439.185433182865,519.459597533569,0.00416142225265503,-0.0350571873597801,0.996368317166343,0.0166465397924185,1.82422484668309
9077.06440147012,266.574246715754,209.254367928952,0.00324460452888161,-0.0142565622925758,0.983965034596622,0.0977299294900149,2.12779901740738
9088.14714103937,340.075466874987,572.613452840596,0.0108305454673246,-0.00726412849500775,0.95393588906154,0.040354743367061,2.34232886128822
5534.03531573713,390.171354543418,355.243757879362,0.0481730184657499,0.0351650992780924,0.417491950327531,0.0321814892813563,2.80845573443862
5654.93531059474,131.965946219862,1950.72782500647,0.0535758118936792,-0.0257619190681726,0.815690907649696,0.266940718982369,2.88023885911987
8881.54684472829,442.712316289544,583.393278950825,0.00172834206372499,0.0242718250025064,0.939115659566596,0.0671899428125471,2.22994785478169
6276.55710373074,136.539392638952,1783.84407167323,0.0409943122928962,-0.0428113428410143,0.229279461549595,0.0461347091477364,3.10062326801423
5940.41221123189,148.308887705207,1825.5103174597,0.0449818396707997,-0.0277178005781025,0.0610280460678041,0.710992402164266,4.48782591795049
6958.77128560096,100.926026608795,1172.38304046914,0.011562140439637,-0.0226870449353009,0.931121352594346,0.109986724564806,2.40573989887644
9177.24468559027,493.792892806232,1706.81091519073,0.0155088127451017,0.0433812196087092,0.301549050025642,0.567625013180077,3.48766918759362
5641.50905236602,243.149453680962,662.130762171,0.0253752704104409,0.0503061406407505,0.623826705850661,0.231488860445097,2.71474289040527
