"","1_in","1_out","2.2_in","2.2_out","3_in","3_out"
"1",0.34,0.66,0.49,0.51,0.41,0.59
"2",0.37,0.63,0.49,0.51,0.35,0.65
"3",0.34,0.66,0.46,0.54,0.43,0.57
"4",0.35,0.65,0.48,0.52,0.35,0.65
"5",0.36,0.64,0.5,0.5,0.35,0.65
"6",0.35,0.65,0.44,0.56,0.41,0.59
"7",0.34,0.66,0.48,0.52,0.44,0.56
"8",0.35,0.65,0.48,0.52,0.39,0.61
"9",0.39,0.61,0.49,0.51,0.36,0.64
"10",0.33,0.67,0.48,0.52,0.38,0.62
"11",0.32,0.68,0.5,0.5,0.35,0.65
"12",0.36,0.64,0.49,0.51,0.61,0.39
"13",0.36,0.64,0.52,0.48,0.43,0.57
"14",0.36,0.64,0.48,0.52,0.39,0.61
"15",0.35,0.65,0.45,0.55,0.46,0.54
"16",0.33,0.67,0.47,0.53,0.37,0.63
"17",0.33,0.67,0.5,0.5,0.33,0.67
"18",0.36,0.64,0.44,0.56,0.34,0.66
"19",0.34,0.66,0.45,0.55,0.35,0.65
"20",0.36,0.64,0.45,0.55,0.39,0.61
"21",0.34,0.66,0.46,0.54,0.34,0.66
"22",0.35,0.65,0.51,0.49,0.38,0.62
"23",0.36,0.64,0.47,0.53,0.41,0.59
"24",0.34,0.66,0.41,0.59,0.37,0.63
"25",0.35,0.65,0.51,0.49,0.5,0.5
"26",0.35,0.65,0.52,0.48,0.4,0.6
"27",0.35,0.65,0.45,0.55,0.33,0.67
"28",0.34,0.66,0.46,0.54,0.38,0.62
"29",0.35,0.65,0.49,0.51,0.4,0.6
"30",0.34,0.66,0.48,0.52,0.39,0.61
"31",0.35,0.65,0.51,0.49,0.37,0.63
"32",0.32,0.68,0.45,0.55,0.37,0.63
"33",0.33,0.67,0.49,0.51,0.36,0.64
"34",0.36,0.64,0.46,0.54,0.48,0.52
"35",0.35,0.65,0.47,0.53,0.44,0.56
"36",0.34,0.66,0.49,0.51,0.42,0.58
"37",0.33,0.67,0.47,0.53,0.34,0.66
"38",0.36,0.64,0.48,0.52,0.36,0.64
"39",0.36,0.64,0.49,0.51,0.39,0.61
"40",0.35,0.65,0.5,0.5,0.35,0.65
"41",0.34,0.66,0.46,0.54,0.38,0.62
"42",0.35,0.65,0.46,0.54,0.33,0.67
"43",0.35,0.65,0.51,0.49,0.41,0.59
"44",0.36,0.64,0.44,0.56,0.41,0.59
"45",0.33,0.67,0.48,0.52,0.41,0.59
"46",0.37,0.63,0.46,0.54,0.44,0.56
"47",0.37,0.63,0.46,0.54,0.36,0.64
"48",0.34,0.66,0.46,0.54,0.37,0.63
"49",0.36,0.64,0.45,0.55,0.37,0.63
"50",0.37,0.63,0.46,0.54,0.39,0.61
"51",0.38,0.62,0.49,0.51,0.4,0.6
"52",0.36,0.64,0.43,0.57,0.34,0.66
"53",0.35,0.65,0.5,0.5,0.41,0.59
"54",0.34,0.66,0.51,0.49,0.42,0.58
"55",0.33,0.67,0.49,0.51,0.37,0.63
"56",0.34,0.66,0.52,0.48,0.36,0.64
"57",0.34,0.66,0.45,0.55,0.44,0.56
"58",0.35,0.65,0.49,0.51,0.35,0.65
"59",0.34,0.66,0.44,0.56,0.42,0.58
"60",0.35,0.65,0.47,0.53,0.37,0.63
"61",0.36,0.64,0.51,0.49,0.505154639175258,0.494845360824742
"62",0.37,0.63,0.47,0.53,0.41,0.59
"63",0.33,0.67,0.48,0.52,0.42,0.58
"64",0.35,0.65,0.46,0.54,0.39,0.61
"65",0.33,0.67,0.5,0.5,0.38,0.62
"66",0.36,0.64,0.46,0.54,0.4,0.6
"67",0.38,0.62,0.49,0.51,0.49,0.51
"68",0.33,0.67,0.48,0.52,0.36,0.64
"69",0.35,0.65,0.48,0.52,0.34,0.66
"70",0.36,0.64,0.47,0.53,0.41,0.59
"71",0.33,0.67,0.47,0.53,0.34,0.66
"72",0.33,0.67,0.43,0.57,0.41,0.59
"73",0.35,0.65,0.47,0.53,0.39,0.61
"74",0.32,0.68,0.49,0.51,0.36,0.64
"75",0.35,0.65,0.5,0.5,0.37,0.63
"76",0.34,0.66,0.45,0.55,0.39,0.61
"77",0.33,0.67,0.47,0.53,0.38,0.62
"78",0.34,0.66,0.47,0.53,0.4,0.6
"79",0.36,0.64,0.5,0.5,0.43,0.57
"80",0.34,0.66,0.47,0.53,0.4375,0.5625
"81",0.35,0.65,0.45,0.55,0.45,0.55
"82",0.36,0.64,0.49,0.51,0.4,0.6
"83",0.36,0.64,0.45,0.55,0.37,0.63
"84",0.34,0.66,0.49,0.51,0.43,0.57
"85",0.35,0.65,0.53,0.47,0.627659574468085,0.372340425531915
"86",0.35,0.65,0.46,0.54,0.46,0.54
"87",0.32,0.68,0.5,0.5,0.33,0.67
"88",0.32,0.68,0.49,0.51,0.39,0.61
"89",0.32,0.68,0.43,0.57,0.4,0.6
"90",0.36,0.64,0.51,0.49,0.38,0.62
"91",0.35,0.65,0.48,0.52,0.36,0.64
"92",0.34,0.66,0.45,0.55,0.34,0.66
"93",0.35,0.65,0.48,0.52,0.649484536082474,0.350515463917526
"94",0.34,0.66,0.51,0.49,0.4,0.6
"95",0.32,0.68,0.5,0.5,0.37,0.63
"96",0.34,0.66,0.48,0.52,0.36,0.64
"97",0.35,0.65,0.5,0.5,0.39,0.61
"98",0.34,0.66,0.48,0.52,0.36,0.64
"99",0.35,0.65,0.47,0.53,0.642105263157895,0.357894736842105
"100",0.35,0.65,0.48,0.52,0.38,0.62
