"x1","x2","y"
325670.642674119,466827.949861022,129653704
538694.613102941,354596.714410203,118381424
641529.141033297,393504.023165419,163151536
373179.024736839,364969.000847635,81562912
431609.667359473,399430.44809386,92601640
582186.264755531,581234.598651322,128149744
659598.826505397,308719.036878781,242337824
693607.398376935,354374.768806722,231693392
696211.311244117,326351.23611619,255403328
370438.349423366,590621.127425617,194528928
215849.449604874,545731.497818824,272450048
271218.263097203,595035.631262222,270763680
285835.354041814,577129.418835554,245912992
210495.423717086,429337.330799775,184510480
202361.243666098,487711.316564389,236547264
683139.178708816,329815.013933898,243144768
692340.683156623,477316.628304631,136101952
210227.722422696,323782.449172336,101399248
309163.988854128,587595.392507798,237067728
288739.201997715,586586.814201858,251248032
679649.772152777,321628.42897629,246961968
692277.347395608,550019.684414028,141614576
660469.4069198,594780.714153267,140448192
433658.862397769,302939.074302556,85542520
446488.858263041,482497.665535401,101088256
465848.991052124,597708.817270774,130178936
546911.626315163,301896.905559067,165206848
573671.935391732,513682.964163785,121766992
319134.425842324,302650.076173745,69028128
427592.066246177,556942.536743931,126052632
