"x1","x2","y"
264638.915482275,310626.845454047,62376388
504711.180030061,553082.043346889,114856464
597854.572451096,350193.98529629,164897408
379065.884956921,503254.985921072,119257880
284957.223555572,427474.287275639,128444512
683679.287624058,473259.338020127,134531088
687970.523382706,587961.479872406,143886784
214245.155425625,517388.534067778,251256304
439944.276624951,304355.041537517,86556016
434016.623749157,593485.500697009,150179184
286826.140492668,593761.701738239,258313600
692627.693003758,398861.182351009,196363808
553533.248344025,442236.103079163,113419288
204988.203545395,411020.555638554,174092064
693075.113272743,341391.905313006,241405792
561395.130931786,597290.349028471,126386632
426144.916174849,391355.143964106,91198824
206097.564795915,570597.81361153,299227168
293379.060291738,538135.07390903,209605440
201598.288417065,490818.939349256,239559472
262100.921860107,567498.1964196,255714880
574436.684377345,303601.347342526,184017008
625453.663678942,538100.953746474,131083736
351745.694230933,302063.094349578,73677048
204525.355951384,354422.03263479,129761408
487981.255083632,348634.723599304,96847648
650709.658426216,303563.662632777,239846048
625688.668679567,597480.591445044,135649072
204502.213571683,317837.433302736,100905136
452914.683158598,445615.410988114,99193688
