"x1","x2","y"
568632.462050886,353896.750786659,140640080
365378.058440726,471485.509167846,104222408
655024.729135265,416259.296392269,155320992
282837.11447117,417236.075758488,121919016
463078.150643917,441143.641654081,100314424
584562.439936209,582605.240278006,128596256
213454.758645595,504249.817161532,241465952
378574.179834784,309870.641327257,78135224
214114.564715298,326571.267930952,100750536
369845.486238464,592560.752871977,196494368
220766.484654704,593058.528501675,306198208
268022.243179588,563289.699511728,248051424
689733.859559308,346687.119601471,234841248
692265.814974776,473386.709535761,138970240
478428.311790854,596976.299657499,120381656
202422.466168045,415395.533466541,179426368
692392.412745549,546930.855296143,141395792
542182.467396209,304141.888046436,160000512
633433.549200249,303855.450382395,226980048
694709.370437978,309782.373171291,267196944
666310.819695355,594694.804778707,141282416
579968.801851634,499045.197155949,121556776
470094.930843196,368303.677922666,95768720
292038.072515476,303136.09546291,65167384
282285.020088636,513008.341947035,197908832
404550.618823348,553674.187232441,140363088
318285.960697191,543324.076230401,195438672
232904.779761603,445627.142128854,180935712
697906.089159176,428371.750407808,177265872
462746.663782806,301663.577292265,103877312
