x1,x2,y
304176.7397195125,513170.88326567505,181985840.0
546224.8512642253,454045.92897398444,113267024.0
274808.60281588347,325126.93493868125,65160280.0
268245.4954604663,473568.31337738375,177075312.0
683247.0929951,427104.0175217587,167528944.0
205407.40556027179,546436.7465140672,280663648.0
272676.8993673184,577340.7180770818,255728240.0
698390.0,598020.0,146153968.0
698390.0,301460.0,276365472.0
672914.611574762,323877.6739248797,240284480.0
660188.6049021615,301460.0,248417632.0
300672.30016035517,598019.9992206886,251521792.0
596148.0124852371,586007.5190375008,130522784.0
516228.21624356013,312924.49139223184,134180984.0
213937.40244120473,364052.7682863188,130461304.0
423236.7805953541,503965.99688040157,100842296.0
617504.7038728709,390515.0964921511,147902816.0
363726.58512108284,345315.3482473174,78702064.0
658808.3989961285,539632.526526327,136003040.0
443619.76303143974,408370.23975958634,95012392.0
553745.9858683543,564545.9583718443,122783856.0
288501.3511420481,525115.9013600458,202906640.0
641991.2180282879,350663.5214520035,196820240.0
345517.8362800343,380674.95158861455,78785296.0
482097.2367705601,483215.5805953469,106263976.0
363726.58512108284,345315.3482473174,78702064.0
363726.58512108284,345315.3482473174,78702064.0
363726.58512108284,345315.3482473174,78702064.0
363726.58512108284,345315.3482473174,78702064.0
363726.58512108284,345315.3482473174,78702064.0
