x1,x2,y
366270.07793539093,349463.77257918514,79384792.0
461365.5514954293,546527.5426074709,109498392.0
446381.6793145265,525200.7828390336,105402296.0
557440.3841846508,559898.8568777659,122960168.0
206578.00569922564,562101.2358526924,292168768.0
234527.04545623562,495952.24391177134,219465424.0
698390.0,301460.0,276365472.0
685672.4369451813,372656.9219449804,211663648.0
648182.8889889744,301690.01498313755,239455392.0
201160.0,301460.0,90430504.0
698390.0,598020.0,146153968.0
552740.2760940238,304112.66877472855,167746864.0
222262.88118064275,501120.40138782095,232537280.0
659108.3780203508,493409.0296500999,132524536.0
512170.2870755856,403264.82252697163,104492512.0
368173.9305311238,544110.2674548244,159482928.0
227373.05105247934,364477.50257781433,120945648.0
639294.6774045862,589214.9782392222,136975920.0
303384.05573763954,321648.89207859617,68214072.0
683234.9349372492,420776.5623758618,172442592.0
395255.7065478434,471588.6790361059,94317416.0
581516.0550985809,517034.6354452629,123151792.0
283350.10312356846,379516.76954004104,91777040.0
303384.05573763954,321648.89207859617,68214072.0
303384.05573763954,321648.89207859617,68214072.0
303384.05573763954,321648.89207859617,68214072.0
303384.05573763954,321648.89207859617,68214072.0
303384.05573763954,321648.89207859617,68214072.0
303384.05573763954,321648.89207859617,68214072.0
303384.05573763954,321648.89207859617,68214072.0
