x1,x2,y
271050.62777665,371792.24559964205,94697408.0
515333.6197057163,321663.6601731619,126727752.0
258327.4745338716,348700.0737645321,85801536.0
667037.0754913228,591427.5173200921,141137664.0
267041.8033587044,589390.6930605262,269370784.0
231879.33161862788,548447.6636569899,262839504.0
292296.3390058982,538510.9695297912,210696000.0
422506.2443910404,598020.0,162195360.0
698390.0,301460.0,276365472.0
686244.5644360797,351426.82563285186,228600672.0
556420.5618187449,506326.1435234265,118722624.0
683638.1878633664,528737.200194034,138748784.0
444010.4672712727,489352.2998232036,101256136.0
639333.5481709086,412984.7395316225,146390512.0
375246.6679341205,346439.57292884344,80445624.0
204992.71950582223,324202.2877250431,105568688.0
607263.8395448702,567627.2489442446,130718592.0
332523.89859706396,519922.7919960407,166530960.0
477998.0278495238,403072.3626035685,99556888.0
298137.6223456301,312433.45689993043,66755184.0
667747.5958879013,427281.17628979066,156053344.0
332523.89859706396,519922.7919960407,166530960.0
332523.89859706396,519922.7919960407,166530960.0
332523.89859706396,519922.7919960407,166530960.0
332523.89859706396,519922.7919960407,166530960.0
332523.89859706396,519922.7919960407,166530960.0
332523.89859706396,519922.7919960407,166530960.0
332523.89859706396,519922.7919960407,166530960.0
332523.89859706396,519922.7919960407,166530960.0
332523.89859706396,519922.7919960407,166530960.0
