x1,x2,y
250870.29173306495,516711.02232675964,223865664.0
428260.86027855624,385577.37400351895,91062424.0
556838.5312148514,473029.91956883867,116242704.0
648173.7349391177,430597.3491143992,139514144.0
604295.1061995054,342020.39786807244,175968192.0
212215.3035057009,541798.5456192233,272010752.0
275853.64340828883,559543.5485644398,239352368.0
203089.30543123913,509051.08802028635,252856160.0
698390.0,598020.0,146153968.0
201160.0,301460.0,90430504.0
296579.3525117347,598018.4330705078,254521696.0
698390.0,301460.0,276365472.0
434535.06877373386,569131.6313698379,130581624.0
659087.5619083929,301460.0,247612112.0
203584.831639894,488930.2201516215,236612080.0
612671.7205918065,593735.7010345913,133490240.0
514793.5912775846,318336.2166618989,128921344.0
694053.1006056487,393898.88001262373,201267376.0
325038.43810844095,556095.5049721285,200567312.0
330835.676030217,357904.17283914104,74933144.0
662140.258268777,370197.57737556775,196361984.0
232160.74841987464,383740.97876294574,132638440.0
403833.64354403934,505347.3153714887,102755632.0
632420.7215295387,312747.8107988548,219319968.0
493962.7838810099,463769.6611467172,106485960.0
259123.25873276027,427982.66920250317,147786256.0
556352.0362127192,412664.9476118019,111572760.0
459046.5284990473,332346.71754992224,91438800.0
292450.8582062543,546920.139050045,217219584.0
575693.1964183913,445118.51844138384,116830576.0
