"","1_low","1_high","2_low","2_high","3_low","3_high","tgp_low","tgp_high"
"1",0.363333333333333,0.636666666666667,0.553333333333333,0.446666666666667,0.516666666666667,0.483333333333333,0.479166666666667,0.520833333333333
"2",0.356666666666667,0.643333333333333,0.616666666666667,0.383333333333333,0.416666666666667,0.583333333333333,0.442307692307692,0.557692307692308
"3",0.353333333333333,0.646666666666667,0.573333333333333,0.426666666666667,0.506666666666667,0.493333333333333,0.453333333333333,0.546666666666667
"4",0.346666666666667,0.653333333333333,0.573333333333333,0.426666666666667,0.59,0.41,0.406779661016949,0.593220338983051
"5",0.33,0.67,0.636666666666667,0.363333333333333,0.5,0.5,0.450980392156863,0.549019607843137
"6",0.363333333333333,0.636666666666667,0.633333333333333,0.366666666666667,0.653333333333333,0.346666666666667,0.5,0.5
"7",0.343333333333333,0.656666666666667,0.636666666666667,0.363333333333333,0.636666666666667,0.363333333333333,0.392156862745098,0.607843137254902
"8",0.353333333333333,0.646666666666667,0.616666666666667,0.383333333333333,0.59,0.41,0.428571428571429,0.571428571428571
"9",0.353333333333333,0.646666666666667,0.576666666666667,0.423333333333333,0.51,0.49,0.309859154929577,0.690140845070423
"10",0.356666666666667,0.643333333333333,0.64,0.36,0.586666666666667,0.413333333333333,0.483333333333333,0.516666666666667
"11",0.353333333333333,0.646666666666667,0.616666666666667,0.383333333333333,0.503333333333333,0.496666666666667,0.454545454545455,0.545454545454545
"12",0.366666666666667,0.633333333333333,0.596666666666667,0.403333333333333,0.593333333333333,0.406666666666667,0.45933014354067,0.54066985645933
"13",0.346666666666667,0.653333333333333,0.553333333333333,0.446666666666667,0.506666666666667,0.493333333333333,0.38953488372093,0.61046511627907
"14",0.34,0.66,0.593333333333333,0.406666666666667,0.483333333333333,0.516666666666667,0.473333333333333,0.526666666666667
"15",0.36,0.64,0.55,0.45,0.57,0.43,0.523333333333333,0.476666666666667
"16",0.346666666666667,0.653333333333333,0.596666666666667,0.403333333333333,0.546666666666667,0.453333333333333,0.346666666666667,0.653333333333333
"17",0.326666666666667,0.673333333333333,0.655518394648829,0.344481605351171,0.55,0.45,0.424242424242424,0.575757575757576
"18",0.343333333333333,0.656666666666667,0.596666666666667,0.403333333333333,0.523333333333333,0.476666666666667,0.444444444444444,0.555555555555556
"19",0.34,0.66,0.612040133779264,0.387959866220736,0.55,0.45,0.4,0.6
"20",0.346666666666667,0.653333333333333,0.666666666666667,0.333333333333333,0.676666666666667,0.323333333333333,0.426666666666667,0.573333333333333
"21",0.356666666666667,0.643333333333333,0.573333333333333,0.426666666666667,0.616666666666667,0.383333333333333,0.42,0.58
"22",0.346666666666667,0.653333333333333,0.556666666666667,0.443333333333333,0.476666666666667,0.523333333333333,0.406779661016949,0.593220338983051
"23",0.34,0.66,0.6,0.4,0.536666666666667,0.463333333333333,0.365079365079365,0.634920634920635
"24",0.35,0.65,0.576666666666667,0.423333333333333,0.69,0.31,0.41025641025641,0.58974358974359
"25",0.366666666666667,0.633333333333333,0.52,0.48,0.566666666666667,0.433333333333333,0.355932203389831,0.64406779661017
"26",0.356666666666667,0.643333333333333,0.593333333333333,0.406666666666667,0.506666666666667,0.493333333333333,0.44,0.56
"27",0.366666666666667,0.633333333333333,0.58,0.42,0.616666666666667,0.383333333333333,0.394366197183099,0.605633802816901
"28",0.33,0.67,0.523333333333333,0.476666666666667,0.623333333333333,0.376666666666667,0.337837837837838,0.662162162162162
"29",0.343333333333333,0.656666666666667,0.66,0.34,0.5,0.5,0.357142857142857,0.642857142857143
"30",0.333333333333333,0.666666666666667,0.6,0.4,0.603333333333333,0.396666666666667,0.397260273972603,0.602739726027397
