# This file may be used to create an environment using:
# $ conda create --name <env> --file <this file>
# platform: linux-64
_libgcc_mutex=0.1=main
_openmp_mutex=4.5=1_gnu
absl-py=0.15.0=pypi_0
alabaster=0.7.12=pyhd3eb1b0_0
appdirs=1.4.4=pyhd3eb1b0_0
arrow=0.13.1=py39h06a4308_0
astroid=2.6.6=py39h06a4308_0
asttokens=2.0.5=pyhd3eb1b0_0
astunparse=1.6.3=pypi_0
atomicwrites=1.4.0=py_0
attrs=21.4.0=pyhd3eb1b0_0
autopep8=1.6.0=pyhd3eb1b0_0
babel=2.9.1=pyhd3eb1b0_0
backcall=0.2.0=pyhd3eb1b0_0
binaryornot=0.4.4=pyhd3eb1b0_1
black=19.10b0=py_0
bleach=4.1.0=pyhd3eb1b0_0
brotlipy=0.7.0=py39h27cfd23_1003
ca-certificates=2022.2.1=h06a4308_0
cachetools=5.0.0=pypi_0
certifi=2021.10.8=py39h06a4308_2
cffi=1.15.0=py39hd667e15_1
chardet=4.0.0=py39h06a4308_1003
charset-normalizer=2.0.12=pypi_0
click=8.0.4=py39h06a4308_0
cloudpickle=2.0.0=pyhd3eb1b0_0
colorama=0.4.4=pyhd3eb1b0_0
cookiecutter=1.7.2=pyhd3eb1b0_0
cryptography=36.0.0=py39h9ce1e76_0
cycler=0.11.0=pypi_0
dbus=1.13.18=hb2f20db_0
debugpy=1.5.1=py39h295c915_0
decorator=5.1.1=pyhd3eb1b0_0
defusedxml=0.7.1=pyhd3eb1b0_0
deprecated=1.2.13=pypi_0
diff-match-patch=20200713=pyhd3eb1b0_0
dm-tree=0.1.6=pypi_0
docutils=0.17.1=py39h06a4308_1
entrypoints=0.3=py39h06a4308_0
executing=0.8.3=pyhd3eb1b0_0
expat=2.4.4=h295c915_0
flake8=3.9.2=pyhd3eb1b0_0
flatbuffers=1.12=pypi_0
fontconfig=2.13.1=h6c09931_0
fonttools=4.31.1=pypi_0
freetype=2.11.0=h70c0345_0
gast=0.4.0=pypi_0
glib=2.69.1=h4ff587b_1
google-auth=2.6.2=pypi_0
google-auth-oauthlib=0.4.6=pypi_0
google-pasta=0.2.0=pypi_0
gpflow=2.4.0=pypi_0
gpflux=0.2.7=pypi_0
grpcio=1.34.1=pypi_0
gst-plugins-base=1.14.0=h8213a91_2
gstreamer=1.14.0=h28cd5cc_2
h5py=3.1.0=pypi_0
icu=58.2=he6710b0_3
idna=3.3=pyhd3eb1b0_0
imagesize=1.3.0=pyhd3eb1b0_0
importlib-metadata=4.11.3=pypi_0
importlib_metadata=4.8.2=hd3eb1b0_0
inflection=0.5.1=py39h06a4308_0
intervaltree=3.1.0=pyhd3eb1b0_0
ipykernel=6.9.1=py39h06a4308_0
ipython=8.1.1=py39h06a4308_0
ipython_genutils=0.2.0=pyhd3eb1b0_1
isort=5.9.3=pyhd3eb1b0_0
jedi=0.18.1=py39h06a4308_1
jeepney=0.7.1=pyhd3eb1b0_0
jinja2=2.11.3=pyhd3eb1b0_0
jinja2-time=0.2.0=pyhd3eb1b0_2
jpeg=9d=h7f8727e_0
jsonschema=3.2.0=pyhd3eb1b0_2
jupyter_client=6.1.12=pyhd3eb1b0_0
jupyter_core=4.9.2=py39h06a4308_0
jupyterlab_pygments=0.1.2=py_0
keras-nightly=2.5.0.dev2021032900=pypi_0
keras-preprocessing=1.1.2=pypi_0
keyring=23.4.0=py39h06a4308_0
kiwisolver=1.4.0=pypi_0
lark=1.1.2=pypi_0
lazy-object-proxy=1.6.0=py39h27cfd23_0
ld_impl_linux-64=2.35.1=h7274673_9
libffi=3.3=he6710b0_2
libgcc-ng=9.3.0=h5101ec6_17
libgomp=9.3.0=h5101ec6_17
libpng=1.6.37=hbc83047_0
libsodium=1.0.18=h7b6447c_0
libspatialindex=1.9.3=h2531618_0
libstdcxx-ng=9.3.0=hd4cf53a_17
libuuid=1.0.3=h7f8727e_2
libxcb=1.14=h7b6447c_0
libxml2=2.9.12=h03d6c58_0
markdown=3.3.6=pypi_0
markupsafe=1.1.1=py39h27cfd23_0
matplotlib=3.5.1=pypi_0
matplotlib-inline=0.1.2=pyhd3eb1b0_2
mccabe=0.6.1=py39h06a4308_1
mistune=0.8.4=py39h27cfd23_1000
multipledispatch=0.6.0=pypi_0
mypy_extensions=0.4.3=py39h06a4308_1
nbclient=0.5.11=pyhd3eb1b0_0
nbconvert=6.3.0=py39h06a4308_0
nbformat=5.1.3=pyhd3eb1b0_0
ncurses=6.3=h7f8727e_2
nest-asyncio=1.5.1=pyhd3eb1b0_0
numpy=1.19.5=pypi_0
numpydoc=1.2=pyhd3eb1b0_0
oauthlib=3.2.0=pypi_0
openssl=1.1.1m=h7f8727e_0
opt-einsum=3.3.0=pypi_0
packaging=21.3=pyhd3eb1b0_0
pandas=1.4.1=pypi_0
pandocfilters=1.5.0=pyhd3eb1b0_0
parso=0.8.3=pyhd3eb1b0_0
pathspec=0.7.0=py_0
pcre=8.45=h295c915_0
pexpect=4.8.0=pyhd3eb1b0_3
pickleshare=0.7.5=pyhd3eb1b0_1003
pillow=9.0.1=pypi_0
pip=21.2.4=py39h06a4308_0
pluggy=1.0.0=py39h06a4308_0
poyo=0.5.0=pyhd3eb1b0_0
prompt-toolkit=3.0.20=pyhd3eb1b0_0
properscoring=0.1=pypi_0
protobuf=3.19.4=pypi_0
psutil=5.8.0=py39h27cfd23_1
ptyprocess=0.7.0=pyhd3eb1b0_2
pure_eval=0.2.2=pyhd3eb1b0_0
pyasn1=0.4.8=pypi_0
pyasn1-modules=0.2.8=pypi_0
pycodestyle=2.7.0=pyhd3eb1b0_0
pycparser=2.21=pyhd3eb1b0_0
pydocstyle=6.1.1=pyhd3eb1b0_0
pyflakes=2.3.1=pyhd3eb1b0_0
pygments=2.11.2=pyhd3eb1b0_0
pylint=2.9.6=py39h06a4308_1
pyls-spyder=0.4.0=pyhd3eb1b0_0
pyopenssl=22.0.0=pyhd3eb1b0_0
pyparsing=3.0.7=pypi_0
pyqt=5.9.2=py39h2531618_6
pyrsistent=0.18.0=py39heee7806_0
pysocks=1.7.1=py39h06a4308_0
python=3.9.7=h12debd9_1
python-dateutil=2.8.2=pyhd3eb1b0_0
python-lsp-black=1.0.0=pyhd3eb1b0_0
python-lsp-jsonrpc=1.0.0=pyhd3eb1b0_0
python-lsp-server=1.2.4=pyhd3eb1b0_0
python-slugify=5.0.2=pyhd3eb1b0_0
pytz=2021.3=pyhd3eb1b0_0
pyxdg=0.27=pyhd3eb1b0_0
pyyaml=6.0=py39h7f8727e_1
pyzmq=22.3.0=py39h295c915_2
qdarkstyle=3.0.2=pyhd3eb1b0_0
qstylizer=0.1.10=pyhd3eb1b0_0
qt=5.9.7=h5867ecd_1
qtawesome=1.0.3=pyhd3eb1b0_0
qtconsole=5.2.2=pyhd3eb1b0_0
qtpy=1.11.2=pyhd3eb1b0_0
readline=8.1.2=h7f8727e_1
regex=2021.11.2=py39h7f8727e_0
requests=2.27.1=pyhd3eb1b0_0
requests-oauthlib=1.3.1=pypi_0
rope=0.22.0=pyhd3eb1b0_0
rsa=4.8=pypi_0
rtree=0.9.7=py39h06a4308_1
scipy=1.8.0=pypi_0
secretstorage=3.3.1=py39h06a4308_0
setuptools=58.0.4=py39h06a4308_0
sip=4.19.13=py39h295c915_0
six=1.15.0=pypi_0
snowballstemmer=2.2.0=pyhd3eb1b0_0
sortedcontainers=2.4.0=pyhd3eb1b0_0
sphinx=4.4.0=pyhd3eb1b0_0
sphinxcontrib-applehelp=1.0.2=pyhd3eb1b0_0
sphinxcontrib-devhelp=1.0.2=pyhd3eb1b0_0
sphinxcontrib-htmlhelp=2.0.0=pyhd3eb1b0_0
sphinxcontrib-jsmath=1.0.1=pyhd3eb1b0_0
sphinxcontrib-qthelp=1.0.3=pyhd3eb1b0_0
sphinxcontrib-serializinghtml=1.1.5=pyhd3eb1b0_0
spyder=5.1.5=py39h06a4308_1
spyder-kernels=2.1.3=py39h06a4308_0
sqlite=3.38.0=hc218d9a_0
stack_data=0.2.0=pyhd3eb1b0_0
tabulate=0.8.9=pypi_0
tensorboard=2.8.0=pypi_0
tensorboard-data-server=0.6.1=pypi_0
tensorboard-plugin-wit=1.8.1=pypi_0
tensorflow=2.5.3=pypi_0
tensorflow-estimator=2.5.0=pypi_0
tensorflow-probability=0.13.0=pypi_0
termcolor=1.1.0=pypi_0
testpath=0.5.0=pyhd3eb1b0_0
text-unidecode=1.3=pyhd3eb1b0_0
textdistance=4.2.1=pyhd3eb1b0_0
three-merge=0.1.1=pyhd3eb1b0_0
tinycss=0.4=pyhd3eb1b0_1002
tk=8.6.11=h1ccaba5_0
toml=0.10.2=pyhd3eb1b0_0
tornado=6.1=py39h27cfd23_0
traitlets=5.1.1=pyhd3eb1b0_0
typed-ast=1.4.3=py39h7f8727e_1
typing-extensions=3.7.4.3=pypi_0
typing_extensions=3.10.0.2=pyh06a4308_0
tzdata=2021e=hda174b7_0
ujson=4.2.0=py39h295c915_0
unidecode=1.2.0=pyhd3eb1b0_0
urllib3=1.26.9=pypi_0
watchdog=2.1.6=py39h06a4308_0
wcwidth=0.2.5=pyhd3eb1b0_0
webencodings=0.5.1=py39h06a4308_1
werkzeug=2.0.3=pypi_0
wheel=0.37.1=pyhd3eb1b0_0
whichcraft=0.6.1=pyhd3eb1b0_0
wrapt=1.12.1=py39he8ac12f_1
wurlitzer=3.0.2=py39h06a4308_0
xz=5.2.5=h7b6447c_0
yaml=0.2.5=h7b6447c_0
yapf=0.31.0=pyhd3eb1b0_0
zeromq=4.3.4=h2531618_0
zipp=3.7.0=pyhd3eb1b0_0
zlib=1.2.11=h7f8727e_4
