# This file may be used to create an environment using:
# $ conda create --name <env> --file <this file>
# platform: linux-64
_libgcc_mutex=0.1=main
_openmp_mutex=4.5=1_gnu
absl-py=1.0.0=pypi_0
alabaster=0.7.12=py36_0
appdirs=1.4.4=pyhd3eb1b0_0
argh=0.26.2=py36_0
astor=0.8.1=pypi_0
astroid=2.6.6=py36h06a4308_0
async_generator=1.10=py36h28b3542_0
atomicwrites=1.4.0=py_0
attrs=21.4.0=pyhd3eb1b0_0
autopep8=1.5.6=pyhd3eb1b0_0
babel=2.9.1=pyhd3eb1b0_0
backcall=0.2.0=pyhd3eb1b0_0
black=19.3b0=py_0
bleach=4.1.0=pyhd3eb1b0_0
brotlipy=0.7.0=py36h27cfd23_1003
ca-certificates=2022.2.1=h06a4308_0
cached-property=1.5.2=pypi_0
certifi=2021.5.30=py36h06a4308_0
cffi=1.14.6=py36h400218f_0
chardet=4.0.0=py36h06a4308_1003
charset-normalizer=2.0.4=pyhd3eb1b0_0
click=8.0.3=pyhd3eb1b0_0
cloudpickle=2.0.0=pyhd3eb1b0_0
colorama=0.4.4=pyhd3eb1b0_0
cryptography=35.0.0=py36hd23ed53_0
cycler=0.11.0=pypi_0
dataclasses=0.8=pypi_0
dbus=1.13.18=hb2f20db_0
decorator=5.1.1=pyhd3eb1b0_0
defusedxml=0.7.1=pyhd3eb1b0_0
diff-match-patch=20200713=pyhd3eb1b0_0
docutils=0.17.1=py36h06a4308_1
entrypoints=0.3=py36_0
expat=2.4.4=h295c915_0
flake8=3.9.0=pyhd3eb1b0_0
fontconfig=2.13.1=h6c09931_0
freetype=2.11.0=h70c0345_0
future=0.18.2=py36_1
gast=0.2.2=pypi_0
glib=2.69.1=h4ff587b_1
google-pasta=0.2.0=pypi_0
grpcio=1.44.0=pypi_0
gst-plugins-base=1.14.0=h8213a91_2
gstreamer=1.14.0=h28cd5cc_2
h5py=3.1.0=pypi_0
icu=58.2=he6710b0_3
idna=3.3=pyhd3eb1b0_0
imagesize=1.3.0=pyhd3eb1b0_0
importlib-metadata=4.8.3=pypi_0
importlib_metadata=4.8.1=hd3eb1b0_0
intervaltree=3.1.0=pyhd3eb1b0_0
ipykernel=5.3.4=py36h5ca1d4c_0
ipython=7.16.1=py36h5ca1d4c_0
ipython_genutils=0.2.0=pyhd3eb1b0_1
isort=5.9.3=pyhd3eb1b0_0
jedi=0.17.2=py36h06a4308_1
jeepney=0.7.1=pyhd3eb1b0_0
jinja2=3.0.3=pyhd3eb1b0_0
jpeg=9d=h7f8727e_0
jsonschema=3.2.0=pyhd3eb1b0_2
jupyter_client=7.1.2=pyhd3eb1b0_0
jupyter_core=4.8.1=py36h06a4308_0
jupyterlab_pygments=0.1.2=py_0
keras-applications=1.0.8=pypi_0
keras-preprocessing=1.1.2=pypi_0
keyring=23.1.0=py36h06a4308_0
kiwisolver=1.3.1=pypi_0
lazy-object-proxy=1.6.0=py36h27cfd23_0
ld_impl_linux-64=2.35.1=h7274673_9
libffi=3.3=he6710b0_2
libgcc-ng=9.3.0=h5101ec6_17
libgomp=9.3.0=h5101ec6_17
libpng=1.6.37=hbc83047_0
libsodium=1.0.18=h7b6447c_0
libspatialindex=1.9.3=h2531618_0
libstdcxx-ng=9.3.0=hd4cf53a_17
libuuid=1.0.3=h7f8727e_2
libxcb=1.14=h7b6447c_0
libxml2=2.9.12=h03d6c58_0
markdown=3.3.6=pypi_0
markupsafe=2.0.1=py36h27cfd23_0
matplotlib=3.3.4=pypi_0
mccabe=0.6.1=py36_1
mistune=0.8.4=py36h7b6447c_0
mock=4.0.3=pypi_0
nbclient=0.5.3=pyhd3eb1b0_0
nbconvert=6.0.7=py36_0
nbformat=5.1.3=pyhd3eb1b0_0
ncurses=6.3=h7f8727e_2
nest-asyncio=1.5.1=pyhd3eb1b0_0
numpy=1.19.5=pypi_0
numpydoc=1.1.0=pyhd3eb1b0_1
openssl=1.1.1m=h7f8727e_0
opt-einsum=3.3.0=pypi_0
packaging=21.3=pyhd3eb1b0_0
pandas=1.1.5=pypi_0
pandoc=2.12=h06a4308_0
pandocfilters=1.5.0=pyhd3eb1b0_0
parso=0.7.0=py_0
pcre=8.45=h295c915_0
pexpect=4.8.0=pyhd3eb1b0_3
pickleshare=0.7.5=pyhd3eb1b0_1003
pillow=8.4.0=pypi_0
pip=21.2.2=py36h06a4308_0
pluggy=1.0.0=py36h06a4308_0
prompt-toolkit=3.0.20=pyhd3eb1b0_0
properscoring=0.1=pypi_0
protobuf=3.19.4=pypi_0
psutil=5.8.0=py36h27cfd23_1
ptyprocess=0.7.0=pyhd3eb1b0_2
pycodestyle=2.6.0=pyhd3eb1b0_0
pycparser=2.21=pyhd3eb1b0_0
pydocstyle=6.1.1=pyhd3eb1b0_0
pyflakes=2.2.0=pyhd3eb1b0_0
pygments=2.11.2=pyhd3eb1b0_0
pylint=2.9.6=py36h06a4308_1
pyls-black=0.4.6=hd3eb1b0_0
pyls-spyder=0.3.2=pyhd3eb1b0_0
pyopenssl=22.0.0=pyhd3eb1b0_0
pyparsing=3.0.4=pyhd3eb1b0_0
pyqt=5.9.2=py36h05f1152_2
pyrsistent=0.17.3=py36h7b6447c_0
pysocks=1.7.1=py36h06a4308_0
python=3.6.13=h12debd9_1
python-dateutil=2.8.2=pyhd3eb1b0_0
python-jsonrpc-server=0.4.0=py_0
python-language-server=0.36.2=pyhd3eb1b0_0
pytz=2021.3=pyhd3eb1b0_0
pyxdg=0.27=pyhd3eb1b0_0
pyyaml=5.4.1=py36h27cfd23_1
pyzmq=22.2.1=py36h295c915_1
qdarkstyle=2.8.1=py_0
qt=5.9.7=h5867ecd_1
qtawesome=1.0.3=pyhd3eb1b0_0
qtconsole=5.2.2=pyhd3eb1b0_0
qtpy=1.11.2=pyhd3eb1b0_0
readline=8.1.2=h7f8727e_1
requests=2.27.1=pyhd3eb1b0_0
rope=0.22.0=pyhd3eb1b0_0
rtree=0.9.7=py36h06a4308_1
scipy=1.5.4=pypi_0
secretstorage=3.3.1=py36h06a4308_0
setuptools=58.0.4=py36h06a4308_0
sip=4.19.8=py36hf484d3e_0
six=1.16.0=pyhd3eb1b0_1
snowballstemmer=2.2.0=pyhd3eb1b0_0
sortedcontainers=2.4.0=pyhd3eb1b0_0
sphinx=4.4.0=pyhd3eb1b0_0
sphinxcontrib-applehelp=1.0.2=pyhd3eb1b0_0
sphinxcontrib-devhelp=1.0.2=pyhd3eb1b0_0
sphinxcontrib-htmlhelp=2.0.0=pyhd3eb1b0_0
sphinxcontrib-jsmath=1.0.1=pyhd3eb1b0_0
sphinxcontrib-qthelp=1.0.3=pyhd3eb1b0_0
sphinxcontrib-serializinghtml=1.1.5=pyhd3eb1b0_0
spyder=4.2.5=py36h06a4308_0
spyder-kernels=1.10.2=py36h06a4308_0
sqlite=3.38.0=hc218d9a_0
tensorboard=1.13.1=pypi_0
tensorflow=1.13.1=pypi_0
tensorflow-estimator=1.13.0=pypi_0
termcolor=1.1.0=pypi_0
testpath=0.5.0=pyhd3eb1b0_0
textdistance=4.2.1=pyhd3eb1b0_0
three-merge=0.1.1=pyhd3eb1b0_0
tk=8.6.11=h1ccaba5_0
toml=0.10.2=pyhd3eb1b0_0
tornado=6.1=py36h27cfd23_0
traitlets=4.3.3=py36h06a4308_0
typed-ast=1.4.3=py36h7f8727e_1
typing-extensions=4.1.1=pypi_0
typing_extensions=3.10.0.2=pyh06a4308_0
ujson=4.0.2=py36h2531618_0
urllib3=1.26.8=pyhd3eb1b0_0
watchdog=1.0.2=py36h06a4308_1
wcwidth=0.2.5=pyhd3eb1b0_0
webencodings=0.5.1=py36_1
werkzeug=2.0.3=pypi_0
wheel=0.37.1=pyhd3eb1b0_0
wrapt=1.14.0=pypi_0
wurlitzer=2.1.1=py36h06a4308_0
xz=5.2.5=h7b6447c_0
yaml=0.2.5=h7b6447c_0
yapf=0.31.0=pyhd3eb1b0_0
zeromq=4.3.4=h2531618_0
zipp=3.6.0=pyhd3eb1b0_0
zlib=1.2.11=h7f8727e_4
