"","","","","","y"
0.817217175243422,0.553066127654165,0.118448990443721,0.0203796780202538,0.295716837770306,0.999999999177855
0.244435262400657,0.649186608812306,0.323859763937071,0.734675411670469,0.971287323115394,-1
0.639208326640073,0.392134799365886,0.409173607325647,0.526426980062388,0.435147377522662,-0.999935383516289
0.295663638005499,0.162958695914131,0.289631238498259,0.430723477574065,0.485031026415527,1
0.855396661697887,0.466693289659452,0.716206580412108,0.0782712878077291,0.210158909566235,-0.99339857932242
0.360985225369222,0.231655763962772,0.0676260255160741,0.992843661701772,0.147536078374833,0.999999999475401
0.344401575543452,0.702342938841321,0.638452025689185,0.461511271132622,0.815759205888025,-1
0.0641334792948328,0.985659782565199,0.243106895836536,0.905316176032647,0.377516387787182,-0.999999999996136
0.732418475719169,0.511739334953017,0.00381486073601991,0.846154752129223,0.707360834628344,-1
0.941119518748019,0.070675919612404,0.530626030475833,0.153406025085133,0.0952066099038348,0.999999999816674
0.143977159936912,0.909855843626428,0.903472985536791,0.357866978668608,0.516672839003149,-1
0.759003088681493,0.25732413433725,0.814528771920595,0.146803444402758,0.655123023467604,-0.999999999999997
0.48616759411525,0.775820074696094,0.870594973908737,0.670663263997994,0.888102220417932,-1
0.0129588273703121,0.438159489014652,0.699120240681805,0.583505951566622,0.629496394621674,-0.999149993202049
0.578154942009132,0.13808984021889,0.387264870025683,0.785391363105737,0.199340412206948,0.816784809552725
0.672581545356661,0.805910870397929,0.961931765940972,0.323526138090529,0.567616153543349,-1
0.416928762244061,0.306365063309204,0.771203692804556,0.623665541992523,0.926386100368109,-1
0.531347680464387,0.0438013045815751,0.183957851829473,0.286203200533055,0.309092386136763,1
0.15389277592767,0.653609870176297,0.45270312972134,0.225863670266699,0.790702578437049,-0.938314536296116
0.972452420124318,0.87794474438997,0.563994005334098,0.894504701870028,0.0357924639130942,-1
0.026619434307795,0.054522886525686,0.346078011853305,0.819980981489782,0.823935830565698,0.895023048824936
0.0342113654173445,0.657703293991427,0.275801010308011,0.120900624726736,0.209020570426409,1
0.449052717989755,0.758190873353168,0.0839910886890785,0.580392142008594,0.0213116467654365,0.999996604528434
0.667646766033322,0.377658030757243,0.497530077881021,0.0103952212008522,0.292034883922531,0.999999950852533
0.282388900203281,0.37796109735989,0.21780181847479,0.657546484882008,0.557361943921034,0.78838700511912
0.705692965388907,0.0187612716001986,0.334574896550946,0.45984681678668,0.630438804891919,0.23160251618011
0.0878407494990593,0.0878519600666324,0.468405168578326,0.0319950384283806,0.635309332451569,1
0.337468728022064,0.736835050314827,0.356332001870098,0.641970714168064,0.217974997711684,-0.964525865885553
0.576635380435955,0.321083702325095,0.305450364672291,0.986777509205931,0.410249662334416,-0.999999999999812
0.589508695231889,0.283928819931207,0.325995423423995,0.0176977729580954,0.862778712243524,0.859065308317542
0.62456655301099,0.39950371335445,0.19777521150827,0.507491352643208,0.32799491583841,0.936471591918426
0.4775909419501,0.427026800016078,0.68829631665999,0.0126526904453114,0.594254686557545,-0.426330227031585
0.519102737652178,0.602157494967654,0.202177547161421,0.470375384872674,0.393510301858538,-0.27407966797997
0.266331607952184,0.501521839546165,0.696225314556096,0.0120337324015353,0.367360897273668,0.999999958599639
0.971702611639397,0.21904094317607,0.202271459841795,0.883158443828174,0.168216962130682,-0.99999756057617
0.403881371308976,0.0144965063167794,0.601911344569205,0.406478456363285,0.790028570893591,-0.605079106795646
0.287618944291827,0.632219367801771,0.0276434837625287,0.300685776412194,0.813428130211113,0.925432152926486
0.149740170863063,0.0146624136428528,0.616393056206822,0.550243144793713,0.540521760625633,0.999999450348612
0.754205583134665,0.300223081256059,0.668107387554558,0.00803057337883567,0.370159302378842,0.736881808967119
0.712244572646641,0.382599680785546,0.305962246647094,0.714949389599906,0.111234028882471,-0.694032232631216
0.0140374549791371,0.42257997087977,0.612964631984886,0.56666640193868,0.236410269909877,0.999999901185942
0.70526166188919,0.25835504141684,0.306170381983239,0.646210724337682,0.312062083578849,-0.702531570936087
0.362766290478014,0.582904369999303,0.107330695502505,0.71382316552774,0.437419170281324,-0.476333138750967
0.633046082322609,0.551167942163768,0.532086712732557,0.152496907065595,0.354399663989104,-0.662620970148653
0.354616858599648,0.719590937942618,0.725615252055342,0.358477136208034,0.0241611010563753,-0.211334223341895
0.636905271679408,0.19551836473889,0.571015620584856,0.361716921804761,0.382583081017587,0.251947794892477
0.981571021790884,0.264963573463298,0.375400039238758,0.222476634609886,0.484695481035237,-0.994161204036944
0.0113295199847894,0.614279345984355,0.235777577511562,0.462546897733924,0.63631331900374,0.999540060494092
0.413896379875135,0.28258569094545,0.700887324985877,0.975671662418282,0.216801673082426,-0.999999999999311
0.11653541435058,0.541450382736933,0.582621308230395,0.222027666009763,0.52476043536892,0.997652515198228
0.86020484631287,0.175124511879903,0.0203239327759783,0.326599333922424,0.527168209072703,0.99998732295097
0.60370039111234,0.358931240856819,0.28561283549874,0.649048829212777,0.303866331385111,-0.441697659557386
0.919057084171032,0.0162690819297402,0.304869725386963,0.158584180087115,0.591096052244948,0.997302286177779
0.128266750322507,0.00955797659722309,0.665056454818193,0.471165708204569,0.830794161558041,0.70592104516484
0.25655547815359,0.113698422889533,0.61692164753966,0.641200915877026,0.68807801618225,-0.988977462193401
0.723275007148254,0.0195837789626975,0.0563771629583325,0.763730143236646,0.656096571559553,-0.626098786392181
0.405655905579819,0.362850314122508,0.466720058535826,0.732333269162069,0.155913927252155,0.536449362466595
0.339580277905456,0.802598442305857,0.697022775695812,0.0185509951962528,0.198322167032089,0.939455671425988
0.747399897291059,0.604752232877699,0.530818208747372,0.580625411793341,0.51978575517677,-1
0.442611946020653,0.257295682767525,0.36773433622713,0.615056341785667,0.444804184605589,0.493718001876937
0.139047903736737,0.374634641764403,0.406593176666365,0.649909440536638,0.717745471234965,-0.960401971964435
0.770673677785406,0.43633238784678,0.374313296830418,0.28267754162443,0.297366639513627,0.0717103874867702
0.510252580628206,0.418608996419876,0.0136504574809252,0.232157845075481,0.240591440743361,1
0.00538636573997078,0.692463488776292,0.552945030770761,0.50529045448231,0.392047366900686,0.246882779537624
0.701661130422348,0.97373201725831,0.0504921325046974,0.632532244477235,0.322120445507461,-1
0.941277677217265,0.161946209619508,0.0142276221056258,0.400276043906402,0.920057521846796,-0.999995795970814
0.00815088601123098,0.828079581907494,0.408299648471074,0.384617416229066,0.531198979998203,0.0854145628538723
0.210278339363525,0.690645556850616,0.279921054031852,0.588178204067077,0.249942173813652,0.987809275064439
0.196860425727818,0.984955462360566,0.298660522949734,0.35883668953404,0.312140680819701,0.20372523489697
0.992667234761772,0.105521371226603,0.184879650657759,0.374318598764586,0.447388896186308,0.706430668236098
0.162206149861056,0.0573294660573494,0.416164361670584,0.134602186722105,0.0297007833765691,1
0.583295199450395,0.726058226924471,0.409171470268692,0.986068328064716,0.525945663465853,-1
0.853888495834309,0.977305887964437,0.355829486247081,0.935482877340619,0.65344346200642,-1
0.511171259529267,0.247664469505645,0.285157657846444,0.372482384493882,0.789079535220318,-0.490721851518328
0.596563899440868,0.462758800543391,0.77424246139986,0.00527380066374222,0.354188749606353,-0.345386124488786
0.222804301540491,0.28012025738657,0.970795193950278,0.0473461161062839,0.730822293483026,-0.851894796064804
0.574475090999965,0.563411240562055,0.65711731002945,0.103910891357034,0.238877579195448,0.375878441636551
0.0250767672148796,0.542259655164898,0.974261411378176,0.0820226438939475,0.126750859454403,0.999999999998391
0.42745143593089,0.310305810043848,0.715023192478945,0.00210596438045108,0.537541405977817,0.996892828328053
0.900673175178563,0.819426673396001,0.0587836038744407,0.114842034930526,0.970908493281563,-1
0.527753220715479,0.873651993415979,0.042248250130287,0.980111778521806,0.0393199468810289,-0.999999510514665
0.725829913222814,0.393085646856896,0.943992432185859,0.472072906252103,0.0136942103183998,-0.999999999910023
0.223325092646315,0.202799437703167,0.527122528387013,0.470250944094224,0.672739613608882,0.767999154253866
0.0224226688118488,0.757026670013722,0.925699644959908,0.955457150107494,0.545142039587336,-1
0.146895290890244,0.978447687589145,0.122667519050688,0.0541798451987928,0.656224526658939,0.999590911456961
0.972703948234,0.0192852025880946,0.514130156575612,0.683655271271734,0.773276854250548,-1
0.619256587911747,0.0105059813401538,0.582948751273019,0.656504562251796,0.337307533030642,-0.501207863524375
0.636731529554449,0.346508474611088,0.00231427174086864,0.509090786569952,0.667949463660195,0.0550951658951599
0.562194742279764,0.759841561444508,0.0967022127995829,0.265499160651946,0.575318122547987,-0.885061943598443
0.616612632589047,0.162237293258496,0.483171109957914,0.871076909051229,0.0149117867222658,0.248467045859697
0.837989775559173,0.334960237401754,0.140441549668454,0.173063173970803,0.69462097107664,-0.193179269209725
0.720456040684821,0.953515989375057,0.260060349727907,0.333244999917477,0.0174652712197677,-0.954910215019034
0.458378459203529,0.594306288638599,0.160581718059189,0.77068180858798,0.162465978149463,0.268924225218367
0.668176260019263,0.588471918131088,0.201687435569596,0.729617830123512,0.00522451227438362,-0.347225745727901
0.728213787627806,0.297894279658241,0.340554628148365,0.449807019872842,0.367090498942907,-0.225652609233815
0.902505772804968,0.365182444285843,0.350722494971971,0.124659973423441,0.44129706396702,-0.236125904636188
0.178324072176863,0.604347465753961,0.248421869670602,0.662886728130006,0.496049744340316,-0.308254114562483
0.56319754846727,0.728532491067222,0.354823650245157,0.00426452708019136,0.498041583515292,0.237494710552334
0.141061971808098,0.764520345092712,0.783992252641781,0.0111993315812777,0.478434532368896,-0.168548892914263
0.292170668577004,0.762045350728138,0.17881915243248,0.240305929640323,0.984051021034081,-0.999999193444828
0.406838663172413,0.15929569074403,0.125920467454139,0.0141067589755855,0.292259989471385,1
0.201676483138722,0.823024239698906,0.403524453846629,0.173160246648344,0.544457146966347,0.276208891143976
0.133359341720533,0.988807555619494,0.580584403238558,0.115708211891584,0.396110332854987,-0.583749776294159
0.186330329285103,0.8129727688939,0.707272116656508,0.227848851338011,0.334291389869364,-0.916695342781068
0.133488842319278,0.955207789204583,0.919861162193687,0.0117069632246334,0.304004281012075,-0.9925181748713
0.0125238943687599,0.0647753018918659,0.784613885174031,0.111804330788881,0.448976733314453,1
0.0172434765912414,0.571192413243334,0.0886245694471052,0.545385130308095,0.958575368677908,-0.192459686427169
0.371892805328375,0.413740017329892,0.698176622393677,0.00182003750942839,0.643114808819686,0.480141831015803
0.022099250768485,0.86727959216673,0.8656386127885,0.0133685063844225,0.843905266033117,-0.99999999999996
0.104643775904754,0.389429857568017,0.686953133423074,0.228874165159496,0.743505004430746,0.178053440842214
0.0533562954671813,0.570289820103713,0.848694829745019,0.683525569000308,0.0229853188618084,-0.163825456572006
0.878628451308361,0.10141613309964,0.0919779890689141,0.0134615195218102,0.296992218283516,1
0.218677456760888,0.475936890429902,0.489999961100703,0.809392790042293,0.19286060921138,-0.268268402072512
0.120023702042284,0.653404478995046,0.362809692003073,0.185183020037786,0.81146134888211,0.433585966556943
0.0838828000458849,0.341553745770843,0.778696253472647,0.242677463035046,0.704583308906843,0.204513687066785
0.263025159222907,0.267586521804558,0.810896120374648,0.473443954893262,0.328966998280958,0.300536561452694
0.458840435764269,0.343106810515467,0.0727597848121984,0.719125159804616,0.615813376803644,-0.534228389217516
0.412654738774796,0.538128232626124,0.266518078381958,0.613075439939,0.34125285994265,-0.067118103949128
0.0587552910073811,0.223117456281,0.672826882282344,0.58202621115851,0.636477820045472,-0.0883332737635523
0.3528546037168,0.946342424341392,0.0112734944142693,0.478096601170874,0.703676171562576,-0.999999967092439
0.54878483516916,0.61395881911679,0.0787778861983334,0.470579764529171,0.439484824099811,0.201991411143764
0.574562222282677,0.499313487518509,0.03042880052561,0.143846933924502,0.991024477572342,-0.781498629693871
0.0141668080908223,0.254570068588211,0.158897164467868,0.122001042885256,0.413926202463407,1
0.0336470666976093,0.113212902560285,0.0218486742974443,0.251681894947749,0.907542570120566,1
0.343221044549063,0.252355021344567,0.0112504126102167,0.860310483340948,0.696500405987118,0.0410003117702238
0.648462897728892,0.358226412668765,0.00380780464233384,0.787213785223336,0.410049478558044,-0.514437125653656
0.196056257345939,0.314689050331971,0.179469848331931,0.597419381041821,0.857820172281167,0.281137052164693
0.756786517534575,0.228921125642437,0.368860160242165,0.209602977896197,0.591921654288106,0.142416137552843
0.289429473883538,0.985745761369348,0.817158142613133,0.612835597731905,0.731539656562522,-1
0.259082725555932,0.0361172107232098,0.0100636057447075,0.779239535468547,0.649503401112159,0.99999999999979
0.143462021475892,0.440656466237479,0.649589363526922,0.603052216641543,0.823575120204616,-1
0.152402613010808,0.412233405379078,0.0189700816523293,0.187475548769152,0.0442566588877931,1
0.0292108957041091,0.14826114221699,0.0092917279812772,0.64580219260363,0.485625961176573,1
0.381636469561037,0.152553060640671,0.132807597225821,0.867147052407271,0.563970324988963,0.755320082883299
0.461800593798306,0.214927219740745,0.00122410350988028,0.627731574273714,0.777034392103397,0.84574394167113
0.347133835211957,0.851608440431385,0.0420811076521482,0.979340286949621,0.883482145418541,-1
0.486636510451104,0.205788933926661,0.00298264135130702,0.858015783370152,0.571212407874519,0.52432709663007
0.350096460168363,0.881119500672648,0.300188000991851,0.582338294467703,0.00826445729095483,0.551491865404492
0.198166727060193,0.895288082720028,0.646066089128468,0.869577654427878,0.980391067702034,-1
0.0796004437618686,0.735912536972986,0.328078679382064,0.584805979445838,0.447177995307296,-0.120174322393586
0.302262393105189,0.441860337843337,0.3365341512435,0.273660442221901,0.841449299015324,-0.37858268485735
0.658006736377462,0.00650419806028815,0.286142763211199,0.373076158814668,0.822603871279896,0.269951800347124
0.70495639313817,0.00824856212343743,0.0617282953846077,0.303844553530152,0.684985797999591,0.999999999991941
0.207149882466386,0.0154934383308384,0.520865331050083,0.0616781848939489,0.937885668568142,0.999999999999346
0.0530517759822075,0.706008840974177,0.694626377380115,0.203087669763465,0.482849573354037,0.353712148372104
0.5014909543362,0.993239162432706,0.122585228541813,0.906545275006617,0.457330234018693,-1
0.236084826008999,0.827967282787801,0.411270017412091,0.0363169562810303,0.0154613789715627,1
0.833733838595316,0.254377587762765,0.059084942994441,0.912249445115403,0.978805478554076,-1
0.0100674340697562,0.418154396811647,0.309610969336732,0.927406317369791,0.446475423032299,0.648957198019662
