"","","","","","y"
0.551552963268477,0.459147532400675,0.698318692983594,0.0357679812586866,0.858040724892635,-0.999999999999866
0.00760844529140741,0.753673434094526,0.90752366859233,0.274704299634323,0.517791115446016,-0.999999427023294
0.83521207581507,0.581835710536689,0.0104326522909105,0.51008399692364,0.418755964469165,-0.998711507702976
0.477041443320923,0.0433409121003933,0.761896493961103,0.122182041266933,0.594241197872907,0.995634305467299
0.37093190170126,0.321196436474565,0.562400017899927,0.711042019119486,0.0741427030065097,0.96879696859406
0.633110700233374,0.0561354312580079,0.266708587063476,0.460992614529096,0.396383606642485,0.999999997981437
0.408955800917465,0.850967981480062,0.37677599536255,0.187555379874539,0.611218173417728,-0.999994928314245
0.281586129125208,0.397988750657532,0.539658675703686,0.928383803809993,0.494708040123805,-0.999999999999999
0.189773247321136,0.804480575991329,0.824657805857714,0.671716064075008,0.0344359337352216,-0.99999999881454
0.986799110285938,0.98194441733649,0.317630846984684,0.227240846236236,0.168787587981205,-1
0.093611849413719,0.122037898132112,0.114268791361246,0.612920354621019,0.335486844775733,1
0.85364330051234,0.274750632850919,0.186916257289704,0.864196422102395,0.932670377090108,-1
0.76234500472201,0.650511809496675,0.993943023204338,0.0880997050087899,0.232205539534334,-1
0.695020114735235,0.41523841713788,0.223543072515167,0.963192108541261,0.139934971218463,-0.999995492584167
0.947833464643918,0.195120124623645,0.470588325010613,0.4008132593357,0.95844026269624,-1
0.702181834471412,0.225752729666419,0.448524057783652,0.752517309074756,0.836264881910756,-1
0.539261707034893,0.536251963814721,0.857261302019469,0.596414503140841,0.707587868929841,-1
0.306329806474969,0.943226819462143,0.73283364251256,0.313481870410033,0.660952533443924,-1
0.11823577695759,0.725962469272781,0.626713142951485,0.385754751239438,0.262903348868713,0.575863581187757
0.224215976684354,0.631009175442159,0.0938801192562096,0.811010957567487,0.757995470345486,-0.999999997541946
0.064603063822591,0.466675497591861,0.464722104249469,0.031662336532725,0.377934282425902,1
0.0847323056282568,0.931338404756354,0.041003029122523,0.545864961407592,0.0311921837141272,1
0.281150849303638,0.695686507899364,0.0197362780056332,0.310826842482555,0.500669322161286,0.999999998839374
0.401799499179537,0.473966076634289,0.166919931522142,0.689403010657659,0.441258435515656,-0.090261371567972
0.820705139425061,0.0297284601293504,0.758506877108095,0.572679216035622,0.138684626745284,-0.990874527939023
0.0243026940498556,0.325348509039051,0.0711714437272266,0.181358549263731,0.887776454238438,1
0.5315452808136,0.470058933366389,0.373416414359746,0.525915254040877,0.441557791996897,-0.997153846703898
0.44528706041417,0.537891520130611,0.337646833279971,0.417119671977669,0.248333025961188,0.997796183676949
0.237881536399647,0.979691994705186,0.422730895008964,0.0522976517496045,0.282396318863363,0.998856932850389
0.0364525323426694,0.0700650911357114,0.184076973932279,0.957472459196711,0.968172743731471,-0.59981113443367
0.538999416536494,0.0184283957781467,0.101518571679842,0.530821579883874,0.891572115216336,0.852394194210687
0.668010357627145,0.340168215815863,0.377102534142237,0.0193472535472257,0.691433228367754,0.769163906399495
0.189065695901301,0.375799022354608,0.436066930123138,0.977745087003335,0.0888367767881538,0.907563880058554
0.502765424461164,0.306484052677757,0.345008619112716,0.340954654511525,0.767774199437136,-0.89786904743227
0.536559452545223,0.588468383406211,0.439882498482868,0.58603766066509,0.184532002316581,-0.995828026979871
0.403177552084294,0.480588290165499,0.647206715104993,0.180097747880707,0.428943019925946,0.34896311798798
0.617377552980127,0.633239306566421,0.0159214751030138,0.135580484951667,0.599156358353546,0.994996162753068
0.504914645116231,0.742508920422913,0.0831007334604958,0.423434681594863,0.412759481170803,-0.000701334032815581
0.44989607462215,0.151276327184713,0.22310667572261,0.712986070974453,0.594635860582541,0.444804505617438
0.328755602353838,0.516679370409339,0.424481335343882,0.664073997558864,0.286761938262349,-0.641309239340456
0.539418669596419,0.233508077249034,0.561689184249557,0.42881814881212,0.345658824365005,0.671460128888906
0.0132170957568827,0.899873960944912,0.405751072636775,0.258912137791144,0.542532632875738,0.568771250517155
0.503110085441123,0.736592097870677,0.423645630704005,0.275058159730641,0.320701688077669,-0.883299789599431
0.103231251632959,0.0254521383962918,0.926611732163371,0.709948956046881,0.440494334099255,-0.492713963987122
0.685739322372114,0.970813088189112,0.65459182943745,0.778589972056414,0.572013684133238,-1
0.54587829760337,0.0664730112214349,0.543961053293257,0.524856952806193,0.549606793747837,-0.723393108933952
0.212471376348234,0.291362710817806,0.265176361016528,0.833419788862166,0.539972622724532,0.319492323188404
0.307344003215395,0.523393350859293,0.44343104346793,0.33360268805264,0.474250644153995,0.849131982410193
0.56724593869832,0.536222942660875,0.373455112818395,0.572856470552978,0.133512516437796,-0.222177572178434
0.809535796338403,0.161010148901568,0.015782382816782,0.697781942350246,0.514423106995168,-0.411351809541955
0.175211022110771,0.023508743345357,0.589999123141745,0.429830084400887,0.0273348558210537,1
0.547288947167091,0.424733645133459,0.0374892073481207,0.203087267389131,0.0244570918502483,1
0.979412740382983,0.294132733479965,0.338952597639102,0.160905005880506,0.343179247599228,0.604652376175054
0.744904909589612,0.652390083104403,0.479458336750642,0.0109578092484472,0.320375054451304,-0.517889827170971
0.585923704720075,0.173341347234325,0.429704380600422,0.657624830334352,0.315564760323853,0.0609764951311154
0.448151678156441,0.478333272570146,0.430091218197326,0.492594570184543,0.330182371176003,-0.170463520146221
0.473534107884931,0.541656266759727,0.507264063098914,0.0775647513903883,0.547990747246878,0.248464408301495
0.708547833968619,0.165895071416552,0.459868265184965,0.281516187894276,0.588880722821075,-0.481451336500258
0.539451884047202,0.801546077827296,0.535082768223685,0.193750164416563,0.0148456494392874,0.835901448851206
0.456662957768224,0.0361772114082087,0.980619144991573,0.302127670909656,0.198993881443242,0.99888510819134
0.933316406865216,0.160923014227023,0.0260816700714961,0.0368090003611959,0.817529511783348,0.998879844585636
0.980361134178193,0.412843809442472,0.0644157718640334,0.466646059377239,0.098863931441755,0.985144635441267
0.377769859416081,0.541540705658891,0.277578235240874,0.735522605953615,0.186916136989424,0.578239994429849
0.381072623190326,0.0427823046084824,0.347294676338823,0.392731626500098,0.986004055475108,0.22419456125811
0.521591814019819,0.48563440739514,0.980432590931722,0.774728301574581,0.359230122327077,-1
0.0228757904802336,0.837410890833245,0.63899110496405,0.933879195703699,0.687597931844328,-1
0.735231558330573,0.320231565005656,0.193416481242337,0.560997652344592,0.312917314385037,0.543446609213746
0.0198651291497094,0.133771876931148,0.745722437814194,0.227038489147511,0.86784124460541,0.996568603804987
0.0434268066361704,0.806865985398857,0.617061825290917,0.0212844967671583,0.924421478802124,-0.999971033587475
0.624323559616519,0.0705304163048754,0.609067592432741,0.0283191950631777,0.981921858837011,-0.987688554809656
0.996554457127125,0.409111223621061,0.241910083587965,0.258455764745529,0.479328755802942,-0.999793846252084
0.0691126564546191,0.480957587587865,0.251356584312964,0.625925609023965,0.696593679635199,0.531542919691957
0.55811866568906,0.242578693845007,0.124817349035018,0.35691627717716,0.852451478692814,0.410386220376102
0.309864881994812,0.972355379135737,0.0693697591289807,0.276272228371673,0.817837659522852,-0.999997813238331
0.00293845905317277,0.435434272071768,0.451525359136879,0.464486562169021,0.870642431741947,-0.678025814016116
0.881701904775763,0.340992578622411,0.0920065069789205,0.421795736017074,0.440303097479569,-0.136535253921066
0.0133198329767502,0.793377413485015,0.118438285533391,0.572487095455688,0.678119833425295,-0.122407086687196
0.279936394107049,0.708911538472844,0.450133036744438,0.350826185707877,0.416394737609365,-0.497738082656016
0.686748474205953,0.187403590486578,0.740497621556159,0.212385472360781,0.414871058672001,-0.798347444305262
0.0162907772016303,0.396744674570087,0.018679190141528,0.204922085967074,0.238143538674374,1
0.623976726996735,0.393171198931288,0.490657940071309,0.690293108442343,0.00972124332294466,-0.515072249171348
0.393735248086305,0.815918455065111,0.330219714440845,0.113991341827181,0.592567507235153,-0.824157397359983
0.929812737508744,0.971587610833713,0.502107023458093,0.23613696370997,0.953367335583155,-1
0.247673659510467,0.321413071518357,0.525732508708422,0.804102275400121,0.320819402500768,-0.632252101548317
0.47392647957399,0.225573834371785,0.589519395074431,0.128934935799177,0.793542075668809,-0.553218233337157
0.347757357632325,0.603242331225113,0.42607251367392,0.523222478850425,0.26430686500127,0.0279571413371671
0.0185597716561997,0.55916133974671,0.533125967866387,0.237964089128815,0.768500892951612,0.597730801165339
0.533404340083501,0.0496150785452234,0.438407829128207,0.343317335008229,0.733288271298614,0.755881587696422
0.898994489036616,0.301173395050153,0.281534719736742,0.40691323906676,0.302212828908969,-0.318225466465108
0.421745685073613,0.510801439336201,0.309850987557409,0.0951399182616119,0.832839842934525,-0.0502185751250684
0.201199935129428,0.839190097774049,0.122899859647966,0.397966324517252,0.49718518547835,0.933737478894096
0.472262742561594,0.570099758152298,0.279763890800791,0.570729016900312,0.267885266398575,0.0801061366714975
0.212302124535732,0.624163607970078,0.632112693570776,0.185912515829498,0.55035209857338,-0.482933905659711
0.322247503965337,0.425284508001326,0.312809301794101,0.574171964997637,0.00363084302993055,1
0.453723757940688,0.515750066893929,0.757318245880372,0.357805561901702,0.163927787847424,-0.835224750073912
0.537461824056689,0.390432708499814,0.667901040596981,0.0528315113964599,0.560786443002349,-0.531816806920216
0.0820387216059165,0.268181060613942,0.393345483435666,0.346918104692775,0.992684319537051,0.843524271978583
0.219223064461147,0.411115968138034,0.332736817070622,0.104207971465022,0.0136543083642173,1
0.810257782234801,0.622232636763154,0.620066931119655,0.393085027999541,0.650490574446625,-1
0.359907960497915,0.931879954099758,0.890340918278989,0.460767923979768,0.978678542972067,-1
0.00126066610006389,0.643333335604053,0.427006071073077,0.490441438199599,0.598094727272974,0.0882449155293188
0.284837366260863,0.598478063117353,0.171368197850777,0.560174666381632,0.555876647522146,-0.0550429419955967
0.350665875379663,0.248373388214794,0.375561020117772,0.502087864082231,0.702090206073879,-0.162851428080222
0.670578042120296,0.845980318080629,0.555254112491626,0.0114469235331928,0.148117123181105,-0.727866512955517
0.489963059544881,0.0435748850141028,0.640297533522057,0.361529728320157,0.645772390721363,-0.193992498097937
0.201939181249493,0.665075184620278,0.321799949668627,0.154335103936695,0.803990639280784,0.259640660623502
0.494612970914687,0.79619557050269,0.441458530781112,0.474882251542298,0.00517965196385572,-0.561610159756437
0.987589920633788,0.603832632480025,0.467930204592834,0.0797630379666211,0.0278604970598881,-0.00419248794371507
0.986544960135473,0.546720084231399,0.423013005302745,0.640188356880721,0.370998079204054,-1
0.48231321745618,0.626842010009315,0.658921161525747,0.143810406545613,0.227662233725666,0.354628453782687
0.687038295569177,0.686667479067438,0.225292901256476,0.274977126853826,0.277639478000066,0.201609375369886
0.551201119351405,0.099755032958822,0.583176184883917,0.210966570558658,0.722941086203296,-0.0185939235251984
0.836423242950899,0.440624089620803,0.14451650556157,0.440235635097188,0.308448769114093,-0.0484666604069577
0.471357319378488,0.00762066965481292,0.191394922990836,0.397982292298803,0.480625073158848,1
0.472579850809633,0.725515151252403,0.470373300254853,0.112280020081979,0.381948924933339,0.0537074988371578
0.531835481625974,0.594711987724338,0.450536382212681,0.318732848039982,0.263461148304938,0.0997871052528065
0.422208509099478,0.882532840186557,0.430427312663114,0.360958656571217,0.0894728876161767,-0.252026657573659
0.561957268617046,0.202720471187476,0.368678269122795,0.474536955792737,0.556473162537995,0.0311426572472033
0.459578454806899,0.150156480313438,0.981824973848079,0.0534128795355739,0.621070973251977,-0.908297622038617
0.693566422264342,0.697521429714022,0.452259117587991,0.148271318343105,0.175383158406098,-0.00453307618983323
0.00890474239541764,0.279135848752792,0.460410820539434,0.853138944614732,0.488225578298697,0.807834658320462
0.646691534985007,0.123489897986322,0.760382951517352,0.237282047664845,0.38517349759744,0.183145703730993
0.734561577964594,0.0849917507602327,0.343635310010288,0.390905500858953,0.655983065730384,-0.538695965786924
0.341568823787768,0.760640031296641,0.240178157645945,0.109364572714215,0.0099963405194612,1
0.491095006827635,0.352962010806275,0.497659148475573,0.237450433381366,0.588463403298055,-0.0130435199114398
0.356163036139347,0.019223345675917,0.129162077510861,0.0296017720623405,0.662182053039091,1
0.435771892307017,0.0406848420337154,0.564447766682989,0.35758885451352,0.756667658703663,0.154808552212652
0.154622101639691,0.199418421833513,0.452446506853297,0.475932055633628,0.859683100732237,0.323228732239759
0.504779876277427,0.494130436665137,0.641246543486732,0.0326799069175143,0.481054100200879,0.171645583307445
0.512335330450468,0.659795733583314,0.699825916336618,0.116108109292696,0.99392859882174,-1
0.725106791333661,0.206252902632885,0.714702791616173,0.234361642998804,0.285827120616177,0.00562493441772483
0.775371906655425,0.269957248770198,0.466826595454415,0.0630927287257167,0.580499219483201,0.147007065431331
0.222445654696577,0.106059781644995,0.463580717630521,0.390555579183183,0.995932484443721,-0.160144128616648
0.216497500039376,0.131970139754076,0.465102293750708,0.7057225732121,0.65013640186534,-0.0373885816565122
0.453395809190895,0.419334453682224,0.233837521247781,0.428220775064414,0.612467100391379,0.258158507921648
0.142332419627555,0.19148931900204,0.990846039148191,0.274439157855202,0.514138148852835,0.635378629512593
0.443944568512995,0.503408130648917,0.575873814649528,0.0407279712054125,0.327034306979231,0.999997108901092
0.913935938968893,0.118399244220778,0.97548465794415,0.0219216501891253,0.173053447570368,-0.460201092956244
0.235242803793749,0.574208867819578,0.836002267351088,0.0093832743495714,0.514473769099825,-0.0357934756403366
0.532124242368197,0.518268479917839,0.802030394495722,0.975721783048704,0.928897666307694,-1
0.147530046604275,0.0112695806420831,0.210364909137413,0.354682006611542,0.97106174745303,0.999999999999999
0.33770613792832,0.49410662962674,0.357428762304869,0.99084561635238,0.885491229933937,-1
0.58685905646316,0.861698489828546,0.00908715525260224,0.327566747981294,0.398265541182024,-0.22457087062639
0.00332570407646655,0.584463033658966,0.28288858132147,0.781361999415805,0.568146114299893,-0.636250455295893
0.985824130929884,0.889852684149912,0.228393950052337,0.635002390228429,0.643792847648677,-1
0.517763788631844,0.248927589542329,0.811308275483088,0.223851896708877,0.368830036456338,-0.0543221926335531
0.182246684090733,0.410900776746289,0.210048554452237,0.00959517477482753,0.245628002746689,1
0.289365938898267,0.425772543427498,0.351324680533855,0.0344384919909815,0.622406481386014,0.999999999999947
0.00990703563452691,0.652304920472243,0.489201937971763,0.822521407862009,0.235032732402745,-0.527167495030727
