"","","","","","y"
0.246415015589446,0.73603665609844,0.378722715564072,0.746011887199711,0.29233074785443,-0.999922370089557
0.469928284315392,0.663849029829726,0.975976328749675,0.822766607895028,0.165824154030997,-1
0.00887475759955123,0.575773110426962,0.938718330510892,0.614796234574169,0.622758512338623,-1
0.769646637130063,0.223722445755266,0.0551569252973422,0.379611308884341,0.109307786077261,1
0.706392818212043,0.449094458250329,0.840183873975184,0.0934773128596134,0.814075351762585,-1
0.502110205078498,0.134509016142692,0.888147126336116,0.96118049910292,0.716689711937215,-1
0.16832032041857,0.158868763595819,0.750888111104723,0.942208142729942,0.419071975746192,-0.99999630275415
0.600276228098664,0.605080922879279,0.52174409374129,0.0194933418883011,0.579784274438862,-0.993279906912696
0.820956936350558,0.962433668994345,0.17053753756918,0.894968784903176,0.681785751425195,-1
0.586191966268234,0.925645532284398,0.282235268270597,0.583019564684946,0.984886746446136,-1
0.321913664939348,0.330585042887833,0.591742197063286,0.454023032193072,0.227409509010613,0.999956823713768
0.934813161625061,0.528751083055977,0.465940614975989,0.514337828452699,0.940668926597573,-1
0.684545231517404,0.266848296148237,0.302036388113629,0.695430596929509,0.491767552937381,-0.999996669028011
0.0824447203078307,0.774519662850071,0.408644249907229,0.137518974824343,0.899073241604492,-0.978556955002628
0.261937803972978,0.846366795198992,0.0495756064075977,0.302117775299121,0.515897624718491,0.998794147904458
0.393199883634225,0.873490001191385,0.148312409955543,0.265044542436954,0.354334436624777,0.975229142774961
0.99113946291618,0.0862626265035942,0.60720122664934,0.774245410133153,0.78556239301106,-1
0.854613289935514,0.0408067106967792,0.211122330336366,0.441944983368739,0.0578446211875416,1
0.132468276214786,0.48781949984841,0.718222600186709,0.246581925079226,0.0147266631713137,1
0.417283837578725,0.371378668246325,0.680637929588556,0.1738178360858,0.333429183112457,0.998746551196167
0.266147306039541,0.527573667889616,0.714003350277199,0.509666253837834,0.276079794919739,-0.968597152027821
0.270346991731721,0.633645277185779,0.433429813242401,0.420574236007653,0.280129796049894,0.970846563625844
0.567586447679982,0.130431904127107,0.969482126303948,0.453948033866735,0.113960357878457,-0.756625581030081
0.196260981578692,0.561784981074527,0.648942712285498,0.350492576734838,0.404366198532753,0.0651821687767293
0.315742675195682,0.0358933652727865,0.532428157896935,0.216888647603739,0.626840287178273,0.999999999999905
0.672111488518891,0.814926715988137,0.0141163549500052,0.391047484010239,0.567201861478087,-0.999999323236207
0.257391632875155,0.112897771096748,0.0338017037764046,0.618981493290462,0.517858737461575,1
0.285712381675322,0.403926982237709,0.768801088988432,0.408805552606139,0.264727336738534,0.443981232745034
0.642126421919688,0.18564462218282,0.640175940791722,0.359053703986297,0.455285365688396,-0.950252192406352
0.422199859212573,0.274340540087309,0.37805224099308,0.649766689285239,0.334380524032955,0.93298579531911
0.184563232113767,0.370677783742703,0.726333500162198,0.463295513221342,0.392081828950948,0.385933277676947
0.470274716819956,0.657611687674789,0.33428575795984,0.504176011072321,0.294854797019241,-0.891359610537333
0.515323131501228,0.410448748870892,0.123816798971476,0.0228911951442193,0.65481270918791,0.999999999999911
0.517752710483794,0.349604152550591,0.576776830234366,0.554437559613522,0.199045660526634,-0.400585796332573
0.419696411170043,0.437467201565036,0.499813237389516,0.00980538944640431,0.722490528013043,0.810957871579957
0.0192991990320499,0.396551680579881,0.793109794532367,0.0245118234305576,0.622276399651357,0.999999868289224
0.561548806393783,0.414409277589011,0.143868988178116,0.435356348221849,0.439300574026909,0.996522495989914
0.2608474277634,0.983121172952466,0.274122809291256,0.422906002736781,0.600488029615135,-0.999999999799406
0.505373737781108,0.379648644438395,0.307851464410729,0.723257648070257,0.410109897768719,-0.993232484415512
0.825135575485371,0.171596418564645,0.025718345393411,0.46238333475954,0.726822822907895,-0.554836371479679
0.356754287135691,0.676167417386123,0.312952799284728,0.152455446556528,0.662091067929656,0.0844114334973021
0.427720617095493,0.39600795251029,0.672681199032112,0.241657055389049,0.52028807601003,-0.880292125855766
0.647285333407907,0.185866448409047,0.309225025118363,0.435176269144946,0.466310203987733,0.962843705520582
0.0675588556231667,0.133111222825641,0.298242595457804,0.0225971016909641,0.373477675461604,1
0.707751725677811,0.34135180599419,0.736270851913004,0.587510227071618,0.646350983837971,-1
0.569617100173777,0.474987410732305,0.103926243256668,0.418946570018543,0.648480575251419,-0.597126299974388
0.564463422733992,0.375664751135011,0.329007409002507,0.557972405508734,0.383564781044436,-0.544820732247901
0.41991929099708,0.680103601683212,0.419909041329468,0.516337394609831,0.0187304757551756,0.941914155043599
0.419379417627444,0.317810015660258,0.597626984712794,0.45370559228142,0.354748494036596,0.308666490848565
0.447820274545885,0.563820422537545,0.403160441906414,0.29561873985595,0.462741430912432,-0.0877633129328271
0.971299897243017,0.294393519037626,0.12877070992545,0.0722428122550355,0.425919277768452,0.999996690624435
0.584079214861199,0.400143636599469,0.0169868242508673,0.838929933979741,0.182140037007955,0.985727425552347
0.802577483121003,0.647199709287097,0.350673314742174,0.790524644289736,0.0221265007881373,-0.999999999999964
0.493347116982786,0.426603602691254,0.514543654462709,0.195928105301742,0.514173949412426,0.292000637116415
0.32225030057713,0.198749224048191,0.539908343947851,0.654301990669777,0.513775406507154,-0.709753809058098
0.365212395925645,0.546637573734949,0.621425347579406,0.00569613684898439,0.741437431953349,-0.946426542336376
0.646732299870974,0.262348264145541,0.444515044228703,0.202308533485105,0.628572272219774,-0.237531979332251
0.375495505662063,0.658984609073447,0.272151626459041,0.554691206361396,0.264013913067531,0.516940380732566
0.355509713607286,0.281379936502228,0.285692141005402,0.426787465852968,0.237486734698387,1
0.672145536486369,0.377910891912471,0.0860926206385258,0.872063229539747,0.973938329025037,-1
0.647073548912978,0.723895320786419,0.458453266877762,0.556460356482745,0.607967441659667,-1
0.269026355769864,0.191993477197258,0.1062576451786,0.290694791158014,0.973450466089146,0.99999998724225
0.661777100806787,0.228709929473541,0.534494311196735,0.342574154862688,0.26424741102699,0.977904018533166
0.654354119514418,0.518849895005924,0.381646204815826,0.374224726496319,0.267610456132809,-0.389552532946532
0.521343756487916,0.96620686110864,0.702170386100507,0.194746501657811,0.0441983746619853,-0.999991262754266
0.559824163409571,0.131877642315835,0.341380467130384,0.526996190933603,0.606194975175615,0.00532447983862472
0.787552718835958,0.403114517463501,0.146078673070335,0.465206696854734,0.390524300326202,-0.338624079435875
0.334952354331944,0.485049561494158,0.0196915041907364,0.366137600079966,0.0207598082185354,1
0.608591329414825,0.568007638084525,0.146972071527326,0.559337061714456,0.246267884139693,0.475378670210333
0.105909430852249,0.22790794512122,0.545414162867309,0.906140702847989,0.974118179902724,-1
0.317217981001496,0.305984585900257,0.496336624990647,0.278480453882363,0.759770828191094,0.119735549036721
0.692612388275461,0.0583077714052549,0.706506685879541,0.971796126067161,0.0755447528494062,-0.999999990406602
0.890537034026124,0.970595475448295,0.811644746123858,0.627509919001726,0.843912848344505,-1
0.136759815107097,0.3303588023813,0.531908834176684,0.496050603726627,0.547443522108038,0.964866123317303
0.386649183409455,0.276740836906809,0.472694777326811,0.494584539500421,0.527583001177156,0.113548614652282
0.142411668826356,0.324099244860805,0.490964603213534,0.641789260388873,0.533269304794192,0.437578941293536
0.413803235922045,0.390906949855699,0.336429781247851,0.192599427466502,0.36071063025429,0.999999999999999
0.147421048896826,0.30262618173905,0.632967064303499,0.709214489156229,0.601739483566154,-0.999885417370778
0.682819903383757,0.242510029590062,0.558175933115522,0.592537583678097,0.122128217376194,-0.407113345553208
0.100631655981631,0.330289955945074,0.240189276814844,0.981045443200957,0.429624077550356,0.850293107620703
0.157432662854396,0.0158695096973707,0.37189149454571,0.744129960445764,0.260069528808959,1
0.458595041969067,0.974084191941309,0.0554812322807385,0.714515323769148,0.10518643434019,-0.983432508430096
0.509735845867574,0.515021477810236,0.298291062549605,0.802191477652762,0.13889204638187,-0.901880620884458
0.371640682338371,0.983190912995322,0.798549583687827,0.580320826268958,0.450057496087227,-1
0.128337638391867,0.704630113463223,0.295138558637737,0.0219021534188984,0.0271724441255864,1
0.606559996990338,0.933766770405449,0.720826803136656,0.0214549210046359,0.709552810043509,-1
0.143865085819321,0.502645382448408,0.617913299322898,0.515953747950574,0.402482491466558,-0.216537860668585
0.466133503516912,0.568952807747385,0.57919062372432,0.38720504538352,0.189848990851467,-0.324467482411823
0.626457522658262,0.535602079529189,0.398689634346363,0.00291775319477192,0.62078508479592,-0.237217104933137
0.563758721404375,0.513301058089587,0.241271770648944,0.747349184306419,0.0907749299310157,0.137573730044243
0.267455893320698,0.338404483872375,0.403005816928673,0.810892266752396,0.312394816729127,0.441930685877217
0.200643744412991,0.83947596356145,0.629155379918146,0.00800268748672492,0.453628771571419,0.456062383562775
0.114085743985031,0.370194061971057,0.614288437306444,0.294831785849882,0.39208143013497,0.999999999901299
0.0513542423678639,0.756885895422897,0.975627529824972,0.129971654265338,0.284669024638816,-0.411058952695581
0.1496606798595,0.20864975075802,0.0202351081855137,0.831109321406688,0.883111217942761,0.79020690469168
0.188818763692347,0.410364066017453,0.371879306130805,0.229806338661984,0.177617459301733,1
0.18509948629378,0.607434396482258,0.639653218069709,0.428126617390056,0.258403086350125,0.584203876095749
0.731170793087429,0.928718650730717,0.246870338310211,0.0188907252272935,0.37348452617016,-0.975427809933678
0.0852367055803538,0.831451909457364,0.657817782969271,0.632466061845932,0.0172547404807149,-0.671348980398126
0.209993357254704,0.397030067475984,0.709331930628381,0.0175000173664232,0.0910355684069565,1
0.968464832748359,0.544261905132306,0.945616438130247,0.753559915695331,0.0956464192800967,-1
0.156151458036169,0.250416714336175,0.584158934584391,0.666114661611463,0.458945940662414,0.612106900192395
0.506739113979181,0.237459686320033,0.194276555140747,0.804718450202218,0.520726771204019,-0.90114980094227
0.177778472769549,0.338859111114605,0.344642065723805,0.514288917418045,0.837132206420735,-0.565329649822885
0.61704111517032,0.739745570699466,0.683884764890736,0.740534498942426,0.577706233914135,-1
0.153610186526124,0.402012868275869,0.542328870287467,0.758113387348544,0.339962340439227,-0.381707982967072
0.020437410448886,0.0272195114057192,0.753314310766547,0.218821767074062,0.206716843064874,1
0.215741505873024,0.219538672122454,0.627780685333266,0.608670574165415,0.502075820435189,-0.0964514177908991
0.294825787515963,0.00789549144493713,0.71330804982681,0.7835559406547,0.334931429933315,0.414661163894353
0.381977881914934,0.0767454610773256,0.399278016579978,0.557093218924521,0.0124187110825863,1
0.207015297215253,0.66036536145356,0.0173389575589907,0.408252519776683,0.972515392690281,-0.906466442546634
0.6861845135807,0.221215738866789,0.780243524328219,0.538235864503389,0.588654027352614,-1
0.136058690855184,0.220581149585582,0.310818378049988,0.190355451032846,0.0128109096390637,1
0.0878028095458209,0.0115368694376802,0.291839489225837,0.415540682184099,0.561515325610101,1
0.185997970501768,0.0182228690590237,0.043296759606917,0.52050501894478,0.0238761456236468,1
0.34671804645007,0.613190662734468,0.933621176760989,0.978647879268437,0.730237196500602,-1
0.420163761274039,0.21144281942699,0.807719235990954,0.601503567325871,0.401840782131847,-0.999997185803133
0.108123396805374,0.343965400422405,0.988605041838775,0.272796672417566,0.38257593914734,0.769131796691664
0.0423745454277989,0.267676266692589,0.474081377776826,0.00942352981166387,0.0825104984466512,1
0.476897325997396,0.385080853818952,0.405862797695325,0.314311157007354,0.590220342860717,-0.0771392508856501
0.434694127151393,0.777084586354803,0.985740025671431,0.267337169049104,0.7312609783191,-1
0.0842215536418136,0.491673783442946,0.650763824292752,0.347277195059359,0.58101926621734,0.157536219902953
0.270139285776359,0.716790150899526,0.695789974987192,0.249757513819715,0.272519074434428,-0.484611555289321
0.977869134521994,0.354050928312592,0.0513961676364685,0.895518796405616,0.652639602446104,-1
0.622430706451727,0.110932754907827,0.633128511042318,0.600472728603621,0.193282457485552,0.0867520348015995
0.112146092473326,0.501950095362286,0.762004354325885,0.49800829908113,0.294893337421361,-0.0316158390617138
0.309779004931596,0.657881099539474,0.126382435479518,0.66514548053756,0.416282385693617,-0.118765470935768
0.271310368070115,0.984031692176279,0.950507418326369,0.496504076775273,0.122103381499875,-1
0.133156989144376,0.24164803622879,0.554218429506087,0.985432914685795,0.0970385613803537,0.991545324571223
0.740808447615128,0.326554554953175,0.436459715710803,0.823162171842229,0.699717303878489,-1
0.244123334966195,0.129792491840593,0.653194294407971,0.239370824379562,0.980215213691682,-0.825582488332397
0.0230976058170886,0.135946319102135,0.982283979446393,0.618277532325966,0.649658180416951,-0.999961617519774
0.322714242437766,0.79571678286865,0.768402375068953,0.00743351563561867,0.298828613660856,-0.346216761485034
0.223142935624776,0.10796747264482,0.984351630008697,0.199504797918703,0.640945906842194,0.144809752136503
0.340903709293229,0.791140558840508,0.171771004357752,0.541254369267315,0.324674257049839,-0.0416484843851076
0.275687925822834,0.602696880213182,0.618501615431053,0.390970373862269,0.280224490189734,-0.0191528775612975
0.0373715190748827,0.231937508921372,0.572491163266908,0.33509131316221,0.00827606951404512,1
0.275359175433363,0.507749617725384,0.306890585718285,0.212867929274056,0.831565254086285,0.41564249093812
0.435266898179124,0.740138794425583,0.543677239561221,0.987926630210432,0.3285246531782,-1
0.785556166125588,0.615188187205009,0.54642760975388,0.987975522023317,0.211445723442135,-1
0.932936350114439,0.70006079030788,0.0167390504111183,0.373119796918986,0.0829019274627825,0.698702891384917
0.615192129217299,0.899536532960181,0.00765565164719342,0.336161894293281,0.320433068101252,-0.165514222215683
0.546632225559689,0.0123107675875775,0.370746716427043,0.376154736664892,0.857751627794218,0.0415587040277177
0.547351822211734,0.759718394874368,0.256446567336347,0.335805882356,0.271574626633903,-0.0572358366912907
0.253257334714079,0.53535909691713,0.842787395234049,0.0194325820108099,0.980938023700584,-0.999999999999997
0.676226327866081,0.696055131054525,0.453431844178992,0.796561924873377,0.819079695936661,-1
0.658423023480818,0.633799504051644,0.138020710643528,0.670629324163081,0.121566285611629,-0.656098884587141
0.826531973872065,0.94435652664082,0.00911837865775417,0.37822467504808,0.424697600166064,-0.999999999998385
0.334811053543253,0.415895264465469,0.404198890788982,0.667059875550099,0.0319075225184358,0.999999889342259
