"","","","","","y"
0.681082033843268,0.807177891384345,0.822973336197901,0.454064699064475,0.745006697706412,-1
0.0345562740461901,0.66231970184017,0.720637521066237,0.0540667244698852,0.556513686920516,0.981310034253064
0.561213799065445,0.736659185192548,0.605711914144922,0.697158770274837,0.857736081979237,-1
0.0747532531386241,0.868841169739608,0.536335676407907,0.434836677880958,0.042501812975388,0.999620007921008
0.782951731677167,0.246737348334864,0.687828325876035,0.306911467132159,0.607682801003102,-0.999999999999997
0.213334606366698,0.460378603637218,0.0413341542822309,0.0354388179956004,0.535754258243833,1
0.418314403749537,0.166738904477097,0.387583806633484,0.28526576285949,0.758293142169714,0.989337563170406
0.893111303797923,0.551187080785166,0.913180170929991,0.225549585057888,0.169248198042624,-1
0.269934652536176,0.112156632833648,0.599132177920546,0.600069025089033,0.915043475897983,-0.999999977896267
0.813729555380996,0.602397265250329,0.4157952232752,0.773187203751877,0.100427683908492,-1
0.613976922247093,0.407707475894131,0.336116807034705,0.745459995651618,0.0725806832662784,-0.123737284387524
0.525660399417393,0.0787742849905044,0.107268947106786,0.851155448541977,0.265449768397957,0.99999999065029
0.938156892266125,0.926682789018378,0.25960786138894,0.5933863960905,0.38716711984016,-1
0.479738529748283,0.350117740221322,0.480952799017541,0.362927006825339,0.24446899642935,0.999975191308953
0.380233441817109,0.270936682901811,0.780253550980706,0.1619083954487,0.686184053402394,-0.944522646011492
0.968626897793729,0.528449173714034,0.16294545683777,0.996999718132429,0.309455077396706,-1
0.32075231957715,0.987754538503941,0.05261796816485,0.5484770347015,0.472026952286251,-0.999735739769381
0.19161580252694,0.0243305500713177,0.873568027338479,0.107133745169267,0.847633183433209,0.962193678019859
0.708533497585449,0.303755634196568,0.98024350553751,0.846349230024498,0.954453771817498,-1
0.108134779613465,0.754766014916822,0.224785661301576,0.94927459921455,0.43083416458685,-0.999999678388107
0.966427690637065,0.355818932193509,0.0569459519573265,0.280977409230035,0.669206807491527,-0.994242512829583
0.745771028393804,0.0251369639275072,0.503637531847355,0.215031306914899,0.386750133455814,0.999999165956463
0.14745301022838,0.630846352584469,0.019246848145267,0.570750777563431,0.210088968217342,1
0.615513112854393,0.563971903096339,0.188174474347278,0.499866766713844,0.329204253494605,-0.390088891828711
0.658512829180255,0.42136860137807,0.394735979401734,0.285278508825811,0.42592755245084,-0.254895938508498
0.0491191994414502,0.0277571654366329,0.928117151237729,0.863798118341787,0.378337499512991,-0.827901958307967
0.812123200560094,0.494088491753463,0.184172550999623,0.238581797399727,0.0309443526190551,0.999999999994904
0.48758658060033,0.39855460574499,0.558963151418042,0.162878889785464,0.460062980419337,0.905799548596933
0.594111452550953,0.268107295766604,0.641638797657226,0.453279579987281,0.30984471861836,-0.911320530610347
0.123088357842148,0.699361476247026,0.322556108790934,0.348344400387024,0.966741489106556,-0.99999936280945
0.324547475821391,0.970734037078545,0.0563076444947502,0.860576370158344,0.0292981395092507,-0.795682737016786
0.0172389081317373,0.451826206044019,0.132242153329693,0.536998917859167,0.668319570176934,0.999999999004293
0.332469786999668,0.33595802912882,0.364336756055561,0.625617429586224,0.472326782351239,0.458287561327924
0.580885683133603,0.181616563651018,0.548302865772231,0.226204681125758,0.65929168682596,-0.384979106783499
0.548647512553763,0.682881699356408,0.331072197963516,0.377239884113993,0.303105128431839,-0.804510814270696
0.77209768984153,0.314995887078858,0.225181207630594,0.554700945978447,0.28906447043789,0.143112070805938
0.618176651068524,0.164227177792855,0.390399456890255,0.423235069961265,0.600404354736016,-0.38666324733374
0.013019938409569,0.240199780761902,0.580208908883228,0.50992246935582,0.821760310752125,0.0210566107638877
0.320680119315363,0.602189244346234,0.0121139267305007,0.350382750587761,0.725549075945763,0.99178714173273
0.0190561224717131,0.173487551804725,0.148917432192291,0.542731146496279,0.323463529493745,1
0.196186249497245,0.760159836347658,0.00956134708042738,0.680437138079509,0.48610270061576,0.438572431528323
0.0164582991933726,0.899909638467463,0.183901998307217,0.58423802543316,0.491885997058342,-0.131117108667715
0.518097450078572,0.948824528137136,0.202327081374552,0.0293990154131443,0.356665783787069,0.941204557213186
0.434614236433055,0.293069255477599,0.0202740532385059,0.821337385400236,0.783284123857632,-0.998395227106464
0.263461596467737,0.708964586689514,0.00834246808010436,0.573120338581479,0.754495511789851,-0.983828924209746
0.562757295025679,0.855419933801489,0.388090038913682,0.321475848324562,0.0125731657386677,0.345255520048792
0.845270892453079,0.126543285513748,0.632580992834274,0.879844959373602,0.0244583645451754,-0.999999993543108
0.193471369731915,0.343981182716554,0.610801320615511,0.244440249615031,0.772854310964086,0.0151405814092351
0.0124425412405855,0.310715328473999,0.340397289736572,0.836864236617184,0.679365659452523,-0.176173744257764
0.0715038951989542,0.854448676789243,0.972275511981094,0.644773418194564,0.610875999078556,-1
0.083893872914824,0.981297280429621,0.491393973464922,0.272091834427665,0.650015762712367,-0.999999881151368
0.0717581035027351,0.334554707253443,0.224809238890298,0.981350713655059,0.169275762756268,0.999999999935223
0.0867549361244311,0.260948720155804,0.979436770939607,0.0902321404270885,0.070301073074117,1
0.15498897699174,0.553731666933472,0.179944279263989,0.700385443323019,0.581907398162193,-0.0580525129630737
0.41185725410127,0.736078044337421,0.134258749454327,0.396019371515612,0.399440027027145,0.869110737767139
0.205983984552439,0.490684995400615,0.980974922068012,0.677782816948366,0.0603278351699355,-0.99997633423186
0.297238154902357,0.253641464533121,0.736866731741387,0.362764248440871,0.41033177533355,0.927489224861932
0.367352845025763,0.843336444947044,0.583933742178691,0.321354396549797,0.306980120389112,-0.999986348979711
0.458220666993619,0.189349638118549,0.814294663028199,0.301442727173848,0.409992148086976,-0.0896275322319687
0.789967287128994,0.889812971185242,0.343692667098757,0.418262650449423,0.972517163922478,-1
0.185850737612194,0.0193640610716095,0.179562859373947,0.787509315714251,0.646347673293464,0.999999996501218
0.375366707802641,0.916042792719563,0.017780645041497,0.247929041724388,0.878761555180631,-0.999995092749976
0.340996668423394,0.499637763541225,0.832076298368456,0.278404731771145,0.262227176947213,-0.571707843606995
0.242376774356958,0.162182404604931,0.2009573996312,0.515537937744761,0.981394198086507,0.724205261577563
0.482507312057426,0.259661186117293,0.279184010164136,0.880783635244742,0.521377696253254,-0.999986924697752
0.178407534351733,0.85278014620165,0.262092610699477,0.0127785086806136,0.617642117573343,0.999962646126413
0.208328861027864,0.367230349708938,0.500367956619552,0.829767885498455,0.338746623438423,-0.813126811025589
0.324039511124301,0.0535204308355769,0.229536799323397,0.0224403041846719,0.0717580050380703,1
0.051865503811298,0.789806691487799,0.497941915243168,0.915528929942654,0.970911067884074,-1
0.521144538493802,0.439232150419875,0.583562013798317,0.492229593020827,0.0451975790688715,0.852271731854677
0.615349586663064,0.30385514487317,0.656210996046438,0.341743299830014,0.260916962283666,-0.15352862454189
0.0950435598402766,0.361366835475403,0.612487007901453,0.643139852420277,0.327522935223768,0.96899966648311
0.0431389103765295,0.603998613457853,0.613610858122793,0.569762866822923,0.459913442499719,-0.96429255778819
0.0157035519325731,0.755299582748139,0.448625298652864,0.893677251161592,0.0652722651311942,-0.16019364068159
0.0775811727931121,0.425053858089662,0.444517099406432,0.892455467414771,0.343638662479708,-0.221569564498117
0.298444192459868,0.27611408230134,0.58032072688027,0.781688520385001,0.213923127424249,0.216311978994525
0.315626988916299,0.829418811278539,0.390727433101902,0.534860071364874,0.126621772029242,-0.396310757035159
0.460048808334229,0.430951461523437,0.0126378043101795,0.990228392717761,0.302662773374498,-0.387694092489776
0.303498917535614,0.281616732796159,0.366095177995815,0.248196735621371,0.340973257492981,1
0.381442906850915,0.42193304607449,0.779080565384361,0.55217051457875,0.739104192918203,-1
0.0503464080459739,0.580049854991588,0.311172764382493,0.856310048916053,0.363378751910814,0.0731359304317656
0.696938795344753,0.670485238392149,0.602306815869736,0.718126777543057,0.517897724957971,-1
0.539882229119855,0.953340267755837,0.021310809508493,0.87554617834806,0.832171246636467,-1
0.643222566531385,0.0197629320090708,0.955303859197816,0.260515384601153,0.258044299779997,0.387158702050906
0.00872808676696536,0.829959024854397,0.380074847235697,0.232488394153231,0.672617730905718,0.532354947948574
0.0117561320805535,0.632294098710226,0.479742539622837,0.0624098500982264,0.324190596583091,1
0.230316432139896,0.947890772210709,0.0118518430575779,0.351878542895299,0.295974677357772,0.99999997582993
0.00909399241894043,0.671480199460679,0.827504938141468,0.554201708768641,0.134108681641988,-0.386029205258417
0.0185429958690818,0.2752339829826,0.0732517979818357,0.891880756937857,0.963114750873997,-0.652500211798874
0.378793349888659,0.183900785268827,0.458713511185582,0.873103565923694,0.262137036481649,0.135004168574543
0.195554658500451,0.82380206950286,0.362385005304008,0.263846150952324,0.602239541285707,-0.831594005452332
0.627600773067201,0.924706785965082,0.0142853396263089,0.386163887945676,0.172009472373633,0.522961308174669
0.101617433775689,0.891949992534109,0.327657223962888,0.356563270957106,0.459205920382549,0.385432583441422
0.592733602325604,0.915396263690089,0.694089396943108,0.900006544908475,0.987205577320474,-1
0.205847879485735,0.725342187480943,0.00241576202482885,0.548142670954389,0.678670255251632,0.0844419053414343
0.402134412273815,0.728558929702031,0.381856602291877,0.564906426066864,0.054795525431283,0.440805273307935
0.249895424897834,0.795066421674489,0.466843502273186,0.620534839306449,0.0560991650922797,-0.288241009705421
0.152882926955741,0.978800169235123,0.719073679262179,0.780121558949536,0.0456656386045848,-1
0.0477365626851491,0.400062000065705,0.627772390757741,0.726703708397597,0.38714781346845,-0.300635805527495
0.118862846690864,0.69232887411263,0.197240884503445,0.496992601484847,0.664960708506894,-0.05032725383367
0.647512996063932,0.620238475276896,0.253400166262499,0.534694346254934,0.126660328515558,-0.211922333439086
0.146210524248928,0.992063080947517,0.379930517283005,0.701092743567387,0.607284226432849,-1
0.353411019999164,0.826476522749891,0.625376011910839,0.762781197405162,0.75865177960886,-1
0.481248424502706,0.0125512437126794,0.624755526335071,0.45645217404361,0.881830288119607,-0.999999153652643
0.0790682512621998,0.542942757456088,0.370520703893085,0.394864505475853,0.761209020068719,0.240785616663374
0.211993030555866,0.0116297665041094,0.3312657572365,0.666932528719792,0.940600279910661,0.0574340579414745
0.232790419905742,0.537755261458597,0.477231102348856,0.628009088626603,0.296654513495612,-0.0780544167531289
0.293248732381209,0.78916754935815,0.215962617028495,0.128197620545551,0.0155894688979393,1
0.974484922834568,0.948157249378887,0.376443317351247,0.128189417366296,0.0314344922755241,-0.999999280887106
0.506052188308708,0.83187457275743,0.27566119158518,0.305275400643797,0.258462282957911,-0.143545070943848
0.774151042034352,0.440520807396071,0.345816413829221,0.218489554920372,0.334054386452016,0.637286648597431
0.147985818482554,0.748342848985562,0.266113034585273,0.685994726966419,0.279818136482478,0.485518168937803
0.624523674687116,0.519991255457941,0.188674249286731,0.338502393632239,0.480563683810316,0.193210398917412
0.285579539673909,0.512006208760375,0.317273244880176,0.789295023062818,0.275640246994684,-0.176295369766538
0.874964167578414,0.916000824448491,0.0939176384875123,0.0220951506836657,0.675232662624079,-0.999999999998237
0.353897871871983,0.734883218513658,0.27761302093608,0.661721160645709,0.148805691493749,-0.138151188693062
0.315094468941525,0.0019206331546762,0.742896791450529,0.470890479690937,0.661179618594692,-0.332524504772306
0.158218657467526,0.284025822209898,0.409258872686699,0.580479267311479,0.771849907768183,-0.471780024575471
0.180795973686354,0.0500633987290898,0.517099843486062,0.465750518266199,0.488119918227695,0.999999999999997
0.398915336140586,0.926202089505049,0.974175429190985,0.0868898291256872,0.0796247260963883,-0.99999961572462
0.17698375076933,0.387770966048578,0.843839685674585,0.236813112025062,0.53030662854039,-0.122028155055702
0.461152365499821,0.829573602744607,0.187862871698963,0.152425043514396,0.601850890710191,-0.738740474134585
0.341192174933735,0.755898171602599,0.419302829739327,0.12215042973555,0.483285929966595,0.553289975088712
0.980217020292435,0.757186894373563,0.734426171007531,0.522553019537706,0.688996570233513,-1
0.792558052159733,0.534461175956206,0.00861974207462415,0.580680548552243,0.27239223656999,-0.291683145336887
0.567044228283345,0.502415741686834,0.0491617318946322,0.490833470997332,0.61424857324418,-0.66693132565344
0.50241505306519,0.249512928804556,0.149550242164311,0.55323843150798,0.715814288451554,-0.0522869601446839
0.216152438428989,0.415577613357483,0.0745302998319732,0.614876347851877,0.812692871788447,0.42265292355561
0.533095875596481,0.160079825580801,0.323416790202824,0.444350229387029,0.761024860146513,-0.652006131664448
0.682091103758081,0.275620677479199,0.361430214018168,0.641077691036306,0.726542488138247,-1
0.442569840103731,0.516530979846223,0.00112122576757278,0.657945974293711,0.552396579084112,-0.0527416813349519
0.0486325863851827,0.381804625168896,0.450581745586121,0.626788577727362,0.631392784019656,0.358869946901732
0.356373522248948,0.589141639465713,0.418881840471552,0.36329031213336,0.436279145991721,0.0365494873800938
0.389168352555266,0.0015113831474058,0.614635516015343,0.382364343060957,0.74386020353365,0.448906755175443
0.0158554744652173,0.883365012453901,0.138496914357005,0.605967206109644,0.0384657209356145,1
0.585000333928565,0.00406716972469229,0.579172763678776,0.524408506687026,0.438867599242344,0.449172276521537
0.179429124239036,0.670100753240567,0.640641058556959,0.612210481181139,0.0672512231799429,-0.0401439638730091
0.347348801574969,0.913811063419601,0.122422170006153,0.22381453115489,0.537153662815876,0.292583748028031
0.520444415294195,0.101509723579863,0.810766005955907,0.408042080110271,0.701803993791351,-0.999999999822016
0.830679504754426,0.0201467820740112,0.0918295069448188,0.294235924412028,0.184864112740001,1
0.0126644500865588,0.179154858736835,0.525142413441725,0.107411645402671,0.326621012773374,1
0.666584354235487,0.986401248654723,0.410342143699384,0.941763168607471,0.312875904031904,-1
0.759735761326996,0.926779705157616,0.970763497928994,0.96710738306315,0.52744432393178,-1
0.736504763506418,0.0140780471736175,0.38258714423979,0.56747440963994,0.786013322236443,-0.999999943780843
0.522283366265086,0.0900286544784287,0.319695863575615,0.672427730964867,0.543076735693246,0.254863972176092
0.732537482271635,0.424611541004655,0.243992159857657,0.669283127521291,0.108600121679411,-0.166112409563226
0.763570259358867,0.778716447846522,0.202827056944744,0.17048647062148,0.266723525021896,-0.209537193312613
0.858379526157348,0.474850275472756,0.443473482779781,0.605436072835672,0.730107118849694,-1
0.657093266550955,0.42770841780449,0.163509143395283,0.534287839770219,0.74693557418427,-0.999999999263618
