"","","","","","y"
0.859168717928696,0.0155621295212768,0.506444679154083,0.440510800748598,0.734521706879605,-0.999999999961759
0.249955018470064,0.214597126003355,0.16030029731337,0.723219073121436,0.462897973367944,0.999999998423914
0.950827304483391,0.0672309030778706,0.909193494787905,0.772146157140378,0.944533879228402,-1
0.193557910528034,0.626595198328141,0.0846666645025834,0.033300878724549,0.683709535899106,1
0.609948707930744,0.68654232864501,0.879643834696617,0.35867619572673,0.803609134152066,-1
0.750800625258125,0.425561329640914,0.00574908900307491,0.562496137060225,0.350095323263668,0.778017075362555
0.485304229881149,0.721231064677704,0.355640465021133,0.683381270349491,0.436944987403695,-1
0.698921922990121,0.465941762318835,0.625914512726013,0.878858086373657,0.186314831161872,-1
0.415045982936863,0.359715572395362,0.221053369285073,0.112306193960831,0.765025946393143,0.999999368064656
0.340895297436509,0.955094926489983,0.95835091250483,0.967422261182219,0.552258232049644,-1
0.380549206165597,0.594982123188674,0.33249725587666,0.244026250974275,0.960593877662905,-0.999999995681566
0.807032350776717,0.876243850821629,0.566619795467705,0.0847038964740932,0.219595916813705,-0.999999999951863
0.266213954845443,0.311714480980299,0.806762448698282,0.838442396291066,0.510813918150961,-1
0.523664283554535,0.948004540649708,0.778494425374083,0.634200096607674,0.897542018315289,-1
0.066057383432053,0.279196378192864,0.719771891413256,0.299927009770181,0.0516143433982506,1
0.565023683977779,0.779647036525421,0.253844167699572,0.938438958255574,0.0374829338514246,-0.999999999995486
0.0272033676388673,0.107011540629901,0.409687839623075,0.541940590727609,0.606312507763505,0.999999999999999
0.936751545849256,0.516155192663427,0.47872236717958,0.329347836377565,0.291975830157753,-0.999999999944541
0.112959580321331,0.183979804813862,0.690979877416976,0.470038504467811,0.308622122206725,0.999999999988763
0.74598237501923,0.820216620282736,0.137380053813104,0.19226102976827,0.14453695861157,0.967903445407698
0.414778291827086,0.0181136957600247,0.758359176583615,0.21740306568397,0.66262087275314,0.894520141164099
0.261973771431098,0.371656445755274,0.736132255373061,0.475901271259753,0.497506202053889,-0.997258788728069
0.254777841941719,0.219633722577795,0.518488709083362,0.973577710476238,0.0333561408697816,0.995363239276723
0.713568566889074,0.0682328512240988,0.421108763781402,0.0295889948469716,0.173330603581566,1
0.276817409160294,0.305353765773155,0.683008282451825,0.656124163106451,0.26470459297358,-0.25726747560064
0.844601341609051,0.608151507060508,0.385712027300507,0.312104581454279,0.0173384448603204,-0.0168057701248372
0.0250068449391618,0.0447920184004179,0.0716376733709541,0.18883790623129,0.212244013103502,1
0.600214479477012,0.224905981219911,0.520303435226136,0.267509693812948,0.520830193636516,0.423415377236784
0.283826680217208,0.0212351057928538,0.947379426063046,0.730059772925846,0.292694048388804,-0.9344937545756
0.337880885310489,0.0125941679616355,0.565138487392454,0.815848948936663,0.485986301147706,-0.611203088314093
0.928496571940403,0.495197873765217,0.0240624889426399,0.169035571150719,0.799575231172758,-0.999977404568341
0.492915992159491,0.110114131737453,0.410703580213526,0.416281779038557,0.980219758358551,-0.999964271314531
0.534615517309283,0.416633462395924,0.351785599386008,0.534139153150805,0.342135252584287,-0.169879678319704
0.550622037958514,0.607202437687679,0.176076688507611,0.438446511085806,0.544733648208926,-0.989308434837344
0.587536361698884,0.715569341514743,0.420592213980877,0.35001445259298,0.00941137195070542,0.84374220580906
0.443420113700075,0.4002003375697,0.205547276022309,0.283028291161728,0.775337053809068,0.68439497082022
0.872749762788029,0.0238986359056584,0.342918719408029,0.701386053016755,0.138926272459376,0.859202583821737
0.36871744548546,0.468273409718277,0.544488451271027,0.49991455337161,0.267052791727401,0.24283357975585
0.0287571041892988,0.559430492327138,0.3629255432204,0.934639929010576,0.317335922082864,-0.463495414252439
0.673487681635267,0.416574170901294,0.446353885129882,0.78019928229945,0.00826837246405548,-0.992747602512998
0.561672544310421,0.727843085552105,0.290162646882169,0.297018006499198,0.339822069814618,-0.602453488114448
0.0332978299976703,0.494538706740452,0.752229406242429,0.0638628470208804,0.791321646140885,0.406071019469144
0.969848395094741,0.708703911748961,0.699698848029201,0.891163314084584,0.387902277057176,-1
0.189713284141268,0.189432222452899,0.727566362437904,0.476957862852864,0.528730852567337,0.642910912501689
0.346557988002541,0.358022720634465,0.312396119011679,0.481979542562183,0.703717693060945,-0.458843969133083
0.98079362412469,0.572889192017804,0.263575512783621,0.0400670860214728,0.210681739929677,0.90592980606595
0.748438052610348,0.25083706625393,0.196432929851318,0.973953727571887,0.459100423697268,-0.999999999999996
0.718851633659674,0.194444901587153,0.578027160200915,0.500972035860562,0.0126111548350824,0.993951758506588
0.0127859787377698,0.287459896734593,0.709202781969051,0.65800700664689,0.525920237171119,-0.349646201585306
0.690856003689532,0.391376031205749,0.518211662187794,0.285339501790625,0.247566081792004,0.428208332738705
0.754437125420039,0.611644642974111,0.225277726361527,0.309939434468756,0.313640928331035,-0.5873409279033
0.518019865198036,0.512437204655868,0.478096719215218,0.185123356593096,0.480693642431812,-0.104021603226609
0.0354916075752352,0.964633381211461,0.647398228880511,0.168443717140615,0.315740937396479,0.446999805191412
0.231483162122102,0.554647276220944,0.501819898870913,0.234768602216846,0.578781609497186,0.731232658331986
0.279076817187578,0.19423891041957,0.316731283187482,0.988424787782336,0.374651337630893,0.181784935083225
0.412212116666392,0.46219161714254,0.973532482088072,0.0590409304233822,0.452441182077998,-0.998928715585417
0.772771352367646,0.158695363111596,0.602488588957453,0.0183115872570728,0.642385539755786,-0.365166109892204
0.10634374879595,0.299980062196813,0.0549247792444714,0.486596571389194,0.97387467306104,0.999967738453931
0.686850704519398,0.395001647186503,0.173541092426002,0.108609490120482,0.0151626352017327,1
0.607799186830942,0.301340028086685,0.302370826839282,0.0559119865852264,0.982956007066863,-0.844575367327383
0.138723505822421,0.972575079002369,0.518400407376322,0.0747982206635068,0.939609217589789,-0.999999999999999
0.753221923721366,0.660301047526667,0.506116442121622,0.470144920838846,0.620889689843995,-1
0.348905929491921,0.539264785678235,0.434107997472497,0.122671475966303,0.820033389547566,-0.904782162247468
0.344579882190075,0.692830129166905,0.43686792487602,0.488901988160745,0.281051346729294,-0.811931657310992
0.552269501806808,0.505430941100726,0.361045048873799,0.630563561135852,0.002073629086754,0.94958596104541
0.222083303381306,0.426474493734976,0.603248531629508,0.471255321020609,0.409822384897602,0.433565371259745
0.634509778326188,0.689370858609714,0.3034168987774,0.138745709013446,0.346506643916748,0.641586415262002
0.309342601727191,0.423941540088353,0.275301510135558,0.0105756197412781,0.251415393293152,1
0.485281970538248,0.513982257155796,0.173983957189479,0.213357282842985,0.754829215524318,0.33149518098635
0.25361943429376,0.124970883415125,0.456579825227249,0.160312351137495,0.98781985914761,0.998140467902893
0.317855641422651,0.705488097563098,0.48054002509881,0.154091846932302,0.580227573396596,-0.775257989719093
0.392232105123075,0.445825878975324,0.376564772865749,0.874307371493338,0.128861389330962,-0.614396233690941
0.733165444327679,0.0651007545181519,0.617512040565897,0.529110635756519,0.382769610895473,-0.993707212226623
0.343926320533659,0.206812596641152,0.405951230538349,0.41094163986783,0.00649976574816698,1
0.0500573688552196,0.123496433776562,0.528669106721713,0.975746394220923,0.747592141100187,-0.999988850603825
0.337772284150534,0.797737964347418,0.977313466207087,0.291618967501797,0.128565524425968,-0.999999999493322
0.427889743497437,0.114130846178922,0.428763053153774,0.534218481064302,0.631794740192305,0.387780178015615
0.61338215930532,0.465037869388098,0.672468888322163,0.208544054482905,0.205685077254387,0.0209667247000853
0.736078574081061,0.517740958873771,0.30245546355109,0.185070141843406,0.445321396569758,-0.265698374869768
0.334088856802577,0.753308574837963,0.603820250615068,0.00795124768885749,0.427484453636851,0.502892507651494
0.880679804362157,0.0207805649141775,0.275090360722827,0.0235427711883773,0.72379426581816,0.999962128304576
0.683984558053131,0.105964942389308,0.315315094443859,0.546482367447602,0.583243400096817,-0.753744127689576
0.548875396906203,0.259159824533125,0.233116181938171,0.803964525007663,0.319088786625019,0.033326483296342
0.187349894069253,0.448796834818857,0.81136371388216,0.308059672103814,0.407894855878018,0.0433314017525974
0.727791796906153,0.0826218013905863,0.0192242827794956,0.495887430994314,0.952236100361337,-0.940616098761842
0.306875476374836,0.0888314096380777,0.285045423061966,0.521838126335556,0.992834850640575,-0.374485542353446
0.351335285932157,0.346718641819592,0.71691849367066,0.260447205916786,0.520012485982791,-0.374567605518983
0.801006024746926,0.459356877774575,0.980093727975034,0.291607495416423,0.260951812115151,-1
0.511967349363844,0.809635809036773,0.444328864939906,0.183398725027336,0.242765284703988,-0.333931973356032
0.158525018237563,0.797814087432714,0.0238985357653345,0.289983468600071,0.149317046134574,1
0.438103262629277,0.00553780027427687,0.406342485028885,0.0532429821209324,0.555383021604661,1
0.148152894023309,0.3507320957949,0.432641491312358,0.380525751794592,0.905508731280014,-0.61224996228156
0.381573990781538,0.311832942184132,0.830704382213091,0.343202961247758,0.262001430906886,0.473832245424086
0.348276742604893,0.239467711706767,0.448841286153174,0.852041251133782,0.267774758096324,0.138292828493155
0.146234486742203,0.37474444061651,0.643265366034286,0.381670556965304,0.637961546451738,-0.229758337223166
0.4120888205604,0.213143867500911,0.474277417750504,0.353458175588712,0.724065788396453,-0.13965944270503
0.385256388324192,0.304106409103053,0.20160585599943,0.418892702236208,0.893099041432645,-0.462055998805095
0.935774359635515,0.199267786710504,0.0164272350100515,0.285279141531025,0.354316140201164,0.999999999816052
0.667205576112766,0.276642696353621,0.174558100765271,0.189952040840199,0.833154100770221,0.330533348043458
0.982012567039585,0.558133952007819,0.405809751515656,0.730967624856968,0.974416690455339,-1
0.671630323125496,0.0815633557240726,0.0934453079897722,0.0127171660783629,0.255904660637782,1
0.771360212009884,0.38522986661631,0.586022155793267,0.278694166406451,0.160315487134043,-0.200348784175817
0.631758714931828,0.307247240855392,0.624203760718058,0.318733502249534,0.296527980269885,-0.158777152170802
0.294970428481586,0.4022288611381,0.331475795561656,0.905434638356583,0.225764282855645,0.0917730585801879
0.108598657115153,0.462790496516815,0.079575169295526,0.761723591780774,0.0149947211208429,1
0.677841399181706,0.179457797207306,0.66729434309691,0.234125880201748,0.403097736561834,0.0655909874391793
0.545883456732161,0.173745506690043,0.979916062973189,0.07391257252431,0.857751103684346,-0.999999999999997
0.122301163006332,0.518491896558949,0.699095941767368,0.0120370024819267,0.336513960875699,1
0.592244487907293,0.121160927962808,0.381273559559355,0.333321357630767,0.735097962684385,0.0482881895078879
0.544102561225436,0.562433901592812,0.491292872136379,0.276556366294128,0.297264157954035,-0.0673948271704533
0.291011536005173,0.511070302796766,0.331880097342887,0.216386875139715,0.787327366282641,0.377269991933012
0.137353581643079,0.926685448918273,0.639449393459529,0.714772665341656,0.0209808469768872,-0.999996267650063
0.345770693620017,0.840036068593277,0.374682590313253,0.372040146037906,0.218381010204532,0.210831768838158
0.705703819971221,0.199569788000324,0.45396171269875,0.516238291170478,0.284541962110507,0.0898685881661083
0.493286786524355,0.77476855737732,0.400764515263089,0.00481642659144958,0.495513334263471,-0.0336106075992785
0.398915950416906,0.709309232076616,0.799969362770175,0.00910704089140113,0.284059163790435,-0.443989872918665
0.407332292677118,0.61882003548793,0.355817267770517,0.766263356823311,0.00167601006999928,0.223886688777201
0.27800322753096,0.52565150419237,0.0189540517862257,0.968727504034537,0.408392168323478,-0.425255067969425
0.0142070520915238,0.725860542268941,0.109307676177713,0.594826901313861,0.599625289613719,0.962898957608403
0.045883370762731,0.973855952233243,0.047359630010334,0.809170969527018,0.0856861284400071,0.999487342817109
0.960867181639532,0.929564196535202,0.395162480585448,0.516585710941601,0.0161371306238839,-1
0.331324817717039,0.785528959343975,0.301190208186052,0.714341943385427,0.00278949674463241,0.406951841747058
0.986393386506504,0.637370541279457,0.761229143159096,0.53549469484592,0.704203566108123,-1
0.765505177615829,0.295066247517511,0.280170971629761,0.106970683144167,0.737864423525591,-0.251734698445904
0.547186837392659,0.528188117024234,0.236861734908671,0.0400371476950931,0.373955217989989,0.999999999999923
0.0111614913422998,0.86599420553882,0.540868044334516,0.571226275152856,0.569094999959703,-0.999999999970088
0.473600068838362,0.686164152551401,0.186066525697129,0.604514714789432,0.253560572601153,-0.47259549811702
0.319676236478221,0.671113116743574,0.638736289534155,0.278936616407564,0.252603966292221,0.0757190408270894
0.586981722939137,0.369576190652867,0.879077410841181,0.986687384316185,0.412834496486643,-1
0.186129957251342,0.982569349316685,0.290297692297502,0.976373710925186,0.66785765995316,-1
0.501160945188037,0.223493848313037,0.818529659784043,0.278483870090725,0.350673324970591,-0.0767237507443705
0.304940869030303,0.50814935435281,0.943665424565089,0.987450395884843,0.121148099078458,-1
0.90398138779609,0.239248104390631,0.627373136244238,0.986506732722596,0.437422444264786,-1
0.198070468515188,0.722745189047973,0.918318232107021,0.0108049531687824,0.282762900814208,0.4356577621705
0.776093525233063,0.410007077279786,0.257672446030203,0.066724087446902,0.658397500296087,-0.0301607476274083
0.408223308903193,0.386745621722297,0.325359425120512,0.163042758297643,0.881961022271192,0.0180687303144371
0.326465925763948,0.221673836775627,0.336533448093298,0.012750780414204,0.0399694610399167,1
0.610922939255278,0.565983142297851,0.783651743566674,0.00851624761595342,0.155322511769583,0.52684003689491
0.967483713067075,0.706726271771374,0.732009384920466,0.0244364586144354,0.839975086280449,-1
0.0112810169074784,0.893965242615464,0.535988177818056,0.847771016624114,0.307244063612168,-0.999999999999691
0.40646989343947,0.402176368168992,0.190746134921683,0.853884752402057,0.986319545298621,-1
0.627625423814484,0.370488252762051,0.308668586171614,0.637933491637412,0.217700554355715,0.0575023168042699
0.98452379760724,0.709494011189358,0.289765742103178,0.930264596901799,0.371046530018571,-1
0.640386377446631,0.702564900162427,0.270360508597329,0.516800115601201,0.036363797353333,0.00258580053447655
0.681528491928394,0.504795183604653,0.296314857512701,0.57334952819807,0.105306686897308,0.072638102088501
0.26537042268752,0.0127026038077172,0.522259969091222,0.232249921261389,0.0615166313256323,1
0.462155566678371,0.383675800984167,0.851047314506695,0.213463085760737,0.255500767539743,0.0111588258905482
0.112954186421725,0.774228567691305,0.568186884249275,0.00598769544358759,0.506378647834519,0.9992644290389
0.131409964604776,0.778456948398779,0.383661616956537,0.239038636371777,0.646440877382239,-0.165895319046676
