"","","","","","y"
0.0892599161365069,0.383858496812172,0.370452412869781,0.320442710909992,0.610326758143492,0.999999999972242
0.163199194625486,0.984568442846648,0.937020156660583,0.0281620666966774,0.00715370702091604,0.570590186079688
0.235315324284602,0.204497763724066,0.071888114628382,0.14110378153855,0.333479717501905,1
0.315138334059156,0.896580374566838,0.722429887379985,0.276199396490119,0.862260562367737,-1
0.459896853403188,0.414465540228412,0.0495175101677887,0.408526748174336,0.972588257293683,-0.98110053884329
0.903599119011778,0.651278785092291,0.692820851737633,0.685247851349413,0.481544218386989,-1
0.547741061903071,0.0340920993359759,0.210724063578527,0.976228362543043,0.157056451949757,0.999956288002924
0.0241084839799441,0.913581757515203,0.835454612935428,0.838734797760844,0.799666814447846,-1
0.383744850719813,0.827926685055718,0.622544092149474,0.884404273121618,0.511135141481645,-1
0.876445571705699,0.579514093103353,0.766555498936214,0.943426421808545,0.26520968163386,-1
0.578110468992963,0.188225037686061,0.112274166708812,0.588285612594336,0.683735374337994,0.214485665723907
0.982135069789365,0.107143126567826,0.509228654217441,0.632799898064695,0.0783328453544527,-0.984747649235887
0.82370885477867,0.46482845635619,0.431190378440078,0.362844113993924,0.113618155766744,-0.383647802101448
0.140437526500318,0.309102442208678,0.952277234918438,0.799406960781198,0.909305471461266,-1
0.763658946938813,0.641321849497035,0.554858368204441,0.188670842256397,0.384686501533724,-0.999999999503534
0.731901854660828,0.259836848988198,0.3401309874258,0.453301475243643,0.567936172545888,-0.998443848761504
0.694269096897915,0.50526496845996,0.157600328791887,0.519966363639105,0.841297357750591,-1
0.414406390639488,0.764675583166536,0.864113192074001,0.23480288021965,0.743769555026665,-1
0.618109879409894,0.0602023138315417,0.495383421948645,0.099689691606909,0.406355576124042,1
0.286349290434737,0.746059415000491,0.278839843370952,0.7136763784918,0.238044189894572,-0.897805549117573
0.380658275339132,0.506520741646333,0.548952611064305,0.168811995538029,0.414295302558457,0.987648225635392
0.397006531604557,0.501736335718576,0.312097386105013,0.432759709535236,0.0169870444426779,1
0.0291979799361434,0.9390883328706,0.127666136212743,0.173196671226477,0.528590946822276,0.999999999617218
0.561994091768686,0.597465695536933,0.0192306091601048,0.136798169986072,0.605939364162687,0.999968430559143
0.166927030679395,0.770699691042966,0.590329302853804,0.300924606437023,0.537049015226787,-0.999279362874016
0.369595776453554,0.725279447526784,0.427244485812564,0.207433613655686,0.555470282111945,-0.955418715413901
0.251097464773044,0.737982165275318,0.490551679784835,0.218548110514855,0.343257716363843,0.966431372742723
0.533265832179499,0.621190086560262,0.58645214796259,0.0137624730153141,0.459106876975286,-0.575997099787017
0.963687707834606,0.151418597694052,0.0240743684555803,0.217498533405589,0.719916925610427,0.873623376069567
0.0222131589415949,0.568928904114633,0.527142353237054,0.628078775128333,0.269719396130026,0.989396359188236
0.13669412625152,0.923062076817519,0.88889039008629,0.96645612669032,0.0668458075383631,-1
0.526692501945673,0.497989356752701,0.0143182471013852,0.604023905707184,0.558222305222296,-0.44268622517746
0.380041339371971,0.412493267531088,0.653645777578695,0.549207241301581,0.357475733194435,-0.998421564708535
0.337487850885306,0.707310735493804,0.226308500240431,0.342279474930346,0.471587467429603,0.834366058228066
0.644809369876117,0.350763180473233,0.252464840853418,0.221596181905311,0.621973862118669,0.797264772080435
0.160449183703739,0.587279786445238,0.654362345267328,0.374304519248542,0.457974941756824,-0.749434470480068
0.250073874434406,0.575554143080554,0.308585919138151,0.0202557814088959,0.743055519230228,0.99999506380808
0.369972083171423,0.86271256638197,0.133929840474434,0.0401918524388123,0.974248692997532,-0.999725547063139
0.431851698350845,0.488471116474343,0.584008690338706,0.609854941968317,0.00652751712612332,0.564516836714224
0.548533796785424,0.437559230303516,0.389231911164946,0.501998564624981,0.270127821383027,0.255647651780101
0.325269708976505,0.656204379188703,0.492019357769375,0.154956096761634,0.508705785411091,0.383505022692169
0.615582241778323,0.972545455542148,0.299109309665525,0.131145499726317,0.222081060512913,-0.789566723540403
0.0282817863639914,0.633517565266016,0.0465074455178322,0.892712316935686,0.528404346660651,0.472638059776957
0.944487367253174,0.195820468599011,0.960573381382686,0.282945544071011,0.917185321743261,-1
0.288359505639059,0.886029341968443,0.487410178294839,0.460963949655095,0.0110222361881888,0.42316708363508
0.56190076641537,0.385008489031823,0.525402053724966,0.134510277924245,0.593662076458324,-0.433960106236122
0.470590631286505,0.726384267277175,0.25388378481927,0.00684307553150823,0.591530699735206,0.953730295432769
0.332147262810223,0.100920992658202,0.969558363161676,0.415919630932454,0.0725728375880519,0.999997077568192
0.572808312920808,0.650670111564318,0.412316255312474,0.346397113298658,0.169753803304546,0.197277195985567
0.386273296134144,0.460285155698298,0.265544548052056,0.706307794934046,0.351555141384123,-0.0446505934880055
0.0107837114784867,0.595192936930705,0.406819714719006,0.229005985637293,0.331178992721135,1
0.847347029754372,0.242399393509916,0.0606014112970891,0.493513715747,0.0217182284624812,1
0.0428297283172346,0.0349961669822647,0.104967079737743,0.632667791342692,0.842428115925705,1
0.50387993719892,0.142229206059665,0.25058167452788,0.970331101818008,0.887945968874408,-1
0.219195946920924,0.023513510694041,0.687590300775543,0.137327917017965,0.905015977500295,0.9990076255257
0.568118068344991,0.192068505038025,0.537962031941655,0.529307231512277,0.223653544265628,0.950129394851697
0.976895816129607,0.130593803400889,0.0957382256927404,0.815077074203502,0.393746654512732,-0.999968771807623
0.826325012822077,0.208889466341104,0.955378682606095,0.0291903366274349,0.107694857169622,0.493980010844222
0.0818732599675285,0.642977700199372,0.504041412113538,0.55919962107007,0.533856878727604,-0.991591882231911
0.672593209133387,0.609157004896945,0.658732668261772,0.364638813004282,0.705123919468161,-1
0.697206095402053,0.314073962558658,0.298065943120262,0.739425322310186,0.243235663220997,-0.966587872874387
0.519818256518531,0.728384575145647,0.296772509650389,0.168861779347721,0.471882562581013,-0.253562549096174
0.409318571634925,0.336286689103993,0.0062209701643498,0.6849189102403,0.66976105971543,0.692725169325085
0.260099174657103,0.71365067201388,0.700889589704407,0.498158140926755,0.151166657137475,-0.992401949390002
0.226569853724614,0.797861613608604,0.366850940126267,0.368264865209266,0.354925261987545,0.624255175351229
0.331645410168806,0.74543681721477,0.587553641428523,0.432133387296467,0.617482633230647,-1
0.281056953381722,0.595916899440881,0.73750257889535,0.491970937879418,0.00340173827432264,0.665067341490597
0.517666311074554,0.690548129694586,0.141749472572294,0.295734211071306,0.612229374679271,-0.878557613573672
0.312656192898481,0.739965049543996,0.00683304556932998,0.376819242618005,0.640749111001776,0.871817825640649
0.167821488679641,0.30171671171784,0.596340536917231,0.557620518399375,0.510304718740496,0.422949636084488
0.658698506285014,0.194454426720617,0.490914727856806,0.182261357655172,0.694018289925836,-0.637699725991007
0.002704033801516,0.623336041989427,0.303682576651467,0.553190908954738,0.607348610517864,0.805240535998168
0.679066503924116,0.229708033914124,0.366765132415613,0.66352157869092,0.121754041729906,0.927562308542128
0.48730772231406,0.193302506807464,0.460868791937641,0.408017352070461,0.597444012886023,0.262198452907092
0.320671528976999,0.350156212619318,0.474546370270006,0.319484722448973,0.232027906512976,0.999999999999998
0.594482294912707,0.291197715535959,0.742635653275642,0.889702403808588,0.0128003524812897,-0.999999999358416
0.50395255349445,0.548532825371643,0.0806856209040536,0.340583076577036,0.668617045746397,0.31988709384413
0.555756621515767,0.159986700255873,0.688237041475054,0.208775736534626,0.598135013223302,-0.547054649280179
0.0738885423757651,0.513263227582661,0.48833192655926,0.665034850211567,0.559823237039651,-0.976703805591311
0.651920283173621,0.373698994406275,0.106902928802523,0.41532561230476,0.682293811797729,-0.718611690500043
0.707651785229145,0.394706167726639,0.0637879822680948,0.397854383464952,0.571564665501035,0.402370904195921
0.486920828674927,0.370353130799941,0.282435444478051,0.167677031683462,0.834807277093,0.322092191855717
0.298102379609204,0.577422822505479,0.86160968647134,0.560430461750728,0.00325548885805886,-0.97719416844626
0.202090147699131,0.689422825368069,0.267420131860056,0.893385408038438,0.0200274606446306,0.890551132067003
0.0239969941156474,0.136620226668149,0.674483548529354,0.902613469310122,0.330739912397293,0.904430236004047
0.573284338027876,0.425067018638616,0.66458743814853,0.193069770878897,0.386899047442471,-0.804283372091732
0.390177320518871,0.249866979928904,0.501846585435846,0.708084147441925,0.425559256782209,-0.935331783585192
0.13850231220565,0.45228080462627,0.765753560542731,0.458235438767714,0.351487643824248,0.00550969673111767
0.470710026453974,0.98304160337224,0.593832765751737,0.584998396204355,0.781402677329717,-1
0.664024527472875,0.271485561296697,0.211511079525865,0.298774054924772,0.706124256813942,0.197619941920583
0.314119056103188,0.824718853056391,0.700731315673928,0.578871979254948,0.600770579775666,-1
0.595180785039021,0.981049013248831,0.432735815653497,0.78812542208718,0.337889928448053,-1
0.768512107260397,0.416534356543679,0.459999088220061,0.171506502936095,0.325725512786246,0.321050263846713
0.634038748448854,0.00975200824701243,0.742479989895107,0.310094951708474,0.474625237697973,-0.0585004723294006
0.134836100089088,0.379836985967269,0.378204790150746,0.563211661729087,0.750303408396943,-0.499801414257717
0.0538301926686653,0.704292876193512,0.439067459373705,0.402582613487728,0.569026856313233,-0.0288801709996439
0.172550388399905,0.491087610934611,0.248082042849285,0.677562740500904,0.577865967285777,-0.00652760026383603
0.252939661245935,0.146937648698987,0.770454995699558,0.520497241358265,0.533760692564229,-0.6743904098383
0.549157762132494,0.263203991161987,0.397596987646325,0.780544934954785,0.218660151258047,-0.529213976461017
0.526008557025995,0.578824656164556,0.746259975212981,0.276878126534097,0.103301741437231,-0.727099206384103
0.594920352632694,0.0107779289307874,0.927279823819863,0.210828666486987,0.500510747662,-0.812422250079128
0.845651795617742,0.0125421755079299,0.681503221990918,0.0798157491354717,0.547910236070855,-0.0102433025176806
0.723903724685316,0.0143911058581718,0.580525862073194,0.294852992665846,0.0570631606946913,1
0.653869251374508,0.243223508968244,0.585852044251362,0.147894621502707,0.476447910350873,0.686401806864547
0.538092683612595,0.568823968154869,0.183257474762861,0.182178779197378,0.744966208976281,-0.609990727035946
0.442484082427295,0.989621648450083,0.634171012846037,0.0535840872701342,0.596069130640011,-1
0.72072518534994,0.00884245240712182,0.832787683707553,0.327459190116978,0.138296430875722,0.981295505932148
0.625908046533731,0.360914117414628,0.793920590860318,0.249176901865909,0.641937267427643,-1
0.375260798750587,0.956900994698726,0.0210521149653248,0.66379538489762,0.292828613001747,-0.984888529300934
0.468546978236437,0.904300078690726,0.142871941223214,0.977999252438857,0.722167300639956,-1
0.971761583914321,0.426599866416638,0.281639349208875,0.848024190052859,0.964666241616359,-1
0.429211527088557,0.27592569779268,0.760728139702027,0.275940206523118,0.387316765383088,0.475971822538232
0.336528185380248,0.66447217494749,0.0191459313685037,0.988082414497073,0.299157221204261,-0.983063577880137
0.0505554536050533,0.784275541745217,0.545528405523086,0.383293484989559,0.417556118909239,-0.194930535778726
0.282552705623797,0.253473631700299,0.337259118566314,0.565709581775528,0.0120024702425404,1
0.374428003214612,0.423584056015481,0.788217420170345,0.428391100820232,0.154554050789198,-0.033948966606105
0.232968311725475,0.484689452627152,0.407448173418013,0.99453531562158,0.161399014209203,-0.947739826936816
0.581620041050764,0.41394294341711,0.186209564887795,0.271022456098786,0.709797077091003,0.0551281745011978
0.453166091441857,0.404258368178413,0.243082934270955,0.847329039546262,0.214948681610302,0.0525203588896501
0.0122595307741054,0.21311281305873,0.197101699379248,0.632120012493206,0.352785773580192,1
0.470183872784296,0.100687996748003,0.781686949154513,0.526865987131569,0.331788895613084,-0.55034375867599
0.974660843581211,0.844684900715995,0.678144056502039,0.445378067906211,0.860989533781224,-1
0.0841757944934377,0.776642433847596,0.568385340977451,0.013101558077401,0.729019811101229,-0.0630099262169506
0.393314269851008,0.387124268765209,0.213494190801433,0.514936558903758,0.65771421763805,0.00112604134062311
0.291342176004886,0.922198494476111,0.00864706156890091,0.45428689933551,0.657422995211115,-0.995460331501048
0.321179733428165,0.684101777033619,0.130504790116714,0.528108106930625,0.523982006007523,-0.281108998628699
0.215282752000677,0.336325704052303,0.172427333824639,0.736900753761113,0.709451477809819,-0.05035571547919
0.696518772900031,0.0957229232229551,0.479636652413331,0.63172891752726,0.276533938232271,-0.180874964495394
0.0781721087995723,0.756382541030342,0.400525810406177,0.656187130501469,0.305190679450864,-0.386848669776627
0.350976653966275,0.724266159734062,0.473916260585479,0.0437505120108146,0.604581303848842,-0.399098409280151
0.403513688945686,0.437596978203407,0.777017742133688,0.0720621696536299,0.451416996238225,0.329357868747007
0.559089570458951,0.533134495186294,0.56976125265349,0.195070997033515,0.309847047417373,-0.00320498652844281
0.829742198621717,0.00586427314439484,0.472848945664198,0.578758237420443,0.269013494443946,0.140620808495988
0.981533016939361,0.448774258436378,0.328448809264557,0.177530987056866,0.185883200697514,0.549828326346916
0.654380023762602,0.341100419455054,0.673333206991116,0.410553819266368,0.0668342974459503,0.271634699196787
0.397581261055939,0.709395746805445,0.00436316133881117,0.277226950063339,0.778524784279155,-0.0057578912071844
0.383223156433881,0.751947687335409,0.177444391763798,0.280566086190394,0.588164988361486,-0.196733440560312
0.336476951272379,0.0596481745969866,0.564563736214248,0.527310649614041,0.656877660009612,0.288453575311039
0.660559962129817,0.626550140144776,0.176446120306579,0.118334686357528,0.549933323952713,0.445677695609584
0.412487900876178,0.580940397665701,0.145873526977206,0.707049708186237,0.288949834477568,0.405472603365427
0.191799695709322,0.973679204623366,0.480166130090857,0.00616472471419004,0.58116750432627,-0.739549963337525
0.0383899519555497,0.354425077823247,0.536127530727875,0.205105366971699,0.015127754501491,1
0.472411452675132,0.990166418133523,0.47272729636435,0.613614028456672,0.980878039101892,-1
0.336959620536937,0.417160558930844,0.506429887176749,0.169169433194035,0.738439527242001,-0.02020522079434
0.272365472280994,0.405471112400851,0.54847605202012,0.801062773384164,0.0900374498055025,0.596769043550282
0.524391107139063,0.21105560546997,0.798036546076808,0.499815355346032,0.129474477465549,0.0526828104470984
0.59283806007651,0.384988762649625,0.4700985634721,0.097478327490862,0.620172576043085,0.0147634608761853
0.801321581589475,0.377599297321633,0.372571575282363,0.146554854283786,0.501417127318053,-0.42219692201983
0.589879438456129,0.591570015678667,0.138878971749212,0.0118684302767863,0.3527476470061,1
