"","","","","","y"
0.0372759381425567,0.416720560868271,0.160498894238845,0.198857965471689,0.731849715870339,1
0.346153378428426,0.453886134084314,0.726779004733544,0.000461579428520054,0.786488278815523,-0.98745385307932
0.0708900988218375,0.182942424691282,0.412099562049843,0.299774783290923,0.526001854729839,1
0.212113954615779,0.348361813568044,0.969464786862954,0.71222787873121,0.840946038451511,-1
0.768194446980488,0.0933603743906133,0.934923075686675,0.642223767167889,0.461824050126597,-1
0.836770516843535,0.365332211577334,0.870177767751738,0.651750055421144,0.0849325454677455,-1
0.966525202605408,0.017970392073039,0.357986657577567,0.947052938025445,0.967996863822918,-1
0.141688916925341,0.731465840875171,0.115611586661544,0.376719361706637,0.897763042838778,-0.898797629669046
0.732817918539513,0.971231963217724,0.211134430440143,0.756346936151385,0.333352695254143,-1
0.446807175106369,0.887131894845515,0.515799382864498,0.460108414094429,0.106857947993558,-0.999977973162633
0.6076359928702,0.572460277716164,0.848319982073735,0.424532346823253,0.249699431110639,-1
0.589509482483845,0.274180382792838,0.0341347904293798,0.0773909648298286,0.949000036821235,0.999961203101106
0.879334780783392,0.238670698192436,0.0603294015745632,0.569407929026056,0.443540968815796,-0.323881963091323
0.514789850160014,0.848125527740922,0.750524342712015,0.898895281483419,0.0169208802632056,-1
0.289101191773079,0.92708408460021,0.469194692920428,0.244008972798474,0.668120576883666,-0.999999999999736
0.656825648364611,0.754534370207693,0.656006027152762,0.839079810446128,0.572406845143996,-1
0.377308402385097,0.542733086529188,0.269670717942063,0.997925711981952,0.184408652363345,-0.999508621204158
0.199680373957381,0.689221553492825,0.642264487524517,0.537473410333041,0.363316960574593,-0.999993272185311
0.49180350600509,0.604302501981147,0.33288885045331,0.303173041401897,0.625286198232789,-0.998795321453078
0.940753890224732,0.109199119883124,0.577245795424096,0.134810659149662,0.287403474771418,0.953393831454111
0.266702013900292,0.38526586044142,0.0283679591733962,0.377325234599553,0.0858119718052288,1
0.138555857504151,0.501898191538604,0.627986707995816,0.30738001266817,0.0266337633242772,1
0.161131857380279,0.0932999194873303,0.973425062746577,0.254980456996349,0.467595576787431,0.999757078407106
0.0131703244608341,0.437649653925532,0.569202085349523,0.443555762601244,0.491367956053521,0.999673135713459
0.253966908059745,0.0605424622517534,0.374554008690341,0.445112387285904,0.980315890193917,0.624080247394022
0.627107624592379,0.229128448196035,0.480523926943385,0.445882071442538,0.314919144286104,0.759107293674353
0.216288891373205,0.576707369218234,0.367069494943336,0.35073239786765,0.494292229903356,0.993894117907718
0.0199649701289359,0.395848317494279,0.415399532386454,0.721486265425358,0.727584384551836,-0.946162420750951
0.410117133987599,0.0295998290485177,0.621513551754684,0.695185607485397,0.0533172874685619,0.999999998616248
0.655714694691224,0.0138158290877384,0.914206231836495,0.435379064641033,0.165746595802095,-0.242520326224439
0.3489010179363,0.746481168866379,0.284529591167224,0.427540219536355,0.431033077446455,-0.777079434549991
0.571329959048477,0.258403173464498,0.571152443655225,0.328610584312735,0.576039506071058,-0.981561123245497
0.87488599127662,0.432004254327146,0.257247416598201,0.483042087887227,0.0247008331222866,0.892290296691376
0.549734173743056,0.0971377898140217,0.0171074563489049,0.52921187951003,0.705203387985508,0.99999470448911
0.242792732719697,0.470363730041854,0.234762635838732,0.413363485230543,0.696996493230435,0.934143389319482
0.636880771389014,0.686622369827403,0.256900228977747,0.0339859073705869,0.118173778805779,0.999999999999825
0.981293467044265,0.546242907669098,0.227391612466436,0.342715660032483,0.256387084229795,-0.998525589844963
0.225707615872224,0.581835971283211,0.2926406458092,0.573078367263816,0.448319681596706,0.555792395493046
0.388937052512266,0.513817932404122,0.839553933450655,0.0204268060657376,0.23591471075067,0.995646324028148
0.29583005664401,0.690885877756187,0.134416204235717,0.0186192634435443,0.701283767056872,0.999999967266526
0.353738021210947,0.518751416305741,0.649391174940548,0.328192593011764,0.324316100289099,-0.104270203559126
0.48506589535163,0.442967854457449,0.370276100527837,0.708643056931307,0.00730319250045255,0.990304188527475
0.727500284194845,0.400342716126054,0.493588998256771,0.285089538188543,0.300437069879132,-0.505883941805745
0.49148646484996,0.45527165364348,0.892797775070211,0.44800849697113,0.0106029699121599,-0.974361285565795
0.337477528562201,0.0216657882991809,0.222685321038673,0.967057052319497,0.517876693108489,0.910006483032742
0.624781042932161,0.00352824425798178,0.620313327536485,0.748462407784624,0.434510735992265,-0.999993075488948
0.198922629304087,0.606843504355102,0.403555248237111,0.473357149819814,0.566438387790099,-0.838255134385898
0.15574818347201,0.973872448371358,0.32414871067147,0.0532527945306964,0.181873660757735,1
0.0223522284387543,0.668723778158595,0.97168139454341,0.285463437603509,0.385684953617794,-0.995462302047319
0.713603245693444,0.284627068744761,0.017384865339597,0.849600348616786,0.616463258517757,-0.999999910047496
0.253199083853443,0.16881484176042,0.502419423094125,0.649020129139586,0.671205932837976,-0.814357680265337
0.531203459749827,0.689345688987158,0.382485248511801,0.430859029590947,0.00697944690898919,0.967221951498835
0.699870409486579,0.114804615581786,0.292579698731455,0.98180526795399,0.223184378304616,-0.986508909118111
0.188733618392028,0.648127712723791,0.429696962888915,0.187355096742062,0.695198389180495,0.234232958376238
0.484269893712833,0.00393380227421352,0.425593051794334,0.620566319926522,0.560013644498162,0.780102683398024
0.0913983034093474,0.28669792820319,0.97659382700445,0.443118751075622,0.0188766910222045,0.999999997138934
0.444772728996,0.819838220481198,0.977110580154435,0.0985549182565368,0.53370499294231,-1
0.152797226476504,0.454607960050163,0.425839314632477,0.481356314826434,0.64146525727406,0.142767382581302
0.20631208579502,0.690712952529305,0.921837068848957,0.176876902957901,0.0166590597212113,0.991155964927733
0.115260120842506,0.418148463761856,0.311155481321271,0.018992751679172,0.292953432829216,1
0.486324207568475,0.19818373903242,0.0146155177393257,0.814721646591154,0.861460882189596,-0.999600973449877
0.0954799381802809,0.405273460774956,0.0207596535153612,0.905656947504416,0.645033015255286,0.89108771427283
0.086688606405655,0.371763568472828,0.812627781482228,0.476805425405548,0.48867593341405,-0.764437531705434
0.623610580471805,0.148805070214735,0.249849377570335,0.739053164880898,0.445999681255154,-0.509726491626037
0.0297417003403094,0.152391323412029,0.126232619055563,0.945355028568444,0.0702725580601844,1
0.634868697709784,0.312172877061832,0.251533656786359,0.348813989544848,0.59991786130092,0.257498892267042
0.503062328988217,0.660564274553412,0.563456681158341,0.638235308465281,0.978944667342817,-1
0.0185788809641221,0.761187293166323,0.639440215020648,0.527734713562866,0.0373685362539071,0.998029888593512
0.419482231951871,0.355103706128315,0.405132838453936,0.871301659067418,0.0925678248267276,0.304685778264878
0.976809427489951,0.622149735419592,0.690030826706458,0.132132702345038,0.146232970413603,-0.999999999989532
0.312239939207894,0.808395967606764,0.589039161438231,0.424621189370043,0.061109921983101,-0.374255859989614
0.287076931318947,0.0601712195953282,0.989518406081107,0.623886993828251,0.359348690474182,-0.990736975018235
0.0940971424110263,0.632226495898647,0.356681252772439,0.985511353662022,0.172165573618095,-0.790912589766281
0.218847437240542,0.540159437933682,0.697717425984432,0.210909212575473,0.486495064784517,0.168500196841342
0.73949904339351,0.0209414002279304,0.136421491607703,0.586628804894282,0.0703364344426217,1
0.0202128407325357,0.24539022279642,0.704715622310952,0.25192724614601,0.893106891625306,0.616150174488283
0.261074635654815,0.315454292076028,0.822552638152866,0.537413114183165,0.215689755477625,0.194140966520334
0.47153239472614,0.00459539393565588,0.56609078560864,0.839706040189193,0.309967641632487,-0.331416185348371
0.578333286934807,0.46491943985439,0.57799867189729,0.457169089991286,0.148323542432913,-0.692056497688352
0.40695811702187,0.386914280247152,0.00405012827370415,0.605407366104971,0.798016522425287,-0.443826637143359
0.616662115037431,0.203725098072171,0.684130776737514,0.788125473724081,0.597942029194963,-1
0.449071210366456,0.106969305908017,0.660002483710477,0.611899419108416,0.322966543032817,0.210851975717098
0.583747529191562,0.386539236857194,0.0207207791555385,0.973067483752713,0.0595597174015749,0.984789677894711
0.337291351637198,0.630717429599188,0.867982355668624,0.222341167453117,0.290996541405287,-0.998064009209015
0.868633440619528,0.442209631741551,0.865853058420234,0.97958003705088,0.440209358241891,-1
0.572082115249881,0.523994627476403,0.98685477281994,0.111204510964701,0.182380339755477,-0.99963093115656
0.210004750807063,0.615925137831627,0.48163475546036,0.61303152346483,0.714254047281118,-0.999999999999998
0.708468207990443,0.0267364534014536,0.0151039822943815,0.953036181596734,0.43393565306185,0.382009363095633
0.498603922579629,0.984993934875458,0.239796072886774,0.145393069739409,0.434066336750548,-0.979176225816895
0.481520034990045,0.595015014123951,0.680754545241463,0.164765155057714,0.30059053234538,-0.657881954799953
0.54593576705635,0.95737006590333,0.298885014227741,0.332886466426679,0.0149447505944041,0.222415527104466
0.378053695240288,0.689820497154097,0.543151443703928,0.037550211515937,0.426239864854815,0.880947369115338
0.104918784024703,0.297828425448137,0.357706557846391,0.990316165215712,0.470497796723714,-0.645871333178766
0.616148173630492,0.526646762633694,0.152919512703926,0.338392879648552,0.538868756763203,-0.0852700328054219
0.332894436285973,0.943611800247207,0.0242314037453466,0.679332496012465,0.0592886866917605,0.969264914390966
0.468505354569986,0.0159676544463089,0.931585589883856,0.511088219555026,0.882102959112082,-1
0.531514174806424,0.331825594961444,0.268038252063527,0.878632724094713,0.168837241108645,-0.163774479005559
0.173558915631823,0.00950742957154282,0.814262140834824,0.43727577062779,0.738135942380307,-0.0820935871586683
0.218140910818493,0.504463155446274,0.981886985305379,0.0131977439670131,0.489982030110283,-0.513485778313281
0.23629357419606,0.986166043729568,0.218636744417599,0.101239888827865,0.636911705516479,-0.169072035748234
0.551389248016603,0.120371099185456,0.485710946646205,0.352929855843279,0.705812585244645,-0.599563338779446
0.472627158023394,0.717872581138072,0.389670122071741,0.185401267436983,0.389231631405961,0.159565060825295
0.22475547011732,0.114604610321803,0.0130441732448074,0.213586249994534,0.580579033735654,1
0.760019497410488,0.0813088670774608,0.262447309054528,0.564613088421999,0.505749129056071,-0.100894087163936
0.818297850982389,0.718755774185218,0.0148145128481133,0.664484642340197,0.055333520390926,-0.925290270848311
0.703049670239799,0.56544276779901,0.781230041546484,0.554967757288625,0.522220480701869,-1
0.966105742392709,0.901199341429224,0.219455911559052,0.313924077406439,0.806984795697069,-1
0.26060377931459,0.591283705115993,0.816995589776071,0.131648096530131,0.385885527587228,-0.262502508978663
0.238387531641268,0.769064903841278,0.40297201027506,0.60839775566094,0.147518391356188,0.00441519730583995
0.78809556685742,0.562784612059408,0.384607388586236,0.284637487569137,0.142151863893264,0.0593846650732008
0.78481868534795,0.478005290860025,0.509804905227158,0.25276955688213,0.121544315153085,0.262168142932335
0.19421108883122,0.582788032899091,0.809050775455698,0.344491340866484,0.216496839020131,0.260947398756054
0.376481727816607,0.238875196248912,0.95556601259313,0.386096379079514,0.200758477292258,0.119905316067748
0.526133302499285,0.189014954787594,0.907376034853653,0.0744215343904661,0.0178064362420373,0.999999999999983
0.35186469831448,0.259386969518172,0.37222364909472,0.740555967582325,0.44810076028974,-0.073898257111186
0.418331944793038,0.491616488900076,0.0594695913286017,0.835165058995551,0.393794975442502,-0.409533532538013
0.0464700359998297,0.631845456128054,0.98615409132287,0.691031000929599,0.237279973255873,-0.999999999999522
0.420992804901615,0.54418370369645,0.31842867033673,0.406466496193468,0.475453181371435,0.015459770198248
0.682090539748477,0.846534809131353,0.0173076586101481,0.160491984603448,0.410891220091143,0.597691223633826
0.890891684367952,0.890517472716459,0.363160267183999,0.969892781409894,0.957670307582471,-1
0.0874648871499958,0.510843519899629,0.725104018270466,0.604727449335753,0.195458080946871,0.535159925009147
0.916444262143623,0.910664326867859,0.165575239643687,0.156430884516431,0.0149115248059171,0.0357408956291383
0.128241393884257,0.876095618361876,0.741757535416117,0.0110341756637124,0.480146503001193,-0.769186907708346
0.756358847167185,0.207253299497949,0.383232935114502,0.618953562670197,0.203970410779907,-0.0419886481959492
0.516148605932967,0.204029066815386,0.70694821467655,0.191035778353502,0.473524309655352,0.796791879435697
0.30727641679245,0.71512624656253,0.72408701838622,0.172864800336404,0.262623737218498,-0.205017174878722
0.0444204950124591,0.331804290194391,0.284032057765931,0.585781125477012,0.532018247420168,0.999999999957457
0.11703248312327,0.476212175989631,0.896443417993587,0.463053845010655,0.260450690967946,-0.570221938064575
0.613222993861346,0.176003542082759,0.837369439915765,0.242989961175731,0.33482735255641,-0.478205334059142
0.217852439328628,0.296427758332492,0.185568483061853,0.679694289731469,0.757404823672682,0.385981736152503
0.256628884410609,0.588088135875638,0.214945591094797,0.525689845574518,0.0051390346095171,1
0.950346106402097,0.194830087139876,0.00959280929274382,0.954733326811948,0.0372352360264165,0.2647935968161
0.00683130531921492,0.371002401658162,0.954507018328841,0.388334443163679,0.405444406534998,0.508614574213203
0.501936736046825,0.223288734391309,0.863777531378539,0.457977251664132,0.0585470876524673,0.700529131864033
0.36610126857588,0.767639373723301,0.18389843925759,0.231297293253291,0.617194835197086,0.00725027789343002
0.796948604749168,0.513986396967814,0.989095446275755,0.378645901890967,0.36924266660141,-1
0.989529180468183,0.0268180785873565,0.168914530175764,0.606662105910497,0.364628618175473,0.13628170100367
0.938816383546554,0.229470097414268,0.981559086701929,0.159454052218156,0.153384137837109,-0.999999492820221
0.601456227450014,0.182928005552491,0.353426673606212,0.0169767931496834,0.0430659965053738,1
0.0521230907264271,0.0291211089078224,0.0329937214883213,0.159791574240233,0.0214536598587131,1
0.227948289461865,0.368092178056955,0.180878577918835,0.668312043466234,0.25585625793789,0.999999999999997
0.261255369508672,0.380487650854784,0.977016899724569,0.310494636086435,0.2728385303787,-0.452297398886362
0.0162361625791173,0.122199757643112,0.287787898883512,0.962398486841226,0.82492506468012,-0.573730740310293
0.290085792534848,0.979608621080926,0.419322794633897,0.503821412742962,0.00620793029122025,-0.41734097227747
0.485070763441948,0.721904492177701,0.635305216391164,0.0852029881508333,0.246420641814766,-0.0977530164212966
0.0836906696217239,0.585896597362517,0.89869166912232,0.431213108523359,0.159386650806489,0.105147208020141
0.550417995391689,0.247885506391125,0.00174585516261823,0.575077493137182,0.786816224218327,0.0638916039452129
0.712654658224225,0.703666352915006,0.420348170396172,0.146298539564835,0.176187068523215,0.101440116170651
0.465215875192912,0.273058127555408,0.170567142261438,0.358242390057583,0.0417513217239569,1
