"","","","","","y"
0.0626713679055683,0.981481562170666,0.263320180750452,0.32662229500711,0.92341324002482,-0.999999999967064
0.478719844738953,0.583422274910845,0.860605683771428,0.0987816199543886,0.340469138638582,-0.999083215237099
0.613766712823417,0.919956184574403,0.814515022211708,0.974649661686271,0.287838756933343,-1
0.275534873444121,0.821907447581179,0.189545704401098,0.245565758401062,0.753553707199171,-0.957335337836014
0.1571321156458,0.3196536391275,0.0928218860644847,0.913212711305823,0.554731917928439,0.971558624239672
0.586216683138628,0.749023833195679,0.510030014719814,0.827613191877026,0.517273223551456,-1
0.120419500372373,0.159401560819242,0.767277632944751,0.509182801132556,0.440655727277044,0.996028343450978
0.744081770454068,0.135030730941799,0.463821368012577,0.671600223181304,0.650640796113294,-1
0.778151913837064,0.433535013336223,0.115680116205476,0.647377183428034,0.708440151775722,-1
0.872020705521572,0.478581337828655,0.448732698359527,0.88823855338851,0.872152754862327,-1
0.0177931228536181,0.501822849432938,0.979694019677117,0.398077663767617,0.612636522005778,-0.999999994355731
0.342360312642995,0.860639071045443,0.563894542236812,0.0239692543400452,0.138999989884906,0.999941477044226
0.545047018036712,0.24717303266516,0.670760758779943,0.266705511999317,0.964136586454697,-1
0.953611079591792,0.653534123825375,0.707947508443613,0.557543157949112,0.0876046128803864,-1
0.204784353100695,0.0305746149038896,0.360047223896254,0.775165875791572,0.806455022236332,-0.139566382022018
0.350146139226854,0.282192114240024,0.912051819416229,0.42100176778622,0.23577138367109,-0.441738687092824
0.405034234095365,0.380341842223424,0.610621581214946,0.744737037550658,0.0281599016860127,-0.0301602129462986
0.662386239203624,0.636532790889032,0.313316615845542,0.137712861073669,0.197897163988091,0.999795600009791
0.924061814090237,0.795474733330775,0.249505271331873,0.16162086322438,0.464088929106947,-0.999999999999627
0.835196263552643,0.0916798715246841,0.0232839452335611,0.469534221547656,0.354694409098011,0.999999999972086
0.387301864803596,0.217181440500609,0.535389332399098,0.0273634681794792,0.417231545738113,1
0.75110650528266,0.421572281835379,0.382210673544377,0.337562465859267,0.362026242820807,-0.863831134139367
0.0343788822049262,0.339907271577739,0.733246439165312,0.971405774273677,0.525599251215923,-0.999999999999892
0.506522544061997,0.970645128379343,0.125374216605582,0.540987414123264,0.127478861544172,-0.92339504426582
0.0243519545340038,0.262174488374135,0.540791341002143,0.188938796125433,0.894850317417338,0.999985555484236
0.95590789931568,0.659720034573101,0.1489495886659,0.316298184537549,0.0246352795323521,0.700658385164145
0.36388615043021,0.451522841948399,0.646073247083497,0.0121151730119732,0.592581063187532,0.911869183009377
0.0433034016111767,0.778367365605023,0.0246991306011686,0.293159778113025,0.381072229268142,1
0.523598995955332,0.0191456139744259,0.294146547159076,0.923563621153973,0.40218198588507,0.0545245902249978
0.439683564063987,0.319088671162348,0.219461368033329,0.513036536442271,0.599184458995965,0.804114003539508
0.217544468798153,0.0601134981294649,0.972773745425491,0.0819120774609498,0.669330193482513,0.994890035150382
0.452931414673123,0.504176294116694,0.397142386262744,0.0174989220552433,0.826726322261,-0.41067267215677
0.0132944245346868,0.589434841726758,0.721650853578351,0.0536951612988917,0.6765380145087,0.942777678673666
0.278081167328745,0.519339551245188,0.600811161630458,0.165609698422351,0.73769536926948,-0.97791045272911
0.537961768258255,0.0112914349632999,0.494883515575892,0.438734110632127,0.727325003880912,-0.539919592929063
0.105177792939395,0.0275995556181668,0.102589540293794,0.239776279872588,0.486747890359388,1
0.824151591266573,0.270390923424212,0.343530342549721,0.674211256846674,0.0179455237816366,0.463659887201453
0.966991231521237,0.165930544821338,0.581978725316471,0.0568395129537132,0.274097830485802,0.959687562649443
0.187015777826545,0.485471664751599,0.757563338247287,0.261922724457947,0.4737161677695,0.0132284247954484
0.581791905356788,0.53622618614068,0.231339466719696,0.98053249330232,0.219240198550471,-0.999999999914517
0.181249539354309,0.579233331441496,0.412440096245994,0.160744685736001,0.711739326653972,0.960394997799188
0.911402877238852,0.0278238664057075,0.829095189591769,0.67914299565583,0.121194320553374,-0.999999999991024
0.721355086964806,0.615922256470468,0.54620805782429,0.172744544915885,0.250526277497452,-0.98256476488901
0.981381367300265,0.408265955685665,0.143636913629298,0.779918802906779,0.27127543660049,-0.999999999998664
0.656408728930775,0.434933843744441,0.220866668781044,0.585977398020242,0.280094949131844,-0.156259920458851
0.165138976081187,0.610521590502495,0.0979604621397905,0.815517824299587,0.0262136621795447,0.999999999999981
0.0240346098461357,0.975443243791477,0.618112937364466,0.552604604114186,0.300942100437468,-0.999999762171283
0.443220277361407,0.870845144778102,0.971777913303813,0.337369418013591,0.833585635996375,-1
0.662853539465645,0.238902290780653,0.222876668904177,0.635181530628913,0.499206125166651,-0.882953234307561
0.254317541291641,0.660580700077201,0.27577850686406,0.557532096708899,0.51779293956344,-0.908160441044323
0.0982020000597551,0.97330486128439,0.231817312076376,0.404314322210451,0.0194941368662846,0.999999999999913
0.623940777680649,0.584105992653415,0.126568224793118,0.4497761430761,0.385978254987473,-0.0501039786190468
0.214221521915439,0.265101721144095,0.839300735901474,0.441380932736723,0.574688277351174,-0.995648714900843
0.332289158116427,0.989985473015404,0.118077431770295,0.286542607309294,0.379571483805516,0.693047061028417
0.0166507236925872,0.716333264488303,0.764040244690149,0.306431706219687,0.109048057524987,0.999983915238323
0.674011472081372,0.39200306183703,0.176769633175518,0.717615332820543,0.194910696556999,0.152826197128088
0.136902493088341,0.990227927722567,0.229247310505615,0.598724840032216,0.284765010618159,-0.785859619363052
0.209629739213023,0.282820292746818,0.500442801440335,0.497539506489576,0.638937790473549,0.47322927067263
0.409708851070415,0.60488699275774,0.539915982913904,0.128201540589253,0.394243331496909,0.872098286432418
0.195211709224219,0.0237933331053228,0.950669070804365,0.774163400218422,0.0327712592401749,0.998741985752579
0.346116192061529,0.518497987668584,0.0213655585582713,0.230088252392323,0.901616279356142,0.98853885654147
0.746909092204926,0.0884493024938234,0.129662935265739,0.374771500837912,0.97312424861131,-0.986933505381828
0.99016079997348,0.248209707313372,0.271156918356537,0.582707463473197,0.106111854994081,-0.409166616876299
0.687053536962948,0.337167064221297,0.64138943948212,0.332222892166423,0.0118339735939322,0.992286830935911
0.140074855857403,0.50772342428146,0.629108455896505,0.694143391112703,0.170455705380685,0.330615948532334
0.237647656761315,0.344108575384594,0.711394883051092,0.0121750093787967,0.934146627251141,-0.783377927164897
0.599282577262415,0.898786234472116,0.370566399135835,0.354839715964637,0.00796425761416202,-0.728330533123414
0.486059789293412,0.530218567753074,0.178293893042339,0.350557132632506,0.695916529095912,-0.793143908623644
0.167972234968572,0.813603902537057,0.152951940682186,0.443971331694755,0.546184598140708,0.523825810993612
0.0848316913992016,0.532827894315468,0.569723215449065,0.270936351404105,0.743019201847359,-0.44373485538126
0.829098351291173,0.233265033442978,0.393973511657607,0.408411129863593,0.293234184517654,0.117167991010199
0.742623367514522,0.518583497656157,0.145601877889293,0.775752641583304,0.0111862020128899,-0.354181171177936
0.271019080808203,0.232642126033009,0.711735132759874,0.169745965980116,0.742397257949163,0.493315422892756
0.7120169752691,0.757544152382964,0.222380052729642,0.326872530333267,0.201340457795533,-0.635970129564118
0.521745726654173,0.131400888800829,0.187139867753882,0.681904910210975,0.598398951487635,0.565750816252143
0.383280663240139,0.695947250048365,0.168328802967405,0.631386217200821,0.303814752494301,-0.215203400420457
0.465717199587696,0.258270525304673,0.450586780123459,0.013603428150245,0.122224064348032,1
0.311792819875584,0.773251846910987,0.619522631685432,0.244138073530366,0.215277812599502,0.0363232674552934
0.346970888339222,0.912238660377095,0.257503062932219,0.974028961228399,0.690038977063741,-1
0.205920926083891,0.148746005584687,0.533034800005707,0.811115697312671,0.46039919396383,0.100609579226746
0.732149545421175,0.744569226255498,0.617084738061724,0.624505807689815,0.510423985555139,-1
0.522253883974599,0.689557935270457,0.147702272854138,0.590048795102724,0.176002031835652,0.514522439396657
0.59378901797499,0.180644054876248,0.140455882947037,0.668394024747395,0.598595277464364,-0.203708288576247
0.293555066715444,0.503857640342452,0.0191728470352139,0.142636996969849,0.0486526827899921,1
0.27491095879848,0.35028348509757,0.279557968451575,0.992084648486708,0.323910421728559,-0.641266929297113
0.491843702242063,0.0187400117769091,0.879265577372834,0.825311570419858,0.768402679553439,-1
0.579380840754574,0.130215969167204,0.983902448298191,0.248854113566108,0.1869188477421,0.474313810755288
0.590567173226673,0.564888872180817,0.507093900215944,0.22543039635581,0.238634133666116,0.503310770404781
0.525261592379973,0.273063026940402,0.786015768112503,0.127534668157742,0.504588943331871,-0.601938711927014
0.86355090811808,0.233621634258144,0.128651227698673,0.232950086067455,0.0161638411380048,1
0.68782243562743,0.231476023909446,0.986696037746931,0.444483822449912,0.631981701138471,-1
0.342792008040741,0.34560901329053,0.452255945895311,0.64109159448802,0.362871999938648,0.291695977290982
0.411370746901242,0.955620891655669,0.0168362829362398,0.038978571537679,0.754092146355355,-0.137853441186695
0.406971804452555,0.869704480411679,0.193644405901605,0.468019845318532,0.169054254026681,0.685525306880515
0.253333769347447,0.522055422170007,0.514491981223673,0.295258375400671,0.579020820871141,0.0339264191318347
0.573351420880932,0.748656408216228,0.167099619953234,0.237531363142271,0.479590751223216,-0.49803719857608
0.168232741457497,0.995617084226148,0.363393136557955,0.308065765850749,0.350907685476591,-0.259937217019202
0.38124914024405,0.994012975088296,0.293014255125266,0.190483792505969,0.322842563566629,-0.200097540652396
0.414022632180815,0.173577426538657,0.695259708842134,0.185332633734955,0.670834921806211,0.360969829872127
0.640533646123966,0.234766883121857,0.420211261394054,0.208794996752957,0.596755198966324,0.734441148820723
0.509629389730642,0.546885294609745,0.753629977820385,0.261300457365961,0.145812436710816,-0.609414403850197
0.547285703139064,0.668424023691956,0.982620218148302,0.411304540329633,0.115068116553837,-1
0.192025359987956,0.563065259681174,0.367463796378112,0.199138217120036,0.833560781260105,0.153580839857541
0.00212938215639644,0.481488173825511,0.747634589658084,0.384016228604536,0.563639062552857,-0.164562361288086
0.713880238777711,0.980255215359406,0.383821071165347,0.505040087664044,0.833337557881772,-1
0.679871238388196,0.17475548207618,0.610160871725786,0.24819475532104,0.43048666815411,0.306180617448172
0.737571125461153,0.189121443232821,0.584411491830473,0.114045700675735,0.0122247711461574,1
0.115692441021396,0.43778493792627,0.821376940772269,0.38010548199476,0.405911153466876,0.0783507733223712
0.134563837119983,0.119268000465429,0.939773998294234,0.0918589744758295,0.0224058484467561,1
0.0986395970893671,0.647896249678653,0.00857621386279851,0.151325737107277,0.732989415180585,1
0.2371737785276,0.477738212018507,0.989331643887466,0.0462931781058423,0.507870901664216,-0.880505106557251
0.661899279464913,0.191373050867494,0.92856076226883,0.0172423186848538,0.805628521381005,-0.999999999999894
0.267058098163254,0.71456227233997,0.127781260218442,0.694715484378487,0.34722506674639,0.205186466041017
0.436166528830999,0.295846755728314,0.914698384105442,0.105094145490794,0.394647033534088,0.268431544000607
0.00732870287607286,0.960319734301967,0.449908499372293,0.2826913866558,0.446805753359507,0.260742439626076
0.00219551664013456,0.655917350365878,0.544796448365845,0.247596025217564,0.703317918173648,0.172539613199638
0.837081659969603,0.436899244524067,0.535147468593811,0.258282332199736,0.110153790856014,-0.146725706547512
0.311057236936949,0.363276861502676,0.96456235795359,0.269565039671875,0.28011193668063,-0.289936008680171
0.336753818133922,0.369380771236705,0.800902919032678,0.120450975867402,0.535966894572728,0.0434610893203893
0.410495398422397,0.136118727038527,0.767048230748101,0.57380023623779,0.286879758809937,-0.103639817744328
0.972371475551342,0.553499502959934,0.963723047152203,0.444643206087962,0.740320782888634,-1
0.13427107725061,0.981822773786857,0.275960645172164,0.367826869510937,0.400826218358479,0.0805519306947264
0.419942859447344,0.300332330179132,0.158305339284142,0.624545764017903,0.694837184626161,-0.404667487617012
0.120966140428871,0.448296243095472,0.365694607256752,0.44566904112568,0.792671746785732,-0.089599751459543
0.697643187451796,0.0115091385878242,0.895332414441792,0.181231981865396,0.407557177925219,-0.348399400979721
0.441308907319493,0.283848173363146,0.311414826722311,0.985390599611152,0.026928472585861,0.954361308375972
0.334709972918119,0.444824116934796,0.360000460190804,0.868734332393855,0.132484727018522,0.339888452768215
0.419503130420244,0.407699098920398,0.249796015568801,0.664687026442661,0.427452294485913,-0.0334475314853619
0.85616356319025,0.979561803429944,0.845959619351635,0.527393363863793,0.54465623337105,-1
0.242547690553095,0.666058138781241,0.29412229054024,0.124289792034357,0.834154755388834,0.0742841322936005
0.66780901575138,0.521267887963537,0.427522104168536,0.183535903639191,0.986606381213683,-1
0.434801860297723,0.691783958414004,0.110519253327565,0.291817132412606,0.627229759859801,0.141622888860906
0.940256525231865,0.79827574167753,0.0269874772458373,0.909008136828197,0.789822188090311,-1
0.264414022903648,0.608961320537625,0.0635918670572409,0.892834830513622,0.975289226906873,-1
0.702191938780887,0.607407576046756,0.168678114285523,0.507454282108864,0.179872862549291,0.0143778356364532
0.109355071607822,0.37878480225025,0.593931215117976,0.371413476081009,0.701301066071335,0.159792335922524
0.669540554596737,0.140955639626761,0.238562368220077,0.465901730857827,0.624950043864595,0.350221532485371
0.2048444950806,0.523123947525907,0.140323642367934,0.578593235960843,0.716117348261416,0.0495805894638688
0.390628188101407,0.0735935893019085,0.0188054091888559,0.90486917034905,0.830114632342208,-0.616432582269699
0.701768799304769,0.984172660970195,0.284776793374699,0.0937535998737725,0.120663661039589,-0.246043530268218
0.394445834470456,0.622936202409319,0.337215252370227,0.1824328542724,0.623494290183484,0.0830188468012139
0.0159327534583153,0.412249479476707,0.23545361725183,0.319066754503717,0.0338954042743392,1
0.0825698573293694,0.275388485291794,0.623821406964087,0.533353825334797,0.655416741128472,-0.0525487021613885
0.426612939583345,0.367480517058739,0.178797283573429,0.423111371241432,0.776225074578537,-0.0751808958217057
0.663146132887786,0.3765145576488,0.17038714413764,0.299227827897955,0.664365932372441,-0.0942242830897352
0.26067461122808,0.727747966609795,0.0754779279163057,0.333794080274453,0.777287562189806,-0.112223593137715
0.703956554469643,0.00322899850911883,0.504805554653927,0.537329964818759,0.401677658238086,0.209678915614346
0.90203411494984,0.335338468268087,0.445035320764494,0.41378126472648,0.0613224467073927,0.123467506302951
0.163762967611789,0.277660543083039,0.792614976302865,0.215371740908273,0.738008199242851,-0.275288516035421
