"","","","","","y"
0.246415015589446,0.73603665609844,0.378722715564072,0.746011887199711,0.29233074785443,-0.999922370089557
0.469928284315392,0.663849029829726,0.975976328749675,0.822766607895028,0.165824154030997,-1
0.00887475759955123,0.575773110426962,0.938718330510892,0.614796234574169,0.622758512338623,-1
0.769646637130063,0.223722445755266,0.0551569252973422,0.379611308884341,0.109307786077261,1
0.706392818212043,0.449094458250329,0.840183873975184,0.0934773128596134,0.814075351762585,-1
0.502110205078498,0.134509016142692,0.888147126336116,0.96118049910292,0.716689711937215,-1
0.16832032041857,0.158868763595819,0.750888111104723,0.942208142729942,0.419071975746192,-0.99999630275415
0.600276228098664,0.605080922879279,0.52174409374129,0.0194933418883011,0.579784274438862,-0.993279906912696
0.820956936350558,0.962433668994345,0.17053753756918,0.894968784903176,0.681785751425195,-1
0.586191966268234,0.925645532284398,0.282235268270597,0.583019564684946,0.984886746446136,-1
0.321913664939348,0.330585042887833,0.591742197063286,0.454023032193072,0.227409509010613,0.999956823713768
0.934813161625061,0.528751083055977,0.465940614975989,0.514337828452699,0.940668926597573,-1
0.684545231517404,0.266848296148237,0.302036388113629,0.695430596929509,0.491767552937381,-0.99999666902801
0.0824447203078307,0.774519662850071,0.408644249907229,0.137518974824343,0.899073241604492,-0.978556955002628
0.261937803972978,0.846366795198992,0.0495756064075977,0.302117775299121,0.515897624718491,0.998794147904458
0.393199883634225,0.873490001191385,0.148312409955543,0.265044542436954,0.354334436624777,0.975229142774961
0.99113946291618,0.0862626265035942,0.60720122664934,0.774245410133153,0.78556239301106,-1
0.854613289935514,0.0408067106967792,0.211122330336366,0.44194498336874,0.0578446211875416,1
0.132468276214786,0.48781949984841,0.718222600186709,0.246581925079226,0.0147266631713137,1
0.417283837578725,0.371378668246325,0.680637929588556,0.1738178360858,0.333429183112457,0.998746551196167
0.978341048684437,0.606004668213483,0.48955531483537,0.335422301239968,0.539013862401108,-1
0.156391243524145,0.145975294713798,0.97953228195454,0.48606488880066,0.426802731225074,-0.36654457094444
0.635060980614002,0.226727675759844,0.603452338436269,0.444163504696246,0.484913638872683,-0.999888168221659
0.0146428114736918,0.856215630212737,0.523138185326125,0.401455904447291,0.413252670412763,-0.524412614305425
0.780676753198476,0.784772138917572,0.970913644229765,0.0577433189339469,0.200545441937732,-1
0.913047212535363,0.7974416155146,0.0361810179646168,0.0498984692723798,0.871350251348569,-1
0.346707750781355,0.600168787172854,0.444729189423107,0.394544240953957,0.41893141088464,-0.485546759727666
0.507784863039655,0.0228801762995763,0.948555956307092,0.825247207355499,0.161002615847296,-0.999999604008386
0.322814245597384,0.943232760663794,0.670341189197137,0.368141724213322,0.0229736673235516,-0.9936568213609
0.633192136777465,0.0429625014763075,0.261444794917593,0.0802071625099316,0.910813790283583,0.99994649848795
0.773643010293307,0.0268103197128113,0.797819818796794,0.0879989442756881,0.350761671073259,0.972189082357022
0.534876515553437,0.361720252635651,0.101806685253973,0.968094902141718,0.180368566417019,0.263138792866111
0.951921477165537,0.974232052596912,0.2415315651794,0.297224751102533,0.132889877786968,-0.999999999999746
0.85801278870904,0.424278531055568,0.528572903465755,0.818062571162805,0.0139585967053965,-0.999999999999999
0.862812277742321,0.216584170603396,0.0212358130016573,0.514910456499156,0.6414826780562,-0.874832147356187
0.368791703650856,0.646861773333675,0.530664568682057,0.244603935109593,0.2873632725926,0.866355111554691
0.0195655630569657,0.831490290941711,0.332108189486473,0.431587684599342,0.072771821668515,1
0.796703329431744,0.29806472127153,0.364982700080789,0.519105877713602,0.282801009696895,-0.893048993041514
0.527470638359224,0.458047091443918,0.524368469992011,0.29928812274125,0.397870464933023,-0.506807155584928
0.0674743665314173,0.483250841305496,0.586102913796503,0.820412528994811,0.972849603761453,-1
0.0211982796816995,0.267628501585997,0.458628908052714,0.379955357695229,0.547220366970404,1
0.643243822853745,0.33518285709181,0.701568263947008,0.463594161098017,0.0089615587769856,0.189325919216395
0.86182155899757,0.97730902906164,0.813138841961229,0.670079394960654,0.740376901812901,-1
0.736413696594118,0.322597338218413,0.298213400204521,0.0123441845366128,0.528225629375548,0.999994955205447
0.113532116967714,0.0263368745672531,0.324553491997738,0.625347985167729,0.0303715025966345,1
0.692094215363415,0.655306180143425,0.0919988896343594,0.301467883915747,0.437543775768711,-0.157977403564649
0.0192140149364512,0.208542561581258,0.610777173012365,0.283077673213668,0.917825603809442,0.969162134619616
0.394864016249813,0.471188691378636,0.024011887927879,0.494183548118282,0.957838085600779,-0.997088862659554
0.370696887810766,0.976698272586679,0.290013133143487,0.906054462493882,0.0474888901238574,-0.9999999999994
0.623782867417802,0.679594711393848,0.305410821232862,0.190029773164957,0.386690211097911,-0.250845597201221
0.434268278039914,0.047428933332435,0.9823292054815,0.334802092906163,0.764313289979099,-0.999999999982847
0.155932095563735,0.0404351786673328,0.181363799555018,0.97700494214305,0.639227285190258,0.996619893926388
0.93012706997756,0.835826146692236,0.0812200865423577,0.977688109436082,0.023887652363089,-1
0.629563173816247,0.36715312519538,0.713126744165067,0.254434314638491,0.296080326451023,-0.888162781524579
0.0881908421962779,0.917983243464393,0.803511272389569,0.0242288369499626,0.275781306381951,0.666372343009261
0.485501926669434,0.547848285226605,0.146286139329094,0.0116417313288478,0.740163031461496,0.999934456751112
0.418813736570326,0.600849401908364,0.464319794169073,0.597901394581376,0.0247349890592386,0.691814754267016
0.124349179194147,0.155345253066702,0.293637111612379,0.0268746832356193,0.385032765136023,1
0.450198604026756,0.0674359248872033,0.541896187018997,0.608085119272904,0.356278825612252,0.984603737607045
0.74940430260549,0.285139439929824,0.0200870052940615,0.927527008302875,0.966393035170451,-1
0.0608909296747363,0.656255248522644,0.972036697995905,0.0792508267064782,0.908104560133288,-1
0.372028358840338,0.532411080291957,0.0128569245930827,0.867357188298658,0.475053862324661,-0.885653356307661
0.0754174141961828,0.0183694837234047,0.0605155679624856,0.294977029904269,0.905533049987351,1
0.365819222403803,0.0902190193478715,0.577659714386932,0.540726248191439,0.717524751135308,-0.966505977050636
0.234265484593344,0.397578918787264,0.448804361129094,0.103095175303148,0.793502165404721,0.998693615456454
0.195799550403787,0.376159573482815,0.772217282953052,0.264806639798238,0.723322219129605,-0.995060918082579
0.100360725714198,0.97528745043335,0.0492696788955248,0.860419891435413,0.719637330305813,-1
0.0390454326702325,0.167422641470491,0.980121494982748,0.675050968140547,0.932322774249243,-1
0.0111542164344237,0.408299759130429,0.323491363746446,0.818252172461231,0.352769417319458,0.999982008117962
0.755146682738815,0.00439444669378137,0.564786679682645,0.443303965586931,0.454703774481743,-0.655204419093104
0.884316890765522,0.408128911049239,0.470876302142671,0.0179451236443504,0.141975168479362,0.999963888504446
0.979703868297874,0.0152937110727723,0.6997262734239,0.616563395214669,0.189626174577523,-0.999999985915273
0.56342748667213,0.0120266996724147,0.0403330174657399,0.64674471900813,0.653383628921219,0.99997913127537
0.221978889722241,0.897747585151549,0.804358282552061,0.975769493157202,0.70520495022226,-1
0.0875577182671631,0.545098903217708,0.59610203741715,0.844044754819103,0.0147105668833239,0.820814021511175
0.546519605707234,0.174378497797331,0.0712713477615693,0.493091654057107,0.839240711336597,0.525737681488845
0.0206717252443449,0.0746854449499807,0.841895303915371,0.8114190928702,0.0842046704963606,0.999999985264192
0.980348292814687,0.224599233226491,0.540002404915576,0.127278708093223,0.82133660491825,-1
0.436190110197269,0.179600727120217,0.990774340104071,0.417883061170819,0.188448439739213,-0.567282142121488
0.782079826936001,0.207871556903098,0.938077894097553,0.272452820233973,0.0187668657220942,-0.62779526725267
0.162853924338961,0.980532531028989,0.799643873846375,0.883310617408965,0.0684390546076019,-1
0.95935655164317,0.089263321853902,0.975350730596368,0.245167157395848,0.784531202851406,-1
0.989052707062009,0.32394918311543,0.51544260128623,0.315879083031208,0.0195790745585469,0.0374125986272948
0.247010844477022,0.357297678621288,0.673148661307447,0.879054119554238,0.154632908332966,-0.985788213052151
0.591748217318272,0.789584682911852,0.0171665835292223,0.424688420634807,0.0326653544474138,0.999999867010936
0.365645746778018,0.230811698394778,0.332328213189239,0.332396910232263,0.856124184595072,0.597781410203962
0.753732239433704,0.697194148559723,0.380155491217161,0.259946112224448,0.00700166285191685,0.755903573828477
0.256813531701113,0.0753469152997569,0.70797769745918,0.567740904534849,0.396582628507455,0.994089576416303
0.0832518469456174,0.723116263154696,0.698051050639528,0.507425008905128,0.178197987508555,-0.30840778048445
0.384323843212547,0.550074061367684,0.660387033875104,0.515052356630369,0.148748578496498,-0.881221370518602
0.132887585784859,0.00696683364287289,0.616777837499223,0.62338009315668,0.671772870732214,0.948776518848685
0.15603716002045,0.558893430861742,0.175107649858905,0.411528762879443,0.757533283197888,0.932068659274553
0.331866743130896,0.311254316390812,0.173711887347231,0.630648723947997,0.731069663130915,-0.159840521919013
0.0618112599759801,0.591595935588292,0.352623116612703,0.615337436318903,0.627210445327963,-0.83549684474305
0.719199330795749,0.527370738234993,0.118721978389674,0.59510941712105,0.177762357461732,0.371407817747519
0.950142254261021,0.250485307508183,0.979135388493554,0.952986794352903,0.495376464114011,-1
0.984880264196107,0.180949592623843,0.115161790743163,0.151287078017941,0.663101610700197,0.773632510186869
0.987469290302616,0.541407448606353,0.539954029944448,0.954204800868606,0.830441747004513,-1
0.987909654592104,0.347583726955317,0.816808803750943,0.119825274126735,0.201245768512846,-0.999999805985574
0.986779289186199,0.0700255997920967,0.267769924095528,0.401918167470566,0.967326779393599,-1
0.374813162375505,0.115127158117828,0.697844882335257,0.0121826741926776,0.691532038491245,0.999996984109144
0.149379796980234,0.288286103819816,0.983797707539403,0.0800549504617055,0.256340079063458,0.999999999996015
0.427110135573632,0.752727288521055,0.344113197214557,0.0846376494501313,0.620081090310024,-0.707301656966366
0.342371285420649,0.561250802620255,0.824974716371865,0.045492324855512,0.485347950074423,-0.88459716585594
0.396923477942443,0.011627846871663,0.299615789381986,0.695193705810223,0.973274225855429,-0.999633752514632
0.735787948593548,0.583447372672812,0.911336821540579,0.990284419648846,0.813181347361442,-1
0.409220978992549,0.050926181786438,0.802745989313573,0.274756195833783,0.986196133223455,-0.999999998651635
0.00667528639383345,0.578108877541231,0.484423504352649,0.164109432835242,0.509308193891335,0.999999999999381
0.0625321959364959,0.7068686967183,0.989954157645643,0.334004080749999,0.410592676527004,-0.999999989590539
0.358152310144445,0.557932131486959,0.273718353292189,0.276975984081971,0.871931242518783,-0.996496006465726
0.831375778854568,0.0609915284992699,0.369684223095348,0.267776716871633,0.567425374519987,0.761194795561641
0.4617149868043,0.131548842446413,0.721212804184981,0.680741859699159,0.00616608502735563,0.994967250018732
0.243275351901766,0.74693119101678,0.51236791795639,0.482611939101412,0.146395414334482,0.448430349074787
0.397219924074131,0.502897985295156,0.0976128781562569,0.438839724702949,0.706520523958897,0.310911034792246
0.257183865861949,0.480774271308457,0.609297830636387,0.190977608305316,0.543973520416197,0.848235429113664
0.185407865315244,0.60229392872318,0.0164980925832586,0.70271567870442,0.124881016149801,1
0.989823774768096,0.443603497245456,0.0776021429642656,0.430077031146679,0.160054323269914,0.733720771314089
0.852466706020088,0.913918882619266,0.563330695234595,0.937345929417598,0.981013449881004,-1
0.738172080477791,0.989034761591102,0.587852631168687,0.177310369400049,0.458689640381618,-1
0.680891429811014,0.376237130369554,0.199081028528432,0.270257033516026,0.736320072238385,-0.89715418717429
0.707617187083757,0.30462795831414,0.948729866414257,0.012361506160641,0.149589836426524,0.542093023420581
0.633615865965298,0.506106653906854,0.801766263505191,0.137813150967635,0.00781260940219161,0.822998224668006
0.919375053791084,0.15462445562008,0.931175263215394,0.777266496958789,0.0175746143393264,-1
0.415228526239377,0.302450377160211,0.698720737212018,0.965484767748471,0.988028729449596,-1
0.752389279490261,0.971781505046944,0.983682513786615,0.0270191586776665,0.79119264438672,-1
0.734696283543145,0.197316422803634,0.0837066537996508,0.409317041663784,0.607139414554977,0.977533404289237
0.172269644091799,0.686772279526615,0.396692662680429,0.265632494231735,0.603029981716857,0.526835035513599
0.488212745492818,0.343475059350471,0.550586514425628,0.808971501735785,0.0307846005640218,-0.65255365825937
0.225003643701271,0.726896825735313,0.985521781963836,0.227631226305981,0.0303029411405403,-0.37365750558371
0.0631781707508053,0.20640863779835,0.802612359485915,0.598444439206247,0.54751365433532,-0.617786094308237
0.77804344176743,0.0131667244899886,0.472577505859242,0.963017470444034,0.333334432233197,-0.999999999975688
0.537547272090546,0.692999813510249,0.668125888960839,0.123971449345648,0.226381427934209,-0.837791333956704
0.459844922251838,0.987306975072496,0.754179498829624,0.525421108806591,0.976822013026481,-1
0.733034997918034,0.82365679691434,0.0865847218304131,0.0210960261418205,0.22875376128037,0.999996551707125
0.219019525826774,0.231961052974895,0.542422698388163,0.682058337251545,0.478239673941438,0.174152026990014
0.660167778877406,0.993232828248407,0.2272486926467,0.384170778633528,0.641656436607737,-1
0.497126430842572,0.742020997829506,0.150504884113049,0.547063705720784,0.328967199220125,-0.907113988288172
0.00513663506459199,0.355667638862597,0.785519050637215,0.274464674434005,0.532103630576375,0.999714244953675
0.892656805357154,0.795816060187692,0.0100821020009132,0.405181463572204,0.054051510144752,0.119769456241396
0.949034273439179,0.482830040052363,0.00520525733349233,0.305343564388352,0.476861471804569,-0.628028403934898
0.470435902375923,0.163594571633885,0.35701721069817,0.81561522803046,0.413202722721924,-0.633376674580042
0.988770761040695,0.28713036607621,0.20308943873095,0.856514740929404,0.445621338686175,-1
0.990268861095495,0.611667263223053,0.0178663900391101,0.154325678846636,0.369922226511649,0.298881048900334
0.205908929143853,0.153782694169939,0.0150072237890641,0.366446964837537,0.252832105398831,1
0.765749579918794,0.842223572728946,0.826383780021283,0.986136630481073,0.242492070730427,-1
0.985555304003339,0.647250637594272,0.972513872600978,0.700053920863798,0.310814367165886,-1
0.324476101916311,0.0787549824321611,0.314910340939355,0.685616405376253,0.731042070827557,0.411352446401405
0.947277575916631,0.197314786205171,0.0113641330066116,0.554520340214109,0.258655890170512,0.999198459163043
0.357696436891248,0.550858597976795,0.89138360136402,0.0879303326169061,0.200862453748181,0.814033212681457
