"","","","","","y"
0.643210543156602,0.0974860624526627,0.824383390357252,0.549839975940995,0.978773920773529,-1
0.383533386501949,0.445454781013541,0.987237300921697,0.288373683928512,0.496499175007921,-0.999999999999833
0.326120475842617,0.25999711031327,0.0954063209588639,0.199204268981703,0.117079640261363,1
0.891470655309968,0.160330260090996,0.503097653237637,0.0820091068046167,0.421677612967324,0.933375957377808
0.726170543418266,0.664466637198348,0.723616052581929,0.430946083203889,0.0175093387369998,-0.999999999981959
0.101177419663873,0.959548553207423,0.916943380353041,0.644210811413359,0.55484322309494,-1
0.902416834235191,0.223948748910334,0.643901670933701,0.994621381699108,0.907119286933448,-1
0.848950615816284,0.540914710063953,0.407581099530216,0.75469171514269,0.311690042493865,-1
0.437195225665346,0.143112761178054,0.262725381355267,0.555785025004297,0.29196494781645,0.999999999999999
0.494924032338895,0.562361639901064,0.143852253456134,0.0434462210745551,0.350151703145821,1
0.782559797354043,0.825013577216305,0.872003991901874,0.87605344618205,0.516030805197079,-1
0.153168728994206,0.754341670288704,0.158065020351205,0.82440993549535,0.240454497025348,0.461306208589039
0.520243388356175,0.0296595128835179,0.598634539626073,0.690490523469634,0.876934535591863,-1
0.656251927500125,0.726836906094104,0.799782853480428,0.478738662146498,0.73833025720669,-1
0.563090496964287,0.917828069825191,0.0242850552778691,0.373358561249916,0.627233303443063,-0.999999991346427
0.0600619234144688,0.494352047832217,0.32081612565089,0.94625617696438,0.835107454226818,-1
0.999319665168878,0.64999686286319,0.451226626790594,0.309655101620592,0.78558663437143,-1
0.00134427410084754,0.320714710501488,0.384601746348198,0.723649057652801,0.0568331302492879,1
0.230250328266993,0.894582500052638,0.245037382876035,0.2226042904309,0.193228254409041,0.999999999898816
0.299567690095864,0.36378749308642,0.678725087386556,0.128082586661912,0.683417692908552,0.175747429200254
0.15420714283401,0.11610668869165,0.0367486865415703,0.174494817391289,0.917370626972174,1
0.806159827216672,0.973784714196809,0.269851755002816,0.0620714401986825,0.276131528307797,-0.999827444947055
0.731121395924085,0.0999536485725739,0.591638069541107,0.893358846416265,0.031702334924601,-0.997884351616691
0.206254836368235,0.116864589617911,0.966324022524513,0.919053218463485,0.486264434253038,-1
0.956795417921071,0.82957889283828,0.964634291775549,0.0854729794930504,0.455955807179002,-1
0.972076459402193,0.3334001722465,0.122855858879638,0.39462070256682,0.0752202997966776,0.999994798207304
0.667805003804937,0.107418333018112,0.104815081941621,0.975692842653017,0.432069140521388,-0.960189296416063
0.0152510272612566,0.347588005921828,0.63978532649094,0.480106094123777,0.55082614567972,0.976113675671966
0.804514364709074,0.383001635252723,0.0252195424297071,0.604346128827488,0.922151998343376,-1
0.115669297646873,0.706589322925658,0.826221045396758,0.326551966708953,0.0263782624299638,0.994960537668515
0.418651652727131,0.0390932833360116,0.977490361832434,0.353118378053248,0.0896272383398524,0.999999037525959
0.159320967302032,0.847963716848044,0.758534029193991,0.949769333743578,0.0278907983599324,-1
0.303605145654918,0.98219062660737,0.439473482187784,0.0928024983644144,0.605840760062544,-0.999987322964266
0.0411779253125646,0.358651752875481,0.75392341960969,0.335787131247673,0.973704632188578,-0.99999951738592
0.822782815585638,0.9060983517872,0.0196527757808349,0.640184076393853,0.180920459414831,-0.999999999992006
0.69458064208062,0.970525873638273,0.129035662872404,0.951548955321636,0.819326510136142,-1
0.200297581121638,0.857832105372734,0.060721695074805,0.48013142037994,0.976097573096815,-0.999999999995822
0.335948681501602,0.633351103914072,0.23063437665412,0.215386017520338,0.693351943271495,0.674982836171977
0.0625683865215178,0.785631944436041,0.978475972569379,0.13115056298792,0.573250121732357,-0.999999999376009
0.630582210026991,0.790659206166977,0.0251597814624044,0.0279942268168084,0.913028608667303,-0.999820592906346
0.199855965593726,0.45267979222522,0.0136233321912018,0.727235770095059,0.690912088073984,0.837794052994396
0.315484108618335,0.20202032583855,0.439652816241094,0.801821140701269,0.496528940443141,-0.868362550333829
0.833330605299451,0.512275204266637,0.723842061621046,0.0202723597550697,0.0578944955988061,0.253548715684143
0.332392561876136,0.266507102317301,0.52050825002921,0.349013508705307,0.853925558617698,-0.991757769829082
0.358713021853206,0.446463553230354,0.710350217482403,0.612898944296456,0.0416568505067729,-0.0462275521084561
0.963460151485703,0.980039042253003,0.767537774014008,0.568722422999335,0.916251992024058,-1
0.787626056074304,0.265717356103356,0.0142616304510191,0.162541177688621,0.682938176698171,0.999983182890104
0.398443377390064,0.736854924351412,0.624080172334223,0.360757074191852,0.270490620558668,-0.999855723033323
0.952543948529008,0.293497139757444,0.39011298450691,0.0226407917774327,0.973273905311108,-0.999999999999997
0.987726258025626,0.109336694828618,0.32097758062377,0.500428179478626,0.571406123614254,-0.999999958658795
0.109937798967829,0.375910660913947,0.0670433203029001,0.983944875657212,0.418333936152576,0.999668315122411
0.120619990415759,0.816359920164128,0.0215121253812632,0.019960545067667,0.744393541710055,0.99999999999995
0.561610100708656,0.086684337095187,0.218539385295708,0.981611559697727,0.979467648312338,-1
0.639068599647558,0.329352381798749,0.141747725519534,0.798791738238193,0.0155349072981357,0.999960396972997
0.120358981481645,0.0203256197364037,0.295639904310581,0.803319803178774,0.55756738953221,0.999999999638624
0.24967293807797,0.0119390370352878,0.651655865257489,0.776983786890967,0.186232397540164,0.999999154507974
0.988008886649604,0.302817504459842,0.664936425450034,0.316116606085357,0.279078256912338,-0.999999999930455
0.276095091630052,0.119185426871725,0.613952374591121,0.575505349070284,0.519185544216918,0.713025401595269
0.982979770024983,0.559958958476682,0.0657846862480473,0.0745583555816209,0.593470317966353,-0.938267411261049
0.419774970142921,0.857851245124533,0.190668675696984,0.135707259397689,0.466163181846387,0.89851194251373
0.886055032080635,0.352064115604702,0.980993367719693,0.690989637920627,0.366328669528783,-1
0.637083411181026,0.582796726077899,0.983707591912067,0.226919902416316,0.0129473028456925,-0.99999736315812
0.934125596754511,0.0187118973741185,0.600366597158497,0.3555754253193,0.0481864448112596,0.999627360359387
0.227610458592363,0.790662066723868,0.607909734627261,0.644532106097822,0.985120097492624,-1
0.964268211565348,0.0227647432607466,0.0498702268219795,0.442912038939214,0.943681654551601,-0.999986907488304
0.514557264846798,0.573941211907498,0.103393264461416,0.86242873729321,0.351106575091403,-0.99994919621377
0.412342441026464,0.018096698542265,0.674026160705758,0.144752384729937,0.849580965278715,0.750579645853924
0.615193055969342,0.685930237370769,0.931180663502921,0.0925959349882841,0.977848729168702,-1
0.926196234904309,0.184388252847775,0.924127771827722,0.0179289649885057,0.202828387480731,-0.868198559128088
0.567564534785259,0.833988313059528,0.976165931036598,0.946766829654817,0.968651116655874,-1
0.57520037877826,0.635198783783764,0.515352773730429,0.267566509255414,0.00740461301942977,0.99513980019761
0.265387120473595,0.714189924521527,0.535593411505137,0.533966829988442,0.0895022126250814,0.365666850645676
0.901798977467383,0.472095586978727,0.983859642681225,0.764477173186109,0.900624071778036,-1
0.0630333821530141,0.985653294981713,0.246204770390086,0.451638575642016,0.531648824080983,-0.941565550108384
0.0484590936155908,0.68673148426511,0.988929969000754,0.609908940115381,0.303305606026593,-0.999999999999999
0.101232068710902,0.756067498080334,0.49287277051741,0.272002005826872,0.436620858340353,0.932845626609424
0.0516296414177038,0.193575544633769,0.868655923791413,0.805537873832329,0.0169369599748455,0.999907260405136
0.282070446226676,0.361245110544762,0.468703469116191,0.859175287590063,0.0945386778265631,0.913269295606871
0.307661810451317,0.0540249014222579,0.983922947100593,0.427044653943253,0.721899418356347,-0.999999973698631
0.856588997034802,0.0324381741099236,0.219243626123239,0.726301299973621,0.0120542625470412,0.999999944043753
0.667116663691616,0.00787408794865652,0.894198626385847,0.338676023208057,0.413558746911452,-0.991368676287327
0.0076987593326847,0.735717645294423,0.525727200170053,0.7579227275358,0.399139742796494,-0.999989398644049
0.695314241401657,0.672851813551847,0.0118909558289339,0.152299620983706,0.258520359043981,0.999999999819836
0.727350320140251,0.18558087527333,0.403830709925718,0.210230858197423,0.725467057081212,-0.854595797872623
0.982904784188822,0.868852703531664,0.560297148143274,0.241043090942317,0.0659555002416783,-1
0.860014896328906,0.0207631359225648,0.129613546792617,0.0513628563359255,0.175639745998151,1
0.0078263601847612,0.423875350806665,0.344560216390632,0.38839846920776,0.810371480182619,0.998854645316938
0.78744236079428,0.622385405261342,0.900111352193761,0.883613467351049,0.0191892389349479,-1
0.0393868230261989,0.800024537320482,0.0110709386300052,0.573869535401197,0.579086127034949,0.994395798773122
0.181768431039184,0.0201877255115007,0.0398758621423032,0.726832958703565,0.110467134504402,1
0.457590688220897,0.984250663787021,0.871812581626579,0.425024813194225,0.161447101697568,-1
0.680400332484008,0.0094245681234934,0.238446322069284,0.10017547843714,0.802894466512182,0.999999987345253
0.202295943075705,0.599048361195548,0.173606637106677,0.168784247338983,0.990491899652698,0.418035796396753
0.981016515346006,0.921605030595798,0.531073217219348,0.88899125644263,0.468453691334795,-1
0.617594288116873,0.844211519806165,0.190071564986943,0.28739633873595,0.346576575435788,-0.95688694838945
0.349259841113589,0.350171940745186,0.448592228534173,0.476378019198891,0.520907925820728,0.282973316569636
0.704736702349804,0.454144125200051,0.383861773263437,0.375469962220621,0.25740880686481,-0.120786526278075
0.929414652074129,0.268462438655407,0.0103287513909463,0.674829732468852,0.315189806847338,-0.407743644884102
0.500273898618717,0.988561198089876,0.564200310263216,0.182606361999247,0.02905988075734,-0.903829369481859
0.071203930808957,0.981970389412415,0.259903205949079,0.917041477748473,0.596055786354821,-1
0.990662763963492,0.37400281977494,0.485983210582564,0.539780333730878,0.00688687209800905,-0.999909313978759
0.193853787363051,0.82283228803097,0.0125023629621119,0.909918412366501,0.513122037711565,-0.9999987412066
0.0542473889621582,0.104549419474581,0.318909100161001,0.702710489499728,0.985264355024642,0.0133491888118031
0.710749522476025,0.19376466676972,0.0307527282016572,0.0294446521392932,0.991004985240287,0.999656329664509
0.673060722327241,0.427107803951128,0.372366654165789,0.0256155891337539,0.553257836414468,0.949534156867696
0.211707258441564,0.383658617719536,0.505239449703263,0.015351816268497,0.96294256893704,0.863632307182613
0.522839925756448,0.320342793838813,0.337341793245572,0.132577645737823,0.916184329140007,-0.712079076952167
0.0153187833259342,0.772147177343068,0.424498863587501,0.168689666760797,0.98515875536761,-0.999274164034122
0.466653061688598,0.253736329210276,0.467690911212704,0.0910925834948439,0.794712976531827,0.884637907787116
0.00255811177696062,0.580602458822748,0.668871211030951,0.470649333334664,0.6432636209333,-0.99928003429411
0.60324763671274,0.309783091881799,0.636581182560161,0.206371158659579,0.470969978512421,-0.693736512690683
0.953829185681458,0.828632029408435,0.632665879650448,0.0159485271214982,0.966500083856731,-1
0.12791955286021,0.86633287336492,0.529377599654954,0.0176574745438937,0.24422780049793,0.999999999900923
0.621789720025271,0.189538398129057,0.0387958141565118,0.618340753424721,0.529209666866147,0.99586786926235
0.52504725514482,0.720605576958341,0.274575939066485,0.458418297173792,0.138861170367051,0.595857730440119
0.0109648636329976,0.199415559055905,0.508220307631501,0.975512165161553,0.467455607585891,0.0689459128191303
0.896994432770756,0.799594372100911,0.113065623580524,0.240865852312562,0.0171349629360993,0.907097065180164
0.251923606346946,0.98769913256778,0.241987176084877,0.730953717554083,0.176674883076256,-0.999841379232958
0.486453946807466,0.0923696673426163,0.120285006480026,0.46694406628315,0.996335785402021,0.0578782516424037
0.66677228156077,0.345272323423547,0.493106658928766,0.451179366637828,0.108918089186122,0.914770882509467
0.0270824392239866,0.364948569600392,0.771223070443626,0.883217829848347,0.984979839846979,-1
0.674781583876063,0.601416246594625,0.485799119133467,0.613397872438612,0.0156735654410923,-0.999860031252613
0.98699122805103,0.438287111429074,0.892886132690892,0.116019392863589,0.89187373156457,-1
0.469108118575558,0.106190891626418,0.676495681238431,0.3623680531209,0.439147903512635,0.945609736679718
0.0812579533106751,0.0130285892201247,0.582618334506248,0.313231542256581,0.92292548799637,0.999983211849951
0.977352518620162,0.982471215637744,0.122615780439286,0.200885198757488,0.763677381809786,-1
0.0774831273368544,0.191452595024093,0.57245141897074,0.655047244993378,0.738439496725087,-0.752937922433181
0.159323910621503,0.960568991779418,0.573098749619234,0.427152761791889,0.0100846325024285,0.463666503270819
0.754723295990953,0.224374139332836,0.909143821754619,0.987632731037011,0.341842552705909,-1
0.607005986062799,0.755003729678939,0.422564593395786,0.795095003160157,0.993195896804504,-1
0.843673279705647,0.14139367764316,0.986224798095341,0.553089688873293,0.0398753400423739,-0.999999999984941
0.935680044523305,0.655826750786095,0.0683879505406936,0.9826249372656,0.403733426814709,-1
0.523348777760259,0.0902564691523106,0.897506249308374,0.654758971087677,0.259566784965465,-0.999988741958129
0.665228562153493,0.518786609431401,0.476635165737157,0.990163166460294,0.0370654659019328,-1
0.0272505846533161,0.131395130535463,0.987823270796001,0.331304062798981,0.446993599564876,0.999959599884176
0.225134320678022,0.102660970827125,0.408652161679698,0.535120793165638,0.805867353464977,0.870050591187849
0.552137547478044,0.473686059241603,0.0578032918600715,0.45020140146769,0.690966196116039,-0.67609353554639
0.207190288297289,0.481778763233857,0.15819380450211,0.985674976836758,0.033047594737467,0.999999668201486
0.418810039422985,0.984633066464676,0.863847378412082,0.456141683570673,0.972376763684775,-1
0.717911495006975,0.263694060604418,0.0253498829068943,0.538367600240659,0.680680565230103,-0.686056200025996
0.467169262739484,0.602027279316271,0.23275551256193,0.804405105592722,0.125381766078708,-0.730542556000428
0.561355497817752,0.225252433781787,0.241698957983504,0.401851922621694,0.593568376702126,0.984723773199787
0.169418149713288,0.549865257560341,0.831310046120891,0.203853389605029,0.4117944420236,0.00575985138764668
0.549877275369431,0.484174559088155,0.224190620570214,0.0235012702005754,0.856316907713377,0.372650267578465
0.196162817236755,0.98662732005207,0.843313061983799,0.137056459516848,0.130695580344342,-0.96910804301392
0.0872617244639538,0.112080347198317,0.652179543123264,0.666244672808792,0.603274335942912,0.561246376316286
0.293326086185242,0.306565783588798,0.924889561556944,0.475060496713376,0.272941542401913,-0.92827534693205
0.718700404766801,0.128286987496264,0.596681806133158,0.536278140343433,0.243154613502389,-0.661805390047495
0.0146042287210689,0.445323873892677,0.1805895890902,0.162921275936506,0.377855765510889,1
