"","","","","","y"
0.817217175243422,0.553066127654165,0.118448990443721,0.0203796780202538,0.295716837770306,0.999999999177855
0.244435262400657,0.649186608812306,0.323859763937071,0.734675411670469,0.971287323115394,-1
0.639208326640073,0.392134799365886,0.409173607325647,0.526426980062388,0.435147377522662,-0.999935383516289
0.295663638005499,0.162958695914131,0.289631238498259,0.430723477574065,0.485031026415527,1
0.855396661697887,0.466693289659452,0.716206580412108,0.0782712878077291,0.210158909566235,-0.99339857932242
0.360985225369222,0.231655763962772,0.0676260255160741,0.992843661701772,0.147536078374833,0.999999999475401
0.344401575543452,0.702342938841321,0.638452025689185,0.461511271132622,0.815759205888025,-1
0.0641334792948328,0.985659782565199,0.243106895836536,0.905316176032647,0.377516387787182,-0.999999999996136
0.732418475719169,0.511739334953017,0.00381486073601991,0.846154752129223,0.707360834628344,-1
0.941119518748019,0.070675919612404,0.530626030475833,0.153406025085133,0.0952066099038348,0.999999999816674
0.143977159936912,0.909855843626428,0.903472985536791,0.357866978668608,0.516672839003149,-1
0.759003088681493,0.25732413433725,0.814528771920595,0.146803444402758,0.655123023467604,-0.999999999999997
0.48616759411525,0.775820074696094,0.870594973908737,0.670663263997994,0.888102220417932,-1
0.0129588273703121,0.438159489014652,0.699120240681805,0.583505951566622,0.629496394621674,-0.999149993202049
0.578154942009132,0.13808984021889,0.387264870025683,0.785391363105737,0.199340412206948,0.816784809552725
0.672581545356661,0.805910870397929,0.961931765940972,0.323526138090529,0.567616153543349,-1
0.416928762244061,0.306365063309204,0.771203692804556,0.623665541992523,0.926386100368109,-1
0.531347680464387,0.0438013045815751,0.183957851829473,0.286203200533055,0.309092386136763,1
0.15389277592767,0.653609870176297,0.45270312972134,0.225863670266699,0.790702578437049,-0.938314536296116
0.972452420124318,0.87794474438997,0.563994005334098,0.894504701870028,0.0357924639130942,-1
0.0827691533006433,0.0363683450550307,0.678129686322776,0.150441949326703,0.901697079834257,0.999999927187294
0.0997927738676576,0.662123788492954,0.764298819800902,0.9658731194354,0.0341402832739987,-0.999999998952319
0.168072065471304,0.318110613608749,0.924536785540233,0.0733213974387474,0.0351575144316295,1
0.696875338710379,0.235627555511504,0.388227665385542,0.457397627553049,0.400211773977692,-0.15703503434673
0.976483856304083,0.393063223856416,0.0516800032090274,0.632890364257734,0.13397820512694,-0.283889542189266
0.291537831107846,0.375456153949139,0.0250793368944432,0.438244830174866,0.72840315031181,0.999999826789378
0.0194686948430379,0.0524161942199815,0.722640596963605,0.920816414921892,0.575283675208908,-0.964591225038524
0.883900374275029,0.028909835235009,0.88644305639177,0.935687444337894,0.396802460476917,-1
0.222989244612048,0.210889578691632,0.688097886654545,0.384268772538465,0.546964785663267,0.945823030772332
0.204838020117948,0.277439597758707,0.591842275437466,0.67842984985703,0.411709429565054,0.0325897249358991
0.674313392924881,0.352125616750969,0.128534784749704,0.44687840877803,0.429127197991976,0.978703666691713
0.0298970665409015,0.649557325789643,0.128842405328772,0.112054264370265,0.312998654334312,1
0.526822289683232,0.381425465938472,0.48108689757915,0.119505545428801,0.303041220951141,0.999999998265558
0.130776537769815,0.427832290028798,0.724343452409582,0.29587811996764,0.570115198665171,0.236384561567922
0.456524357498848,0.697008215896345,0.109889953223528,0.708476770094277,0.0201564357907272,0.996955866368407
0.28416212862964,0.969821594299952,0.0644610811667511,0.299125139729704,0.693603241309404,-0.985807619850761
0.689599149471528,0.0244937854575203,0.154471845665846,0.22465153295684,0.938185848271495,0.978296358885559
0.011485544798313,0.496993309916622,0.353092038845012,0.799734039742186,0.251633152144035,0.99998337044513
0.591794611578857,0.565195403390552,0.98202408866016,0.659770713855398,0.137486136349752,-1
0.579952764379893,0.549557601673796,0.323130103423228,0.0183364693075251,0.782426124644006,-0.858969796020693
0.239985917572644,0.850546986573644,0.672123337155456,0.415586787851562,0.0186952350991237,-0.392556461020684
0.983668455768971,0.26997567627447,0.331514904777987,0.211792914952999,0.468986612631052,-0.907953527637428
0.746835945074867,0.597855294400095,0.0132865376287113,0.226010414613629,0.795565447476538,-0.999697105363984
0.793543969342369,0.866644619393186,0.0181694806675425,0.496196729798481,0.171121411503637,-0.9976176123216
0.551366949781583,0.282057697437388,0.86170487810752,0.584586976034306,0.0139758600887226,-0.968892708350037
0.487895567384346,0.0150434052022706,0.811357228107767,0.542662825471916,0.145340905377414,0.994719354537823
0.510892697198029,0.295524638824816,0.275562430320795,0.514977852481651,0.703419056252991,-0.976739827010494
0.286040106660165,0.110795506290259,0.979659076360459,0.544242772639234,0.603802217631573,-0.99999999874697
0.708684312474517,0.0138012781599137,0.971494098121705,0.298770262575907,0.235574399055584,-0.70460772688898
0.50321277810846,0.48148000839972,0.459129758667967,0.82194609870692,0.0751569222747206,-0.9968962539263
0.186554484478566,0.228620656910356,0.530967465360907,0.524566360926112,0.70771623779338,-0.158166698569472
0.246959952711803,0.98098833860436,0.138010759769998,0.484563953609463,0.0247917130507622,0.999999236238252
0.761818993210157,0.973466064914182,0.423288392869137,0.110909881610798,0.16448323415497,-0.999994273120191
0.478914215122697,0.64412181112866,0.536673568090782,0.233975527551446,0.00676668613280639,0.999993751924748
0.353507399541681,0.89440785851951,0.33098094434985,0.867379789170384,0.00984794567631528,-0.999999099641264
0.0136153837997568,0.877203046724868,0.397898763305538,0.563042935913619,0.103129173470501,0.999674336448356
0.799281757740316,0.974663620854783,0.258457743869407,0.642687702061302,0.770425480322468,-1
0.384839515410127,0.976342817711815,0.0168031606769491,0.786144046988581,0.0536836435436349,-0.614597558296881
0.12378237961197,0.388940591699782,0.0210196871075718,0.0597592410398827,0.894074965620386,1
0.396793133397378,0.758895441561874,0.113902741298174,0.0120445640954181,0.479848918750676,0.999999999993851
0.0872306470467297,0.9154411050493,0.348238781961117,0.0201390923426139,0.620042346810728,0.997113762695764
0.918451562221228,0.895818822309471,0.97294889666433,0.320061784277287,0.0453781411703549,-1
0.803516573308652,0.329577339108411,0.427685178179057,0.173458846474661,0.295553660800044,0.979812623799584
0.331360184509808,0.0795043935985029,0.0194726533155198,0.831320773882647,0.775726282657992,0.971764210865595
0.0160363134933223,0.204116000961944,0.316801804837299,0.581889232858069,0.945109154566362,0.918686837192122
0.278497151566865,0.992605966775358,0.509837084296455,0.254693352381866,0.249006838037243,-0.954723928441719
0.873592405659464,0.00790409905604195,0.700197461389304,0.327563763616545,0.498148377348516,-0.999956014926533
0.152648432944209,0.985494076106103,0.0249180846162593,0.0744528862959194,0.386047332281251,1
0.343970304078404,0.491333404710044,0.826486881795832,0.014284640432027,0.597456910132506,-0.930255622194281
0.643971014516396,0.564297945117346,0.00219880317210117,0.718677552581653,0.367014649125886,-0.972020532017617
0.762459953442952,0.144643642896146,0.119672413668472,0.984777939926185,0.440606287476942,-0.99999873379748
0.971209420115238,0.93330594779155,0.440548824912301,0.0767795164495046,0.776457821178431,-1
0.105892068488849,0.729700946473722,0.259025683141969,0.357397929266666,0.623328727207506,0.878804244126744
0.863527520991953,0.0173789677112549,0.291449103631976,0.811302392017051,0.0978251225306221,0.851714206641508
0.992749673808868,0.266086004188969,0.4689790876649,0.69388961568951,0.136211919153208,-0.999999999968573
0.256202590150027,0.944944758227916,0.541612836550237,0.0263970613763064,0.0170678030800843,0.999999999892712
0.312719732557987,0.00998295563280478,0.488544561475409,0.589603909102176,0.913815182915597,-0.987982763213606
0.249963236084899,0.804966064855205,0.984747616493954,0.416246427807834,0.0434341767527616,-0.99999998357294
0.754812060839283,0.595927556753754,0.250724276396064,0.681773737879534,0.203035171577823,-0.999999941686181
0.392171047542654,0.850676568443987,0.165283815369136,0.435109109561306,0.35481109670574,-0.405703773911804
0.921514987327168,0.989151064200837,0.688248403067587,0.563841413945948,0.55460974637078,-1
0.346140292851075,0.957052827188917,0.856239723058717,0.0355741842618266,0.967974642750855,-1
0.713215170974036,0.476345592519213,0.661384545781571,0.208019351165263,0.98528254872073,-1
0.289518054746662,0.67567060651737,0.747696837604416,0.19663530707632,0.119763054271485,0.980271069417873
0.45409018664815,0.202795038895266,0.564314805620322,0.801591446899381,0.0087763649929118,0.978134893935414
0.455704658728045,0.0019937953901508,0.620315039669075,0.360279404103677,0.626515481616835,0.916117938813476
0.158778573403428,0.169316331945781,0.984049850135459,0.655035272629014,0.215373828132686,-0.212543192725825
0.358427138169296,0.902279800953641,0.290360212824782,0.00982754347647065,0.870478311819905,-0.999992951397543
0.605666524601445,0.0519693149391917,0.23155648463006,0.583089207236576,0.531325234781775,0.994346311234583
0.844172008668824,0.0215369744891344,0.957936922528368,0.43385394926218,0.928229049215093,-1
0.640351277096005,0.652895811665079,0.981347098881913,0.978688902251265,0.305984491373743,-1
0.658026282317851,0.155496970196299,0.663343987652994,0.723968278589791,0.15007465371602,-0.998232293882387
0.142099314357127,0.330434354923483,0.86149477076292,0.394069053711488,0.483699978942495,-0.556261323284849
0.458266872690362,0.485125420856562,0.769166009469098,0.243756091385294,0.308601035035602,-0.904552545628959
0.822182997936051,0.0442620478718085,0.187243313859252,0.807116097761182,0.975802166044997,-1
0.699325870651834,0.675395461801744,0.00453006193130524,0.282715550019787,0.351521064815639,0.990664794246521
0.515653632274707,0.811912682837145,0.363650999273337,0.982150458882898,0.698890928432236,-1
0.1897452098871,0.900944650880514,0.273268887186064,0.469114107147635,0.400232577419596,-0.741901704306601
0.405283184832284,0.574457148919371,0.409554841831374,0.410426853268101,0.318618064716167,0.58785750880603
0.363200732490348,0.856728189342223,0.985601717166149,0.0554076249870578,0.181474001265897,-0.999997125059527
0.535459898060813,0.199650584582454,0.984176384851941,0.926840540982421,0.92189651225125,-1
0.593080092797305,0.00163208984300543,0.786289072831963,0.312443958351946,0.638530360382799,-0.99497435180427
0.900504955689203,0.0790563159067777,0.020783694432478,0.165411084908916,0.304328734567437,1
0.506706304525582,0.687736247379412,0.779596730737307,0.131239113906429,0.0826671759411678,-0.281986524440781
0.0160748779396766,0.854119754548196,0.148373990135688,0.414150857041057,0.806225416120941,-0.780027866572738
0.0933610816450637,0.0189603610960915,0.015006665088587,0.519906466259117,0.548493621696426,1
0.62585817200119,0.632168655028919,0.4202439483737,0.0423710868789585,0.421681822503116,0.32047698169828
0.91784130110569,0.585501138377964,0.170698881670289,0.223699058760527,0.0172101259691937,0.999980606802646
0.102584485726115,0.0254934345476621,0.485314104453024,0.62053435413521,0.0191067481525697,1
0.747808421437121,0.23317088934502,0.00430847250723034,0.698829134170153,0.471458201573874,0.149303491020536
0.762479110551557,0.312177381743938,0.161953645112992,0.215513470919657,0.619769994263751,0.892241942553297
0.207561539450852,0.069064066197148,0.844239961509286,0.981958932109188,0.127143701146378,-0.717295020201844
0.536799990724687,0.466539394661419,0.0114817318087871,0.554008035020067,0.986881814737713,-0.999999999959517
0.850958808620888,0.820374762857426,0.891782391715125,0.367275193114931,0.982307469598662,-1
0.227933485965735,0.0223172685406958,0.0166780944226467,0.192300795771059,0.133675307289431,1
0.0163332146233089,0.145340785240233,0.157289753652605,0.925963816812319,0.468463991982464,0.999999999999986
0.932042547764254,0.00438554700316574,0.342654219384708,0.454627278759402,0.397516461764866,0.452457783973861
0.204248077335666,0.569151886105072,0.317298287867751,0.995442944657301,0.347215254226961,-0.999993985407588
0.994994159779664,0.453904393963104,0.192062311671862,0.253751104899558,0.338520943513454,-0.74138329528171
0.562831106300051,0.824243804814355,0.299081348739745,0.00290856726835907,0.486792770682904,-0.123947488539438
0.506751439825725,0.0534837181307591,0.657232469438348,0.829636561993946,0.256956046157864,-0.9802806878011
0.980280341324399,0.460709314386399,0.766441416009726,0.873536237509211,0.865019175441201,-1
0.75977944850665,0.25856020477708,0.00455264146687535,0.615829684921117,0.698811316310432,-0.996264834337254
0.158536571342075,0.210620143963842,0.421118538020724,0.99634051540405,0.335988259068775,0.545399759004405
0.862534810750554,0.932755523166778,0.983968285671662,0.865073302501434,0.821082309393218,-1
0.272974042482795,0.35877028405668,0.380252083709436,0.248990923891429,0.796672673763678,0.935672662102172
0.659992323797759,0.270315381853645,0.455963991928885,0.19560061214262,0.767883836830737,-0.998110876595711
0.115674102078789,0.623997982111725,0.0117009290723459,0.805869897813574,0.510788238423779,0.905849791648458
0.247560516975042,0.985907220054131,0.838673115259671,0.749898585310108,0.338955294698835,-1
0.986939356113175,0.80895495832286,0.46777788977736,0.947246777385269,0.682421395980862,-1
0.0190334464623593,0.83566261589849,0.693042503517885,0.745678792406157,0.792008666358019,-1
0.856150206601808,0.33037887009822,0.143952984587637,0.986326381195455,0.0926026553976005,-0.999962032039639
0.296494517561254,0.726804934709548,0.550867777292143,0.125664524896414,0.466442258365355,0.00531670963535236
0.0203736639019064,0.851157796491431,0.813117097390563,0.0114056212145288,0.247977875996714,0.999842055974439
0.793229482761049,0.314683476826337,0.945174337625801,0.0274829729322454,0.0124295114825528,0.788761997112191
0.0318771853571288,0.575508192075271,0.370355251181672,0.655138128571277,0.655876837039135,-0.961726892889222
0.145479117342118,0.212931434577549,0.45506140325409,0.970372479953881,0.983786058955998,-1
0.246752498913524,0.606824260998079,0.158169681415435,0.283642362836507,0.846127706174634,0.33048395755837
0.0061919525095443,0.412766456656182,0.181128882344378,0.7679804613029,0.775003409504976,0.31115942240551
0.517515433793592,0.187149318480666,0.724307135062626,0.139433641427263,0.331010382831036,0.999994250441591
0.24957955168699,0.0703313493984808,0.284427841776852,0.992665028509939,0.657885537651801,-0.865655623950618
0.988812337959468,0.501880213874855,0.438174079802542,0.0111415614913476,0.211324478384023,0.205310956613403
0.359458870632779,0.704102830652237,0.110199990240238,0.148401544298602,0.763283098525257,0.831906211839948
0.435424085669505,0.985735293142142,0.611117293090533,0.643307558920624,0.986455568438799,-1
0.267766481166596,0.365388879648782,0.721967632545447,0.673867992830812,0.051678053290002,0.855552691203294
0.261162587689355,0.315128013313995,0.991985581835729,0.551871202042422,0.020559639884324,0.340460998635514
0.112164699718575,0.613503707384431,0.99219848670194,0.29499540289247,0.214118739061642,-0.693961004893216
0.0681659818494186,0.400473803328414,0.982964163105396,0.919208584667919,0.530052629303554,-1
0.722680307535835,0.341872934940108,0.522166208604941,0.448524775003384,0.0463579277067796,0.851146407319833
