"","","","","","y"
0.0626713679055683,0.981481562170666,0.263320180750452,0.32662229500711,0.92341324002482,-0.999999999967064
0.478719844738953,0.583422274910845,0.860605683771428,0.0987816199543886,0.340469138638582,-0.999083215237099
0.613766712823417,0.919956184574403,0.814515022211708,0.974649661686271,0.287838756933343,-1
0.275534873444121,0.821907447581179,0.189545704401098,0.245565758401062,0.753553707199171,-0.957335337836014
0.1571321156458,0.3196536391275,0.0928218860644847,0.913212711305823,0.554731917928439,0.971558624239672
0.586216683138628,0.749023833195679,0.510030014719814,0.827613191877026,0.517273223551456,-1
0.120419500372373,0.159401560819242,0.767277632944751,0.509182801132556,0.440655727277044,0.996028343450978
0.744081770454068,0.135030730941799,0.463821368012577,0.671600223181304,0.650640796113294,-1
0.778151913837064,0.433535013336223,0.115680116205476,0.647377183428034,0.708440151775722,-1
0.872020705521572,0.478581337828655,0.448732698359527,0.88823855338851,0.872152754862327,-1
0.0177931228536181,0.501822849432938,0.979694019677117,0.398077663767617,0.612636522005778,-0.999999994355731
0.342360312642995,0.860639071045443,0.563894542236812,0.0239692543400452,0.138999989884906,0.999941477044226
0.545047018036712,0.24717303266516,0.670760758779943,0.266705511999317,0.964136586454697,-1
0.953611079591792,0.653534123825375,0.707947508443613,0.557543157949112,0.0876046128803864,-1
0.204784353100695,0.0305746149038896,0.360047223896254,0.775165875791572,0.806455022236332,-0.139566382022017
0.350146139226854,0.282192114240024,0.912051819416229,0.42100176778622,0.23577138367109,-0.441738687092824
0.405034234095365,0.380341842223424,0.610621581214946,0.744737037550658,0.0281599016860127,-0.0301602129462986
0.662386239203624,0.636532790889032,0.313316615845542,0.137712861073669,0.197897163988091,0.999795600009791
0.924061814090237,0.795474733330775,0.249505271331873,0.16162086322438,0.464088929106947,-0.999999999999627
0.835196263552643,0.0916798715246841,0.0232839452335611,0.469534221547656,0.354694409098011,0.999999999972086
0.782216663328061,0.268065034437848,0.630921466147586,0.13576409551162,0.0243287341655232,0.99999996643094
0.183324486579071,0.0270147305498831,0.23506095326943,0.112814337083775,0.68884366036093,1
0.506522544061997,0.970645128379343,0.125374216605582,0.540987414123264,0.127478861544172,-0.92339504426582
0.0588220623327461,0.89195819445339,0.666609429405645,0.638115505319182,0.0239022806410842,-0.944287132510946
0.45475572352063,0.138806688359073,0.810592292347344,0.973506711986847,0.426032589561303,-1
0.188482212232483,0.024352085754145,0.915842005473778,0.153361093983852,0.619892325495797,0.999992968571265
0.14298406771328,0.53356952245031,0.369105964472644,0.457585568041585,0.564183422238581,0.907842828631213
0.458174724922015,0.555938548347214,0.461562152298431,0.151576224167161,0.558348668607539,-0.252028100462406
0.963621060695688,0.5852317097745,0.226231603822955,0.33061093639634,0.0211639109359008,0.500676616943921
0.805156852020385,0.167034338755077,0.572889389869362,0.677212979556436,0.0184164049478247,-0.791085704595882
0.795846141048155,0.966669519972726,0.731591372761011,0.443519135364934,0.970232605347643,-1
0.0873256154199319,0.24239706007696,0.936045903849715,0.765221499749563,0.0230904376567307,0.943950467080402
0.859667482603689,0.224972245439403,0.0258858208964057,0.110418114455986,0.93223946669851,0.180993668555713
0.0138956665096355,0.492378587753881,0.830078380594319,0.325422149896964,0.229067037837913,0.999997143856914
0.337625491319817,0.854198241464714,0.774934669934724,0.8560002384107,0.973325477583478,-1
0.0220456861242938,0.271136143776852,0.919114318821911,0.932119889063315,0.681482478003137,-1
0.762949786521095,0.0179918625847671,0.62396521069252,0.223022733535801,0.672447344844718,-0.976740098448997
0.484880171443851,0.0149549830534045,0.323702378845289,0.852161385747534,0.379522043604602,0.94141519929644
0.158900540846219,0.207938549297001,0.0468157732527014,0.50407037546427,0.0349767857317657,1
0.232619223486702,0.581276454499659,0.233776854427206,0.844995428732649,0.0153849949506294,0.999988603275961
0.603627668380876,0.143147304179375,0.0123543798459236,0.665482747351133,0.739216197002592,0.0384182325781528
0.270209781941088,0.520120299928295,0.231753512631735,0.560921565329198,0.718462910233844,-0.977842419103008
0.108855931343292,0.530159809856807,0.970146759958337,0.0199922356388573,0.367721621058679,0.996041337487989
0.858431227816096,0.65799764441422,0.0229959097884149,0.91971745788875,0.252842011522812,-1
0.735746917886684,0.115792803549596,0.439763959800149,0.504882606513392,0.350008288795662,0.271726360670808
0.158046853755823,0.517818684021402,0.701971896673647,0.62711576986688,0.473355608952847,-0.999999876839942
0.692418929255919,0.0685855570421498,0.0502406992676074,0.839214288735236,0.0208090330981003,1
0.70986172764578,0.582161250956848,0.537309782973079,0.207166470313388,0.278789541231178,-0.98833768798105
0.804432068191827,0.906126634228283,0.0712830576847149,0.739461251192635,0.974541615270667,-1
0.628991616291833,0.735383423906355,0.01807255258161,0.112640673485279,0.456639462759664,0.999735334463018
0.750702441759229,0.978947481328728,0.127028236874153,0.0729761219629138,0.103002841283942,0.977047079388651
0.0694734758258242,0.503197448709207,0.922175523027831,0.0282745328560115,0.969756005900795,-0.999999969049422
0.106174828488816,0.602400778096439,0.0651552528564041,0.0216023387076096,0.395739845650033,1
0.451605239335614,0.926522707618399,0.974462265245122,0.385434332736618,0.0332083041325629,-1
0.0193362005255166,0.929476013762008,0.127098137496714,0.50329345640436,0.231129473627469,0.999999998525952
0.971804292821693,0.76393775450109,0.877400732589923,0.0275990620559639,0.14719929750633,-1
0.0949579239296706,0.97604001198801,0.841807247225447,0.037976601261153,0.498791796965037,-0.999998421953212
0.323440199376033,0.188794032055047,0.4776789835626,0.465509052871685,0.685819202446813,0.3338805283001
0.566628063399804,0.470632943538368,0.381395400775109,0.991041670980595,0.18155307530145,-0.999999999999421
0.061299033258018,0.918500363801631,0.889878279381169,0.0973704877891269,0.0212524798536454,0.997529829806105
0.514688326416502,0.554192233076774,0.070293409083045,0.606334302615903,0.355851531877096,0.732265231952498
0.547387441303899,0.00726279917012933,0.666167958627936,0.58174420092573,0.411673529136871,-0.580493176767235
0.500665960119762,0.367762758725088,0.164114895253923,0.285642276978755,0.682291727610513,0.995202446852599
0.00594173175903039,0.974717552493472,0.56337196750235,0.32448130650901,0.340262534663971,-0.525146036071843
0.25341773793286,0.337317154896402,0.562291109380962,0.903349651969799,0.313712582233615,-0.999443920305322
0.755627701852251,0.355799508858802,0.976391201605944,0.197251976047216,0.759213548198639,-1
0.637827196467052,0.087089000447725,0.950197955263809,0.774089634798703,0.974060359141602,-1
0.151053053275956,0.096434131296404,0.738861587154629,0.164029603377046,0.0214001980821699,1
0.292410651589006,0.898423708043537,0.226328157594552,0.514124551915617,0.0100179690409459,0.99986896951701
0.902689385665942,0.342033922761903,0.913676874268722,0.979140042919547,0.315941433058256,-1
0.983505756603781,0.232637746117726,0.925124865697406,0.272936188348682,0.349752126868978,-1
0.900266759157032,0.015548177068402,0.559597014536811,0.32670995379094,0.235859925589316,0.971027028742628
0.211054837755117,0.468672502464284,0.249035341562874,0.0119946323622098,0.860065884333816,0.999999999465309
0.139842527558771,0.276237463386202,0.0401136709449926,0.385680942146029,0.98035988007917,0.999999994940642
0.606893484440155,0.234291160770792,0.542508882923749,0.0107991340618239,0.481308796091626,0.999999203186438
0.696175299976161,0.831188471985638,0.451580356618005,0.381103998701413,0.00509995276547476,-0.999243780755631
0.0603750343979299,0.619849417376321,0.585123444260264,0.528336356630352,0.41991342588732,-0.574226964851612
0.0167300075791313,0.835333945518091,0.341985494169742,0.975112346803454,0.359690487928097,-0.999999999207855
0.468174018155028,0.717726489920553,0.24812473251725,0.646431227844907,0.115897730913295,-0.38560800707651
0.498360965628786,0.270681527424414,0.988547519017482,0.0129176820136347,0.260482981894637,0.978692891041665
0.237062807840458,0.849005041880958,0.284991815978069,0.00942343978601992,0.579559503566289,0.999546003832192
0.236181376402148,0.00890535790083689,0.509574471074435,0.425157997415896,0.897605727731402,0.870096486684012
0.0913345927783706,0.42379680422945,0.605665364049457,0.41598888670933,0.844208975624183,-0.99972445271198
0.706578879515856,0.311774065523626,0.987160809746042,0.231129042147139,0.0307557741348704,-0.912637390767899
0.650678745103056,0.923077711988328,0.231612241101824,0.0210320769567686,0.919987066134201,-1
0.00791424438429575,0.683789514944362,0.111958332349184,0.645397653112826,0.631476329545124,0.85617234671547
0.697748870582525,0.0112242279789891,0.850312841161118,0.140293657756835,0.417326597857925,0.601589381678184
0.837649883540753,0.960568035810251,0.647109530288024,0.978037376800861,0.928980587585291,-1
0.0172286034749875,0.353183396637879,0.382077897868609,0.923219817935713,0.973293185737374,-1
0.434452252805732,0.0138226463421164,0.243713780677554,0.135715530601078,0.131558221714899,1
0.950162075197035,0.0213805650045347,0.923719629447624,0.534680878149293,0.0846176595053468,-0.999999996451203
0.340549936241328,0.479922012383276,0.801408519392006,0.327631675104056,0.00203197684985782,0.99973852503106
0.411051029265911,0.993860787783433,0.468171649669022,0.324077439998465,0.0268607003833205,-0.66961844156769
0.329340321946564,0.727038839134602,0.503544011632237,0.532519572955481,0.0344784265857526,0.500008679513916
0.941849902481103,0.98342006939906,0.456788125613506,0.749219997675933,0.271938617324556,-1
0.421854085695251,0.071522922618131,0.356897092260695,0.508530703954921,0.99181440911774,-0.998202377101531
0.982404244904545,0.0219970127171962,0.9768197847879,0.0407173488100319,0.058581385287436,0.856248158796875
0.111729891207205,0.037062617698697,0.944871571080099,0.469481946999906,0.982855937925455,-0.99999999987857
0.980672487268577,0.670303223926199,0.615515617356948,0.0296744519921297,0.851353883509925,-1
0.450814112812933,0.198365370798243,0.203268975402837,0.984846304314574,0.747213368159687,-0.999999999998669
0.279151995067915,0.720267617217983,0.58968363361692,0.276610722426073,0.305412030711345,-0.0603242273692259
0.192599296119037,0.0170705957719403,0.246750729457272,0.905187549070534,0.13639170360266,1
0.324464243284497,0.228914931690217,0.994956556404103,0.15989930939165,0.725841644033241,-0.999994323625117
0.0181795258307162,0.937823368405509,0.0271105564269511,0.931589941602528,0.949898104385017,-1
0.507300796705063,0.808533535063787,0.521912421821125,0.172543566383931,0.0532574497228019,0.919879220708829
0.295054968218877,0.905242790632958,0.0100137355897914,0.260321043070862,0.575323463199557,0.959491701835811
0.789535600907075,0.702044832177235,0.981141815095866,0.857063816265626,0.725452460895945,-1
0.134784796151581,0.0141294621136704,0.816036328459643,0.861567966454106,0.439510391889513,-0.908249220152623
0.00680594033789141,0.495976232954196,0.100822140563554,0.767549265730113,0.81947630019514,-0.31574904381545
0.981857151483937,0.554648043091143,0.422139313164663,0.0082666302101855,0.327568283633318,-0.96992144419257
0.493009330992433,0.664173139964036,0.0394696845457922,0.426028908537465,0.995140522651351,-0.999999999999981
0.986233520588035,0.469331548587925,0.756692424196894,0.607063148887916,0.84360908614066,-1
0.983950619468851,0.152477037730446,0.238841087862891,0.0271702644850933,0.0706579946059252,1
0.35070490222552,0.928598726374752,0.535141404300862,0.994307791306076,0.706541013840159,-1
0.212188846790599,0.867447019787769,0.982992714112382,0.825058134676971,0.395533795456855,-1
0.286280105457043,0.902696219440722,0.0170246122497532,0.875561790279147,0.0957172213515245,-0.142936433514077
0.74022437763988,0.485131501848966,0.269180706841375,0.00400579080504376,0.730272013954827,-0.708429147777489
0.537846407193679,0.087645202676074,0.695242245328748,0.0131074026517697,0.781231821600729,0.618737361128432
0.794292276165426,0.325300350619478,0.312269170158262,0.992223132944932,0.448259434369745,-1
0.919246120094547,0.162564907559233,0.421336653695698,0.345929430219481,0.420279756939628,-0.918615805834947
0.443528608919948,0.933580270402591,0.0629724025718244,0.570149593705225,0.470993684505813,-0.99999990613879
0.166367618025652,0.180434752280886,0.606559665724901,0.587187417164059,0.726037855553152,-0.910059096461164
0.368319689633419,0.406505373369651,0.459007986770899,0.64066748942637,0.347545222630636,-0.652687233716554
0.0964895650894715,0.658137516330144,0.541201782704061,0.140053049734221,0.651470840522973,0.821698039819407
0.622121341770837,0.862961765272646,0.937692115847183,0.0113408756706039,0.750894714261951,-1
0.93571326839883,0.0086597267108043,0.471795302627197,0.129011381128531,0.404311551995095,0.999771825997777
0.0893052461548557,0.22891485134102,0.0163820914168895,0.889267591754326,0.900895801148843,0.522968429025729
0.1543763877843,0.0135854417077601,0.76032626719035,0.0284636882240037,0.908454144231248,0.99999968784808
0.934201992367475,0.646607634790026,0.441395875215116,0.385992519281367,0.991439533139348,-1
0.837067459811722,0.986394857001594,0.949595081520467,0.551136886478593,0.557873651162519,-1
0.951737517630877,0.880828635512119,0.985447457405135,0.986800555683018,0.534448720366551,-1
0.98415023445442,0.983475411191271,0.912782068245354,0.141151258112295,0.705296392609438,-1
0.160725784049758,0.732180687462613,0.626093341133683,0.983961888845822,0.0249630658958184,-0.99999999912536
0.0121566534583809,0.740722255545599,0.790733829995035,0.813434406017569,0.765672053654215,-1
0.881936949821074,0.643576601619883,0.533831083724055,0.154413049566573,0.00670094775558167,-0.638694306564154
0.776498243463371,0.39246965472715,0.453405469743112,0.332224991560808,0.14843400734403,0.719817685996698
0.111811061152187,0.551920549548326,0.436918643839945,0.218102389802485,0.871545804414293,-0.311612742396983
0.478819335510425,0.00342023533807491,0.744121670934481,0.501783854267674,0.140316387281748,0.999999582301389
0.67004719428436,0.0309562405652456,0.35950895225996,0.98885069493082,0.534200059639909,-0.999999999998505
0.510471670002706,0.0647703601865192,0.988001420567461,0.907591892053522,0.22115180295262,-1
0.371347950672584,0.574351403688054,0.00191735099455865,0.856806364134965,0.587933791207206,-0.999871903391923
0.559013805046851,0.240029399973111,0.00610484111443343,0.905199893953584,0.544793765488998,-0.866766269581254
0.987868307610769,0.836420198080667,0.929263841297991,0.627234014031359,0.973024079090951,-1
0.083293002989185,0.871907112535987,0.986252879685908,0.518537166861318,0.780199645730507,-1
0.98558954908677,0.925754347723332,0.11455303209203,0.527846740723819,0.406450448327655,-1
0.327586354429291,0.199175219616975,0.580105929391439,0.954228121926464,0.00852812086411858,0.900415841320846
0.53535586016551,0.576089804387895,0.302489699275132,0.92190910013398,0.99299727889209,-1
0.647787212153319,0.826965347110896,0.313195236781232,0.0495480644133854,0.422201102268267,-0.885612664026067
0.0122669715139939,0.260210359161847,0.370438392775706,0.210701067077156,0.265970170532652,1
