"","","","","","y"
0.28038115228992,0.330183475685772,0.738751650089398,0.381118543969933,0.718176887254231,-0.999998288133809
0.450116519117728,0.864623370580375,0.606361907545943,0.679632401070558,0.635001007374376,-1
0.169145856925752,0.954642178898212,0.960016037023161,0.823506236611866,0.539787133783102,-1
0.0593462381977588,0.246552728803363,0.822690739925019,0.937896752590314,0.446218333672732,-0.999999995706292
0.805177551764064,0.756717245618347,0.330862605653238,0.528754249948543,0.772062375023961,-1
0.750832222390454,0.00935112052829936,0.0533729681978002,0.592224282363895,0.397857619368006,0.999999999276203
0.108932460600045,0.443113024020568,0.914150979928672,0.308723401534371,0.193750165752135,0.999220897719985
0.697105039469898,0.593682589777745,0.378433024662081,0.220269056828693,0.0600793558754958,0.999770639578008
0.306928106490523,0.505976074247155,0.873775080638006,0.635625298414379,0.0151341860648245,-0.996245670834621
0.894183826481458,0.801410835189745,0.583083174726926,0.427133378898725,0.284153311338741,-1
0.705976144596934,0.366709043225273,0.79797723548254,0.729667035874445,0.817252883943729,-1
0.520663828519173,0.183545718633104,0.535977817745879,0.483687276253477,0.244163864571601,0.999250583655097
0.973484240844846,0.742700184416026,0.030848131806124,0.290582659805659,0.85580848089885,-1
0.0389086159644648,0.0511459677712992,0.190895415865816,0.895875477825757,0.996338870853651,-0.0878042069401923
0.373356554366183,0.279625467443839,0.232633047364652,0.0132464751717634,0.906972766353283,0.999999999084743
0.90009913922986,0.49727177527966,0.473911229101941,0.0921163656399585,0.6689745049458,-0.999999999999997
0.432399429113138,0.101333032315597,0.414293251640629,0.197897949046455,0.555620811576955,0.999999999999997
0.589812099759001,0.904311816534027,0.280543529335409,0.95391841448145,0.149778529303148,-1
0.619956916943192,0.672000144026242,0.105510369536933,0.101448797201738,0.329233092244249,0.999999990798655
0.24537627795944,0.626339906651992,0.679964926838875,0.790208835853264,0.466858368972316,-1
0.0305351190038491,0.728097735853567,0.34673967656384,0.587745494419738,0.369775567096037,0.921776398744909
0.098700158531163,0.188687057093488,0.115826816868882,0.181835944503403,0.0369247451207476,1
0.205964293134662,0.137823043553677,0.141951444149284,0.971235017435296,0.19782946207092,1
0.966379598803818,0.309207515356935,0.882351179434937,0.215264673081417,0.038754587952559,-0.999968552716532
0.626556052609711,0.843355253522377,0.976270252004313,0.101369343233399,0.360044256016364,-1
0.370389507638831,0.874452481508403,0.569815983047775,0.441473479141794,0.0190962378871174,-0.934574808251552
0.737974620091806,0.429089341577897,0.522217650820582,0.566982510158902,0.321993466079631,-0.99999999999715
0.0144175721372058,0.514541830366148,0.552422598323742,0.47808944081713,0.657469600302588,-0.606442969387418
0.0391938507899903,0.976873213476062,0.798326261001601,0.288718836974577,0.26521095025546,-0.999378887347617
0.238878576733197,0.635194028180532,0.613162973654687,0.333262083273257,0.36382282228263,-0.23551406696548
0.560696503976249,0.433674896403613,0.171412349167945,0.705431683643433,0.561612556253089,-0.99999372506797
0.975490842469968,0.936012156397187,0.113343906259919,0.349399692761604,0.156458450057623,-0.99999999935055
0.569283677612496,0.475730399618169,0.565341424801588,0.23810034571254,0.375450935878141,-0.668649376393617
0.307755251214723,0.874321507936602,0.129659069038957,0.485078763162957,0.0146406705892935,0.9999999983414
0.984397267237566,0.493703985262997,0.0503037513583433,0.137960054988602,0.435798028149453,0.726335277973938
0.158203710457932,0.342328421840299,0.253208050156585,0.636702176440793,0.469991800282839,0.999999797402087
0.707355305442013,0.128375041942599,0.244638313453273,0.495640595875648,0.97948461242835,-0.999999999958499
0.348062391963416,0.0178132597031821,0.451555505846345,0.342782608602287,0.926355635306246,0.825947083085022
0.0520760340307675,0.964836768631113,0.241675627801363,0.255797134545095,0.911536097823104,-0.999989160095677
0.515718749391094,0.900147334795375,0.0727241693555179,0.85146916777493,0.973710487078054,-1
0.889746003307267,0.974456691129079,0.921490321432204,0.612465269700198,0.701590589774304,-1
0.69021468734927,0.0213928690293509,0.640266158971887,0.912573819746897,0.308162923524585,-0.999999999994385
0.347789762426646,0.762179731274419,0.177953543577426,0.497828506791315,0.526751411847305,-0.986673543085146
0.758659607579416,0.344178147376228,0.178044580135603,0.843342077292721,0.0242017396864856,0.243098183185271
0.398108038521253,0.576741190745101,0.0145298798675591,0.119257601273736,0.623364305056866,0.999999999999837
0.139723884191852,0.837312071267617,0.0194323577688601,0.943639335732804,0.302180566600401,-0.800627099644355
0.394013281947724,0.705222960575997,0.396429653126598,0.657863921152173,0.0987711551044844,-0.85384907359136
0.338939144071532,0.105110145779593,0.976190001104487,0.39734594680501,0.51091849503907,-0.993975888607058
0.926212263644575,0.121030981220529,0.365894426356946,0.0190845632951478,0.645930994894273,0.866934613011643
0.98300966766721,0.203038473526535,0.353447572027797,0.584363363409457,0.242165631196421,-0.99928358298377
0.335951246742132,0.477617538313162,0.569564249103799,0.196089598904789,0.372827615233884,0.999729641526617
0.384106661599844,0.298599473687934,0.922838992499772,0.0519550430518303,0.968449360799384,-0.999999999999994
0.221027013015805,0.021354377499059,0.773541375824644,0.628769114556712,0.10251722845872,0.999999999998908
0.687343779196794,0.981346928405795,0.263041126372463,0.0219719525509499,0.543839660359168,-0.999999980362542
0.216681923622804,0.00956537973313498,0.528528144314857,0.927285805260796,0.399920050303508,0.849326973867075
0.198632116911383,0.347121602542572,0.937319139915656,0.812077306653486,0.975360931661052,-1
0.885012960296847,0.0991777542423108,0.172962651153425,0.240808228610126,0.0230300122357437,1
0.516001916274499,0.703393326180577,0.332881632068808,0.012671065302506,0.949661288055899,-0.999999996468846
0.82983427726183,0.0240131431854053,0.965493995065543,0.279002526199525,0.689128951199717,-1
0.949047065186553,0.00913222945406159,0.378584004372802,0.348151016022771,0.40053701783061,0.831880032832414
0.196057284083773,0.363757754320744,0.296037045229892,0.921233592769983,0.552699628429878,-0.994363575572044
0.71255765826559,0.0350129439738164,0.455651824317942,0.495062474801837,0.616921126609585,-0.988291047120956
0.192635221425314,0.980766137764314,0.938977976371821,0.208162070900917,0.745632157595777,-1
0.976413687304831,0.652425539424894,0.140763252145744,0.865718425285742,0.477724840480583,-1
0.230819989330555,0.631458898905769,0.317997880214257,0.713531305052891,0.166388601254327,0.929215215341107
0.615736286380037,0.714339602922144,0.883291448006648,0.978761780779096,0.236760926272093,-1
0.66929928075195,0.977152651132232,0.459394542930716,0.0226896704903288,0.0386836558126136,-0.00748963470296737
0.191679033617418,0.835834172063179,0.0192217187301495,0.0236846285406967,0.25384020737079,1
0.276849596944327,0.0213494423949928,0.851253350416567,0.136099542585729,0.058042905950419,1
0.685285976642966,0.011796637994793,0.598914096213899,0.173651130183826,0.969210699716369,-0.999996148690605
0.248037779393843,0.552140217496361,0.0150491628050982,0.400608708941051,0.971750650832973,-0.277426646486785
0.272738688772718,0.624704157254971,0.35249137533011,0.00714708693223783,0.811764615962076,0.903100241690584
0.304766207558909,0.940884619030302,0.667208219123933,0.0128924910027984,0.317146668619632,-0.804228208388148
0.0624207505717544,0.520885385845278,0.445836537126347,0.0127497207907329,0.283978166062562,1
0.618216991225062,0.00879234933781285,0.290763858849295,0.196989137592323,0.794373481963957,0.999987600551318
0.194840570737825,0.00988036578674004,0.719300055269625,0.339292018492041,0.723261496177774,0.997758871443212
0.975506813258862,0.499866034247522,0.457616055951603,0.0097423065499091,0.358825941707508,-0.977930374421468
0.0215829406254882,0.385033092944123,0.987738959101349,0.296265798638708,0.767559965233946,-0.99999924695209
0.497140364073993,0.665670528552101,0.89636562973576,0.0945852342510607,0.0152147271197483,-0.0312681857403353
0.104935902109954,0.573099846080359,0.750952151523264,0.0115255944062885,0.748553305894596,-0.296160634404611
0.0920195085581523,0.0132853208927422,0.703123689024272,0.822150487962174,0.739719770644986,-0.999451239032199
0.638166513500724,0.879311985865918,0.93337996311632,0.019732455843777,0.89383741566686,-1
0.667586965794414,0.567639846710759,0.0571785171514055,0.0114743571308453,0.783866971979492,0.819532485723824
0.416869102691789,0.0232922669881072,0.428639700115429,0.774195391326893,0.576486726884053,-0.629921371024411
0.775159367571951,0.434222305503712,0.116567878423728,0.541020886796022,0.371071312696978,-0.774210106210775
0.0818259879563513,0.801345761973678,0.540464760162035,0.00699142543430187,0.372651800819831,0.999999999303497
0.551968095277696,0.224263523667547,0.399165225083198,0.229501511216014,0.770600510753763,-0.119146541693229
0.983182597445824,0.146153908860953,0.215727305598504,0.892800543791462,0.27397300603162,-0.999999995307942
0.54793457136104,0.474570939347902,0.131369514389919,0.992098707774675,0.170189884032282,-0.988820817523175
0.585858760067201,0.988957952485577,0.644970045863814,0.969868919352356,0.544544675256587,-1
0.115934049113885,0.0913928518237874,0.988228288527441,0.489588296908624,0.363071836006008,0.955588490331599
0.375119611737969,0.992669840563378,0.204969755644961,0.158480695347239,0.345335866697717,0.873709081465682
0.853227506832544,0.789400603463543,0.547699405064913,0.980583776359753,0.81602114872243,-1
0.203249799954589,0.4256074986169,0.317694151917258,0.311865365205014,0.995100954933248,-0.859494743133236
0.0403809627027005,0.651397539313312,0.00972548565942573,0.498057176789196,0.69829767881492,0.999994928789429
0.444864699271906,0.00708078840894727,0.209363633586869,0.888829543839105,0.451604191721484,0.994871502295502
0.509995319095227,0.91622052093921,0.764372560257538,0.898479828672378,0.980129405820379,-1
0.971505038351903,0.606356057546657,0.101788600647744,0.816603127357289,0.982054991392165,-1
0.604171314968556,0.368807458418806,0.543384407721045,0.952554600364223,0.99174057653146,-1
0.430830611551743,0.310264856920228,0.989839470575054,0.314910926209419,0.0571772916725412,0.719887287198946
0.98609903790031,0.0814290847540739,0.153865649052584,0.45669519281815,0.734693514485568,-0.999970426228626
0.538592927359835,0.697123425538893,0.00268671679062072,0.303149051841282,0.493142033208482,0.974886202753959
0.769712951315968,0.00770190398841492,0.76430501359159,0.378144548135445,0.271608844579769,-0.326231683672503
0.706034102144643,0.113054677055267,0.850727387623925,0.014028126964273,0.473478727523643,0.125989906831676
0.214591804808157,0.266121014134158,0.852398402143079,0.64657237418805,0.317453074702279,-0.973181495153477
0.73547111250463,0.0644877191132879,0.977688818743133,0.937297400079067,0.871296414235994,-1
0.368934381861666,0.277386423127062,0.544246359058928,0.801647341801058,0.193718812273041,-0.256306336446367
0.547207806824812,0.284845802742298,0.131627755390162,0.418358668281681,0.721407204317207,0.716670232801187
0.159325683867772,0.726580310112821,0.249078182245691,0.711390754879941,0.736975139158872,-0.999999999998466
0.582365808032164,0.826363782408555,0.014420468850775,0.770085982601172,0.0144458362873742,-0.513603246800751
0.325662327363743,0.237345120929426,0.386912802252529,0.477503792304433,0.734586534829637,0.0629804614846801
0.531675583006714,0.335389895845582,0.96436026401729,0.605923837888852,0.00900688440841474,-0.999997930263978
0.682413844226298,0.464794929456336,0.463659187773301,0.519483046436014,0.0214225497429491,0.199534296709374
0.105935313250738,0.74415622062928,0.985975459971222,0.0643574124812727,0.363195293946357,-0.900101838817437
0.00767934176275603,0.825752535795886,0.672231323780213,0.101510670320063,0.540179268867,0.256907930662531
0.609945669095738,0.496515736581437,0.135370585445812,0.271556009222899,0.876996534752128,-0.999853316516636
0.608999343171814,0.149614758638184,0.0140747146891829,0.912062830255001,0.584322708621601,-0.917774402900923
0.0499309188350398,0.203497372751654,0.726547623964286,0.0142456985952126,0.922043896879537,0.99997857025537
0.794454193475252,0.839956295248279,0.00953517269053997,0.0984518095270819,0.44516410887292,-0.277109551012092
0.982964189065775,0.948245229174746,0.62109925169751,0.120702276167524,0.421615316490926,-1
0.210355513927814,0.503817516801078,0.570339398737744,0.989343163699038,0.152576911769545,-0.999989584967598
0.463527136549103,0.786913563439135,0.472260206944516,0.0145062611365035,0.319187648896886,0.938706926167687
0.300620359870932,0.288496120698144,0.658758149133425,0.147707390047622,0.780574128859744,-0.127939559768588
0.581813901311986,0.993689359451269,0.228643520211387,0.398139031421017,0.12720491608807,-0.994276511625772
0.622742625400594,0.617158175875757,0.334513896600865,0.0783861986873485,0.571062407000078,-0.668281942454029
0.506965941901158,0.379283645786762,0.73215887425852,0.466288455152447,0.120392618723079,-0.48563605714282
0.278411304792536,0.811152554219484,0.340383500254607,0.417311503689383,0.273237096066683,0.566691623106672
0.689401962713725,0.26126631034483,0.168907446557088,0.308452326820258,0.815137053321117,-0.805788753748782
0.0156993913266368,0.668354467569027,0.879410874677743,0.798695419364788,0.185325642107844,-0.999999999897159
0.133230527387923,0.732617664225649,0.368624596959753,0.305599848156636,0.608324848975157,0.243468155024007
0.503051885040809,0.503621314496525,0.934997278073901,0.545096373789064,0.993781470563673,-1
0.986283904479609,0.717999591343837,0.727378415327368,0.232216423275272,0.774482036172577,-1
0.448122156551124,0.975907475188551,0.00742776414509327,0.449166903024554,0.204803317583622,0.832004216693188
0.833607888408184,0.645681576531952,0.953607707660157,0.477021669544022,0.984699758528268,-1
0.74501515676343,0.391185577596207,0.00326258891838019,0.408233461238052,0.580830594073488,0.482526726045074
0.30513855742977,0.177085484718639,0.529406137947188,0.559658838167615,0.510990582908031,0.847883648105887
0.113778589926074,0.657246956943569,0.65928143627885,0.458960108350002,0.0104338352287199,0.999994117213316
0.981405965854358,0.108192958876095,0.763413188253596,0.457079010920807,0.974638873339439,-1
0.648022508279233,0.206401357312636,0.263377164852551,0.992241003320821,0.156414188446116,-0.9096367959809
0.872885922049874,0.9836459490123,0.181328611731343,0.879647630069321,0.5209879067339,-1
0.0948134219557736,0.856039693088168,0.432997531947277,0.86719322281415,0.988030039907166,-1
0.429841736435787,0.490626832895159,0.727738770354901,0.273872773917252,0.217481001818337,0.354481237290137
0.589594427497666,0.0304995310564933,0.926961772468388,0.417358879825915,0.00959860902699762,0.998922384239486
0.948396589454295,0.689609885993278,0.053439104987805,0.0169861891275549,0.109365881352258,0.999999996790426
0.18431539203503,0.42921924326114,0.69193361601293,0.174242774459679,0.61194501142316,0.796972233020029
0.452826505083576,0.0605083535536943,0.420498587958129,0.994337775398702,0.417812480617854,-0.997658540600674
0.809099594969228,0.200777166434291,0.531589422915822,0.204829095332511,0.317155246625902,0.920163579592544
0.8928200108723,0.406675057524647,0.0126918822145222,0.572589676887557,0.0357847478890914,0.999970403016251
0.259604930073454,0.634277152418816,0.761613185576191,0.00219590100577869,0.453743998779567,0.651400682138139
