"","","","","","y"
0.86981872926699,0.274310743855312,0.324847045110073,0.719352020963561,0.582162377680652,-1
0.167191512335557,0.697805204160977,0.802135587076191,0.0382693698164076,0.260188502131496,0.999356020126586
0.784237728232984,0.619808387674857,0.852922796830535,0.536812698503491,0.331242622772697,-1
0.681458432064392,0.578295907925349,0.989466025296133,0.409204235172365,0.691634422005154,-1
0.126521911052987,0.073656495125033,0.278161336656194,0.461060840904247,0.98533335744869,0.999959696781313
0.41605963309994,0.487976746959612,0.058013320621103,0.88125625224784,0.10541572450893,0.999783250002231
0.543316939042416,0.738932662631851,0.788954955514055,0.825254284241237,0.543782099348027,-1
0.582879118109122,0.994814427336678,0.940475988457911,0.337911549641285,0.440275010524783,-1
0.233367858536076,0.375664573942777,0.158905369974673,0.378138170263264,0.863454224204179,0.992339869113156
0.985950757132377,0.809653212386183,0.546214987349231,0.0525276403757744,0.248355462879408,-0.999999999999999
0.304622323694639,0.34518348624697,0.659349583555013,0.21013294759905,0.464427899185102,0.998095740505304
0.0899315636488609,0.0237560613080859,0.588538590888493,0.799614851223305,0.840554976719432,-0.997138397235542
0.73170223912457,0.542300514166709,0.725084739783779,0.583160746481735,0.775582768442109,-1
0.476231908972841,0.867350168991834,0.140461796917953,0.660698749416042,0.721150694065727,-1
0.818881677580066,0.939232528931461,0.618232279189397,0.936580997949932,0.169016625965014,-1
0.635741563432384,0.751852912711911,0.0249279568437487,0.28607451870339,0.398925900016911,0.759368350735001
0.297452934773173,0.164804604707751,0.362966319685802,0.196198698983062,0.936601961811539,0.999601045821354
0.386986166075803,0.42967181840213,0.404013071930967,0.140068165806588,0.063057944108732,1
0.914155188819859,0.235707854502834,0.243410752690397,0.635066152259242,0.00308900208910927,0.978270322609925
0.0218705467414111,0.116532411624212,0.495210256322753,0.972005842451472,0.619248512748163,-0.67670142453258
0.842282065218274,0.149258180855214,0.86057386066941,0.0836502264790736,0.022203458620701,0.999602498940416
0.392318597454781,0.92847231124936,0.249674679336371,0.0371804337401409,0.955518256251539,-0.999999999982892
0.305716227180514,0.620792888766835,0.439223774190332,0.485257808321427,0.660557048124855,-0.999999995167103
0.963625651641194,0.456626056627342,0.0497230048177075,0.0347953864711317,0.810307648850298,-0.98821841280116
0.128771349878893,0.508688668598787,0.829112261568811,0.186907393535698,0.973689962378383,-0.999999999999994
0.0333580036725544,0.0344938320234007,0.912735549108849,0.052526861985107,0.452981625605516,1
0.684041046021682,0.1351198763283,0.765769889510535,0.0155275081818148,0.745208575592529,-0.997616362292863
0.213135616508828,0.0477284739486804,0.700422317126467,0.101998113747078,0.981876309656733,0.960794397416233
0.0712079602257422,0.967197059526807,0.60503104725391,0.851482517840261,0.407239191002817,-1
0.873821473443883,0.115098684683543,0.765000118666241,0.966933104802066,0.228755568660458,-1
0.358265289677732,0.975715190474666,0.411933873665456,0.39399309274914,0.028261977729174,-0.0203459593535813
0.269802687645383,0.392051394384917,0.70997504728787,0.0720682801677076,0.728243871936033,-0.0740227883461986
0.972124651128037,0.947158412423833,0.656524841885117,0.115459963664973,0.848541815467681,-1
0.393909453618595,0.760650953785781,0.778758582038033,0.506837954370312,0.017738195108984,-0.999999227980912
0.433750441876085,0.186236540957664,0.409545604764329,0.503570918655411,0.635361595822421,-0.0243480245063428
0.156177631898392,0.369168780110857,0.971134711067796,0.805266827750489,0.25542755602722,-0.999999999965778
0.177302889605427,0.0248775925044183,0.516230956918803,0.724699306037828,0.031974000610467,1
0.0215537374822119,0.125184817458176,0.214378673844126,0.0303300017047704,0.616983886128299,1
0.985558508502898,0.0420593965456881,0.509759788055285,0.328203678640966,0.381564475018112,-0.827991024838697
0.107024866304328,0.984534229544046,0.0399622491217793,0.553614839174762,0.410634438226533,0.77108008316501
0.924354784939148,0.645018494532191,0.0276993038905785,0.939613725928488,0.337686933132903,-1
0.267162983543845,0.452013631344199,0.0179809293322482,0.871606341739081,0.563128003359127,-0.0706597739150866
0.979807605836285,0.92560760680234,0.597762960797295,0.95424879629772,0.821473121932669,-1
0.806025449960367,0.0201767261197851,0.203738327977997,0.0462868599917313,0.240614392942918,1
0.80347338624977,0.178080773848384,0.0163535271800259,0.70752947468605,0.369987994382341,0.878478737108224
0.622460550929156,0.79989505542573,0.928465706021482,0.0895647594584723,0.0197752125853074,-0.99999936667842
0.929592187713825,0.0523840902055023,0.706845509810998,0.814317046474878,0.964363092411715,-1
0.55203023305992,0.00559156609931707,0.626946000554059,0.0972041325309954,0.563614019161065,0.999999950281586
0.0192599062107365,0.596598394154981,0.228539345464303,0.921402950234162,0.894458039839922,-1
0.29948533889091,0.566173601791706,0.975510069596729,0.874094616742382,0.85483094189805,-1
0.121853298257154,0.82453410193389,0.236594602950896,0.0210677547437044,0.370024950575552,1
0.458156259226366,0.824901814469125,0.55653446728543,0.00477219916268998,0.369496352297859,-0.576819702428736
0.652520834855023,0.0819910383658794,0.772978488053349,0.338359813408989,0.496187723341997,-0.997081065052182
0.556270133814729,0.521599028706948,0.788960201079127,0.00463568126196916,0.280584771223249,0.195909060537975
0.439172101844031,0.0174533480429466,0.150093716156594,0.926540873104367,0.813748906779629,-0.997790395934051
0.988476558919299,0.614881189673819,0.0609418330620872,0.342642693956824,0.280595746389828,-0.95975787195214
0.566426674548102,0.530735583061776,0.35065799425446,0.508136910757716,0.356893602868796,-0.986892181397551
0.672864094940932,0.975928844751429,0.0525271627545521,0.0219261140105766,0.0632535163103128,0.999999999889359
0.962625159016531,0.42820272563704,0.345424184280755,0.110272430961066,0.011550316656849,0.99999983677229
0.316058060629317,0.246004856011099,0.0208977688423316,0.274787323423999,0.0226473210591315,1
0.261234456057964,0.592487591445557,0.577651414208086,0.983985718036527,0.0332268316086052,-0.999998284413134
0.784311210572691,0.699203655549918,0.150425274020999,0.723764118500068,0.0135692360401254,-0.999483967228052
0.0216100880894792,0.64015449009949,0.217993792054902,0.380882990736199,0.0231778349086522,1
0.186808183204051,0.387261780027805,0.898197760974991,0.412428516612823,0.0155579317987499,0.999993850121088
0.296515491722563,0.54746319699811,0.557363581177955,0.417279521399588,0.256392085332523,0.880149028872608
0.0111341291602228,0.549047974991501,0.902192890617967,0.382625126341048,0.471342606364749,-0.988917509714406
0.081041769736579,0.0171376367905375,0.0345083364362527,0.855531946670272,0.340863846981434,1
0.43722998442755,0.918765483347354,0.191550605120673,0.983250966662826,0.227109913164559,-1
0.848347349525938,0.651384512952222,0.947943451535873,0.649890496892615,0.983616867874305,-1
0.201859758172656,0.232773161954101,0.394930822132796,0.599941405303188,0.767418285844623,-0.392380457246412
0.628389382469238,0.606956932499106,0.0933330884990374,0.762533838480296,0.981222768229365,-1
0.87816872734567,0.89622726942359,0.222113051958927,0.37904775447887,0.988341272214631,-1
0.542600709391576,0.250781947336562,0.643510810687988,0.634460504037926,0.0558011322313484,0.497482215331274
0.945307193489614,0.168427548908513,0.0203269769292873,0.736165505815566,0.924129223823008,-1
0.78442340048802,0.0165615736386524,0.311034048605441,0.111896202533955,0.825962186464055,0.952518451389236
0.596608035585007,0.182966314982369,0.305089780775473,0.821051838640285,0.355340762103746,-0.890811775818384
0.0191547807350433,0.74824788012292,0.210948487120181,0.97635519006532,0.196006141864416,0.213417856816175
0.851704982320833,0.515988814817759,0.607891475129334,0.375898170771721,0.00451269231833962,-0.998686563457982
0.114844534601458,0.812796391789821,0.628484219256539,0.506842083503854,0.00983950261096753,0.88880748193732
0.987638301516215,0.0845025034231066,0.39972322885275,0.0347862953529066,0.467233563826096,0.998930714004887
0.242172093639166,0.0113478990126061,0.826311502088773,0.709797279285925,0.348745477228938,0.368870880750381
0.139995221232514,0.79218208442849,0.0137796323231837,0.945008964343595,0.47930843444507,-0.999450394075449
0.62184132661567,0.284577336642279,0.487425508281856,0.168941137136568,0.803651168849427,-0.999301599067095
0.300595418284991,0.00339420712996551,0.756537800587822,0.496931731474113,0.722543746091605,-0.94556762066462
0.00704453287465497,0.712030054817416,0.562162708757484,0.463482704599174,0.63671281675133,-0.999732298655704
0.0656057432754583,0.889224458358158,0.639083773123633,0.603834819492126,0.981714727827414,-1
0.362274779867386,0.201806533547815,0.367342954140469,0.988248126555891,0.0664504849328926,0.997815497462219
0.0175148100240369,0.905283704291876,0.607943075241003,0.0546905248480018,0.759097311824289,-0.997459128466119
0.207956632937094,0.849740828811906,0.65885590874243,0.299198220859644,0.355729186928673,-0.999490688411651
0.562283433765145,0.3307860707039,0.0242319882918497,0.455098051483863,0.991288944451111,-0.999172925306762
0.844729484791367,0.186253835457062,0.209972331018803,0.984747811684635,0.13518254781627,-0.999019320222662
0.314832487103597,0.0501381563913597,0.761176933569962,0.983898892888644,0.128337134507922,-0.776425000552658
0.777745252257273,0.265908387064067,0.426494858132577,0.42134204607655,0.173745882911437,0.914808725166528
0.607659435631871,0.0352567496488488,0.394715057532154,0.438903754436841,0.993633283396084,-0.999999740336122
0.0137573247117149,0.0719766560131292,0.158888511839951,0.914576313879289,0.830623950358149,0.997310297199641
0.0342984026169897,0.980195947540049,0.97756639465325,0.406404033515099,0.259090277295264,-1
0.0456179285340978,0.623147279570907,0.017829206354825,0.348181895613489,0.835176644315277,0.999999523144676
0.697641656860533,0.293706646793209,0.170533488550179,0.239620322973247,0.650410111424619,0.948518883030799
0.251003974090972,0.263339418176752,0.284167449034409,0.996718665692732,0.370281903931622,0.0156417960743593
0.498358167636778,0.0702816850413221,0.983683942521244,0.729119838917248,0.169215893797123,-0.99999856095015
0.113010978929582,0.419719986029656,0.552175116894162,0.726514898717312,0.332626852222353,0.298913589688665
0.989505193679503,0.835524847226848,0.16438575245811,0.149210469870921,0.601663206351557,-1
0.559409009568729,0.563398738209271,0.316791882160754,0.471177575301948,0.00122451784611407,0.999984524375181
0.42989147844623,0.574049406396695,0.299055156086064,0.0495144854931675,0.654330377158829,0.993318859127662
0.7711812380328,0.376657852502632,0.469892045374286,0.153642187196169,0.437330160185706,-0.524394572061121
0.408947794777668,0.0798044806947822,0.329512009145981,0.882745111504338,0.300907866466578,0.994824300283632
0.998204985701746,0.395561251331399,0.372387576331889,0.173431200075232,0.27670865482399,-0.60032294782887
0.488885621991001,0.166008344207902,0.760357717315973,0.992224990067189,0.573903352723022,-1
0.170643142855222,0.834314778178777,0.982904460491215,0.0305871566899648,0.488070908853311,-0.999999991954864
0.681093686005789,0.778158061367377,0.377136993576383,0.267029229880093,0.00272820518643537,0.695610982040735
0.949999794833873,0.263098196463305,0.00702167339934211,0.363956760578081,0.513201042851991,0.761033419229584
0.0313710707802615,0.4687823329024,0.200388507093932,0.656501840260624,0.477093539196543,0.999999983309207
0.255411273573703,0.295230007289445,0.371460446517542,0.446346281563788,0.921359306755421,-0.963361185046055
0.951308671584115,0.328198780104392,0.144860054671163,0.557608086196528,0.406711070550825,-0.999835310260191
0.465944465693625,0.511761637603789,0.637133654199864,0.564131406521876,0.0213435501520235,-0.432018185831247
0.136485339980475,0.523084209186298,0.4365600355786,0.12654806053153,0.853723728425753,0.874441241284955
0.195167317911495,0.694610071404514,0.558290469236665,0.0529026982116735,0.556795786198497,0.935412089910917
0.366815584390018,0.464057837277056,0.0111167510528976,0.0885497055708899,0.955608549884869,0.999998069361712
0.9446694593953,0.42154694204287,0.0352905894914133,0.195877038564537,0.0119820594877803,1
0.984301988251731,0.986426246444885,0.243088406616964,0.621433951588826,0.372614376458401,-1
0.814150352093262,0.672166517979513,0.926676685527979,0.987634960253694,0.601428587848733,-1
0.448508172841156,0.328348037124559,0.994587276761737,0.253236405771647,0.363208087709256,-0.99982613885435
0.0819107028309347,0.99311780614417,0.442494442761527,0.647732109339405,0.223953751690055,-0.999841058010177
0.645413060189832,0.98806154994026,0.011096554550091,0.650853794032077,0.268365947033221,-0.999999999984098
0.0486322194528997,0.325533568199561,0.668186779130955,0.319247823231517,0.665377645657951,0.98224050520427
0.966007301296221,0.989579589869476,0.867831646142719,0.675086016932625,0.548965385634944,-1
0.954269944510503,0.752066129234673,0.159546492548912,0.335654312844701,0.00945939009906936,-0.548128311270003
0.688495194076127,0.396880575306049,0.0333209690205045,0.74542448968889,0.694573977896309,-0.999999999971271
0.0102300233217792,0.896812751693544,0.734159579789256,0.0336642550281378,0.387025034278213,0.924611105200639
0.327933853557697,0.0138687286876788,0.929543290121737,0.658093783747043,0.982943563265655,-1
0.26387552042008,0.595704668737286,0.260622338517419,0.788669343118606,0.282524295637599,-0.325276033511977
0.967852214232046,0.497705009518509,0.987360515250844,0.682471543973623,0.469533781404462,-1
0.244909727642454,0.966161071381586,0.900841811338501,0.126754179153126,0.981022294527022,-1
0.0185740449080085,0.336715067369911,0.656159654161746,0.982338188655854,0.0136664756976748,0.993106342769115
0.125257170905584,0.98259778670955,0.12291153311614,0.79121090251266,0.810025830414301,-1
0.440289647886112,0.55761359687123,0.0666128812339255,0.478935979194823,0.750761730824919,-0.969577624889822
0.0595704724213976,0.752159437601776,0.926602814622623,0.980589545715965,0.115285183594738,-1
0.946911792166239,0.524830418904065,0.980488622652689,0.602788923241194,0.0181856929447188,-1
0.163940731580105,0.738877631688686,0.090617992199572,0.439823030799524,0.989015746414118,-0.999985609675044
0.779467251388933,0.526403709448974,0.0805341262171688,0.258765572965266,0.620878273386716,-0.908314511513916
0.889605456236357,0.970740277110651,0.485105027648259,0.275014717119806,0.0101972041567822,-0.999999999999997
0.181922968887757,0.0362417441557312,0.989100852767132,0.683061983925997,0.240882202305668,0.452641991512241
0.484082154865577,0.162636062630419,0.858007619279019,0.480180147230343,0.166641390349264,0.202499222154619
0.932690873891961,0.136760194891467,0.332902092845245,0.343360685881567,0.728926698398881,-0.999999827241882
0.0158626077453367,0.0825408995449395,0.858356361398783,0.359214078798713,0.922682947705973,-0.778184461072468
0.759546044850136,0.988750254148159,0.0963478049806846,0.80938951387235,0.696634714496476,-1
0.989915516511282,0.0437138812974078,0.191580827600082,0.555595870644043,0.315353910913562,0.768513201376696
0.0880905573495212,0.879518375038431,0.864013475027237,0.12174145270347,0.0187183705780249,0.999040728808633
0.373562978697464,0.120044831090289,0.377775481141099,0.997278241716437,0.41313396113672,-0.949275242208989
