# x1,x2,x3,x4,x5,y
6.576512761010698815e-01,9.814345309401052431e-01,4.178717681625883085e-01,6.866831040419117960e-01,6.106274712138799743e-02,-1.000000000000000000e+00
7.607012852169761086e-01,2.850575659862243927e-01,2.150045990196892132e-01,1.876209461042973314e-01,1.336576239090263019e-01,1.000000000000000000e+00
2.569716718863451418e-02,1.171127312807342252e-01,9.548995460572822225e-01,9.825793030036391595e-01,2.336468359583293020e-01,-9.875538743462408675e-01
7.139392914881471652e-01,6.310535113344407643e-01,3.373282060070204591e-01,7.289625576290756914e-01,2.661031496414550390e-01,-1.000000000000000000e+00
3.443768728460414597e-01,6.725089278407012650e-01,7.733407090299649900e-01,2.591003878855946962e-01,5.497843972271765356e-01,-9.999999999997845057e-01
5.623322915958657298e-01,1.966278796439356047e-01,6.075086317098017386e-01,8.717108980739742830e-01,5.867245114472942058e-01,-1.000000000000000000e+00
1.403240678962135168e-01,5.106210687951533433e-01,2.828500029687131545e-01,2.237452882975234369e-01,6.536785775030753420e-01,9.999999983820433425e-01
4.175813236049691346e-01,4.357405833212629753e-01,8.482264639110004278e-01,5.728060907611681740e-01,3.365740563286364617e-01,-9.999999999999528155e-01
9.788018696829454968e-02,3.041674580524879046e-01,3.995691499449240958e-01,4.867634055491986689e-01,8.774008203352233748e-01,1.199167998096628551e-02
5.087701321332771531e-01,8.546305417393014192e-01,4.730897935707902846e-01,5.104340596123739804e-01,9.219578507016168434e-01,-1.000000000000000000e+00
6.310471770661150170e-01,9.497525151478467542e-01,1.687122374740746278e-01,1.002936892775529165e-01,3.594939271563961092e-01,-5.306296754412462846e-01
8.751314961805310988e-01,7.565583561339436769e-02,6.714536173603354863e-01,3.726068649379196129e-01,7.319303964113748062e-01,-1.000000000000000000e+00
1.605012131089369187e-01,4.643952428308656954e-01,5.066238806475280576e-01,4.025809276997538433e-01,1.881569500922761207e-01,9.999999999999535927e-01
4.999402305782490452e-01,5.555026579305442080e-01,4.352138428624063859e-02,4.023474264908954989e-04,4.157959502175982980e-01,1.000000000000000000e+00
3.871255677496772130e-01,7.708788824211465496e-01,1.269444424533572313e-01,9.177065136038042859e-01,8.365240120426730153e-01,-1.000000000000000000e+00
2.628796216460309032e-01,2.055055589128300941e-01,8.761974677179670268e-01,3.031175024491738479e-01,7.785136454025621822e-01,-9.999894050495554687e-01
9.467503484150420201e-01,8.017864859890733165e-01,5.751160119132503468e-01,7.695999687128241007e-02,6.060173621755851059e-01,-1.000000000000000000e+00
8.114258781332385206e-01,3.865825260396484053e-02,6.591422124360493684e-02,6.269137272992507670e-01,1.548679627526020758e-02,1.000000000000000000e+00
2.435249727635875050e-01,3.703957906725831029e-01,9.331159036890298575e-01,7.541534607808609847e-01,4.971839475372679673e-01,-1.000000000000000000e+00
9.887757938266316105e-01,7.082646887290503512e-01,7.254044069230294323e-01,8.037329973278891648e-01,9.984308004175675988e-01,-1.000000000000000000e+00
1.210729847553309868e-01,1.826033568767450599e-01,4.861748439090168294e-01,8.594786136678495003e-01,4.700657246076037632e-01,5.775730738781614804e-01
5.136508321858451742e-02,9.673242069603814608e-01,9.406605387090283266e-02,3.806472203016407208e-01,8.704132947638457685e-01,-9.991793454601466395e-01
4.953562132321823186e-01,1.722906918320765979e-01,1.532725314820652107e-01,4.546303720751558863e-01,9.865110545561914801e-01,-8.945297552879636349e-01
4.092803648502323782e-02,3.285447182174908165e-02,2.063849253812261031e-02,8.992044987218003049e-01,8.620660358468513751e-01,9.999998689867581891e-01
4.433915458067662074e-01,4.244947330272830777e-01,4.372185016986666617e-01,3.461473010650346072e-01,5.488463651139816601e-01,-4.295277448607413007e-01
7.624685446507561970e-01,3.182082014484163834e-01,3.616216431620305483e-01,5.543747714311647590e-01,2.225672862072394231e-01,-6.277178142432703334e-01
3.291275800144864982e-01,8.737383672931352541e-01,5.307281757892319263e-01,4.194493881804041147e-01,6.174476367474363014e-01,-1.000000000000000000e+00
3.642886394763623636e-01,1.983354396877619330e-01,8.594854494320088023e-02,9.038560344699465565e-01,7.791131645106047499e-01,-9.948583737850761333e-01
7.928943267718221999e-02,7.580978358434097286e-01,6.678344988707202168e-01,2.895515167265698062e-02,3.578672432073299881e-01,9.999968455545273915e-01
7.928569639558874504e-01,4.871787892699550732e-02,3.862623124968809357e-02,6.902638407394960929e-01,8.685945370670816734e-01,-9.999962114751372866e-01
3.994689209726352552e-01,5.497569378966886688e-01,2.421260659075123028e-02,7.973427657807455882e-01,2.983237566890828418e-01,9.022126696154215697e-01
2.176078065507753290e-01,4.410567947559029811e-01,4.408704529872040645e-01,9.036133369996958153e-01,5.447918302643458555e-01,-9.999999999022735064e-01
8.851356956184319724e-01,5.495931759940727579e-01,2.577095692707953023e-01,2.072740564271013941e-01,1.697483071636007590e-01,9.009830396399529651e-01
1.063120154793593536e-01,4.205641121315707998e-01,5.494434178671678826e-01,6.078242915344514441e-02,9.710324973963188055e-01,6.794480520615788777e-01
2.116425214347395778e-01,9.065321235573475800e-01,3.985328697886860172e-01,2.526781073777730202e-01,3.352704031970361598e-01,7.073635134416180748e-01
5.909037163902325362e-01,6.800889654401967022e-01,1.746990337341169097e-01,1.331837706939509314e-01,2.568617124802620097e-03,1.000000000000000000e+00
2.379467909697868377e-03,9.126544361992345866e-01,7.138536870309956095e-01,1.846606168651942215e-01,8.720678864106410355e-01,-1.000000000000000000e+00
3.575398192023720306e-02,5.947574024744739507e-01,2.703637787244432822e-01,9.723480622697564524e-01,4.084960571531636164e-01,-9.491220348701169263e-01
7.112246984458981958e-01,1.255690200664467959e-01,8.988747752387681034e-02,1.841801270998438267e-01,6.238755409319125533e-01,9.999999999997699618e-01
2.929879986740779874e-01,2.569872984574212427e-01,6.516043729381630900e-01,3.153683665312211892e-01,4.118419729209381597e-01,9.999458380283723358e-01
8.756243373108770767e-01,2.867977809699315261e-02,4.126500441838637512e-01,1.462098624981385819e-01,3.890074555202726048e-01,9.999999055864563502e-01
5.036935739557413250e-01,4.398908726827271409e-01,7.095425090123501644e-01,1.269222122906737416e-01,3.170776498890626738e-01,7.620516319524293092e-01
8.322315192791975846e-01,6.052407757925848397e-01,8.067896691621898042e-02,6.648083169358460776e-01,1.171861429467203619e-01,-9.765004913945747322e-01
6.215289604485452202e-02,2.456309631184538933e-01,1.941768360573772334e-01,9.655310097969904692e-01,8.450139149072841693e-01,-9.866752298973737734e-01
9.009057147910652930e-01,2.418282509878934006e-01,8.113739160518325111e-01,2.062687258464663553e-01,4.038266568871273221e-01,-9.999999999848462329e-01
9.680334412234006258e-01,5.053648253589475975e-02,6.504009624334359252e-01,6.845263641912330277e-02,6.224808808790130987e-01,-9.989595465096651195e-01
3.757745535401456061e-01,1.522450381978512624e-01,5.626459598269094586e-01,9.811853385291081642e-01,2.748926362608112867e-03,8.818123948367195819e-01
9.525982331440947526e-01,4.759408800219285494e-03,6.512029271066337444e-01,4.200609894814493206e-01,4.208146913063935679e-02,8.965931575659022990e-01
2.196600442162400246e-01,1.906731066919521433e-01,8.821163920104047040e-01,7.766413904265843104e-01,8.355746287496755575e-02,1.880397453374922367e-01
5.595625053381312330e-01,6.441059209788417839e-01,8.332492561967940192e-01,3.322505057813413543e-01,5.881237241237080582e-02,-9.999907775370642238e-01
5.755885851418820476e-01,7.565508193141098348e-01,1.877098604028697160e-01,2.292483450457430127e-01,3.645434714376321605e-01,6.318127042751406908e-01
8.148064339924414590e-01,1.947399448327505611e-01,1.688889390477325281e-01,9.024302806544665101e-01,1.376698738586170367e-01,-6.212722199351927710e-01
5.686403164908570007e-01,8.473042720454947441e-01,1.165473735016166017e-02,6.061323448509395861e-01,4.597611300875479867e-01,-9.999999708427752543e-01
2.104202190887370372e-01,7.644911322665428610e-01,1.141399603211637470e-01,1.911494621034398045e-01,8.567533508395551722e-01,3.859062528445045270e-01
6.957739851573403744e-02,4.094131122219932806e-01,2.360841169845583898e-01,6.930359516148713039e-01,4.834306436564818621e-01,9.999969738012068898e-01
4.169167127361818048e-01,4.616832687654077172e-01,2.700297644235976069e-01,8.384456698525775131e-01,3.228185612061241216e-01,-9.849281532325975252e-01
6.036435380647516835e-01,4.789770241341383961e-01,3.872889093614506617e-01,6.611940673103791077e-01,9.992694426986874490e-01,-1.000000000000000000e+00
9.550644296074943529e-02,8.148481141978114461e-01,4.074978949855853072e-01,4.468316475520568432e-01,5.399638531827714028e-01,-9.807997513334344442e-01
8.587952567344969701e-01,2.851244522330190559e-02,7.751062274708576672e-01,9.551303385675060653e-01,2.160570658550542700e-01,-1.000000000000000000e+00
1.607891922798383444e-01,8.707570603745832249e-01,5.311552700704551960e-02,2.478566715480607918e-01,6.464143231656269695e-01,9.985572036979626365e-01
4.411222274141806676e-01,1.373551354415395442e-01,4.556157353708959468e-01,7.064441612302838625e-01,4.716700347883430733e-01,-5.603888876136063901e-01
4.354783680155699943e-01,2.021630067712410772e-01,2.214128691619705047e-01,1.831792458936800094e-01,9.430390538797109867e-01,9.979185693801360113e-01
4.996212756240064334e-01,5.810982315022855671e-01,5.822728058661753581e-01,1.599774443726642570e-01,6.163122382000878474e-01,-9.999962798743309289e-01
6.324045407435403554e-01,1.092702560430238862e-01,4.902318862847414027e-01,5.521875385243989465e-01,2.566785327681412321e-01,9.673605486322220948e-01
2.642087565608725597e-01,6.972041065181144859e-01,7.608333019491139160e-01,2.656565302360076042e-01,8.700524351809156565e-02,8.805763387293743527e-01
4.847363714878060725e-01,8.619238993797428972e-01,5.650666201351318974e-02,3.663641482665996318e-01,4.750497556547689237e-01,-8.139141892514794030e-01
2.478569547557966934e-01,9.474085457667077437e-01,1.294287171506764604e-03,5.220485473919495023e-01,8.485109037679487709e-02,9.999999992899439860e-01
9.539087968200975487e-01,4.364846562706373723e-01,5.608552082184901089e-01,1.871949409740550074e-01,2.408769440003417084e-01,-9.996924497525127018e-01
1.361259292341872595e-01,1.419398234789875646e-01,4.293764773990785266e-01,8.633061905654568768e-01,6.330529994117900516e-01,-4.714347319600811215e-01
5.409181765044589474e-01,5.870604279273190507e-01,8.676752274957105771e-01,3.778814789873383151e-02,5.900601652397079178e-02,7.921619777596535794e-01
2.754143733210864253e-01,6.693010396621061897e-01,3.572565173106296288e-01,6.483327815792083726e-01,8.574873657576548291e-02,9.733481818633764604e-01
2.238017907541301199e-01,6.383102266522084900e-01,1.660669198699832594e-01,2.946626205163929701e-01,9.651908050503675840e-01,-9.605674289460820470e-01
7.478315583881144368e-01,2.760506193588559976e-01,7.977528074949804537e-01,1.771836750999181143e-01,1.339778582261387796e-01,4.345703716460382893e-01
6.634117088412626595e-01,5.114441473150623807e-01,7.439805682372415685e-01,3.885550327898420336e-02,3.641125083414021857e-01,-9.915309631087425579e-01
2.962253172998098871e-01,3.596367300478924278e-01,5.384932685740025926e-01,3.146445638415094059e-01,7.738121448186306983e-01,-9.512820813992483027e-01
9.473998980092148692e-01,9.034738754141191652e-01,2.245356993176559901e-01,6.577665661890710336e-01,8.251394193781046438e-01,-1.000000000000000000e+00
1.773023402084136224e-01,1.529664302501659856e-01,2.112858368074439774e-01,7.115481043386071569e-01,9.579134597596082878e-01,-5.483313531043534361e-01
7.188625758162027202e-01,7.144970916085146007e-01,3.989327324680710940e-02,3.398838030702820423e-01,1.922219743851236867e-02,9.999999860001180796e-01
2.615642327925950528e-01,2.290282157110831995e-01,1.567309689348485996e-02,5.569640241830206007e-01,7.811980411301236993e-01,9.999999546339886081e-01
3.812024532479641459e-01,6.105470087562997472e-01,6.409520547776290655e-01,3.487391080399743770e-01,3.470099503701921106e-01,-9.939593010793458250e-01
8.469395361889281437e-01,3.205992140974535110e-01,9.584752540183322234e-01,4.239092142616488479e-01,2.284594052340452319e-01,-1.000000000000000000e+00
6.943265295030597306e-01,9.425222925585879929e-01,2.462473676055078609e-01,8.797662468955494974e-01,3.822565785485288470e-01,-1.000000000000000000e+00
5.472166705387778718e-01,1.701882495417209387e-02,1.681782603874390769e-01,9.861409538817784703e-01,1.783077821351213565e-01,9.999953218946073807e-01
3.825214605661204637e-01,8.415713644963466189e-01,7.973656132909698879e-01,8.894391260592732218e-01,4.547514697732762401e-01,-1.000000000000000000e+00
9.266013412411007177e-01,5.456933286298368824e-01,6.824873605486050376e-01,4.859861204393189915e-01,1.663069575953021184e-01,-1.000000000000000000e+00
4.944152699030651132e-01,2.442510315431735135e-01,3.927210420741699126e-01,4.578877298398280060e-01,4.953372957117742059e-01,8.362312600072072666e-01
9.515445699116495404e-02,2.755156024474743615e-01,4.482053406608784707e-01,7.409181112276280734e-01,6.624887362799658508e-01,-6.547423000841960938e-01
1.126706587046522601e-01,3.848192204266128735e-01,9.950292394818442965e-01,1.889929606331675616e-01,5.709835142956528609e-01,-8.547635573394438691e-01
9.812084999927911388e-01,1.187431404365100612e-01,4.032118295298992572e-01,1.842355789806160715e-01,5.491342036459458953e-01,-7.642494397194113942e-01
3.732400994049616672e-01,2.714490074265823449e-01,5.471714653748463997e-01,7.463220304335509425e-01,2.458352420448927378e-01,-2.315930064965260327e-01
2.179485851686671083e-01,8.217913676620999253e-01,7.007280994722759893e-01,2.560190327520139308e-01,4.047221962433066866e-01,-9.999311774851348256e-01
5.273927592091761339e-03,9.469190852859395990e-01,1.435463035003535504e-01,9.271150289756010521e-01,1.350070813557010252e-01,1.187855622139109002e-01
4.285682244901576898e-01,3.277540837405162888e-01,2.467937579002075499e-01,8.999756416286350813e-01,1.316708865519818361e-01,9.748106425568232591e-01
7.168985973398318556e-01,1.448986791768702154e-01,2.738768576793038090e-02,4.395894143544624710e-01,7.194899968920799305e-01,9.555003468997211868e-01
2.773233764210248364e-01,3.140397103457269745e-01,3.878941312169269517e-01,9.602416080595717052e-01,2.680838392272338888e-01,-5.125482437538360081e-01
4.730414024075040719e-02,9.213626688587804592e-02,7.159438602888809067e-01,9.744012281125516983e-01,4.910337206187446735e-01,-9.911047905860190799e-01
9.041457284859087673e-02,8.931097281022927215e-01,9.751044180232397718e-01,1.328725923176403978e-01,3.075542895504270180e-01,-9.999197897409002334e-01
3.998973691614100545e-01,5.562285727540912106e-01,7.115053189233909448e-02,4.776664753739773284e-01,7.033056726535479308e-01,-5.196061080585490100e-01
7.597453062685407543e-01,9.665215536592841605e-01,3.602238657694654123e-01,1.548014460013480975e-01,7.748323573102126882e-02,-9.901591217866323458e-01
4.098248204267431194e-01,9.338670621805810201e-01,1.430056833396270433e-01,9.217727504053853105e-01,1.467991153978374097e-01,-9.999999999574192833e-01
5.910295284847601888e-02,5.258792062496938646e-01,6.638776511080174414e-01,1.043054728466415865e-01,8.184783508752047076e-01,-6.731083403340110127e-02
1.143727664963089946e-01,7.322224693037099330e-01,8.522345178879293659e-01,1.461551056659228520e-01,2.780975479082182233e-01,5.404872470156969477e-01
1.804258865476311979e-01,4.036526703946316519e-02,6.467540182881988953e-01,5.880596120892496170e-01,9.095982412578292875e-01,-9.992463345829424304e-01
4.209398127981550664e-01,2.916742980815636987e-01,5.715240309842988253e-01,5.097597546051457068e-02,8.172679712867571000e-01,1.915431912375020751e-01
8.654204805998633177e-01,3.295351737091219424e-01,3.487819032210997539e-01,4.792140153634618649e-01,1.325657830304869398e-03,9.843264112250735831e-01
5.068777746256544203e-01,3.775134786003889742e-01,4.086073006714178724e-01,1.598953514876739201e-01,9.009281847888011008e-01,-9.985074742077144627e-01
5.776977137211720681e-01,4.863265355557521152e-01,3.414961941796548772e-01,6.257834070122374470e-01,1.317771494526530363e-01,4.852195336072795406e-02
3.492270492035193241e-01,7.286276073542606868e-01,6.006315863484508188e-01,5.588759916583863063e-01,6.050106670099096584e-02,-9.740180010003273159e-01
9.924627523485669567e-01,3.082515819494099363e-01,1.792924865160541725e-01,5.704221521805619144e-01,8.006274888978842652e-01,-1.000000000000000000e+00
6.864541235286211185e-01,9.992813146491144050e-01,8.998569573182200187e-01,6.098883663169226699e-01,4.647637591311701288e-01,-1.000000000000000000e+00
9.918441418915527885e-01,3.836406130041472573e-01,4.143466618547973768e-02,9.702731434934941390e-01,3.189211307464075440e-01,-1.000000000000000000e+00
2.863230892018168647e-02,3.239779414888984688e-01,1.599483342414467074e-02,7.242922356496841463e-01,9.824879001194218864e-01,8.786417222502773683e-01
2.545394318981213932e-01,8.906906826011529166e-01,2.760168948124583355e-01,6.827950601162652289e-01,7.380890330252027898e-01,-1.000000000000000000e+00
1.335345218304667958e-01,2.185613779422868885e-01,6.141838029302567614e-01,3.445307851040889657e-01,6.559056990508564944e-01,9.993093701705000331e-01
3.530593583811184044e-02,7.702871149747576862e-02,3.056018815594784832e-01,1.255303848299483549e-01,2.157016662279018782e-01,1.000000000000000000e+00
3.155056228094541559e-01,1.012239413492794504e-01,9.191248412178656402e-01,9.077326290338997294e-01,2.135271585657206039e-01,-9.999991737294334770e-01
7.329874916590843614e-02,7.054815921845152271e-01,4.934031080995829321e-01,3.016832484261005587e-01,5.597197035186888270e-01,4.254687894230972933e-01
3.733630437710639960e-01,8.056339452146041857e-01,2.803839240468438687e-01,2.506286863358683226e-01,6.563230783452143058e-01,-9.992970976544196526e-01
2.348793926168406820e-01,4.857367370266307133e-02,3.062226008792898746e-01,3.665609708553265594e-02,9.025830621905721607e-01,1.000000000000000000e+00
1.988438422457768917e-01,6.762241581443607652e-01,8.608839605712489407e-01,4.305194609269701878e-01,2.014648093640066806e-01,-9.993637184282284647e-01
3.363199669612346177e-02,5.683239035492435587e-01,9.705291657880316114e-01,1.592241549724942029e-01,6.782247828616896346e-01,-9.999634677723134857e-01
7.739394176931639890e-01,5.598413830447918071e-01,5.067358835600699329e-01,3.286516078827690368e-01,7.193379001131285089e-02,-7.934865997289718420e-01
2.294829367417527133e-01,4.354549515590047659e-02,8.605547934276013278e-01,4.814405122139034376e-02,9.123518502587345536e-01,7.819954012549561462e-01
1.000000000000000000e+00,1.000000000000000000e+00,1.000000000000000000e+00,1.000000000000000000e+00,1.000000000000000000e+00,-1.000000000000000000e+00
5.716104231953347270e-01,8.973575935509527923e-01,2.313469725980236424e-01,2.539691943340527044e-02,8.641654210176365203e-02,9.999999982200580284e-01
4.820709271684543995e-01,9.302540733139252893e-01,3.471787475413370180e-03,5.446805792581071309e-02,5.232327297887117146e-01,9.967048985602537936e-01
7.741639662790688048e-01,2.191993919596486318e-01,9.161725098579019955e-01,1.095475310660110890e-01,2.545160400852364835e-01,-9.304314090380744195e-01
8.220779823893956673e-01,7.856570946015025703e-01,1.116347906020435064e-02,9.740629380941021043e-02,5.173993769950885335e-01,-7.447396573197829772e-01
4.428644097122557133e-01,6.782253499567220123e-01,9.647642948911577809e-01,2.197137988185060287e-01,9.682257646527954453e-02,-9.999367551182097857e-01
4.782134015108393532e-01,3.532176679320694901e-01,7.787538794606945203e-01,1.964835030284513284e-01,4.420253277056245267e-01,-8.360916123009365375e-01
2.671813052525214283e-01,6.782484999504639900e-01,2.408773237860088300e-03,3.081267667991774983e-01,8.278260638061949450e-01,8.404064191875386669e-01
6.472005628887381734e-01,6.736860149189177749e-01,5.368459231143195565e-01,1.409626099366150243e-01,1.015791897084136926e-02,9.925977949865547600e-01
4.604228671151308627e-01,3.037342204785794531e-01,7.857612631838812867e-01,1.079978830770735865e-01,8.967373705137426931e-01,-9.999999999543141005e-01
6.189284360036073629e-01,5.612841122882916700e-01,1.223989698722402347e-01,9.836545105206817574e-01,6.862165770339433424e-01,-1.000000000000000000e+00
4.647040240912140435e-02,8.600837652483589446e-01,4.958898416244617025e-01,7.451399629817411219e-01,7.793457315924745554e-02,-6.820839456027812941e-01
7.611888042271377497e-01,8.368311559306497172e-01,2.668807394591151683e-01,2.039077950869332689e-01,9.022977944255220484e-01,-1.000000000000000000e+00
3.917539944303193300e-01,8.307396488747958996e-01,8.426326647476063414e-01,1.706551922693786971e-01,8.606393134136200440e-02,-9.915482939267614704e-01
8.109615266448479964e-01,4.731483182658167141e-01,4.401508169271381443e-02,5.612137556711207197e-03,5.352706028228931823e-01,9.999995615100005786e-01
0.000000000000000000e+00,0.000000000000000000e+00,0.000000000000000000e+00,0.000000000000000000e+00,0.000000000000000000e+00,1.000000000000000000e+00
3.377769489544585335e-02,7.373419238811376730e-02,8.287833476959687307e-01,3.264812989255605480e-01,8.931655109040221863e-01,1.444195249911590651e-01
4.820376506833228825e-01,1.392144428969406267e-01,9.432848796425531424e-01,7.284647420596105372e-01,3.139283405634939184e-02,-9.925655687193949417e-01
2.476021163032481320e-01,8.214920790493469571e-01,5.324417727607648754e-01,1.477911118701352722e-01,5.368021504330551252e-01,-9.573730552118236981e-01
6.387653909487390758e-01,5.689590047343758838e-01,1.340047584638398570e-01,2.199053369531681623e-01,6.220634256513291049e-01,-2.274415019995138509e-01
4.339949523131247933e-01,9.412171767003396639e-02,2.042616087946768078e-01,7.436238808020638746e-01,4.980439223537675986e-01,9.989202580978429058e-01
2.989665274221947611e-01,1.254382742671207758e-02,9.502731896826257518e-01,5.179684462657734301e-01,7.849660280773593235e-03,9.999999998748463348e-01
1.365899621057732605e-01,6.424065284333848602e-01,6.448606415523379098e-01,3.263271993016317318e-01,4.851953695590245919e-01,-7.564255224586337034e-01
6.448206728090868367e-01,6.326968694807831861e-01,1.593616416832477622e-01,5.738839024778014108e-01,1.570771569917696897e-01,-1.588982454439280545e-02
2.956757097227594167e-01,7.672961993125354541e-01,3.257113486675051184e-01,7.813927076394028282e-01,1.238138090852547030e-01,-9.691535360761461826e-01
6.716604956866777387e-01,1.081604622960281176e-01,8.266593622340105973e-01,3.274100234479030425e-01,3.066737097012355306e-01,-7.901871574458551040e-01
