# x1,x2,x3,x4,x5,y
3.414375742161377958e-01,7.343973188460514168e-01,6.725127574172495848e-01,3.581006239501374755e-01,2.471083116427749693e-01,-9.984841248428311111e-01
1.001232440600443169e-01,6.627565409861168044e-01,6.458203861032919546e-01,8.895645295528173957e-01,7.952737612608872242e-01,-1.000000000000000000e+00
6.458972902851964903e-01,2.710798263083080140e-01,5.939487904202137569e-01,6.117398775455649140e-01,9.217799584758185061e-01,-1.000000000000000000e+00
4.294242910921171608e-01,7.541737968429892414e-01,1.532537719528596909e-01,5.413857963037490562e-01,1.294790932607357559e-01,9.930131324403570492e-01
2.411233169551716404e-01,5.732881463239534181e-01,2.673244720074272052e-01,4.741527592721470619e-01,2.714300906176143613e-01,9.999999915348456447e-01
8.399300103675353402e-01,6.064531763803086006e-01,7.422504597334536047e-01,1.411979219835563654e-02,5.615625652655263922e-01,-1.000000000000000000e+00
6.975793880000632496e-01,3.358925919113019409e-01,6.962212332325154462e-02,8.090261736264046932e-02,3.773987646046503830e-01,1.000000000000000000e+00
8.753652098537585413e-01,4.753027316184429418e-01,9.709371200002957503e-01,3.298192086354804764e-01,3.064878148852590578e-01,-1.000000000000000000e+00
5.539527743202465881e-01,8.192113471374216083e-01,1.442473769188236943e-01,5.573751529352927170e-01,7.050685013768481779e-01,-1.000000000000000000e+00
2.586489419232946424e-02,5.835696015500281553e-02,3.732192807390101730e-01,2.000264405584638028e-01,7.059650474293729938e-02,1.000000000000000000e+00
7.811423985276332305e-01,4.386806584537867315e-01,2.055238856956836946e-01,7.226658090908403276e-01,9.716508846654249298e-01,-1.000000000000000000e+00
2.570750378862595165e-01,2.313091518980123218e-01,4.327922729003451652e-01,2.934892542198591081e-01,4.977869920544092941e-01,9.999999999999873435e-01
4.620291765609006451e-01,8.751767386838903429e-01,8.046363002233273276e-01,7.672739238989597643e-01,8.798025627061600851e-01,-1.000000000000000000e+00
3.538767045863588923e-01,9.229682045944066493e-01,7.526633547324468321e-01,1.647372232358683131e-01,6.307993384319752206e-01,-1.000000000000000000e+00
7.099340651347314513e-01,4.734813019074071011e-02,3.059613347092061675e-01,4.278853379739211427e-01,8.267198640615488481e-01,-9.897015751324762523e-01
8.431110426187335416e-02,1.442016091186052451e-01,4.698372849414914620e-01,9.939132927604635848e-01,5.115916673801027548e-01,-4.720289382655680210e-01
9.378884686349585609e-01,5.252879660988757360e-01,3.827298796984535123e-02,1.150204844683240524e-01,1.643967220483623370e-01,9.999999999413913265e-01
9.503214149766672225e-01,3.915602627845209405e-01,8.563303387842328140e-01,8.063362504809954423e-01,6.619685499080819602e-01,-1.000000000000000000e+00
1.989213458007415558e-01,9.523314939180846928e-01,5.410350742581457872e-01,9.301243921733249875e-01,1.105226816308262951e-02,-9.999999999999976685e-01
5.450801096403691259e-01,1.922546911063155728e-01,9.037229602432251818e-01,6.986258890213247197e-01,4.089123633285071668e-01,-1.000000000000000000e+00
9.362455994806463400e-01,9.949095593168633123e-01,1.616816967662411929e-04,9.137785858216646018e-01,4.000183703176430905e-01,-1.000000000000000000e+00
5.963234336531908486e-01,8.913719112170931380e-01,4.145280453306406376e-01,7.291917581664588699e-01,5.333110046188505038e-01,-1.000000000000000000e+00
6.570763693044482379e-01,5.339774452215955147e-01,3.017109692628099915e-01,2.578557502001246546e-02,6.621479868934909696e-01,-1.882162345193774122e-01
5.512924618976270397e-01,1.270392386366637760e-01,4.993837800269765870e-01,6.368082344506282855e-01,3.921558486324681625e-01,-5.028883560298631483e-01
4.645763916466347787e-01,5.041123214933812546e-01,2.177253194422932026e-01,5.287736077235787313e-01,5.178614023556656898e-01,-7.400656359398085637e-01
6.650933571282109380e-01,3.149452016194046466e-01,5.032332180671517108e-01,1.677907917290971107e-01,1.368484053103747322e-01,9.999999998704485193e-01
3.458898710336726356e-01,7.282219549397025427e-01,3.194534380463153189e-01,8.058492224475293231e-01,5.646856545624756585e-02,-8.699874156122149316e-01
9.947914436965357154e-01,8.838795542863190358e-01,6.467394001468108611e-01,3.835994168487198014e-02,2.345472623197002726e-01,-1.000000000000000000e+00
9.431569170220854836e-02,8.683138751394007260e-01,3.046398286731832883e-02,8.947038025463052713e-02,9.285260681675971961e-01,9.917148659832530910e-01
5.472101696558188122e-01,2.128180748900960484e-01,3.156856453820346409e-01,6.825711163253923575e-01,6.649742534631580826e-02,9.999999934458874140e-01
4.442971359401484688e-02,5.676804139003811533e-01,3.489077849594111602e-01,3.876576860475361985e-01,4.945391860885543500e-01,9.999999596151372128e-01
8.771155857402676004e-01,7.438658235015720432e-01,1.464538143403276149e-01,1.031837382065599502e-02,5.171427184347906492e-01,-9.704544069734852840e-01
4.351284282893430055e-01,5.815033706143919456e-01,5.076735040821905853e-01,1.018127323594941597e-01,4.663956809375534585e-01,7.917591205316487635e-01
3.613736295431599355e-01,1.757793385811115827e-01,8.928877577976109814e-01,4.097576770585856232e-01,2.525606464089778513e-01,7.927063139739176645e-01
2.337886470985508225e-01,5.246399566794579528e-01,9.889873684369697715e-01,5.417707115846024379e-01,3.602437433721711879e-01,-9.999999999999997780e-01
1.702506950952361875e-01,5.470725429387877092e-01,3.356559211182278402e-01,2.064112143809660946e-02,7.090807763346382853e-01,9.999999999278470497e-01
1.661685211735645096e-01,9.664417699398115680e-01,2.815674776217624298e-01,3.900539384800181808e-01,9.724365727411710125e-01,-1.000000000000000000e+00
6.408365997567742889e-02,2.121501696692590921e-01,9.687551849199200760e-01,4.546290603020451404e-01,6.338506340401558470e-01,-9.953557298041600943e-01
1.421150595280470663e-01,7.870029875806835440e-01,2.872316851368961754e-01,6.199098633026604854e-02,8.865349745693421046e-02,1.000000000000000000e+00
5.249264669365109048e-01,4.185552020678814933e-01,6.116226563468585287e-01,1.713207246683510765e-01,6.403115215375694280e-01,-9.993144627925629742e-01
1.360498304283316306e-01,9.448388464067540571e-02,3.656343273590813570e-01,6.744791904365001756e-01,2.506432044785277258e-01,1.000000000000000000e+00
8.546792410697588993e-01,7.832376311925920431e-01,8.898889210491833790e-01,3.330915913226046854e-01,7.523262477233989554e-01,-1.000000000000000000e+00
1.662050805854772551e-01,9.291564612001020906e-01,5.010196392766365081e-01,2.009601625508872225e-01,9.597417619794392785e-01,-1.000000000000000000e+00
2.435255562463845835e-01,6.143493121933386591e-01,3.146697530285303412e-01,1.209750082653955061e-01,9.015487218504576461e-01,-3.701887798878782387e-01
3.804023765203205787e-02,6.328641350550084921e-01,1.329138377432244333e-02,8.768530707193341600e-01,2.114320157342514939e-01,9.999999999776150172e-01
3.736337165697217189e-01,8.083122312949441168e-01,5.042587793705095578e-01,1.791567715032576780e-01,9.093082619370215780e-02,9.996432516886291086e-01
6.280280185654098235e-02,5.552169933875757968e-01,1.162200081608793373e-01,7.543411419793987216e-01,1.351817480053486842e-01,1.000000000000000000e+00
1.668885162191146854e-01,7.925141290782211634e-01,5.616658617230561035e-01,2.324908343348760509e-01,5.536392503600319204e-01,-9.829165072861504315e-01
6.381434218737220831e-01,5.993277945301362930e-01,2.173611636915318834e-01,3.079126171819686064e-01,4.426756878806680784e-01,-4.892546184044996860e-01
4.585386087625973883e-01,7.916743293739834930e-02,1.343992323847472969e-01,8.673562663808932482e-01,4.024860631045694137e-01,9.998630478965635504e-01
1.357515391730000631e-01,5.077220154901683769e-01,3.668283515231298697e-01,7.707328525994208146e-01,1.833292336478977436e-01,9.994034765843105017e-01
5.187198019344834571e-02,3.839907295550442634e-01,9.788669116523409652e-01,2.518937971085551952e-01,3.455820608932650417e-01,9.912403128810238773e-01
6.215061550108140764e-01,6.863945163276924388e-01,6.269819559025618938e-02,7.694437866627030775e-01,2.067359260064030313e-01,-9.977613759441475993e-01
3.148169485697527858e-01,7.925031364388198662e-01,5.887199957497962766e-01,5.054571698469169372e-02,5.727972950839068655e-01,-9.904492461428525685e-01
3.802311679362749830e-01,9.996863262237632580e-03,6.594031634711920720e-02,3.028157630367558362e-01,7.091247031973811898e-01,1.000000000000000000e+00
7.718823589489690606e-01,4.576621310350608707e-01,4.047506917559891559e-01,6.440704414580182835e-01,1.169523839741382076e-02,-9.637461594665027720e-01
3.089768809387306026e-01,2.401977561298309360e-01,5.987701207302009027e-02,8.881685870787240367e-01,7.570441330847449413e-01,-8.628748369687802011e-01
8.984700448223871261e-01,5.560637430227888256e-01,6.372382310274117279e-01,1.189949017795353531e-01,9.377735991262567405e-02,-9.807090663495393601e-01
9.590329886020829697e-01,2.727059898370911006e-01,2.846976300569709073e-01,1.227764942279000737e-01,4.217227252476535848e-01,9.272365894626997118e-01
2.861136673178869549e-01,4.422151311877536850e-01,2.574682096127532405e-01,9.764559418011128922e-02,9.016817419202738382e-01,9.979360698442818478e-01
1.322539855892719031e-02,9.326413970253744079e-01,4.658013208032705382e-02,8.808915502151514199e-01,6.252093362942219290e-01,-9.999999822084979506e-01
1.138977483262638840e-01,5.478393072059661861e-01,7.496580537629577989e-01,6.221789595971000814e-02,6.220562371493442155e-01,7.717450580156524076e-01
2.303899329677744912e-01,6.216657942854425523e-01,3.630905005949737752e-01,7.434754941961426722e-01,5.290650806492930291e-02,9.915312454245250873e-01
3.222210281432122403e-01,8.411607753020170497e-01,1.038105348687207025e-01,7.092512091218032833e-01,8.736456019197008649e-02,9.191138889323906547e-01
5.213343382582542596e-01,4.018482605749907344e-01,1.937164342899861391e-01,3.291227571211561842e-01,5.341584356171713566e-01,9.984479966557895381e-01
1.248530259547443733e-01,1.036121239809275479e-01,5.944082561510988238e-01,2.003311715063594844e-01,8.373918680114389446e-01,9.999997943801783862e-01
9.396051655445268880e-01,1.271689908011637282e-01,9.243366666080177207e-01,1.819325249932406130e-01,2.366000889756476044e-01,-9.999626764586384553e-01
2.151544493652386703e-01,3.025596582635964871e-01,6.196407238286449209e-02,5.442993975067751400e-01,9.611097052650073858e-01,8.337786962584583517e-01
2.905974435278182999e-01,5.945850619201387133e-01,9.174199677558578792e-01,2.587331863739572024e-01,3.893580923892844131e-02,7.401576705038652726e-01
2.613763085460231728e-01,4.528884981083099864e-02,1.909671414257603506e-01,7.726055278104434487e-01,7.381872537642796273e-01,9.927567518343169972e-01
2.222830124742383173e-01,9.684570163947473498e-01,3.514989446051397515e-01,5.566514322026532291e-01,2.240084453453480284e-01,-9.919828831080158560e-01
9.472668651229467773e-01,5.465160393509023162e-01,2.765808687681885480e-01,1.417442406917063524e-01,2.878477797917814440e-01,-4.278821729436739218e-01
2.252293092541420849e-01,7.529269898102559644e-01,6.710671497670311902e-01,4.269317263491739789e-02,1.543425742393556566e-01,9.999999459651613964e-01
4.452022831748960185e-01,1.436832550934098729e-01,9.167225040632333011e-01,3.220116675381532595e-02,6.028036374555673094e-01,3.416178802375322565e-01
7.684683649648731130e-02,6.881892772509011769e-01,6.243099870326014322e-01,7.384613087325956303e-03,6.974932897712543545e-01,7.810754160197981300e-01
8.095274997158966590e-01,1.216469315504861148e-01,6.348371911814693069e-01,2.842479976199309699e-01,1.183561103283916997e-02,9.999997643334190833e-01
5.847003659050740154e-01,4.943630551421187569e-01,5.521808107513416497e-02,6.392215414713650068e-01,6.158346952029478127e-02,9.999999816737419334e-01
7.317490309672215476e-01,4.303760452862172015e-01,1.645396715658633546e-01,5.277087763791066255e-01,2.861304574960966129e-01,3.429541532211639598e-01
9.970181604300191319e-03,9.045969919468316300e-01,7.565148024927732529e-01,3.216344257727531131e-02,9.037243155327758792e-01,-9.999999999999211742e-01
4.072570724311537216e-01,2.121254905796672308e-01,4.579774327430108372e-01,4.026341091886177503e-01,7.455058921293811203e-01,-6.819313980027600364e-01
1.940107828142419166e-01,8.611893316239437324e-01,8.285584818637106164e-01,1.536441439087108118e-01,1.682345140294830010e-01,-4.916139131901535730e-01
7.305853992760636961e-01,4.862948775665078965e-02,8.486080225100925967e-01,3.291458902508708206e-01,1.935440191553536304e-01,2.160228773464292207e-01
7.041612899956355420e-01,1.336923730060264881e-01,1.846656938868142528e-01,8.156442252860661712e-01,5.087026255138901165e-01,-9.977724556473377415e-01
7.318520724149657486e-01,4.398066876921523372e-02,7.680669448224918261e-01,8.167694771907096918e-01,3.135830666567089586e-02,-9.998689620686490587e-01
6.413633757736764140e-01,2.145007207974907251e-02,8.786068376916271461e-02,1.660912222425096618e-01,7.840871844368766386e-01,9.999999999999973355e-01
1.058694574262027122e-01,6.021456003227709797e-01,5.558728012151993303e-01,5.902718312128117928e-01,3.712450414206647231e-01,-6.811471485429542172e-01
9.037397602541307196e-01,1.681812308456981505e-03,5.298716015976373539e-01,3.704042560788468608e-01,3.487907777073319671e-01,1.637365496960760947e-01
1.000000000000000000e+00,1.000000000000000000e+00,1.000000000000000000e+00,1.000000000000000000e+00,1.000000000000000000e+00,-1.000000000000000000e+00
9.340461440039142804e-01,8.905487783784569178e-01,3.242788861022064678e-02,1.280156354361121906e-01,2.326243231847905171e-02,9.928023084561041767e-01
6.901240977411760014e-01,4.697590982688661376e-01,6.217642081205926319e-01,2.450467156287971376e-02,2.992559285052052154e-01,7.014714228669358675e-01
9.788487229027462710e-01,5.558952591493785400e-01,2.632595493212669044e-02,5.155171982522155361e-01,2.630902320120989124e-01,-9.966762100127157797e-01
3.940381409150114922e-01,7.361754816486084652e-01,5.331112768073797969e-02,8.025727190776045517e-02,9.365647332076393328e-01,-4.323867151578245638e-01
8.579109902580206448e-01,1.910212399917481652e-01,1.809913959033987718e-01,7.572186444443019804e-01,9.617023135581675986e-02,8.428045341569927462e-01
2.748436800236485067e-01,4.782050625445243286e-01,5.588405387192091345e-01,4.306854983142027193e-01,3.871657465128701126e-01,4.691161565341492867e-01
6.189719891307791100e-01,4.902692907512525705e-02,8.985769199687032582e-01,1.350401946434969802e-01,5.354989834764741774e-01,-7.681270596676730289e-01
4.164534805845428456e-01,3.338438650598127277e-01,8.958439621408116338e-01,6.681686566967387497e-01,6.334531863202971791e-02,-9.996571880556176515e-01
6.068033371814879340e-01,2.271829168830683809e-01,8.257180670272356027e-01,9.368757824808046641e-02,4.203330677188114040e-01,-9.534521217479718924e-02
3.877649695824709197e-01,4.309647499457796016e-01,9.137532620614942092e-01,2.492349689065148644e-01,4.441748703863124259e-01,-9.999891356205363735e-01
6.474345242112744536e-01,4.287754944118629674e-01,2.874371795637309934e-01,4.146483086090042847e-02,9.564809400163722941e-01,-9.990603822558159486e-01
6.101774479467426959e-02,3.211499495133309789e-01,4.055293246433838705e-01,6.380449995068411262e-01,7.670199945897067106e-01,-3.421277276454613991e-01
2.784776792401916223e-01,5.859572441227990369e-01,5.729492348523903544e-01,6.782542640782261989e-01,1.346487540396830163e-01,-8.441263775120421142e-01
1.490877325815984922e-01,4.049198397058584864e-01,6.689803668327984898e-01,6.334468130037277378e-01,2.184815294513572093e-01,8.805427306816400179e-01
7.569919573260265322e-01,5.799956221889833730e-01,4.839906415022093844e-01,6.769592805372750544e-01,9.214648013192363596e-01,-1.000000000000000000e+00
3.835741049172243788e-01,2.640292679684227428e-01,9.961574180895944597e-01,1.797694085963120192e-01,4.384558814258579518e-01,-8.942563683650358586e-01
3.267299350520230239e-01,6.484914430409021158e-01,2.906147865895870614e-03,3.387269672238130136e-01,6.991898269460616877e-01,9.894161294079819591e-01
5.884597003710899388e-02,4.613923846142734542e-01,3.985907424864026938e-01,6.060453047360339074e-01,5.435263926217187569e-01,9.046102347667264176e-01
8.015694697039795757e-01,1.798738266634816174e-01,1.575729470096978377e-02,5.749658570047244677e-01,4.810912339884645950e-01,9.457223696192817997e-01
2.007229121987386400e-01,1.176749346130053983e-02,4.733431294867533334e-01,9.393845252353232311e-01,7.838870294547163331e-01,-9.999611671629007326e-01
5.807285931194485773e-01,1.573834678861088798e-01,2.979561207694599867e-01,2.653738845441994121e-01,7.338166680740302317e-01,9.742569755890826411e-01
9.599706895763664150e-02,4.649345020138337947e-01,8.502591086358440853e-01,1.080744527387589582e-01,9.314114105553646938e-01,-9.999985630313875662e-01
8.117795272012823249e-01,2.341323826610716696e-01,6.626378838085633660e-01,2.718540073531433565e-01,3.047565319385138749e-01,-9.556644232608771938e-01
4.508155771153666280e-01,4.574088081611607515e-01,7.847032445984908344e-01,6.652021916611593477e-01,6.090779182019888660e-01,-1.000000000000000000e+00
7.123876350836098048e-01,5.429298301465134147e-01,8.187813832909832668e-01,5.622242533662578090e-01,5.040952987691970089e-01,-1.000000000000000000e+00
1.000000000000000000e+00,0.000000000000000000e+00,1.000000000000000000e+00,1.000000000000000000e+00,1.000000000000000000e+00,-1.000000000000000000e+00
6.501600881719241665e-01,3.071492938562138120e-01,4.263713727450344493e-01,2.343146994460521826e-01,6.222489799672462629e-01,-7.882091235591794920e-01
2.965711064690437770e-01,7.309842736041878286e-01,3.614343938041946758e-01,1.750339670184818119e-01,4.754362598776863402e-01,9.691318845154228701e-01
4.749368483930095641e-02,6.829527508162552829e-01,7.622442201561550057e-01,5.491175540708320008e-02,7.995324457157733100e-01,-9.978061112351012119e-01
9.105128414414318527e-01,5.432465674987485560e-01,3.795646728824434435e-01,1.098128360462408484e-02,8.430182208298343804e-02,9.999465495572201768e-01
4.995035103046995828e-01,5.545469797284330316e-01,2.055035161327477544e-01,4.452451310495444403e-01,1.113513306682782228e-01,9.999999972931825631e-01
6.631682926564910208e-01,9.293666780346749867e-01,2.676097092413980416e-01,3.612269486111030492e-01,1.647051133784574739e-01,-9.998035298320919750e-01
6.678750293047295283e-01,4.721238741656689775e-01,4.396174827465753610e-01,3.762277110281355141e-01,3.885376554305898511e-02,9.964817562020260588e-01
8.519382845286499473e-02,3.847178035123822726e-01,5.814387071362289161e-01,3.880434740148507866e-01,7.318944621485677926e-01,-6.251502256806795721e-02
3.376142797392037709e-01,7.488050889360869933e-02,5.875039016973514494e-01,8.800971576824033749e-01,4.688514816911671518e-02,9.999525003182989646e-01
8.816346328074364802e-01,3.066667926644129349e-01,2.294048138275827375e-01,6.834782394937529704e-01,2.487580730505810078e-01,-9.981309936288590423e-01
2.860395450982096133e-01,4.434662753474595265e-01,4.109946483621794711e-01,8.106098050206381744e-01,2.899754374184118078e-01,-7.933867644508737493e-01
5.685536922637445256e-01,5.423193648504264219e-01,3.789621277680325084e-01,1.981442823902274109e-02,6.494425755528030475e-01,1.022808505354981801e-01
4.264600439504845908e-01,4.021602463820749818e-01,7.615176946395845192e-01,8.446879841560242519e-02,5.622928950736993947e-01,-7.666970844405261998e-01
3.455088992675146020e-01,9.803664992959971736e-01,1.846121455019169855e-01,7.294438950466072269e-01,4.005674817000265397e-02,-9.455362714538610991e-01
6.356089874977896570e-02,8.020011650886704757e-01,3.029004460445940405e-01,6.686174482399031005e-01,2.685620954959626605e-01,6.996214873767487852e-01
7.606569194556409563e-01,1.269214236094776821e-02,4.398706475905324043e-01,5.909223639400715822e-01,3.011431843681335319e-01,7.024385683035148098e-01
5.412299239349889213e-01,8.066571121892607277e-01,6.846010089971612533e-01,1.939713300022573861e-01,7.171380320791087559e-02,-9.743678155542567776e-01
4.857334129087404473e-01,2.360322363040023574e-01,2.818354696503605483e-01,8.786293306258561309e-01,4.257288844395056282e-01,-9.835068555140121793e-01
9.980267387483596764e-01,3.678942977924701818e-01,9.505112652516467531e-01,2.786896789649717654e-01,8.447526160860191480e-01,-1.000000000000000000e+00
5.064612175580058828e-01,1.033075339708214163e-01,1.231303886121292296e-01,3.911227324002576333e-01,9.194002882461813630e-01,9.635192964052874398e-01
1.895249128770849778e-01,7.176682368580900029e-01,2.860344838206671514e-01,8.671719524095236054e-01,4.301425627756196857e-01,-9.999999612265620952e-01
5.600548653991510584e-01,6.035964520682960410e-01,8.268079063648177129e-01,3.738921369483705348e-01,2.626983276268696765e-01,-9.999999999999944489e-01
4.785674965272059267e-01,2.983851221619496785e-01,4.060350879356497411e-01,2.207729421894779609e-01,7.478648942796775057e-01,2.014748745464256530e-01
7.724567257948483645e-01,2.397408002818487427e-01,3.312855866871182720e-01,2.420959838724341673e-01,6.052677522245665243e-01,-3.184517340981407596e-01
8.572610039269856763e-01,5.097518659993272028e-01,2.127652133817083402e-01,4.096184777117178877e-02,4.091624207643212996e-01,9.797113959035625985e-01
7.251177336838540155e-01,0.000000000000000000e+00,5.323539514447699350e-01,1.072277187714517771e-01,5.760512768205521272e-01,9.998738835526197466e-01
7.312217077479493677e-01,3.001955123181735408e-01,7.915889245733335189e-01,1.066774779721376271e-01,1.757618483240245277e-01,7.011757968946468189e-01
8.965235478665276592e-01,1.167189173514924100e-01,9.247559665188569422e-01,4.735332531068325856e-02,6.278346944769515325e-02,9.557321034993988551e-01
4.082786148105462809e-01,6.778745391019173894e-02,3.098304725555974803e-01,4.687625867915075628e-01,8.574914206355052082e-01,6.451220984195766839e-01
2.657919271867751898e-01,4.237399006802764490e-01,1.773877162162859344e-01,5.911850788379049426e-01,6.624621591591824954e-01,5.659857930842073781e-01
2.791449555320428821e-01,6.712433597974158950e-01,6.486886391075852298e-01,2.690331686797610145e-01,3.042930616792072218e-01,-7.755309100161000835e-02
5.430247972596748962e-01,5.661673889910386892e-01,7.476663702907095921e-01,1.769904697722596010e-01,1.966510390759112770e-01,-7.213196999433842960e-01
4.550479705786412282e-02,8.956653045130970048e-01,8.234195443752960752e-01,1.492451832846548171e-02,2.479106465745364030e-01,9.818729492278355231e-01
5.636525701934215205e-01,9.269956659827425227e-01,1.240144110607702688e-01,2.077901194788145667e-01,2.660086023671661137e-01,8.155534692790171736e-01
2.640311692126283694e-01,4.609994924714965192e-01,8.226743975310277790e-01,4.822543679792264393e-01,2.947398433750882951e-01,-9.926795146994925600e-01
