# x1,x2,x3,x4,x5,y
2.186463578204196623e-01,8.359885406402334240e-02,5.762113865107698629e-01,2.643415244710076717e-01,3.173264314895295479e-01,1.000000000000000000e+00
1.107961628023590300e-01,4.682189200983041810e-01,9.690734804928234913e-01,2.304017151533727104e-01,7.498718666224819529e-01,-9.999999991652555043e-01
5.067829888357603396e-01,6.091264397011526555e-01,1.234689865831635307e-02,8.870443085883524814e-01,1.657232816354657287e-02,9.778348014943443189e-01
6.429552245154006584e-01,9.487115425334698982e-01,3.276083916734839341e-01,9.913709572721070284e-02,4.299721948548463901e-01,-9.999982549592170145e-01
5.414997825034464918e-02,8.355366336811567152e-01,2.875078074301613551e-01,4.725127750481251665e-01,6.720105880220683670e-01,-9.914942258826257016e-01
7.634425950702351527e-01,4.038268280767814411e-01,7.065261695951673415e-01,3.276913240155280849e-01,4.985684884242485571e-01,-1.000000000000000000e+00
5.836387022442306449e-01,2.634241753565167432e-01,1.272779979004613204e-01,9.917593672590980791e-01,6.449157872936663871e-01,-9.999999999999532596e-01
8.326339689400972244e-01,7.938632608497638854e-01,9.032968990808287746e-02,5.467682211273930948e-01,3.855533485115705261e-01,-9.999999999999997780e-01
6.917185751395460436e-01,7.221136916436334818e-01,6.364154723164314742e-01,9.031634875378703464e-01,1.844163691711082353e-01,-1.000000000000000000e+00
3.586306480042099065e-01,2.473080022481696227e-01,8.674235430790033785e-01,7.974717061011417085e-01,9.039293508439517622e-01,-1.000000000000000000e+00
9.602933111721589921e-01,3.806248583374281791e-02,4.931918363521575754e-01,3.912778806702105205e-01,8.178303673984263500e-02,9.993942796046091370e-01
2.821493800634661819e-01,1.576054211210894118e-01,7.581980280111023651e-01,6.582415348382009146e-01,1.056862921503539804e-01,9.994897820370189923e-01
7.380093260634315033e-01,5.969496317721365575e-01,1.766343040278635090e-01,6.906584373815977639e-03,5.468151454433962666e-01,9.145666422750877711e-01
4.022083611331484509e-01,6.795253902014188885e-01,8.200473666034056031e-01,1.117038036573500953e-01,2.854688028913117126e-01,-9.752309568265308259e-01
8.747602081647141148e-01,1.274513716042139921e-01,4.005171947555122847e-01,1.693503384223274677e-01,8.680578504090289416e-01,-9.999965318027868033e-01
4.876680087472579084e-03,3.770966318781592830e-01,5.460474125293631742e-01,8.455913170062944184e-01,8.026958947358310281e-01,-9.999999999963945507e-01
9.315371050488929772e-01,3.344929239619618411e-01,6.680729624296772862e-01,5.724460878500922112e-01,7.700083500588811303e-01,-1.000000000000000000e+00
4.589869401382351555e-01,8.624819320293236613e-01,2.388678959053353590e-01,7.091021172659794924e-01,2.307616018293034421e-01,-9.999999848853202700e-01
1.749829633524477568e-01,5.357837241351390833e-01,9.211084230168939957e-01,6.483684139331346019e-01,9.541037883930748587e-01,-1.000000000000000000e+00
3.032393387735883294e-01,9.643760718035414570e-01,3.525884521507887670e-01,4.497152411128971239e-01,5.515638793332761081e-01,-9.999999999999882316e-01
6.185790664096039171e-01,4.387129636984697378e-01,2.297595837570119148e-01,9.047899316629843813e-01,1.035670410923063001e-01,-9.710981606248836329e-01
9.079634501728408580e-01,5.026368850612901173e-01,9.445467479228306096e-02,6.682884476657807715e-02,1.889846270175009335e-01,9.999999999942867923e-01
9.214035861872629241e-01,1.845906757191362879e-01,6.965935646395217395e-02,4.188981625192468861e-01,1.197762160757192412e-01,9.999999999999835687e-01
9.412451501805375598e-01,4.838855554495753997e-01,1.794003210590871811e-01,4.576491977625045116e-01,8.297752575187115065e-01,-1.000000000000000000e+00
4.735475710750137734e-01,3.096769711317164109e-02,8.583649637265979848e-01,5.243946712601428306e-01,7.648126587537583676e-01,-9.999999999999997780e-01
2.195300888044726395e-01,2.847647181960743512e-01,5.759384587205601536e-02,8.383025562740483716e-01,2.103700549556412891e-01,1.000000000000000000e+00
7.633247104504614633e-02,1.789615980510748383e-01,1.748227527984591578e-01,4.480735139592416094e-01,4.597793619302475432e-01,1.000000000000000000e+00
6.836166493720460258e-01,5.313120874490120382e-01,3.172541492608219604e-01,2.216090294347317913e-01,2.524758323632955714e-01,9.935123621190826704e-01
5.563749903030151822e-01,6.451581265297609002e-01,2.896836211129102945e-01,8.510495292234390163e-01,4.692012544200728774e-01,-1.000000000000000000e+00
9.316224289877798048e-01,8.211628807967905619e-01,2.279384280413299657e-01,2.575084865163283776e-02,1.594509817901823279e-01,1.003461538759120586e-02
5.376217164132319759e-01,1.824932442546003675e-01,3.464640429536739452e-01,4.082038454383901116e-01,6.211204113723739484e-01,7.702079983749583469e-01
2.203097663823773977e-01,6.629138957033308133e-01,2.997712708285287797e-01,2.802713011214048172e-02,6.838317262842812383e-01,9.999960275290722400e-01
6.265262797022715935e-01,1.352414687257559867e-01,9.196693134080347054e-01,9.142525495011966097e-01,3.704017727340535027e-01,-1.000000000000000000e+00
2.040364249663831342e-01,6.252380831397582606e-01,3.648214172040106229e-01,3.780782998439011777e-01,6.857682979932007428e-02,1.000000000000000000e+00
3.011652008591486074e-01,2.872425758075891067e-01,2.726217180573640292e-02,7.923169970394938755e-01,5.297764107144019574e-01,9.998975090910613428e-01
2.569930036323202494e-01,8.142945137412843648e-01,3.552096491020323987e-01,3.778323441074120659e-01,1.760610552432704812e-01,9.984288495815780706e-01
7.124071335759923906e-01,2.493301010264676598e-01,6.313561393050577397e-01,1.673330722584926433e-01,3.573821078004679186e-01,5.929802780086554925e-01
9.017400299493207871e-01,7.967485153458904179e-01,6.961026553663665073e-01,4.352555006817565020e-01,4.738419041073183013e-02,-1.000000000000000000e+00
7.324993465726665764e-01,4.016124808386577205e-02,3.965038417512206648e-01,7.928205007616447864e-01,1.387092709132229096e-01,7.371113736924410631e-01
1.546071440290448518e-01,8.663702446685563885e-01,3.664448343463079794e-01,9.245310378704930665e-01,1.759722429797208332e-01,-9.999999501776445365e-01
2.188507556969259416e-01,3.847746539013112144e-01,7.766645483599837751e-01,8.965399287084483415e-01,2.184519814494421952e-01,-9.999999754995485546e-01
4.690690768997171634e-01,3.011783416986512085e-01,2.579235197232971899e-01,5.644346199671299580e-01,7.524960044950054217e-01,-9.975393642707807151e-01
1.012037915732916585e-02,8.243578833750576651e-01,2.936203448667828314e-02,2.515143716191934331e-01,6.718047512609514049e-01,9.999999998808815072e-01
9.500023376002491027e-01,9.990953923516059376e-01,1.088609026903693683e-01,3.189523043026464277e-01,8.810660703165695828e-01,-1.000000000000000000e+00
9.211013112033961114e-01,5.543918972931244360e-01,5.102319847441733058e-01,6.321165662648927652e-01,9.470987334885366815e-02,-1.000000000000000000e+00
6.525996688403662427e-01,5.499288582181839358e-01,1.475260430623603625e-01,7.126406794259072530e-01,1.004364984981665904e-01,4.783604900127635950e-02
9.540693109540752115e-01,9.653127141716516535e-01,4.080219123641374429e-02,3.199623790427841979e-02,6.619503395704798843e-01,-9.999999999999998890e-01
6.598353495671517299e-01,1.074720687415963022e-01,2.959887523030605982e-01,9.450959190708310143e-01,3.586656494168358189e-01,-9.993279856455814514e-01
3.589730799489850716e-02,2.316521915682308030e-01,8.436744354150601533e-01,2.825392744847132764e-01,2.263819976625855712e-01,1.000000000000000000e+00
7.000680374915566606e-01,1.347767542353400516e-01,2.002157562811261726e-02,1.730063992687262964e-01,8.113394865672831635e-01,9.999999725683859086e-01
2.570686755921047784e-01,1.404459310347977996e-01,9.376190059990842096e-01,8.422829712478117070e-01,8.466316777363681878e-02,-8.945987185199444358e-01
4.200274920109638432e-01,6.225168488583607829e-01,4.419565873082330343e-02,9.378292763810786026e-01,4.872219737017512431e-01,-9.999999952857883123e-01
3.377395692168111974e-01,3.564792736458998745e-01,5.071517568940402398e-01,4.697372285365600253e-01,4.027975302233649524e-01,8.845614616731487523e-01
5.079478598997717587e-01,7.465679402737498416e-01,4.611499211745790916e-01,2.209800973001382896e-02,6.059395016356392549e-01,-9.973390366149684771e-01
6.427741176773488219e-02,5.688335211920515500e-01,4.512923924037422208e-02,6.947512358047818193e-01,6.250314441685241862e-01,9.957899710657356351e-01
9.719439381208770934e-01,2.059231542006097482e-01,4.620563662762869894e-01,5.316467108443252432e-01,5.724422935681884317e-01,-1.000000000000000000e+00
8.279718121446378865e-01,8.710982361626896930e-02,1.943606999142711428e-02,9.813395850632854467e-01,1.823367628875928181e-01,7.547721612992437379e-01
3.538146678322399707e-01,9.677808780140066958e-01,3.333334824108161731e-01,4.303711997698591030e-01,2.869265142894099618e-01,-9.995142069627356296e-01
2.434825650948413689e-01,2.029170632249062689e-01,6.806029174488202882e-01,8.452368837696710990e-01,3.223436965114291342e-01,-9.700547874962557326e-01
8.711885237080653210e-01,7.853789057727160738e-01,3.186894412480506533e-02,2.548072124894388835e-01,2.221964842429551557e-01,1.660758955162355832e-02
3.267558682669229331e-01,4.527322218873223170e-01,9.894213838815413276e-01,2.408724050423000362e-01,1.162408895871849257e-01,5.096484709140085556e-01
3.460547545626086463e-01,6.228614215039872670e-01,8.298390431604130146e-01,3.611180570702774428e-01,6.059079197844208231e-02,-6.387428265841220698e-01
3.152225355963608755e-01,2.445279269737376249e-01,4.529032045269041351e-01,1.506973481873850329e-01,8.278096067632989552e-01,9.971027679568336133e-01
5.378801906515719849e-02,9.364675128785151514e-01,5.836216274348048350e-01,6.164204204116082580e-02,9.344666875358757785e-02,9.999999999998898659e-01
3.283842438371869371e-02,7.896363675088928780e-01,8.771996753399807778e-01,2.169479206344275893e-02,6.404945793367475271e-02,9.999999999019919539e-01
1.713987559168161368e-01,9.449993694108460573e-01,7.871513687440254148e-02,6.295162599390302649e-01,2.999089990608415704e-02,9.999998813739894299e-01
9.751740279151605018e-01,2.608093617085553984e-01,6.533610892053796082e-01,1.243697811878828330e-01,3.672688909264941182e-01,-9.997242444296702280e-01
7.421008698871103260e-01,5.738096082656475305e-01,1.482865370947337169e-01,9.142291893852523554e-02,9.160453299791595505e-01,-9.999997733039174275e-01
2.592849932437090166e-01,6.249568922140261718e-01,4.188196095655260520e-01,6.257125205665879930e-01,2.784687494135203445e-01,-5.089244897707180249e-01
4.266535195103340339e-01,3.742239080772676307e-01,2.077544120795185578e-02,7.565603535055676065e-01,6.768062603665118138e-01,-8.662293306503825452e-01
6.590083079193724547e-02,9.858041411037937740e-01,3.472090044970920775e-01,1.371293613725750038e-01,6.056723125348955072e-01,3.280204737433063400e-01
7.150192348759060179e-01,5.623055161122154644e-01,1.569141442017785507e-02,8.902557081467324940e-01,1.400194172088213285e-01,-9.921395975473081830e-01
5.194109809017293244e-01,1.069804154041047520e-02,3.767525978847204721e-02,5.485446426744433612e-01,9.131284928483756058e-01,9.801153943445397587e-01
2.337093310836801663e-01,3.162757180392879452e-01,3.162248021009288479e-01,8.749924048470295590e-01,3.794415003645488782e-01,5.652179055833528309e-01
1.124275959236366654e-02,4.982150856661428096e-01,5.453509196220179822e-01,3.289816962805388045e-01,5.880357009940163637e-01,9.990554852192690127e-01
2.263233696219017210e-01,2.954232516792185681e-01,8.363313758141245335e-01,1.444418048967028301e-01,6.893127744848657201e-01,-3.306786868057236539e-01
8.650064210977466139e-01,2.600414123232475672e-01,7.610208895492628356e-01,3.184599505807968467e-01,1.301384096623229014e-01,-9.956426474407237270e-01
8.526020772369757861e-01,3.247868388026433628e-01,4.165123862411860278e-01,1.707778176210687782e-01,4.636726315258462572e-01,-7.048222861710092824e-01
9.188525816066651641e-01,3.211897363617979839e-01,1.691950624889683730e-01,1.127413759377762260e-02,4.705346275884114693e-01,9.999970951488177384e-01
5.219650115850236194e-01,3.379475176871096775e-01,4.469463498146129810e-02,9.496548233729944499e-01,1.510514149615033511e-02,9.999995472854810163e-01
3.395410747484681746e-01,5.611642232185434231e-01,8.143946112027814488e-01,8.835897326122052475e-02,1.248019542535683396e-01,9.999478733121156537e-01
9.738726068302202554e-01,3.731180940594087253e-02,7.896827202684557623e-01,7.017625728968850396e-01,1.711535467909386377e-01,-1.000000000000000000e+00
3.481951838565559565e-01,6.464217936546889920e-01,2.944213713541621313e-02,4.771017613589338957e-01,5.881815815281190574e-01,8.105592597466526605e-01
2.251906399148136950e-01,1.832718563452229721e-01,3.875520035415860876e-01,9.877256939490755006e-01,3.339661704316022606e-01,5.939607721177173616e-01
6.724557687491581337e-01,4.041455309599062407e-01,1.570225312668160345e-01,3.363804463383906485e-01,6.482632331861799546e-01,-6.188043305099008018e-01
1.912531887928433927e-01,6.579080609590272077e-01,6.892668876304325343e-01,2.663589721055514281e-01,3.901803699991781560e-01,-3.689722035585110138e-01
5.412364867616088066e-02,5.084331800620830455e-01,6.620380088744787228e-01,5.941161274594158881e-01,1.353251570811215554e-01,9.996919800043293503e-01
7.054791773243314079e-01,1.803961901090611261e-02,7.701957761946925940e-01,7.844179746419935317e-02,6.010304461968332124e-01,-8.810658444354058094e-02
1.263973186472064913e-01,6.367829365122703970e-03,7.590190840186312737e-01,4.342153591078982688e-01,4.289695729411414082e-01,9.999999999971864728e-01
8.888625565794253669e-01,5.978150859612658616e-03,2.921510867823129409e-01,2.160532932998054101e-01,6.479440693155191777e-01,9.503668895169612441e-01
5.796723781258618091e-01,3.320927065596215172e-02,6.783421299288615591e-01,6.100566905536378703e-01,4.221151785758724961e-01,-9.921808063040357117e-01
3.525799791589151466e-02,5.187998802589670611e-01,5.160812186807036683e-01,6.110494489072130220e-01,5.599775110198641492e-01,-7.938764014298002047e-01
8.287265306542308529e-01,1.847638796843942277e-02,2.263151779985644318e-01,5.981841289090823466e-01,9.774152143541620097e-01,-9.999999999999997780e-01
9.021908353032864758e-01,3.073286209853252071e-01,1.604484341737626996e-01,5.714864803844226238e-01,2.766879942817287441e-01,-6.176483860168948681e-01
2.435270044154678737e-01,8.589940220865409648e-01,4.449944323853376460e-01,2.510869332588068215e-01,3.961435283215800074e-01,-3.662965637508888150e-01
9.197364755838069450e-02,1.775251289146474176e-01,5.296195751421679532e-01,9.381150241524476296e-01,5.318329020915103511e-01,-9.177502424682109083e-01
9.508612235461686435e-01,3.042277172019841602e-01,4.631146248495815465e-01,1.269567595274624372e-01,1.373244522436277426e-01,9.982259968571787212e-01
6.386115444025924903e-01,3.928285821742808492e-01,9.442699459319565669e-01,1.146241833768105178e-01,1.021373567384218917e-01,-3.385589523484433538e-01
8.080248616470577794e-01,1.656533974367246642e-01,3.776400330475585543e-01,4.045003160455199476e-01,4.362672640795458578e-01,-3.338066187206747415e-01
6.645167773373996667e-01,7.587126854443826396e-01,1.036857807486651212e-01,3.089977606285169154e-01,3.888333957713203670e-01,-6.756930243857200979e-01
5.136613141566858109e-01,5.637524498349346519e-02,9.767175965308356744e-01,1.881876019833326474e-01,4.339675858843183298e-01,-3.035974867964674750e-02
2.124030447981612169e-01,3.906051497592500366e-01,5.881987823409436933e-01,9.656174120416481932e-01,1.087276906988932437e-02,-1.395270836459472363e-02
5.366561994848548789e-01,7.826920780311129311e-02,2.984493492232780931e-01,4.812673394990086284e-01,8.741156737900457330e-01,-9.168231559720223522e-01
2.500277403683694999e-01,1.619691041126453956e-01,6.685363968581389260e-01,4.887321398831702135e-01,6.508434363739959982e-01,-6.355632582333942127e-01
6.207453461873113643e-01,9.533258101679920049e-01,3.288549674929787670e-01,4.855145192107702123e-01,1.739807892722598781e-02,-9.999506922802827713e-01
7.119482556448510913e-01,2.012365446629541532e-01,4.390860559513689032e-01,1.292707012638533715e-01,6.864785776054582733e-01,-1.832509604613719034e-02
3.911105248951464164e-01,2.831238533516888811e-01,1.806436115477777493e-02,5.496509845622113977e-01,9.890852230074044238e-01,-7.253277124309116530e-01
9.632255077794488890e-03,7.452055931215347817e-01,8.404931585931152416e-01,6.668656776203116809e-01,1.205889924382094330e-01,-9.997552207930437973e-01
1.024939330431383494e-01,1.565218135002506838e-01,7.984133376522185577e-01,5.823406132284438819e-01,4.561317506928108667e-01,7.702199301079311056e-01
4.479623373915891937e-01,5.517721229819324558e-01,4.388218425526438371e-01,6.129658812813953972e-01,4.334294954632205571e-02,7.769706919638208475e-01
5.258147063869799132e-01,6.515438132843404118e-01,5.418161342091580845e-01,3.782635470131658333e-03,3.128765401417296088e-01,9.736020562871126049e-01
8.478786635465662691e-02,3.109249347709445721e-01,1.325207185924319984e-02,5.287841100098199520e-01,9.876152565966960228e-01,9.999577900813474418e-01
2.646308770916644404e-01,6.852859221596525607e-01,3.313928707409899421e-01,7.212934069759425748e-01,1.117122800720058567e-01,6.256911431502889531e-01
2.768675911143413382e-01,3.153021628532212683e-02,3.291762593956725769e-01,4.330881530294251602e-01,8.976494582213999651e-01,9.992378740424179284e-01
1.454995423365416651e-01,6.380319657305414394e-01,8.426378830240394135e-01,5.465598388171823974e-01,7.966407780604900513e-02,-8.542834868771678192e-01
7.743299933696298210e-01,7.706484041000584151e-01,3.265121879649481307e-01,2.202965434400649403e-01,6.877130718913335161e-02,8.256091691363809382e-02
7.065731106571597475e-02,8.595020078594060031e-01,8.288683635883231648e-02,4.633740140866122736e-01,8.998367584675425190e-01,-9.996246926425801371e-01
1.775868135103193524e-01,4.841117056641272565e-01,3.001366139590705973e-01,9.714305392739457368e-01,3.073803476293227033e-01,-7.906922645818128537e-01
3.636774150478939704e-01,1.433837137975531306e-01,3.927321134248402262e-02,7.087943183382728884e-01,9.890862015262856799e-01,-8.118382017772372006e-01
2.278770605203972177e-01,1.413960695358803255e-01,6.085620312142486776e-01,4.010296455441519359e-01,6.482451012368167786e-01,9.821327009715425937e-01
6.039619965017292147e-01,8.114313248853053384e-01,5.143032056616696490e-01,9.977364676499427265e-01,7.868359580101048634e-01,-1.000000000000000000e+00
3.149284769555373287e-01,2.537672705810186113e-01,1.902242270945749270e-01,6.938115216822230424e-01,9.647775085311818266e-01,-9.999792752014692310e-01
4.407876438594305890e-01,6.787460960188920200e-01,6.168899634157859468e-01,9.419645067205859590e-01,1.121960705883528753e-01,-1.000000000000000000e+00
9.797858469931323144e-01,2.057013329911604738e-01,3.065004653900402221e-01,1.124962535149861553e-01,6.659936558648580363e-01,-9.218849365068370050e-01
8.630219101103085988e-01,7.156470784276944830e-01,2.875694495339855550e-01,3.080436522102753538e-01,7.403127762857235339e-02,-8.341280091052060142e-01
3.068130711544689859e-01,8.956292060428868718e-01,3.205729740612563855e-02,8.566797907458813255e-02,8.951066698064295002e-01,-5.905702670206783855e-01
0.000000000000000000e+00,0.000000000000000000e+00,0.000000000000000000e+00,0.000000000000000000e+00,0.000000000000000000e+00,1.000000000000000000e+00
5.112066611421942630e-01,6.691477944995174454e-01,7.882756783875842499e-02,4.375581943710664112e-01,3.869054878343852200e-01,8.411389357277048173e-01
6.173436859477297034e-01,2.904294956952659379e-01,7.491673244154744005e-01,2.049569091611800620e-01,4.837285337405992647e-01,-9.976108603612522385e-01
7.039116643508817051e-01,3.768642202198296265e-01,4.368729301297861745e-01,6.882328342852961356e-01,9.325925413967731670e-01,-1.000000000000000000e+00
7.147487953805906624e-01,1.832588949526692546e-01,2.785571126691544497e-01,5.038326990159264218e-01,2.224586683029297074e-01,9.999924305209890729e-01
8.856367247590753999e-01,5.592336848244643388e-01,8.846567122744050105e-01,8.210768196953096565e-01,8.116331801727152406e-01,-1.000000000000000000e+00
9.130616388398824501e-01,3.996388251299492489e-01,8.355672247652387030e-01,9.798201340767239698e-01,5.401208100487191466e-01,-1.000000000000000000e+00
5.643376282147571921e-01,4.047282441940274755e-01,5.217935018802060121e-01,3.921898225631745977e-02,6.182925772501295381e-01,2.438107876484236769e-01
3.991657912077020143e-01,7.862546569453204848e-02,7.167669513025923811e-01,1.850609803296980049e-01,9.006815900709352896e-01,-9.461989365944144525e-01
1.596589970590637717e-02,2.321951395377705729e-01,2.350542394329274698e-01,8.885511714631862956e-01,9.149380038382459723e-01,-9.583608599345717627e-01
1.690519639874157598e-01,8.184263110343958925e-01,1.872300933546380552e-01,1.839050144841787582e-01,5.892954504664968951e-01,9.997947321375857399e-01
8.944188937866945910e-01,9.899827855091385409e-01,2.144674480949271787e-03,1.879352202460739252e-01,1.889178189903795364e-05,8.822088009295996347e-01
5.142062850762341153e-01,7.535955167460773874e-01,6.789551567072184789e-03,8.545455255558467855e-02,6.785129697953515837e-01,9.702994684838814887e-01
3.528140429331628747e-01,6.850196450551014893e-01,1.768777915314698468e-01,7.106359503375694331e-01,3.166468321381168405e-01,-7.988745478395362642e-01
1.431868919531862350e-01,3.664861862235480605e-01,1.312906627203236920e-01,6.232379599565999184e-01,9.942367754179253225e-01,-8.806290221214883029e-01
8.142120471598843223e-02,9.289587138252684007e-01,2.361711009556813623e-01,1.907227996015818661e-01,7.630607908044644283e-01,-4.322470347807879643e-01
5.904920543148914902e-01,5.253595453641860535e-01,8.504450704299401087e-01,5.443728226659407671e-02,1.369824750921785905e-01,1.207267744124267406e-01
5.904511550240599815e-01,4.935413789842668097e-01,7.653985392168045632e-01,2.162472579019937002e-01,1.140197006120969025e-01,-1.744954703031958987e-01
4.280119919010882401e-01,9.543846872032260009e-01,9.746597001051765519e-01,4.355848280350366197e-02,4.541675146413504116e-02,-9.999978731344767446e-01
8.573828933046456768e-01,4.414266784372046781e-01,4.116634045500049965e-01,2.898836534409298671e-01,2.539898196921300810e-01,-8.632425804889931609e-01
4.526446761066078572e-01,2.175177174716065864e-01,3.469864212375231571e-01,8.501774142771109655e-02,9.823091574560487427e-01,8.369319021364911571e-01
7.676352015908106674e-01,2.233859408360866494e-01,6.202132408713975642e-02,5.442369251801039143e-01,4.258497858975756056e-01,9.851457008009454341e-01
9.288950393844581654e-01,2.901815803101142066e-01,6.558440725173902974e-02,5.335041620498064407e-01,4.165882482958317978e-01,-7.521023219347746647e-01
