# x1,x2,x3,x4,x5,y
9.360576188523536123e-01,2.590489939550184584e-01,3.676986450998397798e-02,9.491402517079289280e-01,7.280513792338068058e-01,-1.000000000000000000e+00
7.733809225004855126e-01,3.746446486629788630e-01,5.260146249884949388e-01,9.854824486104105663e-01,1.584971349518905226e-01,-1.000000000000000000e+00
4.957393949697659896e-01,5.798106981382082914e-01,8.730266508513192525e-01,3.464446414006807640e-01,4.418465054233942646e-01,-1.000000000000000000e+00
8.197761916366052004e-01,4.852293130351814088e-01,2.799458625189379379e-01,3.538018482685845734e-01,3.558738459672763921e-01,-9.701111262194591633e-01
1.443400730745968696e-01,8.490351506872197973e-01,6.620843964971890871e-01,5.438682887624279871e-01,1.916903864363100896e-02,-6.209180194837240485e-01
2.040584546474922822e-01,4.072918702472763663e-02,3.424717474154762020e-01,2.707631824597697690e-01,9.369705490059296871e-01,9.999999997164383814e-01
8.596292891638207534e-01,6.955267684928012617e-01,2.391644900909437044e-01,7.605163785101412000e-01,5.605198981694224925e-01,-1.000000000000000000e+00
7.450300149859440113e-01,4.291661145216518758e-01,6.048575848771877567e-02,8.709138237063704380e-02,6.337910664882990819e-01,9.996597113972180981e-01
2.850535586445769320e-01,1.686468717477232482e-01,3.797260135884093502e-01,4.340015999398678936e-02,1.093377921735706609e-01,1.000000000000000000e+00
5.144076447274060770e-01,5.342009922885437856e-01,1.374631106871759545e-01,4.006814750815501647e-01,2.035320647942663319e-01,9.999999998312742999e-01
3.110328086473081455e-01,6.324449975558553705e-01,5.632137707892194145e-01,8.424815288248050926e-01,7.604758941348651602e-01,-1.000000000000000000e+00
6.877375702753713016e-01,3.362786503817565276e-01,9.017708543849067837e-01,6.987797766377215058e-01,8.229822498846541823e-01,-1.000000000000000000e+00
4.483232833012034124e-01,1.429006356067773209e-01,8.097054065590139071e-01,4.852846952486403742e-01,5.461944655546590033e-01,-9.999935107626211073e-01
3.738293620370159998e-01,9.465971733575677394e-02,4.046210956938899317e-01,5.995855448431526291e-01,6.651864840088915765e-01,3.747961527230405654e-01
9.897283160722603057e-02,9.915181587779349215e-01,6.455485605095629964e-01,6.060828965122617706e-01,9.863846563361700071e-01,-1.000000000000000000e+00
6.291685040722321265e-01,7.507543960759441859e-01,1.896856512541838513e-01,8.610644042385844354e-01,8.315716595648714460e-02,-9.999999961743143428e-01
2.128607052594479188e-02,7.052330035996950963e-01,9.755366191796153164e-01,2.081453090989473509e-01,3.367970019782856594e-01,-8.272019390799922878e-01
5.744615078265375985e-01,9.475753966956290686e-01,7.696606978078057715e-01,7.434771428590913889e-01,8.757185008401381365e-01,-1.000000000000000000e+00
9.591596144097612742e-01,2.152587670834896771e-01,4.693503298847085392e-01,1.575530134774044966e-01,2.756786124531634408e-01,8.719127414327172421e-01
1.662783358497124664e-01,8.585632210733391556e-01,7.336559923104329917e-01,1.435072360027627447e-01,4.961655578271279010e-01,-9.999146106200778039e-01
7.041605776327833355e-02,8.195461905967931227e-01,3.194845074036797850e-01,8.886956633517419935e-01,2.803724122986422929e-01,-9.996758358374047138e-01
4.926530639424632207e-01,8.234049534069562970e-01,3.890419478862404135e-01,6.242052136134624840e-01,8.378887694916149487e-01,-1.000000000000000000e+00
4.120324977026880164e-01,3.195656988776142127e-01,3.687690648149771211e-01,3.100116055464279818e-01,3.758802879814071018e-01,9.999999998923012612e-01
1.814365716733717243e-02,7.085108307926759608e-01,1.158908760997159060e-01,5.354610539549857773e-01,2.293260501269788268e-02,1.000000000000000000e+00
2.608331479242652629e-01,4.655230167372464978e-01,5.671753140596057507e-01,1.308626336598366080e-01,6.260715517748245418e-01,9.513899830350225351e-01
1.456159859926975941e-01,4.272986495393554240e-01,6.544433654787299437e-01,3.006071443364065621e-01,1.775974341291128300e-01,9.999999999999948930e-01
3.862246809482962062e-01,1.066459247145579298e-01,8.549288025623664744e-01,2.526420526516834700e-02,3.556983656785007164e-01,9.999999999998925304e-01
6.674969373937473804e-01,3.101650336746501480e-01,2.123428607538908885e-01,4.023833593439170575e-01,8.186394592162138384e-02,1.000000000000000000e+00
9.111520681487561557e-01,7.266119684011889124e-01,7.298983655923004799e-01,2.186622327713496836e-02,8.663501382226963532e-01,-1.000000000000000000e+00
3.333641367459974636e-02,2.258603321276901610e-01,5.466562595470120245e-01,8.101218622332969632e-01,8.709498099329432419e-02,9.999999999999964473e-01
8.328380116031340874e-01,6.332820951876798610e-01,7.398449849443093640e-02,1.098308707546776994e-02,5.180698018739179345e-01,9.020319896595991871e-01
7.110001256599337571e-01,1.363753821595519167e-01,6.740458960140158773e-01,3.229222958533304877e-01,1.973894414480487913e-01,9.660101629563859760e-01
3.425799835127414372e-01,8.106869159116908419e-01,3.790562418885994878e-01,1.663304175394779982e-01,4.254560052718183161e-01,5.298395288130897107e-01
7.458266818396116493e-01,1.267744699883720794e-01,2.100860791151412943e-01,7.553368897281335093e-01,2.088072469974755763e-01,9.580153694520268104e-01
5.473264202858589833e-01,1.771224490522033956e-01,6.436561108734919490e-01,5.622540755234299859e-01,2.712778878110976843e-01,-4.471301864737475817e-01
9.830150815699264522e-01,2.402968558042503644e-01,2.687211485533053668e-01,5.213474037415580797e-01,4.939228404339258693e-01,-9.999999925651942290e-01
6.921862129300576649e-01,1.892082410634295386e-01,8.851892644808747601e-01,2.395371963335773402e-01,7.695801736741112453e-01,-1.000000000000000000e+00
4.495583229313652729e-01,4.705103171941396045e-01,4.407831297063273535e-02,8.528197700527825331e-01,3.422462618362435705e-01,1.006584469518623237e-01
8.029624185083752419e-01,7.793412423459741278e-01,2.920394601626205219e-02,2.573891664074555163e-01,6.806566225617518562e-01,-9.999999999184987498e-01
2.830519765137805288e-02,5.325365277897301519e-01,8.326340344999557663e-01,1.121855412127674007e-01,4.820994224742949918e-01,9.976036758246773495e-01
5.408567199662333014e-01,7.465144394551483098e-02,5.799818362870441391e-01,8.865008418901013654e-01,4.675672406679330373e-01,-9.999999999185418265e-01
9.486543983659809220e-02,6.825234551351043732e-01,7.585770642808915554e-01,1.658179475555962845e-01,2.935019109081689059e-01,9.963675087401258068e-01
8.638364420633120044e-01,3.592411409812763523e-01,1.548956292276296165e-01,6.258714961848796943e-01,2.227015352045550178e-01,-6.904611390717666497e-01
1.511553411888428289e-01,3.372137097411494894e-02,8.333128748019426046e-01,5.279071841673782517e-01,2.388686147809106208e-01,9.999999999068598378e-01
6.493159326961930322e-01,1.088371486698959945e-01,3.706211320362466366e-01,5.502508935806463830e-01,5.485738904071804090e-01,-6.988899885226954600e-01
7.156453700047569200e-01,5.816666893094386559e-01,3.277442209319218758e-02,2.016044226667481065e-01,7.442443613698113136e-01,-9.363108413804346331e-01
1.515877995301033176e-01,5.794265887887818378e-01,4.738565863097350950e-01,9.854398953193036492e-01,8.095223676707004046e-01,-1.000000000000000000e+00
2.098348617993316123e-01,7.782673318165489462e-01,9.380810707356193046e-01,6.647675256701128799e-01,4.267044435095533328e-01,-1.000000000000000000e+00
8.624315224380711964e-01,2.496196489839042076e-02,8.201520046680049747e-01,8.278792271949764192e-01,1.756335362814841761e-01,-1.000000000000000000e+00
9.252024837891399400e-01,3.137704493782450532e-01,4.769588738384952231e-01,4.943713545416629773e-01,6.882013364881578443e-02,-9.436672135570098874e-01
9.129983883357742913e-01,6.513516966883075021e-01,1.811336113046027596e-01,2.775139164764775512e-01,3.458924484703496671e-01,-9.994005094915729970e-01
4.911132840150485013e-01,6.453035135368071495e-01,5.312705658445115997e-01,3.197778334439432824e-01,3.369624114622182254e-01,-9.925780070959683288e-01
8.031746952354706925e-01,1.874871994659366714e-01,3.117611818731930717e-01,3.347715399835271000e-01,4.963312049065244924e-01,4.261692821848561685e-01
2.248140698403245652e-01,6.975268435991432980e-02,7.020287588517363231e-01,5.248111192163520400e-01,8.192586827891255030e-01,-9.968515016370476101e-01
8.930238137846453483e-01,5.512728468775253132e-01,8.365297048339186414e-01,1.347056127524174848e-02,1.805072867465056796e-01,-9.999998298170935662e-01
7.404813263144222057e-01,2.670761651104555101e-01,6.068110974349892883e-01,1.302290271408902966e-01,7.078301668337992902e-01,-9.999987624374652162e-01
1.492615274296944794e-01,7.611919822031135152e-02,5.110930409739568026e-01,5.268517666867413851e-01,9.522667035207017516e-01,-5.936276795769939163e-01
3.456885943793037153e-01,2.381020944730233291e-01,8.809961469486830010e-01,5.955318319587832310e-02,7.733760991593984224e-01,-9.738504078999752345e-01
2.396980235117023572e-01,2.252183060492458366e-01,1.876303882747988039e-01,9.896020010077275497e-01,6.922515857915159110e-01,-9.955802022520068295e-01
1.536164563200303756e-01,2.316466323224393442e-01,1.711403590337296221e-01,8.493753884365653484e-01,6.715919663504921200e-01,8.703291325455846383e-01
7.820962325336646703e-01,1.101011510179729508e-01,4.050453013418742892e-02,8.287786445119906809e-01,8.702926253138250079e-01,-9.999999999999970024e-01
2.905600028595802797e-01,6.238718773946452245e-01,3.137202213142801233e-01,6.742599974870427948e-01,1.330568551358660145e-01,9.740192249132650915e-01
9.544743925095930948e-01,9.707596873778822077e-01,6.205710037682869024e-02,9.533431648774810807e-02,4.687850312062132319e-01,-9.999999999339309609e-01
5.662349080816658775e-01,2.471561185335209576e-01,3.732054748904072849e-01,4.024994229057830136e-02,8.717033323037651771e-01,7.523114662686649634e-01
9.304392453523668838e-01,3.018322165149712744e-01,2.577512757887358008e-01,4.227739263450269180e-01,2.451156268322317658e-02,9.999007187610475800e-01
8.688384113509355078e-02,9.634947154277051506e-01,2.353739657765169246e-01,1.497951575676850777e-01,7.880783745626369630e-01,-6.662724008013157784e-01
7.165333026153211105e-01,2.237068214265911237e-01,9.406595721530898180e-01,8.117983839580132921e-01,6.487411934335123309e-01,-1.000000000000000000e+00
2.025834280854518776e-01,4.992800217078212643e-01,7.923887929628968818e-01,7.176877759950135438e-01,1.650537734823085967e-01,-9.996421588314997608e-01
2.871168896182151320e-01,2.658541374727515713e-02,3.649887922903010673e-01,9.643452061149373478e-01,1.803540254107872109e-01,9.999999943089727950e-01
7.087082212119713565e-02,8.685176141866420840e-01,1.075781601299309470e-01,5.214352631792813775e-02,6.668699796863297724e-01,9.999999999895290426e-01
5.732070834374028978e-01,4.774742368186980501e-01,4.198858421658164808e-01,1.863590933321275511e-01,5.282851977045159853e-01,-2.470223010757329751e-01
6.184263919865903153e-02,9.473835477772775127e-01,7.969782407875674046e-01,5.605741767221378291e-02,5.551021898719456227e-02,9.999759869618762842e-01
4.776961262856906920e-01,1.507847180701337442e-01,9.619958085564016548e-01,1.423197799052361989e-01,5.113859439074854851e-01,-8.116531191153625313e-01
5.268987413949329790e-01,4.450950836210106898e-01,1.938814442163767915e-01,8.424926455189547525e-01,3.101679483387465575e-01,-9.900426163186724082e-01
3.683649160661747191e-01,1.354696958985859151e-02,6.462891436556329472e-01,8.604216605350042957e-02,9.427524138573707413e-01,9.372811764283262015e-01
5.955874576831223788e-01,2.311978656484693084e-01,8.747779889921161733e-02,4.516593682163420054e-01,7.227229332509128579e-01,8.145183423041149062e-01
3.739941408869273953e-02,8.707979614175512806e-01,3.168381978822187306e-01,2.390352267127998920e-01,5.955526046135445339e-01,9.307192251529790017e-01
1.582980569082754474e-01,1.926175773653023837e-01,8.624244556561190267e-01,9.834899634899092469e-01,3.140622186648904524e-02,-7.039173621864688313e-01
9.705172448542662145e-02,5.950512759442927457e-02,9.745413994479994457e-01,7.681267379226806025e-01,2.045533994134940969e-01,7.141407985567236327e-01
6.522004119208851813e-01,5.995673957458732065e-03,6.503119903460375939e-01,6.189291431174475111e-01,1.962453609596775395e-01,5.342822011813996852e-01
1.427531985486824861e-01,5.722981698714606491e-01,4.498647610124378859e-01,7.923658585991182335e-01,2.713810405096781508e-01,-7.072523600839973890e-01
1.469195168029740761e-01,1.571431181835042656e-01,8.058717288131129752e-01,6.863456929966933462e-01,4.292914664836445238e-01,-6.825193884561941982e-01
6.005494960646765579e-01,7.408687849293914551e-01,2.474532791869985537e-01,2.308396532883943281e-02,6.387609703380748849e-01,-8.462392681357646662e-01
5.444270044909128581e-01,4.967796380238870269e-01,2.171309122148419868e-01,1.771935180095687012e-01,6.788195368964597964e-01,6.253693725840183681e-01
1.465547889530893766e-01,9.272166197736002591e-01,1.349548332855823318e-01,7.447812901081726222e-01,1.469877186786013035e-01,7.385481353740339650e-01
1.466810433318955775e-01,7.795952656525224622e-01,1.034506667032346339e-01,7.707690001090573562e-01,7.715384570588482704e-01,-9.999999999939860329e-01
1.059610611536066470e-02,4.023505078524210465e-01,6.795696527813984700e-01,7.575354589143649120e-01,8.959466661557680123e-02,9.998831592856656236e-01
3.453505626886800850e-01,4.603948490319768605e-01,2.012963687322827933e-01,9.522043969261593244e-01,1.473252022511578885e-01,6.922007924505926280e-01
1.481282678357162541e-01,9.835546666984619213e-01,2.829380102958967136e-01,4.622873077948317366e-01,1.765832613981345167e-01,9.452236520034744682e-01
8.171271499813362871e-01,7.465737954972578860e-01,4.501197218625576646e-01,4.879836045481851792e-01,8.960946276217552908e-01,-1.000000000000000000e+00
3.264171714378001909e-01,4.252271023374802894e-01,2.262270433627507626e-01,5.919554167835689995e-01,1.067878891011085629e-01,1.000000000000000000e+00
8.774288149778826096e-01,1.156367855288139707e-01,3.470480457333491864e-01,9.047132392559518177e-01,2.557445871960841721e-01,-9.999999854300765101e-01
2.049612507529739447e-01,2.040956386795230171e-01,6.127801188456197812e-01,9.773288083405111681e-01,1.093986605426280900e-01,6.758800640837454576e-01
8.445941750838122930e-01,8.894601456646927806e-02,5.600833349509471981e-01,5.739855160574871412e-02,5.815189061043429808e-01,4.374999361947593535e-01
4.892744474878611971e-01,4.947240710988929924e-01,4.469794405169401630e-01,7.689694176271243409e-01,8.841310248040193387e-02,-9.610970999810689586e-01
4.681850453719615390e-01,2.643894201920447551e-01,7.722902181237535635e-02,7.738251456319580335e-01,6.407457124111082258e-01,-6.725839289205133298e-01
1.092351713204184338e-01,2.756121756428656089e-01,7.071892521839443502e-01,7.848901893863016177e-01,2.656360921352977078e-01,3.175005634943803834e-01
6.679512065167955148e-01,9.744446138854028217e-01,8.626482039916560929e-02,9.303914791330777923e-02,1.490717674455547814e-01,9.991140696636244822e-01
1.096441787161280546e-01,4.428306609927387671e-01,4.037295323510262102e-01,4.143969582946802066e-01,9.828824639120447015e-01,-9.984776647583057940e-01
1.639059967807810769e-01,4.629492184510208830e-01,7.222868201542621547e-01,6.045462743255951565e-01,5.094719112644043729e-02,9.940361083967639289e-01
2.171668567297083963e-01,4.913448295165855351e-01,5.731936567924108550e-01,8.364719729771343815e-01,9.019612451872453807e-02,-5.209227221343913916e-01
3.488714955795835237e-02,5.199031356776027124e-01,6.577766315074078385e-01,5.937609838010050600e-01,2.841880679577272195e-01,8.037537212048313506e-01
9.522094338660941348e-01,2.957264905512039244e-01,4.719045931152359707e-01,9.193371918600866388e-02,5.307198603597542697e-01,-9.971539133962191714e-01
5.241740809425874392e-01,6.019332142428698296e-01,2.473009994013961599e-01,5.450475866579654882e-01,2.369472698470856675e-01,1.515905126680860970e-01
3.791869705419475406e-02,8.331679195969018403e-01,9.161117184033047423e-01,4.273361740658501717e-01,2.636234865576709413e-02,-7.922325409091912629e-01
1.178801118540897946e-01,9.622042716488411473e-01,7.017878540276393240e-01,1.790591443076819389e-01,1.213708892798894823e-01,8.477735298310058454e-01
8.144998130700527028e-01,6.823443005141061057e-01,2.164055716216658209e-01,6.243561098929181069e-02,3.713389827178543712e-01,2.611241431456785556e-01
4.239157586536934086e-01,4.563051049703486517e-01,3.213239548078555829e-01,7.580531687034350874e-01,1.095585447973644738e-01,9.020353034437482709e-01
2.726394329501722336e-01,4.651505035705048863e-02,8.422317956853269116e-01,8.987406771187673726e-01,2.582525619137148176e-01,-9.899659147692244643e-01
7.310069612327508848e-01,8.904501277699808925e-01,7.813224987823892687e-02,3.277628022057125223e-01,2.806877677609074806e-01,-9.835683210171403124e-01
6.049589706309335124e-01,8.018877450655397254e-01,1.061394346839062003e-01,4.349732639643972831e-01,1.384200776163146129e-01,8.269657016310540953e-01
3.668016570977921664e-01,5.233752957982855669e-01,9.428013900372387290e-01,9.108416421164931831e-02,2.434870945749708637e-01,-1.195497888829355482e-02
1.825126966384620075e-01,5.814029197511385583e-01,1.182059773558896514e-02,8.233872502922208181e-01,5.787690301824821582e-01,-1.510894088203935670e-01
7.028445399188513187e-01,9.612688349552690470e-01,4.045299198850404454e-01,2.723826783552344422e-01,5.736575945736090837e-02,-9.999159346893555789e-01
3.265301126820092104e-01,7.194333270467344610e-01,1.008602277962817872e-01,7.116287986498822660e-01,4.346262102009664230e-01,-9.680697685647483564e-01
4.027117929115640871e-02,4.936577285941461390e-01,8.361167498656266739e-01,2.488535408988304665e-01,6.826316173440794000e-01,-9.779044033595486463e-01
3.544294387820744463e-01,5.785439117106071505e-01,4.603986573385335235e-01,5.959481429172460709e-01,1.135238353140374801e-02,9.951527563060558190e-01
5.659558538990187015e-01,3.851037708088284051e-01,4.924132616922894529e-02,3.738376909438194673e-01,9.153376535809278902e-01,-9.628533393835020382e-01
3.455751534632188759e-01,3.133520961618981859e-01,9.540911037804809813e-02,7.665649472306879098e-01,6.044439636792036108e-01,5.168513287002816092e-01
6.177387839082946197e-01,5.158435298949193282e-01,3.730632554282706792e-01,3.724733639350748526e-01,2.323770490786720988e-01,6.508697022050426995e-01
6.816137797955420519e-01,2.082551554353253842e-01,1.695125320062024488e-01,6.356873810502495781e-01,2.389072182102338904e-01,9.999214857233482689e-01
9.606061903263782842e-01,8.454541426751231992e-01,9.993339008995689721e-01,2.254190159251787950e-01,9.768579331842565106e-01,-1.000000000000000000e+00
5.087006393094652967e-01,4.188882600255657840e-01,3.224222988300790016e-01,3.501452889978908245e-01,1.641680275401282141e-01,9.999999999913877780e-01
6.695552638276400792e-01,1.631329299519799769e-01,6.340319991468083005e-01,9.575189215564244849e-01,6.037807385649686109e-01,-1.000000000000000000e+00
5.181125517583039519e-01,2.517005625970329397e-01,3.862576619561078894e-01,4.674276029252437681e-01,6.004764334375788382e-01,-6.692237366133788612e-01
5.661382645458498120e-01,7.783729999891169093e-01,3.630572165401958484e-01,4.502266126528234880e-01,1.595797524091899511e-01,-9.894603543551927505e-01
4.909207048389445660e-01,2.747210120108807274e-01,6.319566754503203043e-01,3.530325237004631189e-01,3.480146432015615576e-01,7.516459472299961142e-01
1.000000000000000000e+00,1.000000000000000000e+00,1.000000000000000000e+00,1.000000000000000000e+00,1.000000000000000000e+00,-1.000000000000000000e+00
5.481404269584712052e-01,1.785140619158647468e-01,6.253750779860569597e-01,1.060189441577445435e-01,7.002275321757878146e-01,1.132308843551823596e-01
7.532309582168532636e-01,2.327401762694402687e-01,9.382408855593897812e-01,8.160090523132147722e-02,2.138241678389402600e-01,-6.313142853302002866e-01
5.056097361824836156e-01,5.151486568913418163e-01,3.851487643538328842e-01,3.328979934613571223e-01,4.049302256535500799e-01,3.028399143051834219e-01
7.633795798644243957e-01,4.898427792577595419e-01,2.125627817606616787e-01,4.917568037921999924e-01,1.483921533567262585e-01,6.973024634858340232e-01
9.896450521744437623e-01,2.621886196198517371e-01,2.005426002695318011e-01,4.590325277273920451e-02,8.662470740621293075e-01,-9.992143297042527239e-01
9.328011819294364237e-02,1.719953650143919155e-01,6.259485631457945010e-01,3.211720052012916882e-01,6.972598647236610825e-01,9.999870895313309749e-01
5.409203977188842272e-01,8.674831127172007161e-02,7.186900267711504586e-01,2.025523207247312552e-01,9.736109767919572944e-01,-9.999999984499099437e-01
9.686048844127420621e-01,1.453203499490151041e-01,6.478056142331054534e-01,5.296881433970971470e-02,4.906668226417643663e-01,-9.814180925468546368e-01
1.121187518425769830e-01,6.049356925469976387e-01,4.427580759699939646e-03,7.499006770470326710e-01,5.389594802275903263e-01,9.920199910963638512e-01
1.740798411506755961e-01,1.129049454018064558e-01,9.057427462132588980e-01,1.739116444946680329e-01,5.896099113603162634e-01,9.996442496902324670e-01
2.673750739766928008e-01,8.992129975392885999e-02,1.366223704383468240e-01,6.433949425698554103e-01,9.992801829883772857e-01,3.901953229184400573e-01
8.376408678369196004e-01,2.740570383505669394e-01,1.328640522722830675e-01,8.534289904486143108e-01,9.887295014973276897e-02,-3.916737096441609278e-01
6.805910395290055703e-01,3.579210316312409629e-02,2.370750895804252245e-01,8.227851446600757956e-01,3.972513943143916593e-01,-9.224979922387144260e-02
7.003664375746248005e-01,7.228115953685859685e-02,7.081453498231387034e-01,6.602099751826230323e-01,1.110627844597220429e-02,1.951292268736168900e-01
5.138500652051452011e-01,7.010057907437634572e-01,2.841096575537233604e-01,6.075745926959156273e-01,1.273782114941041377e-01,-7.462542171396163715e-01
8.871202575369265819e-01,9.111114886802882396e-01,1.159468386738690127e-01,7.449749946304454196e-02,2.150403726837119001e-01,-4.704910541213275232e-01
5.088002752454892086e-01,4.168589274807690259e-01,8.131697691720484178e-01,3.326767183799853381e-03,2.950834537479818387e-01,9.719407550387444417e-01
9.984990397467659040e-01,6.482690670452792014e-01,2.382273442092924798e-01,3.825967269834126827e-01,2.261746812668828654e-02,-9.639704589176725236e-01
2.824008884677419173e-01,7.632465281928758616e-01,8.420970502287546955e-01,1.175153799633712748e-01,2.142115595419613050e-01,-6.298146072975342458e-01
9.677452012453663377e-02,9.991259190552140845e-01,3.107018524221069264e-02,4.972147784390827940e-01,6.701111015195364562e-01,-9.696850050320272585e-01
3.839487778641152704e-02,4.698443786667483857e-01,5.602256107195786594e-01,5.650148902781412241e-01,6.078215079851914115e-01,-7.946984784642225907e-01
