# x1,x2,x3,x4,x5,y
9.747524315441227216e-01,8.256733313704145427e-01,6.267278974400908309e-01,4.662755818916124451e-01,2.800519476702272303e-01,-1.000000000000000000e+00
3.402611598416373506e-01,1.476696673097468437e-01,6.652729959171409524e-01,5.075576009821282097e-01,3.813143574155696269e-01,9.655169566495951372e-01
1.342679909183898679e-01,2.808883489234658692e-01,3.914340663153838551e-01,4.428425151228866929e-01,1.406310480826056808e-01,1.000000000000000000e+00
6.678590879317268802e-01,4.409643497835034620e-01,5.728152273547392204e-01,7.939048321362429661e-01,4.175826319716043900e-01,-1.000000000000000000e+00
6.123983227654238720e-02,8.651531280325518436e-01,7.881620293571840463e-01,7.318245571533772420e-01,1.857287891698845561e-01,-9.999999999999972244e-01
1.806263033414694241e-01,1.860877658715899829e-01,3.168241174631377527e-02,2.337066807533172696e-01,8.782753509944084547e-01,1.000000000000000000e+00
8.512699891025053978e-01,1.037597467970075146e-03,8.298918323981487877e-01,3.159618044494272859e-01,5.625687067103529726e-01,-9.999999999772946069e-01
2.271272184005630745e-01,3.260823576196817397e-01,4.099473769839406256e-01,9.659136402739476601e-01,5.441699070870051336e-02,9.981205713064695839e-01
6.298685824115443088e-01,5.046730187279324653e-01,2.756569121277195888e-01,3.523448159694625437e-01,9.169853921818932330e-01,-1.000000000000000000e+00
7.521548678102497609e-01,9.146398988144754938e-01,2.186670380025734772e-01,9.489409572878821919e-01,7.708754571919633758e-01,-1.000000000000000000e+00
8.302788782196879325e-01,9.988540362961341179e-01,1.645938034085316914e-01,1.958887061256471829e-01,8.150435654470353786e-01,-1.000000000000000000e+00
3.650350028318101736e-01,5.993812737450936456e-01,9.720386912450333927e-01,8.778789094331322929e-01,2.492535061512952260e-02,-1.000000000000000000e+00
5.196264621973293307e-01,7.939957587258958949e-01,9.032125530347412390e-01,1.256096131692888418e-01,6.019640883612694671e-01,-1.000000000000000000e+00
7.019979604344989133e-01,6.451415880165813910e-01,8.621037937701764298e-01,5.913061421921370631e-01,4.582507948859574354e-01,-1.000000000000000000e+00
5.972130356119401684e-01,7.214746089215819946e-01,8.802653560994794235e-02,5.845554182812677524e-02,5.192057224346100508e-01,9.980224585526800141e-01
9.237566123707525723e-01,3.556992180931775049e-01,1.001974133163957281e-01,6.295100681492712402e-01,3.045229674635454020e-01,-9.874044844531911780e-01
4.273793077959621711e-01,2.071085023800763592e-01,4.941968239780593075e-01,8.131107830565975636e-01,9.759898492937690850e-01,-1.000000000000000000e+00
4.877323845764928723e-01,5.990314323798120316e-02,5.410552828918464563e-01,6.665359655991066612e-01,6.886915148105298146e-01,-9.999974627846387465e-01
2.717006996666647134e-01,4.647980853439839244e-01,7.157463435921345152e-01,2.825198590965734002e-01,7.173173575040017180e-01,-9.999987253402105036e-01
3.856603216333730211e-02,6.539806545077981870e-01,3.454324440404334395e-01,3.744019412693059407e-02,2.220916587211498039e-01,1.000000000000000000e+00
4.660046509311684404e-01,7.750548818266947970e-01,1.518745011250339227e-01,8.763033529567424429e-01,9.159288024013837459e-01,-1.000000000000000000e+00
2.684218757042802772e-01,4.258917119834461640e-01,8.774045752011152555e-01,4.744383540849895220e-01,3.670904812405997864e-01,-9.999714340115632982e-01
5.607646980192292352e-01,3.200891018882942585e-01,6.887181567662515880e-01,8.254485275934556610e-01,4.405378977896115544e-02,-9.999962160679617407e-01
1.374549417629223336e-01,8.133111099264278554e-01,3.065774206021485981e-01,2.730049518814307574e-01,9.612035650512102958e-01,-9.999999648206472358e-01
7.201327299617282796e-01,1.259452739712350368e-02,2.747354691863016299e-02,9.608016245494900576e-02,4.390458470679934888e-01,1.000000000000000000e+00
9.628216069794842680e-02,8.507035357471605108e-01,6.220692519525903297e-01,3.525186747421421019e-01,7.131668185071673993e-03,9.999461688534960757e-01
3.286658412879361890e-01,7.986504459974017034e-02,7.069339969825344516e-01,7.890897709242286062e-01,8.759814507872502876e-02,9.969395346007374759e-01
7.298324086103211150e-02,8.356182968223588858e-01,4.263684813859416889e-01,9.585285545647462824e-01,5.944751831894918848e-01,-1.000000000000000000e+00
7.589264342383036377e-01,1.630723727268575812e-02,1.048468640391735096e-01,4.018144373888424825e-01,3.211560644020338556e-02,1.000000000000000000e+00
3.855320750188800938e-01,8.882431519355705740e-01,3.139980996837625771e-01,2.078800783626983117e-01,4.143562653536126961e-01,-5.379985428498322841e-01
2.227960751287741681e-01,1.621347477844770901e-01,2.128341063772893615e-01,4.376200857701703639e-01,5.159728483484172790e-01,1.000000000000000000e+00
4.632251575297803847e-01,1.189806344263238252e-02,4.737170541720377437e-01,8.354661883943614864e-01,2.316226736317693324e-01,9.894754390374069786e-01
1.855929496628545561e-01,9.760650983607849218e-01,1.771707627995993406e-01,3.177515623597966243e-01,5.173096547039511828e-01,-9.756387476553773919e-02
9.951842140569384931e-02,9.713068911213272871e-01,7.358679755703924352e-02,9.090287532854490760e-01,7.849896417008459526e-01,-1.000000000000000000e+00
6.103745937591951165e-01,7.879311066478632275e-02,2.618280791819515563e-01,6.109581441664237167e-02,6.517806688494931500e-01,1.000000000000000000e+00
8.472100725641253938e-01,2.941899656320191569e-01,4.235428032066176351e-01,1.593998542699512910e-01,3.566929567363938403e-01,8.538335721971594960e-01
8.050799628463847224e-01,8.392537503984901504e-01,1.182703075812614885e-01,1.750601836916555465e-01,4.896317710344481045e-01,-9.999902671994799208e-01
8.085911072845247682e-01,4.791092111629117745e-01,4.222552368941892009e-01,1.533531851854597616e-01,8.809293882130672104e-01,-1.000000000000000000e+00
1.927644786055610071e-01,8.990003761127935977e-01,6.592554070962017843e-01,2.990561318677935065e-01,2.330889677336233923e-01,-9.519638415051273617e-01
2.922976119747439702e-03,5.464275266468993780e-02,7.793551489674317434e-01,2.233752843919275394e-02,8.628860115091901983e-01,9.999999999999542588e-01
2.206083927902777186e-01,7.257862440412105043e-01,2.362828181895912372e-01,9.636759108967963838e-01,1.652409539138640915e-01,-9.860870787672616489e-01
4.080827019651490639e-01,2.996261724751728139e-01,2.720580748364471958e-04,8.732212446847749110e-01,4.644803712773407089e-01,9.599437684085843081e-01
7.185783794357859522e-01,5.498808325418820253e-01,3.460700852398880811e-01,2.889527020429512594e-01,7.339887269455273866e-02,9.987215407122416178e-01
7.534980797559266419e-01,9.719876523945605307e-01,6.819173886844464016e-01,7.264144937703476135e-02,2.029226039820916996e-02,-9.999999850877883123e-01
1.114908017658748085e-01,3.257626097583171676e-01,8.654165779593128160e-01,8.528776793760532715e-02,6.906680391119937035e-01,8.648513290178940771e-01
4.748050166752070256e-01,5.981529142178786118e-02,6.351810421172229271e-01,2.449137323503792485e-01,3.427254908059650940e-01,9.999999999962099206e-01
2.618450870607702541e-01,7.554909396678373135e-01,4.136967836357709483e-01,2.712567907530027966e-01,1.356251527875193819e-01,9.999999758240671888e-01
1.317534655886419825e-01,5.005577251246942083e-01,3.417622651255752264e-01,9.982258620388558823e-01,4.665826119756139589e-01,-9.999961560506480662e-01
2.031033178718891219e-01,4.847667166474445288e-01,2.959571567327045072e-01,7.499169496188557993e-01,1.282929549357917365e-01,9.999997655741330593e-01
5.330996122001063764e-01,1.730072010963590312e-02,8.487846740447959615e-01,9.233737384808624604e-01,2.581562654106772103e-01,-9.999999999978842480e-01
5.026543429032740429e-01,2.043299943864942958e-01,1.278861070778400111e-01,8.346440484768414825e-01,7.068037922796864825e-01,-9.996261768905239098e-01
5.021468596659960093e-02,3.449208049571063084e-01,6.407944129884264595e-02,6.155076819642710806e-01,9.340476333695324485e-01,9.926287854994255699e-01
1.525471006528609508e-01,3.402134249462605148e-02,7.497098599298943622e-01,8.799342639549151412e-01,7.181505336750365620e-01,-9.999999995624722082e-01
7.203347276690926781e-01,1.045115117100261781e-01,6.928882218576325469e-01,4.106385930083712998e-01,2.369910458186941793e-01,1.763603191970641859e-02
9.054489897714671498e-01,2.989658515410118511e-01,1.350818293045744911e-01,5.532564912975955762e-01,1.555016891603017322e-02,9.999883785532990288e-01
7.843531632920967833e-02,1.319403415738946705e-01,7.247809024697874358e-01,9.967905055964524363e-01,3.055608370592701184e-01,-7.707200113806822461e-01
7.844492662208306377e-02,6.730867764029346834e-01,1.745187022962250978e-01,5.375888583901552303e-02,8.475135301913740982e-01,9.999999915314103927e-01
3.684982192738728846e-01,2.293906307049646542e-01,2.751082031822354446e-01,1.471880158159339369e-01,9.800182383271347497e-01,9.952715973056229792e-01
3.317343872090798285e-01,7.209780787103656774e-01,2.624214676201511720e-01,8.052061985980116243e-02,8.706654823054662540e-01,-9.091963775149881632e-01
4.247660935864106535e-01,4.865883417152236379e-01,7.418688032892627460e-01,3.347481106306004484e-01,2.427231326195892214e-01,-7.227810936347679460e-01
6.186262617307098921e-01,8.979612244141603472e-02,8.736832482672522993e-01,2.114017343515548208e-01,2.630391365582587238e-01,9.383495139888329284e-01
6.865133393314770682e-01,6.723758900629678292e-01,3.614680027727659728e-01,5.914677019261594948e-01,4.717755874348186773e-02,-9.989016713621570176e-01
6.496874018250357041e-01,3.188104373553940496e-01,3.720151658635753034e-01,3.021014790995527055e-01,5.975216277885737615e-01,-7.875356991146301722e-01
2.968379239247879997e-02,3.927647290053608020e-01,5.784129628052819827e-01,4.606138067648450352e-01,4.181251845627507180e-01,9.999988934380577010e-01
4.237185073169658645e-01,5.596626435662933885e-02,2.034993535755443839e-01,7.098955325193678778e-01,5.820905508652955973e-01,9.988451488221339325e-01
1.301666185467209025e-01,1.166120231108101757e-01,9.369497413247919182e-01,4.686442592555442599e-01,8.618372711099878680e-01,-9.999999963207599762e-01
4.832924283949088240e-01,3.118797302101228297e-01,4.905345540980308727e-01,1.798447109547841316e-01,7.704558886366987824e-01,-7.607046065693351400e-01
1.750139418355874943e-01,6.609190933450356797e-02,8.972528153707696186e-01,6.275609290551424913e-01,4.216792658710326047e-01,-2.775835513100347596e-01
3.325824685437611117e-01,2.661051342123671188e-03,9.159183848369524261e-01,9.799828667091823320e-01,6.360067775079765451e-02,-9.702624825178253198e-01
2.420870792542066663e-01,8.826127962111351977e-03,5.977652793273812160e-01,8.113128774658379117e-01,5.360687431417853199e-01,-3.820960763739118526e-01
1.691200093645966462e-01,8.945660423170442854e-01,6.518464888058719264e-01,2.809993615427629557e-02,1.373332524182155900e-01,9.999987560503567074e-01
5.181084997332358055e-02,2.444785481667808569e-01,7.900852834401829172e-01,6.679849661611324541e-01,3.753531299006862554e-01,4.694248572820551857e-01
5.260391373610691090e-01,2.035175896696837516e-01,8.955076459941966327e-01,2.204719327163726372e-01,4.623976239960135293e-01,-9.834874344358890408e-01
7.085313354375566419e-01,3.305123874488218871e-01,9.018307052442232560e-03,2.422807106731714455e-01,7.261800926258199507e-01,9.891665400443003797e-01
1.817698188863384468e-01,5.946036125449521981e-01,6.504326709725054556e-01,3.693557527148777497e-01,2.059464563558984773e-01,9.947721436384973082e-01
6.859182344387101393e-01,8.415072744700624607e-01,3.448161964338175567e-02,3.749301890682796845e-01,9.749992487265621843e-01,-1.000000000000000000e+00
4.838016860406895159e-01,4.176694239885893611e-01,1.874038157480284739e-01,2.673681463680411818e-01,9.534181155462672086e-01,-9.847630451889294312e-01
3.761553268012287482e-02,9.494777348365973646e-01,3.047937004121432092e-01,2.806742088457568340e-01,5.221436039036967403e-01,7.780024526255373551e-01
1.662490038454782215e-01,9.289422553052258946e-01,5.917191780409092328e-01,1.976564747771717215e-02,5.775893607028563803e-01,-9.540353137635966263e-01
7.815150941091072445e-01,3.954330028910750679e-04,6.154770907359358167e-01,9.195851871424558233e-02,5.430180339957719760e-01,9.773441635797255334e-01
3.196632544962160205e-01,6.267307965066900577e-01,9.554748991469139696e-01,1.073804549008327835e-01,1.635424043191059940e-01,-8.278868561498897716e-02
2.347245474043413715e-01,7.116857539895182772e-02,3.120570733630128046e-01,7.899252938358717335e-01,8.018454515957553763e-01,-5.350102591669297913e-01
8.374489167701951731e-01,2.795433104835949867e-01,3.949600873215814434e-01,6.982413437280284851e-01,3.627780776305911115e-02,-8.243696321158477947e-01
6.979847245728050265e-01,8.442036452087534615e-01,1.210222001431389242e-02,3.251647953050603168e-01,1.301916261328376137e-02,9.999967316840472353e-01
6.296238431766430776e-02,8.811606416561800215e-01,3.250869805204390506e-01,5.515905878110971550e-01,4.471530286411699029e-01,-9.143668072141653003e-01
5.509840867344301119e-01,4.084383134431231882e-02,7.638837594333620640e-01,7.316520067982792974e-02,7.269511623898193831e-01,1.459375800298381431e-01
5.142986483063380909e-01,7.383601622049498214e-01,7.929561541274153802e-01,1.002599142241235482e-02,4.922359766969943567e-02,7.057374805252667471e-01
9.122758753964653744e-01,5.525061675405650297e-01,1.552018284007457838e-01,2.302867973460341611e-01,3.967672100386930856e-01,-8.274150282616552499e-01
7.906262362639470131e-01,4.725603444660873564e-01,5.895823727418861293e-02,3.178004098168816793e-01,8.226919453607196564e-01,-9.999994907273473954e-01
9.332836123828853747e-01,1.492683578779408216e-01,8.964667623518541850e-01,1.154629783607235144e-01,4.937245249733883123e-01,-9.999999999991556754e-01
5.184929122210871766e-01,2.871753074167791020e-01,2.021939880528464406e-01,5.564276777270587004e-01,5.291179525878709766e-01,7.862219005196338095e-01
4.450266403166311391e-01,3.377034638953493872e-01,4.786223072762064157e-01,1.214073691408145972e-01,4.880443620793020743e-01,9.999994858440086620e-01
3.764090747525798974e-01,6.037588865543299654e-01,1.000000000000000000e+00,1.000000000000000000e+00,1.000000000000000000e+00,-1.000000000000000000e+00
7.105894581062613957e-01,5.434793202834550807e-02,3.258985978634890701e-01,6.825450267902658519e-01,9.436080793624575247e-02,9.999996082485842486e-01
3.836060836975964117e-01,4.126130587848634290e-01,1.646462462964037865e-01,1.216543184490920110e-01,9.824243607701904635e-01,9.157047004004854607e-01
9.925365792764702100e-01,9.598241596599159653e-01,3.398393338251993190e-01,9.761134555547763547e-01,1.429971893517889281e-01,-1.000000000000000000e+00
4.935907410424230646e-01,7.358560254509584064e-01,1.026769503779084991e-01,5.164950073384839691e-01,1.928082830909401968e-01,9.664457073793353281e-01
8.977674411339118254e-01,3.739878588424522809e-01,5.841046130599166775e-01,6.214131985205704201e-01,7.471415795440417007e-01,-1.000000000000000000e+00
9.481079844718167671e-01,2.421195120186150906e-01,2.296384871935810423e-01,9.206338977039323357e-01,3.772886405393435227e-01,-1.000000000000000000e+00
5.859856677170548478e-01,8.830314527848536210e-01,8.527898907692130215e-02,6.391147773448788705e-01,2.363204675291376289e-02,-6.074010191934501313e-01
9.051613649882334078e-01,9.361525808037919338e-01,2.064317730038443821e-01,2.578423289890295900e-01,1.618118935260065561e-01,-9.999996667704559306e-01
3.387885357548545140e-01,4.737474719501918313e-02,9.979477581122413454e-01,8.706792662616370526e-01,3.403901109384602219e-01,-9.999999999996460609e-01
6.923827280668955197e-02,2.242863120097441931e-01,6.441853262486803011e-01,5.219154812290288659e-01,6.829292885155444637e-01,3.176026800108096015e-01
3.741695852180909609e-01,6.425177178749053031e-01,1.573930019254420609e-01,7.880466427140057073e-01,1.779798986372075897e-01,3.478195162513253447e-01
1.579773097267019311e-01,5.155298471728578802e-01,6.746699758785976719e-01,3.168947913620658863e-01,5.220339384720299458e-01,-2.713070005260503903e-01
2.043006882122554435e-01,7.856848212370022289e-01,8.605920489064272649e-01,6.822377779616076166e-02,2.639443807872400849e-01,-2.150472604305130320e-01
7.440674717558147799e-01,5.490106961365340821e-01,1.184562207671458339e-01,1.384956059615803925e-01,7.274775832713911150e-01,-9.400325209473480159e-01
3.653620148382139554e-01,7.738347388895884249e-01,7.260637156448672691e-01,2.841551521816864656e-01,5.045186436445867756e-02,-4.268623702275817777e-01
7.670317446063777689e-02,5.184571910119022409e-01,6.253438385805800692e-01,5.598986101886370692e-01,5.379499210758393879e-01,-9.899527227399771423e-01
1.624093071746483541e-01,5.098928862291417924e-02,7.165853828581717488e-01,9.068068999698954968e-01,1.731796473942411596e-01,9.921678590821583210e-01
5.649665926301977725e-01,8.414475658440593309e-01,1.143142071984317928e-02,6.002189393803238904e-01,3.483282983959041790e-01,-9.992997089451016723e-01
3.154555885439516705e-01,6.420257435047150851e-01,7.704909385068029783e-03,9.005754312455195310e-01,2.068610045635142780e-01,8.895066126188213573e-01
4.938270295165146373e-01,4.452281892444615585e-01,3.260722848643544114e-01,5.887841420721482422e-01,4.822195381897046995e-01,-9.959713317002989452e-01
2.895394612828105507e-01,1.732791596535971090e-01,9.106618959677157399e-01,1.399014500713122722e-01,5.484997828406975584e-01,9.246386742554855154e-01
1.459899536870414849e-01,6.581582007516342259e-01,5.971236002106146135e-01,7.732014078237794408e-01,4.564508156286122276e-01,-9.999999999999966693e-01
7.941148753765366886e-01,2.277415968407717484e-01,4.308654018061915947e-01,1.171342738316572540e-01,6.700300623508056441e-01,-7.859761979160876377e-01
1.914088687556374235e-01,8.529966832590095693e-01,4.463517110361249207e-01,4.474527788422613117e-01,1.800656248596115283e-01,5.884804576435964663e-01
4.544556846428965957e-01,9.304381254787765787e-01,7.047599208853476682e-01,5.504583730397907826e-02,1.094137665046915064e-01,-8.621961647350768754e-01
2.020913873188842913e-01,3.366262230554804002e-01,2.558681619530345785e-01,7.738955098832063229e-01,5.316722278672237900e-01,7.410033133654776449e-01
4.044798687420649297e-01,5.641883481947445045e-01,4.814100923767878903e-01,6.044563034471661656e-01,8.910458637433410489e-02,3.040468546640806569e-01
9.078631705627714099e-02,6.294741066804644403e-01,4.579629077782501057e-01,1.000566954902346595e-01,8.620131507271114879e-01,3.455385703721476354e-01
3.115971610589534160e-02,6.140993509705043873e-01,9.925461229034693300e-01,1.517619567377222201e-02,9.309212397699161423e-01,-9.999999999985660359e-01
9.720989346659887342e-01,3.936679555860402857e-01,7.168612128594485933e-01,7.982984451860054842e-03,3.521348445613501910e-01,-9.999972034130336640e-01
1.766568499961197469e-01,2.925122933810898607e-01,9.520141028640540792e-01,9.633213604460232060e-02,9.351393119120663400e-01,-9.999987862383453718e-01
5.347041766831821530e-01,2.611953390904201422e-01,9.659578077868289370e-01,7.419435615342760970e-01,1.178661605941112578e-01,-9.999999999999885647e-01
5.201390018893412015e-02,1.285489609871479921e-01,8.098733270487855629e-01,4.608832643734481205e-01,7.175477930231720647e-01,-2.979012473228004332e-02
1.918969113925331760e-01,5.033718460203107092e-01,6.822690603247533181e-01,5.351202805538530782e-01,3.204319921529142356e-01,-7.403601951449697571e-01
1.000000000000000000e+00,1.000000000000000000e+00,1.000000000000000000e+00,1.000000000000000000e+00,1.000000000000000000e+00,-1.000000000000000000e+00
9.645422183113272485e-01,6.967526475681831699e-02,5.519707576578303243e-01,5.461190008422476261e-01,4.366786270077600146e-02,-1.255191080592485964e-01
3.319143153607319319e-02,3.848943075469046793e-01,6.294788974147409455e-01,8.593471574925396483e-01,2.750265576306690773e-01,-2.044952191987373658e-01
5.092190033477170946e-02,6.737663764351249363e-01,2.969581849047080255e-03,6.314352371865615821e-01,9.899790570162049219e-01,-9.980353436070078521e-01
2.229242541087858576e-01,1.297727838382405352e-01,8.172754148823183629e-01,7.687213537405044317e-01,3.520247948542569172e-01,-9.647288074020662352e-01
1.028637221613219188e-01,5.311064325779820544e-02,5.223604550547545911e-01,4.510652507547971979e-01,9.082340506133770308e-01,9.714579827333562623e-01
3.922856367654787846e-01,3.767858142671251520e-01,9.597294125702078293e-01,3.499388048826386211e-01,4.569048180243038410e-02,5.264885730294079913e-01
1.281698982112653429e-01,6.842273718254671122e-01,4.344745213846405441e-01,6.661715710097741716e-02,9.355487994811962915e-01,-8.378519770975813019e-01
3.125426069656975919e-02,4.694912687936924067e-01,5.980582475414588650e-01,5.901590816694709529e-01,4.000487765566976828e-01,8.124459941891084558e-01
9.910046085649273917e-02,6.018175131806668965e-01,8.915007582548939435e-01,2.403947078171955187e-01,3.859664363009639443e-01,-6.235145483548254486e-01
4.318313614111101706e-01,1.773129346731007749e-01,5.503196918307863283e-01,3.363628926068489844e-01,5.524585046937272592e-01,9.554625444093438613e-01
8.780771894742073203e-01,6.337526639413208762e-02,3.757427318617225787e-01,2.296799439344979644e-03,7.691628501969687282e-01,8.144652843871105219e-01
1.999519387705789852e-01,5.808440118856812440e-01,4.062240862381573392e-02,8.151969888896598571e-01,5.290386997641668421e-01,1.371073975434944359e-02
6.017624422856934219e-01,9.075759905700922503e-02,5.806994081264962304e-01,7.091905432048870583e-01,3.392386570595070094e-01,-9.914648146035578424e-01
9.797660647390310507e-01,1.655601087337664756e-01,2.406971711851647877e-01,2.338958675668535436e-01,9.716520087555127194e-01,-9.999999999994440003e-01
6.709970629678384535e-01,3.145131173782496625e-01,6.495077589948201890e-02,8.750051950826144287e-01,3.621386560747195671e-01,-9.598680599085909204e-01
7.426619772967212318e-01,2.841968060728351508e-01,2.874997053703340910e-01,4.786090707343796380e-01,3.513774901655092875e-01,2.951713379105085355e-01
6.237800698569656577e-01,6.838176616758142590e-01,5.783059835815086425e-01,1.972214438672788839e-01,1.029043886689173376e-01,-2.575411859500953415e-01
7.093518098664505223e-01,7.394991967064105109e-01,1.724510286108063006e-01,7.390258107219396799e-02,5.136355023328954550e-01,-5.258278434480755381e-01
3.717511086226895078e-01,8.612374693382319757e-01,4.228404439335361475e-01,1.235695849481038971e-01,1.663825759136108862e-01,9.998221408016061407e-01
7.467464136871082570e-01,7.828270908853585119e-02,2.875967308298830183e-01,4.680197912044484765e-01,6.191522910466688012e-01,-4.260585805775980450e-01
4.927860699593729077e-01,1.037003393651498573e-01,1.201886778951516827e-01,3.811936938927965035e-01,9.322218498707308676e-01,9.795382943741008930e-01
