# x1,x2,x3,x4,x5,y
9.000822378880035668e-01,8.151826869893600280e-01,3.701621217005081621e-01,6.229722212667858638e-01,7.937832971040675867e-01,-1.000000000000000000e+00
8.665007592635167732e-01,3.268872609709418398e-01,7.773776216822986251e-01,3.695210163048270324e-01,6.725935631721386976e-01,-1.000000000000000000e+00
7.443972600516652882e-01,7.110199768336820103e-01,6.363761274288957104e-01,5.342023106156704726e-01,6.249495069400572839e-02,-1.000000000000000000e+00
8.063796077476019786e-01,4.566317158872230664e-01,6.522371795770716407e-02,8.284552518821288736e-01,5.175549428633590132e-01,-1.000000000000000000e+00
2.499271701363585951e-01,9.600359983152039201e-01,2.732546580382417822e-01,1.519711155878749331e-01,1.600115404887736681e-01,9.999999997099211502e-01
1.458814948918281396e-01,6.712645147646175703e-01,6.801736528655627501e-01,7.960399835173600502e-01,9.286875843281436893e-01,-1.000000000000000000e+00
7.818283107113936925e-01,1.583621515728222962e-01,4.039165454316544501e-01,2.236737221341580650e-01,4.722999073759806543e-01,9.683050001761921433e-01
4.749746209864542101e-01,6.048865439827932899e-01,8.757837676574151686e-01,4.347838905319563740e-01,1.403539741122687978e-01,-9.999999993559546274e-01
5.487303317859774099e-01,2.554723324170914966e-01,1.358886843736778205e-01,1.807692230441114781e-02,7.458970699325838671e-01,9.999999999999957812e-01
4.244088486342893762e-02,3.709990910048687196e-01,3.332813768912427643e-01,3.182164400284073213e-01,3.311509309667280410e-01,1.000000000000000000e+00
3.821362442622606159e-01,6.529594578679580319e-02,8.147648285849410366e-01,8.959900362311636890e-01,8.600683305592656813e-01,-1.000000000000000000e+00
3.149499328250123242e-01,4.028415600706042321e-01,1.523353195841035956e-01,1.432857517095077193e-01,2.254857652908827392e-01,1.000000000000000000e+00
6.185666282883912626e-01,8.944796246049924876e-03,2.718160715321571788e-03,7.006005062814705253e-01,2.769174381078463032e-01,1.000000000000000000e+00
7.650001124477126546e-02,9.035866598367383595e-01,2.380255136964474771e-01,6.911924554228205952e-01,6.260248237404870686e-01,-9.999999996060726648e-01
2.972519208595221785e-01,2.186393489163944159e-01,9.710589029635006142e-01,9.966138671770454760e-01,5.511952211027258963e-01,-1.000000000000000000e+00
1.605275291329414100e-01,8.803926153686264522e-01,5.097712411606594163e-01,4.819744714156939391e-01,4.014579480452571403e-01,-9.999943451060451238e-01
6.842284521451758028e-01,5.895899750684737706e-01,4.515377816772892516e-01,5.634414150629121210e-01,8.371709814733000465e-01,-1.000000000000000000e+00
9.940186690990032714e-01,1.132073426626686863e-01,5.721937294562715604e-01,5.558706380877973668e-02,1.377004643032059966e-02,9.999999999986763921e-01
4.039833052694948856e-01,7.609881018668567254e-01,7.053411325860262648e-01,9.249458685925920909e-01,3.703094761236245813e-01,-1.000000000000000000e+00
5.885518056669635234e-01,5.164882966185795343e-01,9.210247248257961150e-01,2.570777629950400933e-01,9.681645399015254005e-01,-1.000000000000000000e+00
3.671405258355282530e-01,8.637562534406815207e-01,7.077240005051382843e-01,1.410675913597821962e-01,6.252132278592049675e-01,-1.000000000000000000e+00
4.997479386216409636e-01,5.191829257512888818e-01,2.794837465508265284e-01,5.539784476612710229e-01,2.047165522369216173e-01,9.370075655388330205e-01
2.901128113346247983e-01,4.988608731507902516e-01,3.307600094473499563e-01,5.703492499601102717e-01,5.277293201914443621e-01,-6.145890087086288700e-01
7.152070981930955806e-01,9.500855762355790990e-01,5.102116035595444243e-01,3.353100272135985938e-01,1.216149879213292567e-01,-9.999999999999973355e-01
2.249793062593920534e-01,9.238333074825237912e-01,6.081292881827701780e-02,3.537046597436520057e-01,5.791178869526664164e-01,3.189295826780376153e-01
1.974603270776156827e-02,8.944856203088036306e-01,1.974136996087940410e-01,3.161302192152968260e-01,8.411342146659461783e-01,-9.172810284807033643e-01
4.884530841228065245e-01,2.056935305496778443e-01,4.004977779831341289e-01,7.686802913163633955e-01,3.753575735642138977e-01,-7.783472408204552551e-01
1.321756822921146268e-01,3.157683734842473555e-01,7.382535138676981079e-01,1.278964076217945223e-01,2.714533527977178173e-01,1.000000000000000000e+00
5.550486867102385480e-01,6.474451437916602936e-01,2.257518996728512528e-01,4.111245518952845457e-02,9.105558963100934822e-01,-9.997041748057348132e-01
5.590632264575756682e-01,3.886366880425552728e-02,9.116414172865016097e-01,4.169168515208451220e-01,2.899052113997200308e-01,-6.012408001138518365e-01
6.699335852239928224e-01,5.432615122204802471e-01,3.576706693626310885e-01,8.721992934485328641e-01,5.368008432855242429e-02,-9.999999787639266557e-01
6.225350994068421517e-01,7.908077336830812154e-01,7.756710213093663819e-01,8.389570490266748393e-02,1.952481818140875680e-01,-9.999996886985019762e-01
3.144583865524752664e-01,3.213977736180972378e-01,2.796469142199917712e-01,5.304449643187453267e-01,4.950943663282738050e-01,9.998713196702313510e-01
9.231795375849892737e-01,1.609702993779006108e-01,5.334936329234492014e-01,6.196464661241530836e-01,7.210782438786350786e-03,-8.134611749978102324e-01
5.342106792142503613e-01,4.330733848319044954e-01,5.593790455457889887e-01,3.501164144847675880e-02,3.014415303383531919e-01,9.999997414796870654e-01
9.507114378909377050e-01,5.782402754712121645e-03,4.740315010621429792e-01,5.635966250276782663e-01,4.328750552142906494e-01,-9.999900359748976619e-01
7.621804090914637841e-01,4.313179862002348153e-01,4.251340733222641055e-01,2.681803577889277923e-01,6.569100666606393357e-01,-9.999999998434550008e-01
6.480937343217646474e-01,1.478549471279718142e-01,3.683275583681999699e-01,5.586057487019466805e-01,6.903193442732024065e-01,-9.999713364055099474e-01
4.113945296848334210e-01,4.799647217688166739e-02,6.709795125255761938e-01,3.314698266434709106e-01,5.050676499034242872e-02,1.000000000000000000e+00
6.721841038255729206e-01,9.882742055695772354e-01,6.139525983394444192e-02,6.034212688051393547e-01,4.157717159051650402e-01,-1.000000000000000000e+00
9.425241131105678294e-01,1.699299986478659819e-01,3.348913090685632366e-01,4.045640065046514078e-01,4.340943922982467007e-01,-9.571550817878891060e-01
2.294559902909684701e-01,3.993789357924265038e-01,8.960105310114324650e-02,8.883087604288426586e-01,5.691200879452100458e-02,1.000000000000000000e+00
5.328783218958765833e-01,8.448047164563000644e-01,3.582107818217426520e-01,1.353810269200368330e-02,2.687441011972551141e-01,9.882635085854341028e-01
1.871958369707567571e-01,4.022652091364580240e-01,7.628954100761188295e-01,1.656685932940346051e-01,6.408212412351984577e-01,1.055821543947577101e-01
9.790678632202985676e-02,9.856884154804523845e-01,4.519460426525100383e-01,2.753370636617054057e-01,2.576212652742204678e-01,9.042767889741518683e-01
3.029655740514047846e-01,7.352003055331195469e-01,3.087557115566838539e-02,4.742881288451428201e-01,5.971608911209281834e-01,3.431199189101987734e-01
5.440009274845044596e-01,8.271260086542802092e-01,2.641720808055701974e-01,3.683002343951469193e-01,3.069218728646690431e-01,-9.853651472901612252e-01
9.125010564024521598e-01,1.527161082470404330e-01,5.755117504062526868e-01,3.587967691624509015e-01,8.099156064213162975e-02,8.562599324257833544e-01
2.150760593804300347e-01,5.632223312554718309e-01,5.590293666092839286e-01,5.202029637348634106e-01,1.333365313945808484e-01,9.971494879228839370e-01
2.715658085690828005e-01,7.640707788898515318e-02,7.138395140106078562e-01,3.753004537229064907e-01,6.360823811562131835e-01,8.873202906427586356e-01
8.149677713144013458e-01,3.476468537332143560e-01,8.043856870485129873e-01,1.336934117733918903e-01,3.077012620834823076e-01,-9.999590875774005960e-01
3.085974853452039257e-01,1.481746597702856827e-01,9.647651505957771656e-01,2.742314707110655170e-01,7.551936137469942301e-01,-9.999985975646807912e-01
2.593774197668700099e-01,4.936546431265999013e-01,8.682347604981630607e-01,1.430468356750532744e-01,1.422697433097505904e-01,9.999898409119518661e-01
5.595003575772719562e-02,8.778830435695880174e-01,9.134090814560752447e-01,2.023828585946034209e-01,4.323629635066485455e-01,-9.999999126175389552e-01
6.917476794690622377e-01,7.229249024001796475e-02,7.436879804937897021e-01,4.824130739944708646e-01,2.284393761565687089e-02,9.908943439208668380e-01
4.847399306949798925e-01,9.831020409677624361e-01,7.481226761787834745e-02,3.074226589060502501e-01,7.905612099498236789e-02,9.999444787817644009e-01
4.907594098861913778e-01,1.584230484789443949e-01,8.049759871334151162e-01,4.014860138046063009e-01,2.275003213483302311e-01,8.436379049923909967e-01
3.646969257681967336e-02,1.399537455481828507e-01,3.873488696197500691e-01,8.620915102875810199e-01,4.478185316514619041e-01,9.999993377146056961e-01
1.932684685938494962e-01,1.706209103454310871e-01,2.985989441445928150e-01,9.991460694792326791e-01,8.217865336588927594e-01,-9.999999236287161475e-01
4.885583476850095808e-02,3.738582818186259038e-01,8.396418191313975710e-01,1.211060309082310354e-01,6.332478773637456593e-01,9.890675833059097144e-01
5.857085644765169796e-01,6.243972515083550529e-02,5.623560273217235173e-01,3.391244485642559425e-01,8.228238887835566118e-01,-9.995211271316370993e-01
3.503424614919505298e-01,3.124908212872891666e-01,3.522594706917237528e-01,3.276706992317934830e-02,8.819559774308438627e-01,9.999416763569497490e-01
8.853964668243715641e-01,2.704258518396748245e-01,8.499554829732883787e-01,1.135979908061121729e-01,2.934941070025801069e-02,2.392352834457334154e-01
1.054416720563568222e-02,5.134171649234313406e-02,9.278299299813744794e-01,9.636192059634118845e-01,2.853651763967249289e-01,-7.784623214430220761e-01
8.894530705998201503e-01,2.059452186275122915e-02,9.474509162652638983e-01,4.334057289622987863e-01,1.110152828787128731e-01,-9.999345847189936576e-01
1.935487527282357678e-01,7.224106371553596917e-01,6.402168443516823015e-02,1.354886509750197754e-01,7.396887017871403014e-01,9.999998753008307872e-01
8.809112264161597095e-01,3.722974943525040881e-01,5.937083793304529511e-01,1.198711706805915406e-02,3.501274732420253111e-01,-5.278333828143976225e-01
5.959171387758356309e-01,3.708423770983109713e-01,5.665022357976832179e-01,1.248209722030081265e-01,5.751299219380330285e-01,-7.412382778762857116e-01
1.406718160151215757e-01,7.949785122616257471e-01,5.527835160274440218e-01,1.107728332791238224e-01,5.059497564597155161e-01,7.034513426200899033e-01
8.476422119045173842e-01,8.034692859332301929e-01,1.277672473478193849e-01,2.526405433690663560e-02,3.675178293882003233e-01,-6.754013328958596851e-02
2.486731479234211006e-01,2.493281482016438400e-01,6.335171799643297685e-01,8.530724947253535140e-01,1.907216270401023983e-01,-1.166519551380171826e-01
4.637220437573078002e-01,4.335920670691353340e-01,8.723777207222256358e-01,1.546873610553256839e-01,2.778257770315103459e-01,-4.535611599211186729e-01
4.648192332442426661e-02,2.792856027505907779e-01,6.920038519985091119e-01,5.954635728117505522e-01,7.871364577913841920e-01,-9.999269420824726806e-01
7.294586286571148603e-01,9.182608407553635721e-02,3.114477500251777720e-01,6.291852956757434390e-01,1.412238616869612995e-01,9.999922569565302677e-01
3.480105699939886055e-01,4.832302768421801731e-01,4.087324705776306244e-01,2.430587518621158127e-01,6.945213772290967924e-01,-1.465786228079125619e-01
1.314367377464934206e-01,7.163093691176448674e-01,5.566983027305236753e-01,1.374274101327885023e-01,7.506138890052758139e-01,-9.672569517996987276e-01
2.371416999987761565e-01,4.812215913468165240e-01,3.533626160135325961e-02,5.314551974497354614e-01,8.860758957219977416e-01,-6.173705892079361934e-02
5.136260587751021595e-02,1.542992082654986163e-01,7.638362215180851678e-01,5.339660987774572654e-01,9.880221653454345221e-01,-9.999999645970281126e-01
4.965833864573432344e-01,2.389658790123727269e-02,6.171568923624033420e-01,1.360342331208234425e-02,8.210722614941565745e-01,9.990272740430587994e-01
9.533981583343790200e-01,2.525554277126942915e-01,1.131714753933458911e-01,3.958574309962372695e-01,2.126751435458788531e-01,9.999501048879364529e-01
5.393288283719444021e-01,4.688904077990740937e-01,8.856770620444905928e-01,1.639744363391221760e-01,7.793907956480221333e-02,3.994836731415205566e-01
6.172604278553611712e-01,7.555710711834254800e-01,3.238112415633898622e-01,2.356465318950693444e-01,2.001166735148208753e-01,4.390450782865458201e-01
7.584926069722113251e-01,4.542401911290046279e-02,7.395945986400827461e-03,3.302829053448799734e-01,8.369561948717981759e-01,9.985891266826354418e-01
6.966126597857856539e-02,5.066311741523313872e-01,2.435216996969453429e-01,5.973069857345801870e-01,5.254574381396786009e-01,9.998569886063386480e-01
8.563827627087029493e-01,4.515243632663298312e-01,2.973928357009992252e-01,5.824915987659458061e-01,1.551791078355405917e-01,-9.972282387398325731e-01
6.350823938631953158e-01,4.289462624427261006e-01,9.427888975455245291e-01,9.456335543487671691e-01,4.363465421441963255e-01,-1.000000000000000000e+00
6.058930677020933908e-01,9.230055359702403761e-01,1.403357520494319041e-02,8.718832044786505309e-01,9.782789129480757850e-01,-1.000000000000000000e+00
8.114078730926790328e-01,3.035386126072082136e-01,5.358364139974144402e-01,8.175252794371261622e-01,9.700323056220576667e-01,-1.000000000000000000e+00
1.016036524204324415e-01,8.139921331724953024e-01,9.155251051372813587e-01,3.316743564803567579e-01,2.355835424130582959e-02,-2.616946640114459210e-01
5.518477765460617218e-02,5.154913263303110282e-01,2.842843490400924142e-02,1.833355348887097738e-02,9.127494271142062576e-01,1.000000000000000000e+00
9.765474915293248515e-01,7.402512793785090972e-01,2.172382064854509742e-01,9.742084920892811750e-01,5.133521158196481249e-01,-1.000000000000000000e+00
4.139175911987623135e-01,4.855142122276447925e-01,5.014666492168093903e-01,4.966329689752623788e-01,5.304424245691004014e-01,-9.999907726580841150e-01
9.223113368872782880e-01,2.106849868466060816e-01,7.500932519245872010e-01,3.026161143385456276e-01,1.482889741037198006e-01,-9.954836983469502742e-01
4.534714590832223391e-01,6.825336635921155359e-01,5.152749379723763345e-01,6.871492406280151899e-01,4.433070010687315682e-02,-9.997548034494436742e-01
8.962880947515102781e-01,3.253336782732798582e-01,2.526288550246797993e-01,5.179712445544329968e-01,2.549014151784721460e-01,-8.278707944058781854e-01
6.036060116446417823e-01,5.656018127097499626e-01,1.425915101792280815e-01,6.290294196353063416e-01,2.651250800319989165e-01,-4.950524115135719327e-01
5.122471552509844095e-01,1.427674401381156255e-01,1.327362287097925975e-01,5.295885353741331958e-01,8.506913466847539906e-01,-1.846819554799139507e-02
1.069665870164626248e-01,2.972986556828082771e-01,6.403446429382493310e-01,9.186130259831835065e-01,3.116172085179191864e-02,9.965412769814896432e-01
9.182423355763094097e-01,7.853677992104811656e-01,5.296580976041583844e-01,4.283325482741735524e-01,7.689669800856069326e-01,-1.000000000000000000e+00
1.000000000000000000e+00,1.000000000000000000e+00,1.000000000000000000e+00,1.000000000000000000e+00,1.000000000000000000e+00,-1.000000000000000000e+00
4.780149049965809471e-01,1.059983704833123430e-01,2.326800272834791128e-01,8.605822964003979614e-01,2.977661640808273447e-01,9.988539690121653880e-01
3.325481408553291329e-01,6.544925317355994032e-01,5.813454384348671899e-01,2.458046189198639653e-01,3.989403848818425802e-01,-5.696119752306222361e-01
2.911501989594430517e-01,3.909800564667454958e-01,8.271365870443534440e-01,8.644334679463815396e-01,1.951165970983770662e-02,-9.998792513961110018e-01
3.635630342571665730e-01,6.616557772198982112e-01,2.014439498828131669e-01,9.864065081277366420e-02,8.029179390805897265e-01,4.858817541177999910e-01
0.000000000000000000e+00,0.000000000000000000e+00,0.000000000000000000e+00,0.000000000000000000e+00,0.000000000000000000e+00,1.000000000000000000e+00
6.828955259455689319e-02,9.768907106652828798e-01,1.820971598495709498e-01,9.999013998511677714e-01,1.548900682134715101e-01,-9.997433157567996442e-01
4.601381497569114742e-01,3.730867351248735031e-01,1.726952157552471556e-01,6.654475581138493689e-01,4.377459069464497143e-01,6.712865197709150245e-01
8.548215173120542465e-01,5.419843788786966599e-01,5.515419151478562210e-01,1.500798431158603952e-01,1.599594570196840038e-01,-8.804220584396087457e-01
7.867770716402064934e-01,5.690028560740126862e-01,5.465713525263603545e-01,1.066377015248143878e-01,1.010488014415396839e-02,9.877338487512332676e-01
7.045732206870457259e-02,4.640305529882852165e-01,4.334633445825933906e-01,8.683638287260468935e-01,4.951711070690291150e-01,-9.948433153205371582e-01
4.231740125692849408e-01,9.179040045097319744e-01,5.106988374909976480e-01,6.416603655445267673e-01,1.714503294477351114e-01,-1.000000000000000000e+00
1.210643971528626156e-01,9.406228717287282715e-01,3.345301155491365308e-01,1.431219685510432688e-02,5.109813161168829110e-01,9.999682352932564022e-01
8.723326240125511832e-01,5.770427166465956770e-01,7.669214097596992186e-02,2.266464760150205260e-01,3.617632574108672894e-01,6.242123632886529272e-01
5.842526971187477214e-01,3.633035627411095869e-01,2.199446989693815968e-01,4.737212763693917639e-01,5.731035062465693608e-01,-5.813705626258695025e-01
7.794495608205451731e-01,2.115549356618937338e-01,2.645738028716745904e-01,1.428720459582156488e-01,9.479538723476763629e-01,-9.977134706011824283e-01
4.810094688261930540e-01,5.804641858290729983e-01,2.750066992695444218e-02,7.498284440325027056e-01,3.907904851750148012e-01,-7.144341949055704744e-01
7.232343874489371993e-01,5.552234106843789707e-02,7.448284245174381368e-01,2.365810543449025152e-02,8.526949244926859128e-01,-9.999246566045931761e-01
1.772654291105466295e-01,8.644791320289090253e-01,6.573727423108963741e-01,1.356585530816732388e-01,7.581337931497612592e-01,-9.999999999995295985e-01
3.262963908707454674e-01,1.857034246593293747e-01,5.527562687450836565e-01,6.883492026630708693e-01,3.365937737832278565e-01,8.085098667881549517e-01
6.668597594736409562e-01,1.649834220480717317e-01,7.500744587966089449e-01,8.754922059010647462e-02,3.612129915236764188e-01,9.789882214628222723e-01
2.880638070337954715e-01,4.411778453289587620e-01,1.216485773434108353e-01,7.345408134563385927e-01,6.355935441927387242e-01,-6.437240904193308744e-01
2.747565351798087474e-01,3.525887706471471650e-01,4.899934765733428566e-01,3.981958086830630350e-01,6.344564105109047336e-01,2.228196524980954329e-01
9.978682853034135519e-03,2.661167839941097624e-02,9.606277798131669377e-01,5.858394993592435096e-01,4.247938750717049627e-01,9.929649909914470829e-01
7.205880874254108615e-02,3.699865772601676484e-01,7.874646729654687372e-01,8.391996719177968744e-01,1.529828115867339910e-01,-6.496032893179760626e-01
3.034318157041998587e-01,8.973181280196132481e-02,7.360955427020260400e-01,2.227403535893609787e-01,8.212568940087406899e-01,-8.904322881474280305e-02
5.027954959873647267e-01,0.000000000000000000e+00,1.805032288764771564e-01,9.343138809833814173e-01,5.325738217183952905e-01,2.202761564599582389e-01
6.309318113003459239e-01,2.559694643237592770e-01,8.970305661827907007e-02,5.003900539744601250e-01,6.038855181890662172e-01,8.545658080031097725e-01
4.499520890554063457e-01,1.286305656063558844e-01,7.323755707749510790e-01,7.203623961785897700e-01,8.396767824446548234e-01,-1.000000000000000000e+00
9.855462340428050583e-01,1.010217886237891882e-01,6.446126602045080256e-01,7.318373548210271862e-02,4.516893692976896579e-01,-8.707206274055292461e-01
5.329684103321155053e-01,1.024921458451257678e-01,5.579890631254903477e-01,8.921800096541846470e-01,2.669904326427680399e-02,6.435477540028680110e-01
4.455059647973621528e-01,4.888000897085497676e-01,2.217979910643498032e-01,3.298554968335528637e-01,5.595118358112755041e-01,9.602899364097963186e-01
8.374364242306510109e-01,3.628782584606744799e-02,8.837715502552895286e-02,7.293247505746502934e-01,2.282589665426362768e-01,9.999722780926856291e-01
9.441429659972230271e-01,2.714995030663990283e-01,1.034275881236185329e-01,3.331102146893610283e-01,8.007048732923446321e-01,-9.999988099594799840e-01
2.710088563520641758e-01,2.130020910820117630e-01,1.000000000000000000e+00,1.874968965972059753e-01,4.785282860310831610e-01,2.222325101899043087e-01
8.542170251148737403e-01,4.094764122534457623e-02,8.029460635793388423e-01,1.241421389993772190e-01,2.535205248346453777e-01,8.770502881275878959e-01
9.420294446799998278e-01,6.326177470158412808e-01,2.155494499418942889e-01,1.129414064633451759e-01,3.196238520565892749e-01,-6.588866266189112864e-01
5.996831048187833968e-01,8.943918619961238603e-01,9.496329529147174986e-01,7.815265915338928115e-01,5.903485709837189566e-01,-1.000000000000000000e+00
2.271309779755527058e-01,8.233246257190665052e-01,1.803907119451285956e-01,3.882796501664279587e-01,1.834651049875992979e-01,9.999999993531427656e-01
6.103098792102213954e-01,7.032215029278952034e-01,2.675570300786331845e-01,5.467495165458658990e-01,5.329386634612042623e-02,-1.939162683852228009e-01
4.804683406469173468e-01,2.817960569609102572e-01,6.297082039846948476e-01,2.957602618129942518e-02,7.603751344851342742e-01,-2.043041894278964099e-01
8.499192165466937926e-03,4.896864542489114402e-01,1.873414378661810431e-01,5.705272659623791265e-01,7.990105344011134703e-01,9.417676953168523379e-01
5.521575129326450337e-01,6.771413274656034043e-01,3.198919607905083562e-01,4.942934018374083305e-01,1.448266980033232620e-01,-2.866158121873515485e-01
6.351285858251799477e-01,5.904538185409426154e-02,7.059785202061535925e-01,9.035056446252700546e-01,4.418669652075726817e-02,-9.978928234212068871e-01
4.791374301059092011e-01,4.520907746395900206e-01,4.506356572751282763e-01,3.797361894237821223e-01,4.180551794524332565e-01,-1.744584557684388804e-01
4.506323291723173807e-01,1.703895201658125191e-01,6.088261386772881867e-01,9.710137727078633763e-01,9.862794713408692959e-02,-9.758089747601589314e-01
5.266758278683545402e-01,3.986568413340941808e-01,7.135595036652234713e-01,9.897373738486032746e-01,4.365646457867038838e-02,-1.000000000000000000e+00
4.075574472498333378e-01,2.956588778812313523e-01,8.889963999782871662e-01,3.015879975856471454e-02,4.838635868101768267e-01,6.948997890719779136e-01
2.814700622685481490e-02,7.828889434693705462e-01,2.134638747181911989e-01,7.427108061536218109e-02,8.816995470719464212e-01,9.984215207865381192e-01
1.922268287861251257e-01,5.171834712207201701e-01,7.622071254008948582e-01,5.296385910554093357e-01,2.648133942086491888e-01,-9.083813612150262173e-01
