# x1,x2,x3,x4,x5,y
8.932528187061253844e-01,8.469795318630100045e-01,5.682594992195012518e-01,7.693854112229971953e-01,5.403727357930026010e-01,-1.000000000000000000e+00
5.746780818399468416e-01,5.132428689478599759e-01,6.156718376700429651e-01,6.231268394259412702e-01,7.033450508126004586e-02,-9.999076293240907187e-01
6.231933580059270117e-01,1.272068143819090058e-01,8.684245120240696725e-01,9.558543755912295437e-01,8.494957250270649407e-01,-1.000000000000000000e+00
5.392326813581419520e-01,3.667621039833102725e-01,9.845747219321212551e-01,7.071806062389307534e-01,1.619493185971325744e-01,-1.000000000000000000e+00
3.220717680341674688e-02,8.580859114245978914e-01,7.246731846510248154e-01,4.133646584163229720e-01,9.596756253833144124e-01,-1.000000000000000000e+00
6.842245512549839370e-01,1.903742448175582691e-02,2.688210122264771962e-01,1.383427553149252920e-01,4.813039068371594009e-02,1.000000000000000000e+00
9.765819526118247884e-01,6.662016911902831628e-01,3.257691056120454176e-01,7.928471342608289785e-02,3.193076044228423949e-01,-9.993316195033642435e-01
7.969577863891444958e-01,4.348975082491000621e-01,9.025327001457232878e-01,1.617590248808494779e-01,8.670431621488108309e-01,-1.000000000000000000e+00
7.068913439726410841e-01,6.346677529748535607e-01,8.291387611784813982e-01,8.182536305137667540e-03,4.186947039358764333e-01,-9.999999999997383204e-01
1.544851691392963855e-01,1.597885628385012635e-01,6.175289478028228585e-02,3.236189562712640244e-01,2.451256921624267449e-01,1.000000000000000000e+00
6.733309201898829421e-02,7.628418857623167071e-01,3.797719144100514810e-01,4.581590446179725773e-01,9.012922418436761784e-01,-9.999999999917754678e-01
8.493192071492581263e-01,7.309000511914199860e-01,2.344172191533601957e-01,8.653363329926537784e-01,3.673125211964072823e-01,-1.000000000000000000e+00
3.872068502220147868e-01,9.958754961468038736e-02,4.106040415695707546e-01,2.513312182386557292e-01,5.632072893198618591e-01,9.999999999999880096e-01
1.068117161009523586e-01,5.922656221941786647e-01,1.997096842148680940e-01,6.816324991895688079e-01,2.747074560773602458e-01,9.999998756639685293e-01
4.786544253391467052e-01,4.958679039359400464e-01,4.909487968377457823e-01,8.496551566888213003e-01,7.678548373758201651e-01,-1.000000000000000000e+00
2.314549915413600945e-01,2.367476288321569700e-01,6.788405999574794736e-01,5.407184792555317365e-01,7.015410945630848882e-01,-9.998420722850834830e-01
3.417357546746707664e-01,9.318932036397666874e-01,3.315239526678342985e-02,5.523915449575715897e-01,1.466925071659290203e-01,9.936451695626145053e-01
2.643217663956177188e-01,3.183493665005126538e-01,1.259088173412922784e-01,2.015565374208813654e-01,6.798230833783270866e-01,1.000000000000000000e+00
4.122415904228541872e-01,2.777806281903055230e-01,5.169683528175671450e-01,3.658066690954127065e-01,6.409843826342916939e-01,-5.760384751947611459e-01
9.145238873826685433e-01,9.535801897309399422e-01,7.528567301504514031e-01,9.467592155365773809e-01,4.512077384927435930e-01,-1.000000000000000000e+00
6.510276958818084214e-01,3.479138077401751072e-01,3.984990091521443678e-01,1.207513716058544462e-01,4.749530383883259765e-01,9.967679645319618142e-01
8.694528270825168104e-01,3.440478601925118785e-01,1.315303621647681553e-01,6.765388305086051934e-01,7.546554668660699905e-01,-1.000000000000000000e+00
2.387228261297480100e-02,7.791155657338001417e-01,8.797420524073159553e-01,8.697188135093044670e-01,2.737823752259602519e-02,-9.999999999976433296e-01
6.448643325708872664e-01,3.077506690445278026e-01,1.627368176797567012e-01,6.777656558458728941e-01,8.232740214201590689e-02,9.999992275315590096e-01
6.401054203475000648e-01,1.892090638856219753e-01,5.141612525335599315e-01,5.464592018003052720e-01,5.181586411158716210e-01,-9.999581733153276586e-01
7.375594637627301831e-01,7.640263676806072768e-01,3.285828567076611306e-01,6.102168936207750249e-01,5.467542109963940966e-01,-1.000000000000000000e+00
5.579010343982772069e-01,7.767129889266551901e-01,1.808836328023139331e-02,6.106493416077958258e-01,9.190038038393891773e-01,-1.000000000000000000e+00
7.091393977336268861e-01,3.016385801452409754e-01,3.078272954773511594e-01,6.986762394042185242e-01,2.268325393693202408e-01,-8.112633827437859546e-01
7.059654263715448019e-02,4.709117291450311549e-01,5.446917113983867909e-01,1.753771208370374229e-02,2.304762230356493247e-01,1.000000000000000000e+00
9.111979218525541047e-01,6.684747021988795002e-01,7.454880547764948517e-02,5.501747751407881637e-01,2.723635384531359893e-01,-9.999998578547741879e-01
4.151575277961432886e-01,5.256218166361085187e-01,6.672070411643173937e-01,1.326152335158256590e-01,7.553059446557838785e-02,9.999999972982998031e-01
6.225774532092915869e-01,9.519938138959246343e-01,5.474525520596381159e-03,9.529057021822952001e-01,2.880293895226231360e-01,-1.000000000000000000e+00
9.462869290333498773e-01,2.902005702470803472e-01,8.544788804543037575e-01,1.515696589193265276e-01,8.610429849033396713e-03,-8.483334794583266003e-01
5.268023211312841125e-01,1.843022093150211149e-01,2.568069208818658522e-01,6.216873939872157306e-01,2.307197239104022690e-01,9.999999958404961475e-01
7.338615277450717400e-01,2.894958196490131641e-01,4.984349651428591210e-01,2.615013242432927543e-01,3.563063228341059596e-02,9.999999963953556392e-01
6.235401520919945373e-01,1.909884991270656418e-01,4.884634108760462640e-02,7.765864948663746270e-02,7.310388994434808829e-01,1.000000000000000000e+00
7.792906129786745240e-01,3.770066786535842263e-01,3.390940989024019969e-01,2.618462214081135886e-01,6.342740103857241740e-01,-9.998642275719467065e-01
5.599345842628989933e-01,5.847553554648097229e-01,5.750833217420208143e-01,3.958468769788656694e-01,2.541791287419019607e-01,-9.994337271806910117e-01
1.339099856512222519e-01,8.784628229256475906e-01,3.910127561726376433e-01,6.583653664491663227e-01,3.640349814380932636e-01,-9.999890444376442478e-01
6.307382113765443998e-01,8.974718858480287276e-01,8.503953439448545815e-02,1.519842502992052868e-01,3.831921098201204745e-01,2.431002526068413161e-01
1.235217222278099103e-01,4.997923112251146383e-01,1.741577836858169415e-01,4.523609749169152372e-01,7.840068891428323417e-01,9.758131846520001762e-01
5.171292468235644257e-01,2.782593184092688188e-02,3.124271279099563592e-01,9.395597064124968645e-01,1.188161875067419646e-02,9.999999987429921688e-01
3.561329274425780733e-01,3.136627492396142358e-01,6.186057466385357362e-01,1.277391798504387832e-01,9.060304907690185372e-01,-9.916848440415197974e-01
7.447489037146323154e-01,5.962500372221547495e-01,1.191435762195505316e-01,6.460182234360873910e-01,5.573320462563535055e-02,6.455468256054874843e-02
6.038199326862384586e-01,8.000156236358982875e-01,2.456483455180090703e-01,7.326768639602103395e-02,7.332012838542834032e-01,-9.999990862109756629e-01
4.334710560612652919e-01,1.204972298615607090e-01,3.250859343231466969e-01,5.753523993876387133e-01,8.542153066605099321e-01,-9.840063597349181235e-01
8.395781221642830694e-01,2.329778406732231077e-01,6.740551886009544802e-01,1.617135284995998568e-01,2.111783334148550351e-01,5.765172920525580835e-01
7.020808372414667764e-02,7.666882469795748278e-01,2.223243388318531244e-01,9.449523790255143219e-01,2.308287879505366846e-01,-7.538234449929123171e-01
1.487514105914324036e-02,1.764544114710094314e-01,8.411832414050309792e-01,8.322247344360164112e-01,2.477455318328847939e-02,9.999974422240072158e-01
5.142030374183286234e-01,5.867821918666329406e-01,2.024572400271558437e-01,2.098061021913583124e-01,5.636855041021747725e-01,8.721943950583190830e-01
5.404689809163910619e-01,1.350262767175101353e-01,9.371947122469949099e-01,4.975585780948183490e-01,7.927872810755848265e-02,-3.019524456847463290e-01
4.952628585298631259e-01,1.951752376444550741e-01,8.767213894090130077e-01,2.928247086112197306e-01,2.986323572866029785e-01,1.086648686672448960e-01
1.466898583708635129e-01,5.878734165074400719e-01,9.185470019353022542e-01,3.180350663768200525e-01,6.580273252407753404e-02,9.722921032718951917e-01
2.539687279974477963e-01,6.134221925915945839e-01,8.127363153239680615e-01,1.744604531085158505e-01,4.003988749322213159e-01,-8.660844292814853240e-01
7.619725098227106974e-01,1.695860006116895469e-01,2.107251093010785448e-01,5.395707232913298478e-03,9.840585561045955831e-01,4.466589646874190578e-01
6.480778851482944525e-01,4.527142604485511201e-01,7.069390523370542266e-03,7.591547278025895240e-01,4.524804793098942679e-01,-9.905026511731992445e-01
5.536258257952124395e-02,2.378160794070806675e-02,4.271879407796976280e-01,9.854238473280753086e-01,6.157413430668782217e-01,6.846874559912108360e-01
2.344047060079405831e-01,2.215509940141914824e-01,1.029915133886412509e-01,7.399490732678201121e-01,9.000658665318336249e-01,-4.163579332011460021e-01
8.876466229106375061e-02,9.337021748176966840e-01,6.730839527521921273e-01,1.452267842557742050e-01,1.510809363351022783e-01,9.969888051112452132e-01
6.813506873554540100e-01,1.325428273925911005e-01,1.999152425364042751e-01,9.796228718054903473e-01,2.090307713398781853e-01,-4.564634392852917610e-01
4.890002722368129717e-01,5.716987619630816697e-01,3.686251360003405253e-01,4.913270404190107910e-02,6.757819657975457917e-01,1.670403233404731402e-01
4.361232842341716265e-01,2.417977370126837833e-01,1.407941226031358961e-01,9.056157167259399898e-01,3.719869272529220949e-01,7.674672878603152615e-01
7.714201537608388337e-01,8.978276383018236606e-01,1.577137417483805426e-01,2.440160229594051378e-01,1.075837458245441636e-01,-1.599727829369645971e-01
9.435860331177689519e-02,8.334703845526734156e-01,1.219991828617222537e-02,7.582496943546902513e-01,3.884666774582765103e-01,8.249997444862000595e-01
3.502290364640677778e-01,2.875799060000961416e-01,5.797138333200851923e-01,9.950036034153705300e-01,2.592551785477482662e-01,-9.999997756883981515e-01
1.600608885359607325e-01,3.396014000752829998e-01,1.984423346279018674e-01,4.277903127992404575e-01,9.817526189395706648e-01,6.834571578759662813e-01
8.965376224500171132e-01,8.072900673999724996e-02,5.044589039305487077e-01,3.668276295485031757e-01,2.758602247439175259e-01,5.266641133176133138e-01
7.876402033648015610e-01,1.908280662134476391e-01,6.262937424198433689e-02,4.925874023454153705e-01,2.845099902200224351e-01,9.999999966561430309e-01
3.228864149616071655e-02,6.132298570646997904e-01,1.392174802022836944e-01,8.088360145992907757e-01,9.378590129882208304e-01,-9.999999993993345937e-01
9.774541684164721467e-01,1.453881470464765957e-01,2.331462971341781987e-01,4.779643049792506870e-01,3.819208971819157972e-01,-5.963233891420437471e-01
9.944600777550967052e-01,8.009202710293261696e-02,3.327378318204578522e-01,5.162265695128110954e-01,1.249036214802124872e-01,9.552194823848141336e-01
6.371145505438829959e-02,7.196389958265729803e-01,2.513744083190981859e-01,3.182990822967706607e-02,8.651685790917585939e-01,9.999331198976584290e-01
3.345390693699344942e-01,9.597404126847758343e-01,7.863002517903437960e-01,9.788960866023138641e-02,2.409938218887248407e-01,-9.999821406374085342e-01
1.750239976356264826e-01,1.413280068155230440e-01,8.797154759223034803e-01,4.961736706807595154e-01,4.006253571281869763e-01,7.895868598269437655e-01
6.607810916100931298e-02,7.625211277136798582e-01,1.449374097877522694e-01,8.552737728944405093e-01,1.073084414553153038e-01,9.999086642999948094e-01
9.612096101738775156e-01,3.530306296094358753e-01,4.064438579482366337e-02,3.582444049890164961e-01,2.946750955319448750e-01,9.929819533961652400e-01
6.907083011434722586e-01,1.310660176069911864e-01,3.707310254534418315e-01,7.871570298221292061e-02,9.103907371031776385e-01,-2.002163080315363386e-01
3.227452599325513760e-01,4.164834733516863952e-01,4.675706872185419333e-02,6.873822059033949383e-01,5.609439686779215117e-01,9.753045465225835819e-01
9.468841347244183471e-01,7.584328183185366778e-02,7.634923603497199007e-01,2.044283320038957630e-01,6.206057115393168178e-02,9.468784079280352373e-01
8.493233235985635510e-01,9.785361329499671079e-01,8.189742150889158800e-01,1.143658018076181421e-01,2.302751149788028751e-01,-1.000000000000000000e+00
4.829545202956151417e-01,1.613710701258273539e-01,5.934595088108577388e-01,8.302870312186890756e-01,9.968553232022683286e-01,-1.000000000000000000e+00
6.839525261044528959e-01,1.274135443130371415e-01,2.561783082939959599e-01,7.876190926083946886e-01,1.836844803964229889e-01,9.699291214079179824e-01
9.204809076812581203e-01,4.401189240470804176e-01,5.279522371360011457e-01,8.174341306637223914e-01,5.191404270384578634e-01,-1.000000000000000000e+00
4.740812533587061006e-01,4.176322184775057567e-01,4.851057803746011143e-01,5.188927863001192575e-01,8.075133765321620416e-01,-1.000000000000000000e+00
1.787947031577702961e-01,3.907970738711102898e-01,8.987907854198974311e-01,1.318899110830633603e-01,3.796253733314555179e-01,9.984733635776985583e-01
4.476947491985357463e-01,7.189386599071367900e-01,5.590555140683421964e-01,3.613498835623269456e-01,6.049967358695514802e-02,2.545283493010057629e-01
2.174051676238703823e-01,5.512046787803035475e-01,2.904490051936090556e-01,6.556714056563431869e-01,5.899836896326690061e-01,-9.808572837967362013e-01
6.384406210374056201e-01,3.118535598775427076e-01,4.548427044549697151e-01,9.329787400477772552e-01,8.615734096904138495e-01,-1.000000000000000000e+00
1.456366665793732418e-01,1.054054778266035192e-01,1.000000000000000000e+00,6.183892792482732492e-01,4.213916959597233808e-02,9.999850296317489562e-01
3.589398880068948861e-02,1.412560804765976286e-01,9.634758535667898860e-01,9.260978284730224386e-02,8.755508947322462321e-01,6.740268930535009417e-01
1.145517272052291174e-01,7.407407110638794534e-02,1.332262744745094270e-02,6.132981756547170038e-01,9.425703286397048020e-01,9.999999999960347274e-01
2.999212120324769026e-01,3.711162185457414497e-01,7.735025213624446838e-01,5.974853821721067826e-01,8.833931086369446739e-02,4.621488655709284910e-01
2.089183746918603091e-01,7.913984983188752098e-01,1.689757303550059320e-01,5.064491353026835396e-01,6.247862979534573036e-01,-9.768955317319388820e-01
8.867668075212420398e-01,6.419494267329925452e-02,8.714636407008669039e-01,5.799815326229871282e-01,2.921321690119466075e-02,-9.999930889441638326e-01
7.171326034622536039e-01,2.008484423976586164e-01,9.048904403105940686e-01,1.772062045075751407e-02,5.048667590554312135e-01,-9.975882889610753201e-01
2.753482477601954526e-01,3.730695094228794750e-01,8.967292239588968705e-01,4.832153351007900111e-01,3.694370561861252122e-01,-9.999123476720584991e-01
7.516423379100530822e-01,5.439497295100245156e-01,1.774763719323916578e-01,9.300844255077693468e-02,6.269986429614046175e-01,-3.459717865753778598e-01
4.923009885389451057e-01,7.595424837475406310e-01,1.245055642942898694e-01,8.524256789067248263e-01,7.111667449798689256e-02,-9.762344586136871838e-01
2.049631004145507918e-02,9.138178715877349756e-01,1.793716228061277007e-01,2.579414471185030311e-01,7.927167148884194381e-01,3.144249607235272137e-02
2.703201124768128127e-01,7.077243226410303567e-01,7.409527950643636229e-01,3.859598297934183075e-02,2.317229477339277921e-01,9.973852676961652008e-01
2.713987073008258255e-01,5.701369494492453463e-03,4.582000950869355438e-01,1.699105370385496916e-01,8.996695513420636114e-01,9.999999991733237170e-01
6.253892491223518590e-02,1.391360247780415171e-01,9.826104542764095839e-01,5.420321532052894131e-01,7.322788225822458585e-01,-9.999992737582530378e-01
5.311363070654510077e-01,6.810378466298666611e-01,5.899772021978229031e-01,1.654831351854360866e-01,2.094766127312533976e-01,-1.406863871264458776e-01
9.783699313184184287e-01,1.618182424657709229e-01,1.677750451737776982e-01,9.831128588549284397e-02,9.104015081821217326e-01,-9.890954570157317605e-01
6.333962193600393142e-01,8.525453268443623500e-01,8.556577741192222808e-01,2.477567749975574385e-01,8.083417438013217327e-01,-1.000000000000000000e+00
1.939255220730214668e-01,6.826349757917802297e-01,6.049745659002046111e-02,7.252934108135318247e-01,6.707863779237702717e-01,-9.952735295911312452e-01
2.079394967848568754e-01,1.278845641717993031e-01,7.060173957710706993e-01,2.774042559271988062e-01,7.930794044952736987e-01,6.435792184788429182e-01
2.383807309781104944e-01,9.614182878286186007e-01,8.435838231244039420e-01,7.430323842206147666e-02,1.239538232922221955e-01,-7.967469554756264616e-01
1.608985575232086407e-01,2.726213273271264614e-01,6.980428322107917749e-01,6.989354878213706046e-01,3.321851989602946920e-01,5.389452099544800312e-02
2.683494498460284872e-01,8.117204368130259695e-02,5.706100471904986815e-01,7.319109358481128425e-01,5.476848115655892357e-01,-4.252415589506732818e-01
3.075697100795022898e-01,9.158673151786356215e-01,1.369481762287225179e-01,6.239657829028829455e-02,7.810507042333558747e-01,-4.717795425448101376e-01
5.560041559924935317e-01,5.807217914293292260e-01,4.627099940947457073e-03,8.099703703571156654e-02,9.305510985622481579e-01,1.847106873973904939e-01
6.571381518530694521e-01,3.837834149009274332e-01,6.447942359295243120e-02,2.436197654247164446e-01,8.508033523137802367e-01,-4.263611155274362741e-01
5.459602476625192713e-01,3.849743661071363121e-01,7.409717304147307448e-01,1.957675956139833251e-01,2.658649269328530740e-01,4.260184724453179861e-01
9.723304181105847377e-01,2.411704759885146404e-02,3.176572134833671041e-02,2.385451040522004462e-01,4.869041531576366322e-01,9.999999999975981435e-01
1.849025070076074362e-01,9.039999831422984578e-02,8.467720855453895190e-01,3.852473016447162668e-01,8.350315935955932023e-01,-9.971316388161103328e-01
1.437901886694985427e-02,4.668915735129531841e-01,7.502841307262789750e-01,1.089430422627213763e-01,8.722889920275075371e-01,-5.661872373444427620e-01
1.000000000000000000e+00,1.000000000000000000e+00,1.000000000000000000e+00,1.000000000000000000e+00,1.000000000000000000e+00,-1.000000000000000000e+00
8.609944822986206892e-02,5.994249243990030784e-01,4.931966070465714225e-01,7.628851831698739705e-01,9.230682033208881254e-02,9.757348425269181114e-01
4.790739618046289672e-01,2.286538055495786481e-01,6.623520540899686670e-01,1.186994537369350927e-01,6.272507746028419540e-01,6.098425618744833798e-01
6.412631851919829706e-02,7.197857348311962333e-01,3.086482782023404758e-01,3.074376018024751467e-01,9.380564120319836441e-01,-9.963688550002013367e-01
1.088744786462563646e-01,2.681754113916646684e-02,9.347363692971940585e-01,9.094917954672928628e-01,4.324065200805705111e-01,-9.999694046366441880e-01
2.943442291484827389e-01,4.582994449162075545e-01,2.224969135900244643e-01,5.321313136370406927e-01,8.932364251766551355e-01,-9.999276506470525794e-01
7.161250842498035896e-01,1.555078647959465543e-01,6.486815875575664414e-01,3.377156550319183048e-01,3.748754415603249290e-01,-7.390347129851014829e-01
3.202709700033451456e-01,8.149664236666691597e-01,3.736418031919706007e-01,7.473554900595903439e-01,1.892293516929538857e-02,-9.344007958355284860e-01
8.832927727696874287e-01,2.976560706976055237e-01,2.240027298727797003e-02,6.700788882754206421e-02,6.829176629955807654e-01,9.997069668819771326e-01
3.660122655980957984e-01,3.623024602227857272e-01,3.454849942780039984e-01,9.434342199428298326e-01,9.196984431389375325e-02,6.705277542544343383e-01
2.754129549695275569e-01,2.545419293326139365e-01,5.154310600758316152e-01,6.149304136299140744e-01,4.050757947836458039e-01,9.143283449389381090e-01
2.305912646196189020e-01,8.886868650823523952e-01,1.496306671162950797e-01,4.053692740987351883e-01,4.664976998679742914e-01,3.396160106105210463e-01
5.558492958272576168e-01,4.637417573025037765e-01,8.425089924194307800e-01,2.859122932773846062e-02,3.513812336920755230e-01,-7.993421479598872281e-01
9.868378409367934978e-01,5.059421728024033893e-01,4.230842003109513277e-02,2.070825532159106530e-01,9.435310292217760075e-01,-1.000000000000000000e+00
8.750853942702004895e-01,3.451641547651676523e-02,2.483981844247910020e-01,5.312659719986211337e-01,8.880081218844024793e-01,-9.999999999967906783e-01
5.027344536751083837e-01,9.876975586718218514e-01,9.793965554864966228e-01,9.896257651123544496e-01,4.170840297200330560e-01,-1.000000000000000000e+00
9.384857196164639870e-01,6.908728924499472068e-01,4.809406527897285288e-01,5.841940741791604719e-01,7.854247718431831560e-01,-1.000000000000000000e+00
3.470143916385020622e-01,9.612959961402723907e-01,5.015069945736495560e-01,2.902352947937574812e-01,2.638896805880926455e-01,-9.991856758805108818e-01
3.116669167796767281e-01,1.045590517762746002e-01,6.326927139534439526e-01,8.297443690396220095e-01,2.472996344437911609e-01,5.102895681680685858e-01
9.230217488918271984e-01,1.835942364834583784e-01,9.255677157410387157e-02,1.647225088599035270e-01,4.204156197775466008e-01,9.999999999134732143e-01
7.870734161294654641e-01,6.217971218133135775e-02,2.801421148270933914e-01,6.559852746993419803e-01,3.441704018328428649e-01,4.712237034792092771e-01
3.948852709511110198e-02,4.790201914412414164e-01,3.478216226087187390e-01,8.968298773005244362e-01,3.451269121337671719e-01,6.781843107176759311e-01
1.453183432979862355e-01,4.849280320096682195e-01,3.143113867509568227e-01,5.447317625294448851e-01,6.587018082843105748e-01,2.487039832932607109e-01
4.607759666805381626e-01,5.574413518996521599e-01,7.664996285964001954e-01,3.383211446500482555e-01,9.544606109670697447e-02,-6.208003381720136327e-01
0.000000000000000000e+00,0.000000000000000000e+00,0.000000000000000000e+00,0.000000000000000000e+00,0.000000000000000000e+00,1.000000000000000000e+00
3.504372324120929028e-01,2.009194431588152141e-01,9.129754472782896091e-01,3.102526330217759282e-02,8.227414995456735491e-01,-9.898269181023697794e-01
2.319968737130595482e-01,7.264542517979922787e-01,8.814029743441852416e-01,3.238022657210020139e-01,1.059930118479624900e-01,-9.194796027106322267e-01
2.277193116316547639e-01,4.812685894678044572e-04,7.867464292306823870e-01,9.388500683046253625e-01,2.045528598186701352e-01,1.122403181215423373e-01
3.174069011373652494e-01,4.071999270380898678e-02,1.857513596707980885e-01,4.883918173890144376e-01,9.598919461754812366e-01,9.969379794573884901e-01
9.594098585078816299e-01,4.912016870049124573e-01,2.499040866142866746e-02,3.377422858312997267e-01,4.724929970214608588e-01,-9.568640921694020474e-01
7.679916773575203026e-02,5.459012962984681749e-01,4.627574895648982611e-01,8.191124262540422363e-02,8.722929091115070310e-01,9.688646743867872502e-01
8.080705637950142961e-01,9.354057377524369610e-01,2.742070132685311273e-02,2.669134870152704841e-02,3.493831482221936707e-02,9.999999857655064162e-01
