# x1,x2,x3,x4,x5,y
2.218073323439898881e-01,7.564593391835219283e-01,9.696390587411065631e-01,6.264911811917220352e-02,3.488644122986354207e-02,9.603390529160014122e-01
4.198450001450866331e-01,4.843333539958172840e-01,2.583986091859202250e-01,8.755121814647470746e-01,3.079111703592400384e-01,-9.976607333483276108e-01
7.770037364821403836e-01,9.881372273881208756e-02,7.807281423175166379e-01,9.432887457972050083e-01,9.718383145969756720e-01,-1.000000000000000000e+00
8.024267068209777198e-01,5.181426794216563714e-01,5.715911035670614426e-01,3.700747721795136780e-01,6.622726854291551835e-01,-1.000000000000000000e+00
9.594512879728077648e-01,2.800371360688884703e-01,6.542330805510205849e-01,1.522080028965749898e-01,5.708388152339182176e-01,-9.999999999999780176e-01
6.452333794371684084e-01,7.447325646158369228e-01,3.818805122062997048e-01,2.433144649290849282e-01,7.883879017165372760e-01,-1.000000000000000000e+00
1.389691460896876340e-01,9.736310654582887025e-01,8.342011607561814479e-01,4.089486955020565362e-01,2.086582710747974245e-01,-9.999999999852052790e-01
6.080447477901881892e-02,3.762202040034237083e-01,4.626839824330691853e-01,3.574079968371823152e-02,5.248897057308653524e-01,1.000000000000000000e+00
5.447750583028073690e-01,3.468785791975471100e-01,7.257366985456572550e-01,6.798633303659588067e-01,8.963360346620126151e-01,-1.000000000000000000e+00
9.333463885769813784e-01,4.311958056774111703e-01,5.031151276022949315e-02,5.915094051049174517e-01,4.812465422032048967e-01,-9.999999486533831528e-01
6.930507155876536318e-01,2.474488653390781445e-01,3.260848061222479388e-01,8.257326848541829412e-01,7.032533906191403839e-01,-1.000000000000000000e+00
8.921853496995327815e-01,5.959191519569881912e-01,5.318778536509368715e-01,5.095723201059482177e-01,4.187787884293771579e-01,-1.000000000000000000e+00
7.366296724294983944e-01,6.797844058534168177e-01,9.182276587662878686e-01,7.301781755180103417e-01,1.978326483857117957e-01,-1.000000000000000000e+00
2.537474293506553624e-01,9.074363419717028645e-01,1.431496617799611348e-01,3.054096691443615730e-01,3.824902554509671537e-01,9.969259196515960486e-01
4.835149195068383365e-02,8.743868819574838191e-01,4.863421799824421687e-02,2.866690083755285556e-01,2.704221930076007308e-01,1.000000000000000000e+00
1.798666971966429717e-01,2.736161245878611717e-02,6.165587251545562308e-01,4.777370431471279488e-01,6.422721824547057423e-01,9.998445742360206889e-01
5.591222702285604251e-01,6.202412608655453186e-01,1.693285641321815027e-01,7.681825173522418559e-01,8.285820685807375741e-01,-1.000000000000000000e+00
4.751266529663467075e-01,1.504493048833777658e-01,4.383702483545062201e-01,1.491700338587656494e-01,7.173957662022228954e-02,1.000000000000000000e+00
3.772601325851606680e-01,8.054909059058922294e-01,2.393152992967530479e-01,9.809464963322046538e-01,9.175142605427758502e-01,-1.000000000000000000e+00
3.263954411708960279e-01,1.098842537300126626e-01,8.905072211063073118e-01,6.286069385136374699e-01,1.081921120702349498e-01,9.197673006026194642e-01
6.904034785664495688e-01,1.497743588760257483e-01,8.954034414866788305e-01,2.784512578882567535e-01,3.648437731944030316e-01,-9.996833908372159128e-01
5.766224297478772520e-01,1.615133294281741738e-01,5.591380939549931567e-02,1.988816263970462350e-01,2.590128701478441320e-01,1.000000000000000000e+00
2.393274638759124995e-01,2.958924007208908469e-01,5.023105722149391328e-01,8.213805692509941192e-01,4.752257142070875212e-02,9.999899596201662355e-01
2.223320993612242780e-01,9.077952523192213130e-01,1.151627773836353535e-02,7.499946593461777056e-01,4.332235651876368832e-01,-9.927396670956636360e-01
1.811964754823912616e-01,4.107776011990117992e-01,4.260261304807695937e-01,7.417283873258958549e-01,6.973873069673640623e-01,-9.999991738520332962e-01
3.330997537781526519e-01,7.813770441621868956e-01,5.520668721350324715e-01,4.373434323051114125e-01,1.275347698079850045e-01,-7.282023940314792387e-01
2.183793172094135593e-01,9.264843786473971887e-01,1.480004461062245091e-01,4.598291927111021471e-02,9.500901821149453363e-01,-9.620135110013845470e-01
5.270919041841739539e-01,2.100471799812028417e-01,9.696817498532668556e-02,3.670167256144075130e-01,7.460926118716277866e-01,9.998040576002245050e-01
9.096436235708464935e-01,3.027415333424758881e-01,1.657907115657364649e-01,4.648947576284139654e-02,5.287817266974417230e-01,9.997036347320449323e-01
9.725000134890428027e-01,2.804568451778152172e-01,3.260275590575313909e-01,8.971017065701692994e-01,1.235150788945396233e-01,-9.999999999997974953e-01
8.128133628912652398e-02,1.262943824433247764e-01,6.309086513448557421e-01,9.579567830859254673e-01,4.260478691013961927e-01,-6.565328096450175899e-01
1.928160482362964792e-02,7.507926580264638883e-01,8.873897735863466030e-02,4.097816384380895127e-01,8.569878270412311094e-01,5.143335851712875773e-01
9.282308271142682976e-01,1.892836836618137508e-01,1.821323045756017278e-01,2.561906700286301075e-01,7.467597044781685289e-01,-9.789350022702715259e-01
7.298096462359034975e-01,2.487207110027154222e-01,3.539664697499294022e-01,1.150409208899779157e-01,6.307342812431774304e-01,8.664132454643720394e-01
3.327427982874888168e-01,8.626086124672470712e-01,1.942637612753459961e-02,1.900798340701633782e-01,7.709700044611299541e-01,-1.235465368053754176e-01
1.608977695486782725e-02,7.528084310531406587e-01,9.095938437009146726e-01,7.796398678094474954e-01,2.039642894701906572e-01,-1.000000000000000000e+00
1.963355551548734423e-02,3.166917707790189995e-01,3.697856464191210391e-01,9.457611068753614125e-01,1.746347073652403104e-01,9.999999921990858631e-01
3.122572235724143663e-01,2.053589287345449210e-01,5.563812182764911185e-01,5.721016293190996915e-01,8.907998328308280866e-01,-9.999999996680019043e-01
6.590535277952549453e-01,5.758592080052700179e-01,6.175559629077204127e-01,2.627737898475653311e-01,3.994913981216217241e-02,1.544018267533573407e-01
5.540582165761659406e-01,2.770633084571514915e-01,9.040500277771331694e-01,6.858407041545009353e-01,1.465398737907653570e-01,-9.999999999897716263e-01
3.069907977767845630e-01,4.526718989375601021e-01,7.806814574141982543e-01,4.509972520446646205e-01,5.326054326537736916e-01,-9.999999986659826590e-01
9.997400299216889774e-01,8.588770156645424425e-01,2.437881931565457627e-01,3.158528547902473838e-01,9.871136353452171150e-03,-9.999908849353916773e-01
6.852090398903004642e-01,1.171838705373240419e-01,5.582195409385471985e-01,2.014374387612674067e-01,3.256623885468937218e-01,9.999977987632242549e-01
3.820577391682979801e-02,9.910248585875881533e-01,2.582044011074557943e-01,4.845120578052066751e-01,2.681273035967170482e-01,9.683134104199053738e-01
5.087215510959623987e-01,1.060872493844395859e-01,8.111877871274699725e-01,3.219517661098869055e-01,3.217552001496160052e-01,9.001370877947600935e-01
5.324486683277279697e-01,3.621250152867288019e-01,9.774196818758640326e-01,2.594233415431007259e-02,3.582051099660698013e-01,-8.710930990235965510e-01
8.874852548283486131e-01,2.263252269256785798e-01,1.869785217655322435e-02,6.363495936318606938e-02,8.276990686129316321e-01,9.846413117268049131e-01
7.264304809022457121e-01,1.373270429044407270e-01,2.947553007825616800e-01,5.095767734710134889e-01,2.531390163648136182e-01,9.999688950077116889e-01
7.779771017465615668e-02,8.825822977264048685e-02,7.063906116671208046e-01,7.650062338858034661e-01,4.300236058716537801e-01,9.076858314043207976e-01
5.143833474590764343e-01,4.649812244382872661e-02,1.448436159144316226e-01,7.998040930110855706e-01,1.010763518453553639e-01,1.000000000000000000e+00
8.343358679172450110e-01,6.165212457068578455e-01,3.312936964612931412e-01,1.221328075358291132e-01,9.410382989207022320e-01,-1.000000000000000000e+00
5.571343656155094415e-01,1.000000000000000000e+00,2.788864898488950250e-01,2.635425851322622526e-01,1.269131947453269182e-01,-6.898983798647340127e-01
8.895143864777395049e-01,8.157180680712856902e-02,4.165035710704891869e-01,4.735564001665673040e-01,4.184315450345658660e-01,-9.446557680783843614e-01
8.257860389100291076e-01,8.646018087145436459e-02,6.718558698337788737e-01,5.806118215147773043e-01,7.563652314339219807e-01,-1.000000000000000000e+00
4.121315563587840125e-01,7.699306298248715930e-01,4.192049944197467348e-01,2.178325033199325356e-01,3.320541452663373638e-01,2.076510312246944157e-01
3.567417374745844305e-01,2.605593938629320767e-03,3.473791387126790586e-01,7.089506400949110443e-01,6.283522953501817776e-01,9.625865313602577356e-01
4.853410679154101515e-01,9.372258657677472460e-01,9.148781621106717443e-01,5.701655295820923230e-01,8.255107000857023758e-01,-1.000000000000000000e+00
1.313791345553473600e-01,9.166274663953786206e-01,7.379241715128657120e-01,9.278349889185640020e-02,1.180915171008916839e-02,9.999972182007599297e-01
2.173566928306810975e-02,4.454006707321381264e-01,1.494579458269631178e-01,6.325835619945585631e-01,9.648948596385849008e-01,-5.788958815119780166e-01
4.524874418342259008e-01,1.804385050357783515e-01,6.475420998216137036e-01,3.584273665977403822e-01,7.971864145997650253e-01,-9.999951720161305291e-01
7.107102197236360164e-01,6.859264703520405737e-01,2.241680421025043501e-01,9.308467232763281696e-02,7.857317104288631671e-02,9.999999997853195044e-01
8.522343035978002801e-02,8.640056170303240801e-01,3.711433186531808981e-01,1.854555720239895178e-01,7.688598546320668525e-01,-9.332240884334399578e-01
4.876258475341859189e-01,2.193952594478616736e-01,7.937107330165035224e-01,5.790992937852376121e-01,3.290257696743328908e-01,-9.999604520087266302e-01
5.412731553762695214e-01,6.388508979726582604e-01,3.306012747592502188e-01,3.607522023297070612e-01,4.152500205776076814e-01,-9.584001152897057008e-01
6.426661977878391774e-01,4.695905978912154888e-01,7.110330299743575777e-01,1.831974751538980872e-01,1.186455990181997516e-01,5.190972802523157181e-01
6.075694275550236334e-01,4.108921114729490592e-02,1.527942759472766809e-01,9.313709089200870039e-01,4.233398845729223758e-01,1.414663797468878048e-01
2.766114963291129714e-01,3.849291599351836735e-01,8.364908169502909274e-01,8.002479779708577823e-01,5.517480025011754080e-02,-9.984750356814663386e-01
1.315237330425053919e-01,3.501753466348184740e-01,5.298955307229736844e-01,6.494621189780271919e-01,4.039834184778385295e-01,9.154110946984628239e-01
7.564462896040605733e-01,2.063591591680502893e-02,5.197576418518321528e-01,2.573260016168024689e-01,5.555502927044355665e-01,6.661971792192802333e-01
8.028022987577679292e-02,1.850535268416985540e-02,2.161627911849267614e-01,8.593882833738565319e-01,7.831935491788848402e-01,9.996135428429318015e-01
7.091791143420731469e-01,3.381180794526184585e-01,1.786587922804969697e-01,2.991052854998628718e-01,7.453845033423164290e-01,-9.217937277325152223e-01
6.615677285377560279e-01,7.990415634567527015e-01,6.714978760168103245e-01,2.178911130771503391e-02,4.787050362239310131e-01,-9.999999999999973355e-01
8.887005368488561929e-01,1.537545962081572452e-02,1.970978057121492433e-01,1.986552637294050905e-01,9.400310819343326019e-01,-7.858130826380371747e-01
4.708820954009897419e-01,3.704590942746814608e-02,3.796605372595359684e-01,7.841475256518930514e-01,7.661189825345173787e-01,-9.999958198763966299e-01
4.235902031317008154e-01,6.987155261574174991e-01,1.561824283651632450e-01,1.581871840436919335e-02,6.840764319182162101e-01,9.986030212265855077e-01
8.595745390250018048e-01,3.476795079506717068e-02,2.051627212905966224e-01,8.874098845104018141e-01,9.517743733057389133e-02,8.487900100884278043e-01
7.931489037260637254e-01,6.303981676356071318e-02,9.646077382399309563e-01,1.986806296614926914e-01,8.718917033242827852e-01,-1.000000000000000000e+00
3.135015519194591094e-01,5.998711173865801660e-01,9.188859783087672817e-01,1.606340150210960327e-01,7.783358344313452415e-01,-1.000000000000000000e+00
4.167426348783205281e-01,5.797148253455284422e-02,4.150461572847913283e-01,6.217396846095848417e-01,7.867915490971270076e-01,-9.745003172673648573e-01
3.647986909116050502e-01,4.049099157407058669e-02,8.888758151603783908e-01,1.036008863998543195e-01,6.582761581301876941e-01,9.395303598573045978e-01
2.721683879090026070e-01,5.536091656806941819e-01,4.350795200677787800e-01,4.721939688457667955e-02,8.488012660886751215e-01,1.319403583742941866e-01
8.890045144463235016e-02,4.419080442169617262e-01,7.712242879611282964e-01,4.640234828975966508e-01,4.984896165180146554e-01,-9.032996840716347453e-01
7.122006458296427089e-01,7.037015710624957565e-01,3.678487946199049397e-02,9.332239748215150899e-01,4.892320678659884403e-01,-1.000000000000000000e+00
1.681688247025598937e-01,9.820608864913114022e-01,5.893972963932081477e-01,2.878734402975602347e-01,1.978749938459468671e-01,-6.809057727221108358e-01
3.598968049227947441e-01,4.729693668397484951e-01,3.706306050727142809e-01,7.370972097739532103e-01,1.142195783661714426e-01,9.423315866163455290e-01
2.125469882352666595e-01,2.106251848801257154e-01,8.803015976167810619e-01,1.456409734541773970e-01,9.414997412656289644e-01,-9.998556075349825933e-01
7.238297536406754773e-01,9.585970348367768568e-02,4.452412437317407323e-01,3.933575237665472013e-01,5.008461043773002608e-01,1.017149160977173228e-01
7.993545057454437552e-01,1.636922818562857318e-01,4.651881877185313208e-01,9.313879416908295295e-02,8.133139066783752202e-01,-9.956474342475859496e-01
6.584453521490053474e-01,7.061993597104412324e-01,2.112573678085718221e-01,2.779134636256460622e-01,1.469745608556417837e-01,9.951225591081829247e-01
3.139860929472245710e-01,9.799100436286471982e-01,9.794137446774562328e-01,5.820511534512218949e-02,2.287837706866391041e-01,-9.999999999761315372e-01
3.878592672569056155e-01,8.426045480696275902e-01,1.057256454744889551e-01,1.378450517126669495e-01,7.362836881126746391e-01,-5.411798853199275561e-01
2.274961710244427157e-02,8.269299701693173521e-01,5.119834741266275913e-01,9.984268527134416982e-02,4.446114060420779945e-01,9.999902059888778894e-01
3.603084540584657741e-02,4.713589760834765441e-01,2.478108968857567207e-01,3.549985100934119342e-01,9.050523224997549798e-01,9.898183916965956897e-01
5.517976110008638857e-01,4.353981829434176998e-01,4.154948039385245040e-01,1.747649438593156801e-01,6.930750198891247882e-01,-9.220368746159440798e-01
4.718542231759466077e-01,5.677923109662734724e-01,2.197573850087508954e-02,9.309911052423244238e-01,2.249894999096005422e-04,9.968218910369130992e-01
3.401994645617184010e-01,7.834153219116483102e-01,1.096820894808251678e-01,3.954425598351961613e-01,4.903903843019770670e-01,5.801762367829605971e-01
1.100725422010611632e-01,9.754634174094910515e-01,3.021575542136041292e-01,3.451352971604330633e-01,5.850691245304282528e-01,-9.897263372507890677e-01
7.822195597010804802e-01,6.219397996226605496e-01,1.540616244321406370e-01,8.892300708277621757e-01,5.457993107222882528e-02,-9.999999873939898754e-01
3.578818048007116892e-01,3.858093580239383424e-01,5.438541027430454644e-02,6.019907141175671050e-01,7.826315345387734324e-01,-2.144354128623922051e-01
3.451528208086236948e-01,1.742072921991410783e-01,1.102742900582690672e-02,9.629917551942109855e-01,7.812724829536475957e-01,-9.331331808850631404e-01
8.750775833674380166e-01,4.193227594664082625e-02,7.366046341887051707e-02,8.167324843316534633e-01,4.086024548347275687e-01,-5.975781347642841190e-01
6.535371917868905145e-01,9.285328068921785971e-02,8.402432988875114805e-01,1.376800924088519840e-01,4.719431058156330905e-01,-3.844479010922646767e-01
2.685788346089152401e-01,1.371818938206582073e-01,4.761862096155798918e-01,6.584866204145001234e-02,9.106190968078777814e-01,9.999998315953839700e-01
1.577863676093665957e-02,4.157956869054921789e-01,4.344653487992987395e-02,6.576720402547604483e-01,7.156987938085751511e-01,9.999999338423246620e-01
7.881936003937271840e-02,3.832972010978231148e-01,3.268367023687840933e-01,7.644883230730928902e-01,6.124404922001334128e-01,1.062343762396844582e-02
6.366555823935590164e-01,4.151368921452423533e-01,7.508147496674856258e-01,1.298478859343130398e-01,2.569896447081011503e-01,-3.009157845284045063e-01
1.176813764341854557e-01,2.233315065336188565e-01,1.061265397029229063e-02,9.755708116811143693e-01,6.626883516525865492e-01,9.973009967190913372e-01
8.236078950954877076e-01,2.116752197254447299e-01,8.325363882458306497e-01,2.452767198868794907e-01,9.935484616386586199e-02,-5.628336038765836546e-01
2.596712646993422080e-01,4.657225059339941131e-01,1.699287681654536586e-01,7.426116892284255755e-01,4.203564763154856165e-01,9.341143824892248482e-01
8.280841949396525736e-01,8.200405041427221153e-01,9.223438425228946969e-02,2.086796005541929344e-01,4.078064902303900618e-01,-9.987509514937968902e-01
8.878278303178469555e-01,7.567170250145874855e-01,4.449604238904539266e-02,2.337568523092088679e-01,9.532922986059882975e-02,9.882912309037610310e-01
8.979893400501993694e-01,4.011802952486087093e-01,3.740713533669559054e-01,4.652753039995891626e-01,9.526144604806059679e-02,-7.452604150015993412e-01
9.781395211243679721e-01,5.296547002802499682e-01,3.355041562832060120e-01,1.016118339644641461e-01,2.453208255252213588e-01,-3.107702905671761995e-01
9.160139673057314802e-01,4.874466949603332711e-01,3.283151831354282346e-01,2.495882108994428375e-02,3.340601171983509365e-01,8.021107731286392095e-01
9.705330267332594740e-01,3.822722624276962966e-01,1.165790176344278228e-01,2.882224373447327959e-01,1.850995142672467730e-01,9.998557319871175242e-01
1.094310241134756473e-01,7.256100351756426814e-02,6.902582996150707917e-01,2.947601762248872603e-01,8.937809600159769552e-01,9.276265534827852210e-01
5.564087114140600088e-01,8.059673903139777940e-01,2.398276884776950890e-01,2.475939894940653863e-01,3.274284717085693130e-01,-1.422209815756896312e-01
9.327714836819710476e-01,1.655089935886006891e-01,5.881838903769651683e-01,5.117662963800322096e-02,4.435201404089001431e-01,-1.943017667969925144e-01
2.812227730759719879e-02,9.360612998552466646e-01,4.570858720330933656e-01,4.450605039033119215e-01,3.697227518590993633e-01,-7.610120269277824701e-01
7.715373185260805400e-01,6.221409223906029795e-03,6.455490658684583938e-01,2.587824397392846643e-01,6.119786809516811754e-01,-9.693885936985792151e-01
2.548244470539469675e-01,9.074944979866130801e-01,2.939506332392674559e-01,9.097905058595268102e-01,4.094671966752566616e-01,-1.000000000000000000e+00
7.398215733232830216e-01,3.017615316088453903e-01,9.454767264362358148e-01,5.325316893739868718e-01,7.177555586047225100e-01,-1.000000000000000000e+00
1.153764969985781041e-01,9.631490102466147007e-01,6.562363476218509017e-01,8.125359136621448375e-01,9.709493472642807821e-02,-9.999999999999994449e-01
2.719258683445375819e-03,3.642762303695806225e-01,6.135537285261999374e-01,4.460133493661554843e-02,9.626839191194160872e-01,9.975937097511171636e-01
9.962218405860460979e-02,1.492474168205915330e-01,5.540122418284559175e-02,6.282020170645057355e-01,3.248750662796219824e-01,1.000000000000000000e+00
3.117872323051421035e-01,3.389184036493137486e-01,7.537252824141925656e-01,1.994863663567755796e-02,2.872771918709484673e-01,9.999999999999884537e-01
5.016377808118813175e-02,6.083950322204241257e-01,5.375002150967768122e-01,2.867051447351883220e-01,9.488412989324568336e-01,-9.999930808507437874e-01
9.968507564598527715e-01,7.698389892204333673e-01,5.903002238899657250e-01,3.184802098055602437e-01,3.057995400518049266e-03,-1.000000000000000000e+00
6.424363992126982392e-01,8.760868392613309075e-01,4.786257157505044435e-01,3.992195307204917665e-01,3.378678346536248545e-01,-1.000000000000000000e+00
3.321588317306392590e-01,5.559372935131707827e-01,3.651928988184789393e-01,1.108393300068391263e-01,7.875009172735772944e-01,2.014260097277824624e-01
1.720541442932929099e-01,1.787023146653072547e-01,7.493197939846915068e-01,3.329454275438143984e-01,8.921420175681716858e-01,-9.928501680047053801e-01
2.861943447727390843e-01,2.799271184605146151e-02,6.064895683178833652e-01,6.557838523379431184e-01,6.887720535166520497e-01,-9.056172118203766885e-01
2.837907773913060927e-01,3.090329674605470367e-01,5.685533693812440115e-01,2.374321751256878166e-01,6.864796373355147585e-01,8.327290465413772491e-01
6.124360908401982329e-01,4.650297408275343436e-01,4.759133677389256190e-01,5.035348569735812463e-01,9.486752098676096701e-01,-1.000000000000000000e+00
1.183398814921021308e-01,3.826940833850926982e-01,5.574728201288214890e-01,5.456754169088109396e-01,5.877905716778674128e-01,-3.324106843546961176e-01
1.741281807576591789e-01,3.342690038004102471e-01,1.734558278151540067e-01,6.347303182741305116e-01,8.179855239271464074e-01,4.140524716754594436e-01
9.965585857212527765e-02,8.896313667829818250e-01,7.668992245436250244e-01,1.424274650041754409e-01,2.883528773872152118e-01,-2.695331294620364471e-01
7.848961214425410615e-01,1.264265294985882082e-01,7.843405202837951118e-02,2.426889498124072952e-01,8.563498258375120686e-01,8.136712562757342226e-01
7.800716375372376277e-01,5.054914427754041845e-02,7.062802295453297630e-01,2.753344406899867480e-01,1.376554971379015391e-01,9.997656714987721571e-01
1.007912055674758112e-01,9.893051628910314310e-01,4.932142407076460788e-01,5.686025697361806186e-01,6.758643782229230013e-01,-1.000000000000000000e+00
5.614882755754007082e-01,6.825025974406739859e-01,8.468231523742802969e-01,2.760377627162600711e-01,3.991306124239612368e-02,-9.999539067486329369e-01
2.376111447422840084e-01,7.813483776589589258e-01,3.932795674578439260e-01,6.308813097685787852e-02,6.774832374028776361e-01,1.859058675381382031e-01
8.846263169053518727e-01,5.819657288183648358e-01,1.345130933378618499e-01,5.967865407406584832e-02,5.858383513578199198e-01,-8.251836616081265063e-01
1.071136426387237217e-01,3.322932823901434407e-01,9.841887020670048170e-01,6.187844243394150512e-01,1.036969263997765955e-01,2.732249332233112060e-01
5.631179436270113969e-01,7.746483663506953388e-01,2.875054414740479958e-01,3.725912443366806714e-01,1.647925782984810752e-02,9.902629760380126100e-01
1.768070469138983691e-01,8.081086096224676663e-01,3.325562863535430624e-01,9.827301033200750435e-01,5.191833328258921992e-02,-9.983518820335059996e-01
8.459675388226139958e-02,7.262107967710829115e-01,2.127607973498856220e-01,5.668316725415093460e-01,6.585365608869262477e-01,-8.373357133798986496e-01
3.118140223190540294e-01,3.775026446934729440e-01,6.315661149058755530e-01,4.758851558352781841e-01,4.304115254632318588e-01,-6.955494980581314879e-01
5.880968243132590756e-02,6.202360899623896584e-01,6.220307237683529999e-01,1.511628278018972427e-01,6.562011078126519514e-01,6.769119810697290518e-01
