METHOD,N,M_TRAIN,M_TEST,MINUTES
gpSVEC,1000,5,5,0.0161
gpSVEC,1000,10,10,0.00718333333333333
gpSVEC,1000,25,25,0.00898333333333334
gpSVEC,1000,50,50,0.01795
gpSVEC,1000,100,100,0.0675666666666667
dgpVEC,1000,5,5,3.16351666666667
dgpVEC,1000,10,10,4.19053333333333
dgpVEC,1000,25,25,8.91326666666667
dgpVEC,1000,50,50,25.7958333333333
dgpVEC,1000,100,100,92.0906666666667
