"N","SENS"
5,0.764705882352941
6,0.764705882352941
7,0.764705882352941
8,0.852941176470588
9,0.823529411764706
10,0.852941176470588
11,0.823529411764706
12,0.882352941176471
13,0.882352941176471
14,0.882352941176471
15,1
16,1
17,1
18,1
19,1
20,1
21,1
22,1
23,1
24,1
25,1
26,1
27,1
28,1
29,1
30,1
