"N","SENS"
5,0
6,0
7,0
8,0
9,0.0294117647058824
10,0.794117647058823
11,0.852941176470588
12,0.911764705882353
13,0.970588235294118
14,0.941176470588235
15,0.911764705882353
16,1
17,1
18,1
19,1
20,1
21,1
22,0.970588235294118
23,0.970588235294118
24,0.970588235294118
25,1
26,1
27,1
28,1
29,1
30,1
