"N","SENS"
5,0
6,0
7,0
8,0
9,0
10,0.0294117647058824
11,0
12,0.117647058823529
13,0.117647058823529
14,0.382352941176471
15,1
16,1
17,1
18,1
19,0.970588235294118
20,0.970588235294118
21,0.970588235294118
22,0.970588235294118
23,0.970588235294118
24,0.970588235294118
25,0.970588235294118
26,0.970588235294118
27,0.970588235294118
28,1
29,0.970588235294118
30,1
