"N","SENS"
5,0
6,0
7,0
8,0.705882352941177
9,0.852941176470588
10,0.882352941176471
11,0.882352941176471
12,0.852941176470588
13,0.882352941176471
14,1
15,0.970588235294118
16,1
17,1
18,1
19,1
20,1
21,1
22,1
23,1
24,1
25,1
26,1
27,1
28,1
29,0.970588235294118
30,1
