"N","SENS"
5,0
6,0
7,0
8,0.882352941176471
9,0.882352941176471
10,0.852941176470588
11,0.852941176470588
12,0.970588235294118
13,0.970588235294118
14,0.970588235294118
15,1
16,1
17,1
18,1
19,1
20,1
21,1
22,1
23,1
24,1
25,1
26,1
27,1
28,1
29,1
30,1
