"N","SENS"
5,0.558823529411765
6,0.794117647058823
7,0.764705882352941
8,0.794117647058823
9,0.764705882352941
10,0.647058823529412
11,0.882352941176471
12,0.852941176470588
13,0.882352941176471
14,0.882352941176471
15,0.941176470588235
16,1
17,1
18,1
19,1
20,1
21,1
22,1
23,1
24,1
25,1
26,1
27,1
28,1
29,1
30,1
