"N","SENS"
5,0
6,0
7,0
8,0
9,0
10,0
11,0.117647058823529
12,0.117647058823529
13,0.117647058823529
14,0.323529411764706
15,0.764705882352941
16,1
17,1
18,1
19,1
20,1
21,1
22,1
23,1
24,1
25,1
26,1
27,1
28,1
29,1
30,1
