N,SENS
5,0.0
6,0.0
7,0.0
8,0.7941176470588235
9,0.7941176470588235
10,0.7941176470588235
11,0.9117647058823528
12,0.9411764705882352
13,0.9117647058823528
14,0.9117647058823528
15,0.9117647058823528
16,0.9117647058823528
17,0.9117647058823528
18,0.9117647058823528
19,0.9117647058823528
20,0.9117647058823528
21,0.9117647058823528
22,1.0
23,0.9705882352941176
24,0.9411764705882352
25,1.0
26,1.0
27,1.0
28,1.0
29,1.0
30,1.0
