N,SENS
5,0.0
6,0.8823529411764706
7,0.7941176470588235
8,0.7941176470588235
9,0.8823529411764706
10,0.8823529411764706
11,0.8823529411764706
12,0.8823529411764706
13,0.8823529411764706
14,0.8823529411764706
15,0.8823529411764706
16,0.8823529411764706
17,0.8823529411764706
18,0.8823529411764706
19,0.8823529411764706
20,0.8823529411764706
21,0.8823529411764706
22,0.8823529411764706
23,0.8823529411764706
24,0.8823529411764706
25,0.8823529411764706
26,0.8823529411764706
27,0.8823529411764706
28,0.8823529411764706
29,0.8823529411764706
30,0.8823529411764706
