N,SENS
5,0.0
6,0.8823529411764706
7,0.8823529411764706
8,0.8823529411764706
9,1.0
10,1.0
11,1.0
12,1.0
13,1.0
14,1.0
15,1.0
16,1.0
17,1.0
18,1.0
19,1.0
20,1.0
21,1.0
22,1.0
23,1.0
24,1.0
25,1.0
26,0.9705882352941176
27,0.9705882352941176
28,0.9705882352941176
29,0.9705882352941176
30,0.9705882352941176
