"Umag","Ts","Ta","theta","phi","alphan","sigmat","y"
6281.23297456652,135.770819049329,1526.82004206907,0.0268346943452954,0.0365641543412581,0.0512028225581162,0.817830976708792,4.41381847805261
7077.52629588358,201.725823919289,560.49496182194,0.000687937105726451,0.00650711418958382,0.457671371742617,0.390047664453741,3.6543120838118
8884.14382766001,339.622309042141,1598.71990757482,0.0355575222955551,-0.0577787085366435,0.243336055150721,0.12578284267569,2.92845999210958
5597.31092520989,300.206381292082,1851.13645918202,0.0165289022485726,0.0405014663826674,0.760507711647078,0.557149662123993,3.41470182747852
7391.90777827054,197.133908838965,1348.9377882937,0.0300518372251187,-0.020348811457213,0.283487408088986,0.305423360101413,3.59810714580395
7964.3784345407,441.085488393903,1265.69415677572,0.00562897928897291,-0.0234329302615486,0.508355179498903,0.981214714962989,4.07395388085657
7447.03232499771,141.986740879714,1908.24027946033,0.0321307583800983,-0.00344572238819674,0.794420097856782,0.831922976963688,3.89694504976215
6717.39602488466,264.900533611886,1819.29973307811,0.0488690564790275,0.0513325739823282,0.491582197744865,0.48866808582563,3.29089061189038
8708.24582423083,456.711798732169,274.968040634412,0.00213916138638742,0.00327261722534895,0.668759189890698,0.297084243837744,3.20477877996156
6159.09852843732,131.28111997433,1064.29901979398,0.0509976666607428,-0.00883812619708478,0.384284753808752,0.0202839293284342,3.10874433769889
9490.13330802321,164.834535901435,1369.99019729299,0.0503443495159037,-0.0303450419618748,0.277309328839183,0.70472487921128,3.63460766324774
8814.50042747892,256.661660489626,1831.1677026609,0.0553753988369834,-0.0366526299194433,0.160456392089836,0.161776617520954,3.18103682386199
5662.31728271581,295.777640934102,206.169382537249,0.0525107703424059,-0.0268497055976652,0.542372648536693,0.755161239143927,3.19885200445857
6572.26167310961,489.393058937974,1727.45637415349,0.0180206632567104,0.0215651965750381,0.95745110136224,0.0927325524180196,2.33319201618871
8647.08424406126,413.391789872199,649.046369389165,0.0242031742649619,-0.0107619441552088,0.633535857975949,0.903871235877741,3.57917935160884
5634.27788640372,399.83987442404,1664.90728768706,0.0207278025726322,0.0395103881710209,0.319168595271185,0.492427329928614,3.79762861026595
6088.68363355286,181.395784143358,929.97710031271,0.0430457834478468,-0.0398163620176725,0.088696572650224,0.600358651343267,3.8023501208392
9428.8009761367,309.467892838642,1609.50253595645,0.0568366982745007,0.0296396745194681,0.379100609268062,0.368456026096828,3.18698047391779
8851.14178560674,477.60337371286,858.382483859546,0.0024458156676963,0.00464756982084363,0.599562857355922,0.145055310798343,3.280188686599
7376.9746545516,184.538054130971,1644.29726605723,0.0404939775732346,0.0125688721161336,0.844349941590335,0.380392489600927,2.94367724351548
8765.77324060723,242.862268800847,1250.33000098309,0.0401679340492934,0.0440917278086767,0.650507859203499,0.199803647808731,2.67958249054599
7828.71289810166,244.144784008153,456.692669577897,0.0466322494715452,-0.00450252698259428,0.262349157915451,0.720210118428804,3.73473505765114
6190.58482510969,474.767206477933,1388.62404904002,0.0468376716777217,0.0352772473102436,0.61490028424887,0.716310487475712,3.57163113366561
9328.93617249094,484.307063169777,1323.58602944994,0.00478423601151444,0.0225765669400804,0.362237677229568,0.344897423058283,3.48943588024342
7660.45360771939,305.034409187734,1990.18277789373,0.0130445860129315,0.00958879201412201,0.113322049460839,0.259447914054617,4.03562325177784
7498.47413679585,451.597109998576,1468.8688850319,0.0232709612867329,-0.0146362571435049,0.256777676236816,0.285812775786035,3.73179881315081
8553.22672349401,312.005258626305,1425.18443535455,0.0336515711504035,0.0420157316601835,0.303357456242666,0.171192643165123,3.09601397056701
7763.74381781556,392.149250702932,884.172292253468,0.0288969576755539,-0.0182017212141305,0.557668427543249,0.102727803164162,3.03556074184343
8147.52653195523,464.903047339059,1677.11546661612,0.0144359401445836,-0.0478222129555419,0.730729878859129,0.0404288589186035,2.43797066250929
8040.89845089242,283.15692595765,1706.50556026632,0.0540399456284009,-0.0395784507041797,0.154421584233642,0.571576020831708,3.67503388396396
6408.75440463424,342.815767330118,1097.93407348776,0.0085951566091273,-0.0540349421200342,0.999848202662542,0.450391847176943,2.19807972687122
8135.74285152368,351.289596605115,231.036404470913,0.032573352082679,-0.0125976616744883,0.294283470013179,0.696100160160568,3.57955503591723
9297.04452696256,120.960493030958,1446.8938730103,0.0418410021878779,-0.00509814495239407,0.409305919208564,0.614627302747686,3.74854823613069
5974.4276470691,369.248145678081,545.744702241849,0.0533524964803364,-0.029936715738941,0.914111554310657,0.244563412151765,2.32779343293322
6316.63440990262,438.681413806975,447.624273440801,0.0551469907886814,0.0201839425030164,0.480936498525552,0.531779060813133,3.23783503789757
5765.68858320825,367.497131975368,1200.6616403074,0.00615745931533165,0.0454605027168989,0.171876893462613,0.794888669822831,4.07491456303836
6220.3928194847,333.441736172885,1413.95891043637,0.016875437532831,0.0595492374571972,0.333024313317146,0.462396372281946,3.28391534106318
8314.34519054368,127.571641650051,811.831290771253,0.0250394527184777,-0.0372086542940699,0.705397893621121,0.00433801761828363,2.53930545210107
8538.58694696799,320.593278572895,345.196875004098,0.0594145508928224,-0.0136650921097957,0.786966087480541,0.0880114188720472,2.4730304814147
7585.50921135582,144.639139290899,1189.79900467349,0.021839187417319,0.047025494179409,0.644777282411233,0.68544234022731,3.20214639609711
9113.12631922774,255.999722374603,1631.50007304782,0.0150802407049108,-0.0438737519186921,0.926207939398009,0.992029124121182,3.05573442063063
6785.36679090932,287.107335992157,481.447097276337,0.00136928177797236,0.0242295113473199,0.0426553671993315,0.875308087929152,4.12962127431132
8447.3944361601,173.533133574761,1765.18978397036,0.00907101394836791,0.00724692006641998,0.895045050329063,0.805784825552255,3.55389681824462
7333.57215631753,102.617779901251,433.001510118134,0.0279069945777766,-0.00709809472896158,0.909947705094237,0.274014441198669,2.55488135202482
9095.82585186698,163.507433648221,619.336726363283,0.0408795551458374,0.0459190930891782,0.680057275427971,0.928196018214803,3.08347784805876
7706.98646715842,159.372322208248,1121.00081900135,0.0442584116610233,0.0162227257048711,0.802726853033528,0.213432031357661,2.6774672348468
8208.20301360451,290.366141204722,1576.44882267714,0.0380018259633332,0.0575614049144089,0.0264584188372828,0.671963011692278,3.65754221049089
7114.28721540608,406.052072328515,665.893941329326,0.0174916005391628,0.00507655391693115,0.10162988578435,0.786143468590453,4.36183722172679
7240.0654577557,228.752475552261,1953.33886734676,0.0375494328281376,-0.0500292851219885,0.834809656401631,0.84939394792309,3.34568365665047
7861.84162192978,178.139446918853,1377.96789408056,0.0239438192817383,0.0142572508580983,0.4116324111633,0.767521907656919,4.06128042393008
6436.11948808655,482.227810773998,687.443047074601,0.0312699411554262,-0.0216897689265199,0.448788442406803,0.641632076269016,3.64736109244193
6521.2625560537,495.719168673269,871.86288788775,0.0258964767785277,-0.0480603504985571,0.774623570486437,0.66220770887332,3.0043071443369
5820.08076930419,222.476770413108,585.245106598362,0.0437400195663795,0.0258070583813824,0.237264870810322,0.0502748661488295,3.13065583513152
7515.17652852461,297.546978648752,908.080773055088,0.00501865911078639,-0.0172334928363562,0.320329143274575,0.0669619258842431,3.39177025827045
7012.62256698683,430.029691413976,760.026667266153,0.0521437939806841,0.0340960067437962,0.124737557878252,0.157137141800486,3.18480476421642
6949.67484842055,277.198562510312,788.680618786719,0.0214630049688276,-0.0431833915913478,0.605513139534742,0.886524611904752,3.4326895534425
6497.2664283216,218.761566820554,942.567808502819,0.0386466230220627,0.0481474693357944,0.0913196655572392,0.476401180082466,3.52530287929817
9193.85693728924,497.69102641847,1944.90935984766,0.0446303335385397,-0.0285256978427991,0.756902786858845,0.580098579174373,3.11483643966006
5567.44523577392,195.166698384099,1019.13488279702,0.0187848457493819,0.0524846547327004,0.88304715243401,0.507747087017633,2.70326031734032
9384.48454551399,455.190974799916,1486.83802101202,0.0346997509048786,-0.000289892214071004,0.869021465608384,0.772784400130622,3.29647759171045
8917.82771399245,189.088062942959,1051.93852986163,0.00771816039229743,0.0325318295440637,0.354022568997461,0.864060750936624,3.7555165422421
6877.45917019434,212.708000385202,1914.78314360185,0.0453957300080918,0.00217926660580561,0.534211843446828,0.181600643042475,3.29551751515103
7791.54440509155,111.208516033366,1102.95642227307,0.0562738756410778,-0.0161709420360625,0.6932003500266,0.562751770878676,3.16185002925728
6132.0759215299,236.41609772481,1781.0862007984,0.0534475577241741,-0.00153892311947421,0.588646178266499,0.119785582080949,3.11688609818066
9229.96504830196,384.099442761391,492.01360817533,0.00787321529975161,0.054462287309859,0.820843304744922,0.202825818997808,2.26591179785366
5522.66329835169,273.31416920945,540.982544289436,0.0224263821083587,-0.0408560212651268,0.142732528676279,0.976873301560991,4.06896360898091
7545.47967217863,355.240843086503,1167.72688445635,0.0368654429003131,0.0557480108334683,0.0768045508884825,0.320743979089893,3.2585900263366
6645.86516300216,151.159656446427,1536.01969712088,0.0360245663942769,0.0532615780360065,0.0634409215394408,0.624463686922099,3.79270243295386
5715.4733267799,207.673271661624,743.132315781899,0.00368992233742028,0.0151358390746638,0.560172433319967,0.43066110484302,3.56069711248957
7211.15356165916,379.742624508217,815.729674512055,0.0591860058941413,0.026797655490227,0.429554215909448,0.968171891570091,3.69460340008058
8689.61104572751,232.890823907219,1028.82304489706,0.0254199159475509,-0.0459103283699602,0.729335062499158,0.416732099498622,2.76462992943379
8488.05428429507,435.390501631424,1310.71081978967,0.0137152846557554,-0.0510652266106568,0.966766349920072,0.311278247826267,2.1541619304773
5889.44686140865,136.268980593421,673.054401254281,0.0122469706102274,0.0191321099965833,0.0197734253318049,0.0703886658512056,3.63646800629177
6763.50911108777,344.120046708733,372.175061750691,0.0270589363384992,0.011556348946318,0.208185018345248,0.953500416630413,4.04668861698639
7145.35934699699,420.323773513548,1880.30797965731,0.0479977630707901,-0.0245604374270886,0.473358973804861,0.513142346434761,3.61425088544261
8595.30488241464,248.074185631238,1784.65770410374,0.0161271079764236,-0.0535175231714733,0.854693810741883,0.634023365101311,2.8280407512857
7928.08360409923,117.596657861024,731.035249808803,0.0114221842504106,0.0279575708817691,0.199628419817891,0.739350969046354,3.8217535931545
5818.44396709464,383.170381456614,717.585989471059,3.95799780730158e-05,-0.0598373942649923,0.931235993755981,0.747625438608229,2.67657877383976
8376.13862863742,261.610636360943,1229.28613414057,0.0482247391314246,-0.0521925495872274,0.519135026789736,0.890766451810487,3.43778435398172
5984.38982095569,171.017068889923,241.482777962461,0.0352342857938725,-0.0261212039653212,0.673934588669799,0.375078793969005,2.88604563019441
9017.59667461738,416.231500682421,1285.48578268196,0.0331445544264279,-0.0451377558778971,0.137629833556712,0.548646469986998,3.55505777533665
6927.16444860213,326.707050821744,976.970945349429,0.00348172045759857,-0.0339456078822725,0.529287030890118,0.850074946049135,3.7303497909756
7043.85326613672,469.466982723214,303.355408796575,0.0298572524343152,0.0495128675510176,0.872549358813558,0.656788408099674,2.51898374554287
6679.41922649741,461.514338120818,1496.99986368837,0.0107394155390561,0.0309620679765008,0.7148101305007,0.260321287591942,2.97656454159459
9040.48027249053,357.492405088618,1216.9742903267,0.0422395594420843,0.0228251363335177,0.00524289028486237,0.441603988497518,3.71901205613505
9148.20456940681,363.900906862691,343.394387752283,0.0310560421933886,0.0372916446385905,0.435158238760196,0.136003051945008,2.89556282240763
6837.48096363619,268.006569044665,603.839927325957,0.0579005782613531,-0.0327964743526652,0.0369485710677691,0.237825103143696,3.32421650015857
6585.56091382168,408.652982708998,1563.67177238269,0.051266222170461,-0.0208443974034861,0.461045128603,0.408355488972738,3.49632546003817
8073.35797447711,328.798076754436,842.501818576362,0.0390995272576343,-0.0359112433154136,0.570382361884695,0.528460202165879,3.1422577681485
7274.94192789309,403.522842789069,507.625719904434,0.0584975444467273,-0.0314948127167299,0.186058908130508,0.945284127965569,3.70192921641619
8296.40826730989,319.942915615626,1861.03536611563,0.010874095016811,0.00980925485277549,0.948813352547586,0.331246282721404,2.7664576385151
6351.95875618607,372.658938559704,993.306971800979,0.057143048389256,0.0416599999263883,0.746450209917966,0.590758749665692,2.96942525283689
7986.90835688263,388.582681431435,1143.0542213181,0.0493390470596496,-0.0569263442125171,0.345835201865993,0.820987593382597,3.49009747394227
8946.35666165501,107.688261616044,971.470094943419,0.00714431925206445,-0.011861677252315,0.210355392340571,0.935857543875463,4.34646125585121
8232.56673059426,446.22755709663,314.380917478353,0.0192859609869774,0.0318805625553243,0.62334098657826,0.351204011905938,2.87689430989883
7630.23417296819,209.413541265763,394.963758728001,0.0460699343499262,0.0179281826488674,0.818391990317032,0.0314898501918651,2.41581117188854
6043.62704340369,427.295850402676,409.373936576303,0.0284819579768926,-0.0080895109157078,0.980245803508442,0.223288081276696,2.30352724676039
8388.99413937703,115.509327357635,266.197775612585,0.0141155599821825,0.0582692239967175,0.972474716734141,0.420072967708111,1.97068456316601
5937.95625740662,226.876600554213,1735.02784180269,0.0202462697136216,0.00104489808110521,0.223803701251745,0.017194475159049,3.65212917562574
9349.58426841535,154.591059496626,1981.56207369315,0.00982679928475991,-0.0558430270456709,0.398122962957714,0.914944081131835,3.64837391506729
7274.94192789309,403.522842789069,507.625719904434,0.0584975444467273,-0.0314948127167299,0.186058908130508,0.945284127965569,3.71264602223678
9328.93617249094,484.307063169777,1323.58602944994,0.00478423601151444,0.0225765669400804,0.362237677229568,0.344897423058283,3.48879165561601
7391.90777827054,197.133908838965,1348.9377882937,0.0300518372251187,-0.020348811457213,0.283487408088986,0.305423360101413,3.59145609413198
9095.82585186698,163.507433648221,619.336726363283,0.0408795551458374,0.0459190930891782,0.680057275427971,0.928196018214803,3.09002605996079
8488.05428429507,435.390501631424,1310.71081978967,0.0137152846557554,-0.0510652266106568,0.966766349920072,0.311278247826267,2.16018397330986
8553.22672349401,312.005258626305,1425.18443535455,0.0336515711504035,0.0420157316601835,0.303357456242666,0.171192643165123,3.1011993159016
6408.75440463424,342.815767330118,1097.93407348776,0.0085951566091273,-0.0540349421200342,0.999848202662542,0.450391847176943,2.19687489448852
7012.62256698683,430.029691413976,760.026667266153,0.0521437939806841,0.0340960067437962,0.124737557878252,0.157137141800486,3.19924593876574
7376.9746545516,184.538054130971,1644.29726605723,0.0404939775732346,0.0125688721161336,0.844349941590335,0.380392489600927,2.95045856199353
8689.61104572751,232.890823907219,1028.82304489706,0.0254199159475509,-0.0459103283699602,0.729335062499158,0.416732099498622,2.75706517375179
